/* XPM */
static char *freeimage[] = {
/* width height num_colors chars_per_pixel */
"200 200 96 2",
/* colors */
"   c #aaaaaa",
" . c #a2a2a2",
" X c #999999",
" o c #959595",
" O c #7b7b7b",
" + c #444444",
" @ c #3b3b3b",
" # c #343434",
" $ c #737373",
" % c #848484",
" & c #6b6b6b",
" * c #0d0d0d",
" = c #4c4c4c",
" - c #5b5b5b",
" ; c #646464",
" : c #151515",
" > c #1a1a1a",
" , c #8c8c8c",
" < c #b3b3b3",
" 1 c #545454",
" 2 c #2c2c2c",
" 3 c #222222",
" 4 c #060606",
" 5 c #b8b8b8",
" 6 c #959aa3",
" 7 c #a0a2a9",
" 8 c #535959",
" 9 c #0d1714",
" 0 c #1b1915",
" q c #1d0c12",
" w c #665962",
" e c #939c9c",
" r c #1d1312",
" t c #635f5c",
" y c #9ca69e",
" u c #939a95",
" i c #a1a398",
" p c #101916",
" a c #0e1911",
" s c #5c645b",
" d c #5d535b",
" f c #180c18",
" g c #16151b",
" h c #a49f99",
" j c #9c939b",
" k c #5a5c61",
" l c #220e1a",
" z c #23111d",
" x c #a69da7",
" c c #a592a8",
" v c #95a4a3",
" b c #3d5f51",
" n c #091406",
" m c #1a1309",
" M c #0c110a",
" N c #a396a7",
" B c #90a59c",
" V c #525c41",
" C c #460f00",
" Z c #690f04",
" A c #480d05",
" S c #695e5c",
" D c #9da2a8",
" F c #a25140",
" G c #d20107",
" H c #ff0318",
" J c #b50613",
" K c #895d5a",
" L c #85a49d",
" P c #8da09a",
" I c #b6968b",
" U c #cc483b",
" Y c #fc0101",
" T c #c15553",
" R c #92a89b",
" E c #8c9c9b",
" W c #a19a96",
" Q c #b55e57",
" ! c #e4171e",
" ~ c #fa000b",
" ^ c #db2429",
" / c #b37172",
" ( c #9d908a",
" ) c #b56b6c",
" _ c #b75758",
" ` c #ad706d",
" ' c #ac9899",
" ] c #9d96a2",
" [ c #92979c",
" { c #8d9d93",
" } c #9d9394",
" | c #999ca2",
".  c #a49593",
".. c #9b9b95",
".X c #a3959c",
".o c #8ea092",
/* pixels */
"   . . . . . . . . . . . . . . . . . . . . . . . . . . . . . . . . . . . . . . . . . . . . . . . . . . . . . . . . . . . . . . . . . . . . . . . . . . . . . . . . . . . . . . . . . . . . . . . . . . . . . . . . . . . . . . . . . . . . . . . . . . . . . . . . . . . . . . . . . . . . . . . . . . . . . . . . . . . . . . . . . . . . . . . . . . . . . . . . . . . . . . . . . . . . . . . . . . . . . .  ",
" . X X X X X X X X X X X X X X X X X X X X X X X X X X X X X X X X X X X X X X X X X X X X X X X X X X X X X X X X X X X X X X X X X X X X X X X X X X X X X X X X X X X X X X X X X X X X X X X X X X X X X X X X X X X X X X X X X X X X X X X X X X X X X X X X X X X X X X X X X X X X X X X X X X X X X X X X X X X X X X X X X X X X X X X X X X X X X X X X X X X X X X X X X X X X X X X X X X X X X X .",
" . X o X o o X o X X X X X X X X X X X X X X X X X X X X X X X X X X X X X X X X X X X X X X X X X X X X X X X X X X X X X X X X X X X X X X X X X X X X X X X X X X X X X X X X X X X X X X X X X X X X X X X X X X X X X X X X X X X X X X X X X X X X X X X X X X X X X X X X X X X X X X X X X X X X X X X X X X X X X X X X X X X X X X X X X X X X X X X X X X X X X X X X X X X X X X X X o X o o X o X .",
" . X X X X X X X X X X X X X X X X X X X X X X X X X X X X X X X X X X X X X X X X X X X X X X X X X X X X X X X X X X X X X X X X X X X X X X X X X X X X X X X X X X X X X X X X X X X X X X X X X X X X X X X X X X X X X X X X X X X X X X X X X X X X X X X X X X X X X X X X X X X X X X X X X X X X X X X X X X X X X X X X X X X X X X X X X X X X X X X X X X X X X X X X X X X X X X X X X X X X X X .",
" . X o X X X X X X X X X X X X X X X X X X X X X X X X X X X X X X X X X X X X X X X X X X X X X X X X X X X X X X X X X X X X X X X X X X X X X X X X X X X X X X X X X X X X X X X X X X X X X X X X X X X X X X X X X X X X X X X X X X X X X X X X X X X X X X X X X X X X X X X X X X X X X X X X X X X X X X X X X X X X X X X X X X X X X X X X X X X X X X X X X X X X X X X X X X X X X X X X X X o X .",
" . X o X X X X X X X X X X X X X X X X X X X X X X X X X X X X X X X X X X X X X X X X X X X X X X X X X X X X X X X X X X X X X X X X X X X X X X X X X X X X X X X X X X X X X X X X X X X X X X X X X X X X X X X X X X X X X X X X X X X X X X X X X X X X X X X X X X X X X X X X X X X X X X X X X X X X X X X X X X X X X X X X X X X X X X X X X X X X X X X X X X X X X X X X X X X X X X X X X X o X .",
" . X X X X X X X X X X X X X X X X X X X X X X X X X X X X X X X X X X X X X X X X X X X X X X X X X X X X X X X X X X X X X X X X X X X X X X X X X X X X X X X X X X X X X X X X X X X X X X X X X X X X X X X X X X X X X X X X X X X X X X X X X X X X X X X X X X X X X X X X X X X X X X X X X X X X X X X X X X X X X X X X X X X X X X X X X X X X X X X X X X X X X X X X X X X X X X X X X X X X X X .",
" . X o X o X X o X X X X X X X X X X X X X X X X X X X X X X X X X X X X X X X X X X X X X X X X X X X X X X X X X X X X X X X X X X X X X X X X X X X X X X X X X X X X X X X X X X X X X X X X X X X X X X X X X X X X X X X X X X X X X X X X X X X X X X X X X X X X X X X X X X X X X X X X X X X X X X X X X X X X X X X X X X X X X X X X X X X X X X X X X X X X X X X X X X X X X X X X o X X o X o X .",
" . X X X X X X X X X X X X X X X X X X X X X X X X X X X X X X X X X X X X X X X X X X X X X X X X X X X X X X X X X X X X X X X X X X X X X X X X X X X X X X X X X X X X X X X X X X X X X X X X X X X X X X X X X X X X X X X X X X X X X X X X X X X X X X X X X X X X X X X X X X X X X X X X X X X X X X X X X X X X X X X X X X X X X X X X X X X X X X X X X X X X X X X X X X X X X X X X X X X X X X .",
" . X X X X X X X X X X X X X X X X X X X X X X X X X X X X X X X X X X X X X X X X X X X X X X X X X X X X X X X X X X X X X X X X X X X X X X X X X X X X X X X X X X X X X X X X X X X X X X X X X X X X X X X X X X X X X X X X X X X X X X X X X X X X X X X X X X X X X X X X X X X X X X X X X X X X X X X X X X X X X X X X X X X X X X X X X X X X X X X X X X X X X X X X X X X X X X X X X X X X X X .",
" . X X X X X X X X X X X X X X X X X X X X X X X X X X X X X X X X X X X X X X X X X X X X X X X X X X X X X X X X X X X X X X X X X X X X X X X X X X X X X X X X X X X X X X X X X X X X X X X X X X X X X X X X X X X X X X X X X X X X X X X X X X X X X X X X X X X X X X X X X X X X X X X X X X X X X X X X X X X X X X X X X X X X X X X X X X X X X X X X X X X X X X X X X X X X X X X X X X X X X X .",
" . X X X X X X X X X X X X X X X X X X X X X X X X X X X X X X X X X X X X X X X X X X X X X X X X X X X X X X X X X X X X X X X X X X X X X X X X X X X X X X X X X X X X X X X X X X X X X X X X X X X X X X X X X X X X X X X X X X X X X X X X X X X X X X X X X X X X X X X X X X X X X X X X X X X X X X X X X X X X X X X X X X X X X X X X X X X X X X X X X X X X X X X X X X X X X X X X X X X X X X .",
" . X X X X X X X X X X X X X X X X X X X X X X X X X X X X X X X X X X X X X X X X X X X X X X X X X X X X X X X X X X X X X X X X X X X X X X X X X X X X X X X X X X X X X X X X X X X X X X X X X X X X X X X X X X X X X X X X X X X X X X X X X X X X X X X X X X X X X X X X X X X X X X X X X X X X X X X X X X X X X X X X X X X X X X X X X X X X X X X X X X X X X X X X X X X X X X X X X X X X X X .",
" . X X X X X X X X X X X X X X X X X X X X X X X X X X X X X X X X X X X X X X X X X X X X X X X X X X X X X X X X X X X X X X X X X X X X X X X X X X X X X X X X X X X X X X X X X X X X X X X X X X X X X X X X X X X X X X X X X X X X X X X X X X X X X X X X X X X X X X X X X X X X X X X X X X X X X X X X X X X X X X X X X X X X X X X X X X X X X X X X X X X X X X X X X X X X X X X X X X X X X X .",
" . X X X X X X X X X X X X X X X X X X X X X X X X X X X X X X X X X X X X X X X X X X X X X X X X X X X X X X X X X X X X X X X X X X X X X X X X X X X X X X X X X X X X X X X X X X X X X X X X X X X X X X X X X X X X X X X X X X X X X X X X X X X X X X X X X X X X X X X X X X X X X X X X X X X X X X X X X X X X X X X X X X X X X X X X X X X X X X X X X X X X X X X X X X X X X X X X X X X X X X .",
" . X X X X X X X X X X X X X X X X X X X X X X X X X X X X X X X X X X X X X X X X X X X X X X X X X X X X X X X X X X X X X X X X X X X X X X X X X X X X X X X X X X X X X X X X X X X X X X X X X X X X X X X X X X X X X X X X X X X X X X X X X X X X X X X X X X X X X X X X X X X X X X X X X X X X X X X X X X X X X X X X X X X X X X X X X X X X X X X X X X X X X X X X X X X X X X X X X X X X X X .",
" . X X X X X X X X X X X X X X X X X X X X X X X X X X X X X X X X X X X X X X X X X X X X X X X X X X X X X X X X X X X X X X X X X X X X X X X X X X X X X X X X X X X X X X X X X X X X X X X X X X X X X X X X X X X X X X X X X X X X X X X X X X X X X X X X X X X X X X X X X X X X X X X X X X X X X X X X X X X X X X X X X X X X X X X X X X X X X X X X X X X X X X X X X X X X X X X X X X X X X X .",
" . X X X X X X X X X X X X X X X X X X X X X X X X X X X X X X X X X X X X X X X X X X X X X X X X X X X X X X X X X X X X X X X X X X X X X X X X X X X X X X X X X X X X X X X X X X X X X X X X X X X X X X X X X X X X X X X X X X X X X X X X X X X X X X X X X X X X X X X X X X X X X X X X X X X X X X X X X X X X X X X X X X X X X X X X X X X X X X X X X X X X X X X X X X X X X X X X X X X X X X .",
" . X X X X X X X X X X X X X X X X X X X X X X X X X X X X X X X X X X X X X X X X X X X X X X X X X X X X X X X X X X X X X X X X X X X X X X X X X X X X X X X X X X X X X X X X X X X X X X X X X X X X X X X X X X X X X X X X X X X X X X X X X X X X X X X X X X X X X X X X X X X X X X X X X X X X X X X X X X X X X X X X X X X X X X X X X X X X X X X X X X X X X X X X X X X X X X X X X X X X X X .",
" . X X X X X X X X X X X X X X X X X X X X X X X X X X X X X X X X X X X X X X X X X X X X X X X X X X X X X X X X X X X X X X X X X X X X X X X X X X X X X X X X X X X X X X X X X X X X X X X X X X X X X X X X X X X X X X X X X X X X X X X X X X X X X X X X X X X X X X X X X X X X X X X X X X X X X X X X X X X X X X X X X X X X X X X X X X X X X X X X X X X X X X X X X X X X X X X X X X X X X X .",
" . X X X X X X X X X X X X X X X X X X X X X X X X X X X X X X X X X X X X X X X X X X X X X X X X X X X X X X X X X X X X X X X X X X X X X X X X X X X X X X X X X X X X X X X X X X X X X X X X X X X X X X X X X X X X X X X X X X X X X X X X X X X X X X X X X X X X X X X X X X X X X X X X X X X X X X X X X X X X X X X X X X X X X X X X X X X X X X X X X X X X X X X X X X X X X X X X X X X X X X .",
" . X X X X X X X X X X X X X X X X X X X X X X X X X X X X X X X X X X X X X X X X X X X X X X X X X X X X X X X X X X X X X X X X X X X X X X X X X X X X X X X X X X X X X X X X X X X X X X X X X X X X X X X X X X X X X X X X X X X X X X X X X X X X X X X X X X X X X X X X X X X X X X X X X X X X X X X X X X X X X X X X X X X X X X X X X X X X X X X X X X X X X X X X X X X X X X X X X X X X X X .",
" . X X X X X X X X X X X X X X X X X X X X X X X X X X X X X X X X X X X X X X X X X X X X X X X X X X X X X X X X X X X X X X X X X X X X X X X X X X X X X X X X X X X X X X X X X X X X X X X X X X X X X X X X X X X X X X X X X X X X X X X X X X X X X X X X X X X X X X X X X X X X X X X X X X X X X X X X X X X X X X X X X X X X X X X X X X X X X X X X X X X X X X X X X X X X X X X X X X X X X X .",
" . X X X X X X X X X X X X X X X X X X X X X X X X X X X X X X X X X X X X X X X X X X X X X X X X X X X X X X X X X X X X X X X X X X X X X X X X X X X X X X X X X X X X X X X X X X X X X X X X X X X X X X X X X X X X X X X X X X X X X X X X X X X X X X X X X X X X X X X X X X X X X X X X X X X X X X X X X X X X X X X X X X X X X X X X X X X X X X X X X X X X X X X X X X X X X X X X X X X X X X .",
" . X X X X X X X X X X X X X X X X X X X X X X X X X X X X X X X X X X X X X X X X X X X X X X X o X X X X X o X o o X X o X . O + + + @ + + # @ @ # $ X X o o % # @ @ + + + + + + @ $ . o o o X o X X X o X o X X X o X X X X X X o o . & @ @ + + + + @ + + + + @ + + + + + + + + @ @ + $ X o X X o X X o X X o X X X X X X X X X X X X X X X X X X X X X X X X X X X X X X X X X X X X X X X X X X X X X X X .",
" . X X X X X X X X X X X X X X X X X X X X X X X X X X X X X X X X X X X X X X X X X X X X X X X X X o o X X X X X X X X o X . $ * * @ = * # - - + * ;   X . . O - @ : * : : : > : : ; . o . . o X o X X X X X X X X X X X o o X X . . o - = + : : : > > * : : * : : : : * : : * * + @ * & . X X X X X X o X X X X X X X X X X X X X X X X X X X X X X X X X X X X X X X X X X X X X X X X X X X X X X X X X X .",
" . X X X X X X X X X X X X X X X X X X X X X X X X X X X X X X X X X X X X X X X X X X X X X X X X X o o X X o X X o o X X o % @ : : - o ; ,   < O : # - 1 $ . X . , + : : : : * : > # - O X o X . o o X o o X X o X X o o X X X o o X X - @ @ : > : > : : + $ & & ; & & & & + > : & - * $ . o o X X X X o o X X X X X X X X X X X X X X X X X X X X X X X X X X X X X X X X X X X X X X X X X X X X X X X X X .",
" . X X X X X X X X X X X X X X X X X X X X X X X X X X X X X X X X X X X X X X X X X X X X X X X X X X X X X o o o X X o . X & * : 2 O     , ; ; 1 > > : * # O   .   , ; - & ; = : > * * - X o X o X o X X X X X X X X X X X X X X X X . 1 : : : > : > : > &     . .   X .   ; * : + @ : $ X o X X X X X X o o o X X X X X X X X X X X X X X X X X X X X X X X X X X X X X X X X X X X X X X X X X X X X X X X .",
" . X X X X X X X X X X X X X X X X X X X X X X X X X X X X X X X X X X X X X X X X X X X X X X X X X X X X o X X X X X X , - @ # ; O . , - # : * * > > : : : # - 1 - - - - ; - = : : > : 2 , . o o X o X X o o X o o X X X X X X o X X % # * : > > > 3 : : @ - 1 1 1 - 1 O   & : > : * : + , X o X X X X X X o o X X X X X X X X X X X X X X X X X X X X X X X X X X X X X X X X X X X X X X X X X X X X X X X .",
" . X X X X X X X X X X X X X X X X X X X X X X X X X X X X X X X X X X X X X X X X X X X X X X X X X X X o X X X X o X . O : * 1 < X & = : : : > : > > > 3 : : : : * * : * * : * > : 3 : * & . . X X o X . o X X . X X X X X o o X X X % # : > > : : > > : : : * * : * * @ & = : > : > : 4 - . X X X X o o X X X X X X X X X X X X X X X X X X X X X X X X X X X X X X X X X X X X X X X X X X X X X X X X X X .",
" . X X X X X X X X X X X X X X X X X X X X X X X X X X X X X X X X X X X X X X X X X X X X X X X X X X o o X X o X . , ; + > : # ; + : > : 3 : > > > > : > > > > : > > > : > 3 : > > > : : @ - O . . X X o X   o X X X X X o X . X , X , @ > : : > : > > > : : > > 3 > : > > : * : @ ; + * @ o . o X X o o X X X X X X X X X X X X X X X X X X X X X X X X X X X X X X X X X X X X X X X X X X X X X X X X X X .",
" . X X X X X X X X X X X X X X X X X X X X X X X X X X X X X X X X X X X X X X X X X X X X X X X X X X X X X o % = 1 @ * : > > > * > : : > : > > > > > : > > : > : > : > > : > > > > : > > : * @ 1 = @ # # & X O # # # # # @ & . X X . - * : > > > > > > > > : : : > : > > : 2 - 3 &   O # * # = % X . X X X X o X X X X X X X X X X X X X X X X X X X X X X X X X X X X X X X X X X X X X X X X X X X X X X X .",
" . X X X X X X X X X X X X X X X X X X X X X X X X X X X X X X X X X X X X X X X X X X X X X X X X X o X o X . $ * : : > > > > > : : > > > > > > > > > > > : > > > > > > > > > > > > > > > > > > : : : > * # , $ * : + O 1 * 2 % . X . , + : : : : > > > > > > > 3 : : > : + %   = # ,   - * : : @ ; - , . X X X X o X X X X X X X X X X X X X X X X X X X X X X X X X X X X X X X X X X X X X X X X X X X X X .",
" . X X X X X X X X X X X X X X X X X X X X X X X X X X X X X X X X X X X X X X X X X X X X X X X X X o o X . % + : : > > > > > > > > > : : > > > > > > : : > > > > > > > > > > > > > > > > > > > > > : : > : @ + 3 : 2 % . = : # ; O O - # > > > > > > > > > > > * 1 & @ > &     = : @ % % # * : * > : @ % X X o X o o o o o X X X X X X X X X X X X X X X X X X X X X X X X X X X X X X X X X X X X X X X X X .",
" . X X X X X X X X X X X X X X X X X X X X X X X X X X X X X X X X X X X X X X X X X X X X X X X o X X X % ; + : > > > > > > > > : : : > > : : : : : > > > > : : > > > > > > > > > > > > > > > > > : > : > : > : : > : # 1 # : : * # 2 : : : : > > > > > > > : : = o   1 : = & & @ * : -   O # = ; @ * : O X X X o o o o X X o o X X X X X X X X X X X X X X X X X X X X X X X X X X X X X X X X X X X X X X X .",
" . X X X X X X X X X X X X X X X X X X X X X X X X X X X X X X X X X X X X X X X X X X X X X X X X X X . ; > > : > > > > > > > > > : > > : : : : : > : : > : > > > > > > > > > > > > > > > > > > : : > : > > > : : : > : * : > > : > : : > > > > > > > > > > : : $ X   = * : : > > > > 2 , . - & , # : > $ . X X X X X o X X X X X X X X X X X X X X X X X X X X X X X X X X X X X X X X X X X X X X X X X X X .",
" . X X X X X X X X X X X X X X X X X X X X X X X X X X X X X X X X X X X X X X X X X X X X X X X X o X o + * > > > > > > > > > > : : > > > + $ $ & 1 > > > : 3 > > > > > > > > > > > > > > > > > : > > : 3 : > + O @ : : > > > : 3 : : > > > > > > > > > > > : : 2 O . 1 > 3 : : : > > * $   - $ ; : : > + % X o X X o o X X o o X X X X X X X X X X X X X X X X X X X X X X X X X X X X X X X X X X X X X X X .",
" . X X X X X X X X X X X X X X X X X X X X X X X X X X X X X X X X X X X X X X X X X X X X X X X X o . & > : > : > : : : > > > > > > > : : - . X 5 ; : : 3 : > : > > > > > > > > > > > > > > > > > > > > > : = o   o - > : > > > > > > > > > : > > > > > > > : : * - $ # * : > > > : > : & O # = # : 3 : : ; X . X o o X o X X X X X X X X X X X X X X X X X X X X X X X X X X X X X X X X X X X X X X X X X X .",
" . X X X X X X X X X X X X X X X X X X X X X X X X X X X X X X X X X X X X X X X X X X X X X X X X . , @ : > : > > > > > > > > > : > > : : 1 . . & # > : : : > > > > > > > > > > > > > > > > > > > : > > : > ;   ,   X = > > > > : > > : : > : : > > > > > > > > > 2 3 : > : : > > : > > + 2 * : : : 3 > * @ - $ . o X . o o X o X X X X X X X X X X X X X X X X X X X X X X X X X X X X X X X X X X X X X X X .",
" . X X X X X X X X X X X X X X X X X X X X X X X X X X X X X X X X X X X X X X X X X X X X X X X X , @ : > : > > > > > > > > > > > > : > : # O % 2 + % = * > : > > > > > > > > > > > > > > > > > : > > : > : # O   & + # : : > > > : > > > # 2 3 : > > > > > > > : : : + , O 1 : > > > : > * 3 : > > * > : > * @ = = $ . . . . X X X X X X X X X X X X X X X X X X X X X X X X X X X X X X X X X X X X X X X X .",
" . X X X X X X X X X X X X X X X X X X X X X X X X X X X X X X X X X X X X X X X X X X X . X . . o @ : : : > > : : > > > > > : > : > > > : > 3 2 : 2 @ 2 > > > : > > > > > > > > > > : > : > > : > > > > > > : 2 # 3 : : > > > : > : > > ; X o ; > > : > > : : > > : : 1 X   & : > > > > > > > > > > > > > > > > : : @ 1 - 1 = , X o X . X o X X X X X X X X X X X X X X X X X X X X X X X X X X X X X X X X X .",
" . X X X X X X X X X X X X X X X X X X X X X X X X X X X X X X X X X X X X X X X X X X X , ; ; ; = > : > > > > > : > > : > > : > > > > > : : > > : > > : : > > > > > > > > > > > > : > > > : > > > > > : : > : : : : : : : > > > : 3 > @ X   ; * > > > > : > > > > > : 3 # @ # > > > > > > > > > > > > > > > > > : : > : * * : ; . X X X o X X o X X X X X X X X X X X X X X X X X X X X X X X X X X X X X X X .",
" . X X X X X X X X X X X X X X X X X X X X X X X X X X X X X X X X X X X X X X X X X X X $ > : : > : > > > > > > > > > : > > > > > > > > > > : : > : : : > > > > > > > > > > > > > : > > : : > > : > > > 3 > * 3 > > > > : : > > > : : - X o & 3 > : : > : > > : : 3 > > : * > : > > > > > > > > > > > > > > > > > > > : : : > = - % X X X X X X X X X X X X X X X X X X X X X X X X X X X X X X X X X X X X X .",
" . X X X X X X X X X X X X X X X X X X X X X X X X X X X X X X X X X X X X X X X o X X . O : : > > > > : : > > > : > > > > > > : : : : > > > > > > > > > > > : > > > > > > > > > > : > > : > > : > : > > * > 3 * > : : > > > : > > > * 1 . . X O # : : > > > > : : > : > > > > > > > > > > > > > > > > > > > > > > > : > > > : : : ; X X X X X X X X X X X X X X X X X X X X X X X X X X X X X X X X X X X X X .",
" . X X X X X X X X X X X X X X X X X X X X X X X X X X X X X X X X X X X X X X X o X o X O : > > > > > > > > > > > > > > : : > > > > > > > > > : : > > > > > > > > > > > > > > > > : : : > > : 3 3 > : 3 # 3 : > > > > > > > > > : > : 3 - , . X + 3 > > > : > : > > : > > > > > > > > > > > > > > > > > > > > > : > : : : : > > * & . X X X o X X X X X X X X X X X X X X X X X X X X X X X X X X X X X X X X .",
" . X X X X X X X X X X X X X X X X X X X X X X X X X X X X X X X X X X X X X X X X X X X O : > : > > : : : : : : > : : > > > : > > > > > > > > > > > > : > > > > > > > > > > > > : > > : > : > - o 1 > - . & : * : : > > : > > > > > > * # O o ; > : : : : > 3 > : > > > > : > > > > > > > > > > > > > > > > > > : > > > > : > > : $ . X o X X X X X X X X X X X X X X X X X X X X X X X X X X X X X X X X X X .",
" . X X X X X X X X X X X X X X X X X X X X X X X X X X X X X X X X X X X X X X X X X X X O : > : > > : # - - - ; O O O O O - > > > > : > > > > > > > > > > > > > > > > > > > > > : > > : > : 3 - . - 1 , . , ; 3 # > : > > > : : > > > : - % - : : > > > > > > : : > > > : > > > > > > > > > > > > > > > > > > > > > > : > : > : * & . X o X X X X X X X X X X X X X X X X X X X X X X X X X X X X X X X X X X .",
" . X X X X X X X X X X X X X X X X X X X X X X X X X X X X X X X X X X X X X X X X X X X O : > > > : : = .   X X X . . X   $ : > > > > > > > > : : : > > > > > > > > > > > > > > > : > : > > : 3 3 > > 1 X . X X X 1 : : 3 > : > > : > : > 3 > : > > : > > > : > > > > > > > > > > > > > > > > > > > > > > > > > > : > : : * : * : ; X X X X X X X X X X X X X X X X X X X X X X X X X X X X X X X X X X X X X .",
" . X X X X X X X X X X X X X X X X X X X X X X X X X X X X X X X X X X X X X X X X X X X $ : > > > 3 * + . X X X X X o X . 1 : > > > > > > > > > > > > > > > > > > > > > > > > > > > 3 : 2 2 : > : > : > 1 O % O O = > : > > : > > : > > : : > > : > > : > > > > > : > > : > > > : > : > > > > > > > > : > > : > : > : = - - - ; - O X X o X X X X X X X X X X X X X X X X X X X X X X X X X X X X X X X X X X .",
" . X X X X X X X X X X X X X X X X X X X X X X X X X X X X X X X X X X X X X X X X X X X $ : > > > : : 1 X X X X X X X X X = : > > > > > > > > > > > > > > > > > > > > > > > > > > > * 2 $ - > : > 3 > * > > : : 3 > : > > : : > > > : : 2 # : > > : > > : : : > : : > : > : : > > 3 : > > > : > : > : > > : > > > : > O . . . X o X . X X X X X X X X X X X X X X X X X X X X X X X X X X X X X X X X X X X X .",
" . X X X X X X X X X X X X X X X X X X X X X X X X X X X X X X X X X X X X X X X X X X X $ : > > > * @ % X X X o X o X o X % = : > > > > > > > > > > > > > > > > > > > > > > > > > : : ;   1 * : : > > > > : : > : > > > : : > > > > : > 1 1 > > : : > > 2 3 * 3 2 2 2 : > > > > : > : > * > > : : 3 : : 3 > > > > : : O . o X o X X o o X X X o X X X X X X X X X X X X X X X X X X X X X X X X X X X X X X X .",
" . X X X X X X X X X X X X X X X X X X X X X X X X X X X X X X X X X X X X X X X X X X X $ : > > > : ; . X X X X X o X o . . & * > > > > > > > > > > > > > > > > > > > > > > > > > > > - . $ 2 > > : : > > > > > > > > : : > > : > : : : > 3 > > : 3 : + . & 3 ; o X $ > : > > : > > : > : + O O % O = > : > : > : : 3 $ . X X o X X X X X X X o X X X X X X X X X X X X X X X X X X X X X X X X X X X X X X X .",
" . X X X X X X X X X X X X X X X X X X X X X X X X X X X X X X X X X X X X X X X X X X X $ : > > > * ; . o o X X X o X X o ; 2 : > > > > > > > > > > > > > > > > > > > > > > > > : : : > O   - * > > > > : : > > : : > > > > > > > : 3 3 : : > > > > : = o X o X o X $ > : > > : : : > = & ,   X X . , @ : > > : > > : @ % . X X X X X X X o X X X X X X X X X X X X X X X X X X X X X X X X X X X X X X X X X .",
" . X X X X X X X X X X X X X X X X X X X X X X X X X X X X X X X X X X X X X X X X X X X $ : > > > * - . . X o X X o o . . = 4 > > > > > > > > > > > > > > > > > > > > > > > > > > > > : - % = : : > > > : > > : 3 > > > > > > > : : : > > > > > > : : > 3 ; o ; 2 2 2 : > > > > > : : ; X X X X o X X 1 * : > > > : : : - X X o X o o o X X X X X X X X X X X X X X X X X X X X X X X X X X X X X X X X X X X .",
" . X X X X X X X X X X X X X X X X X X X X X X X X X X X X X X X X X X X X X X X X X X X $ : > > : > @ O X X o o X X X X o 1 > > > > > > > > > > > > > > > > > > > > > > > > > > > : > > 3 > * > : > > > > > > > > : : > > > : : > > > > > > : > : > > > > > 3 > : : > : > : : > > > + o . o o X o X . , + > > : > > 1 & , . X o X X X X X X X o X X X X X X X X X X X X X X X X X X X X X X X X X X X X X X X .",
" . X X X X X X X X X X X X X X X X X X X X X X X X X X X X X X X X X X X X X X X X X X X $ : > > > > * # $ X X X X X . ; # > 3 : > > > > > > > > > > > > > > > > > > > > > > > > > > > : > : 3 : > > > : > > > > : > > > > > > > > : > : > > > > > : > > : : > > > : > > : > > > > * 1 . o X X o X X o . ; : : > : * & . . o o X o X X o o X X X X X X X X X X X X X X X X X X X X X X X X X X X X X X X X X X .",
" . X X X X X X X X X X X X X X X X X X X X X X X X X X X X X X X X X X X X X X X X X o X O > > : > : : * 1 . . . & # # 3 : > : > > > > > > > > > > > > > > > > > : > > > : > > > > > : > > : > > > > > > > > > : > : > > : > > : > > > > > > > > > > > > > > > > > > > > > > > > : : 1 . X X X o o o X . - : > : > 1 , X X o . o X X X X X X X X X X X X X X X X X X X X X X X X X X X X X X X X X X X X X X X .",
" . X X X X X X X X X X X X X X X X X X X X X X X X X X X X X X X X X X X X X X X o X X . O : : > > > > : 2 1 + = 2 : > : : > > > > > > > > > > > > > > > > > > > > > : : > > : : : > : > > : > > > > > > : > > > > > > > : > > > > > > > > > > > > > > > > > > > > > > > > > > > : : 1 X X o X X . X o . - : > : > O . o X X X o X X X X X X X X X X X X X X X X X X X X X X X X X X X X X X X X X X X X X X X .",
" . X X X X X X X X X X X X X X X X X X X X X X X X X X X X X X X X X X X X X X X o X X X $ > > > : > > : : : * : > : > > > > > : > > > > > > > > > > > > > > > > : : > > > : > > > > : > > : : > : > > > > : : > > > : : > > > > > > > > > > > > > > > > > > > > > > > > > > > > 3 : 3 $ X X o o o X . . ; > > > : & . o o o X X X X X X X X X X X X X X X X X X X X X X X X X X X X X X X X X X X X X X X X X .",
" . X X X X X X X X X X X X X X X X X X X X X X X X X X X X X X X X X X X X X X X X X o X $ : : > : : > > > : : : > > > > > > > : > > > > > > > > > > > > > > > > > : > > : > > > > > : : > > > > > > > > > > > > > > > > > > : > > > > > > > > > > > > > > > > > > > > > > > > > : : : ; X X X . . . o O @ : > > : - X . X o X o X X X X X X X X X X X X X X X X X X X X X X X X X X X X X X X X X X X X X X X .",
" . X X X X X X X X X X X X X X X X X X X X X X X X X X X X X X X X X X X X X X o X o X . O > : > > > : > > > > > : > > : : : > > > > > > > > > > > > > > > > > > > > : > > > : : : > : * : > > > > > > : > > : : * : : * * : : > > > > > > > > > > > > > > > > > > > > > > > > > > > : 2 + + & X X $ = 2 : : > : : - X o X X o X X X X X X X X X X X X X X X X X X X X X X X X X X X X X X X X X X X X X X X X .",
" . X X X X X X X X X X X X X X X X X X X X X X X X X X X X X X X X X X X X X X X X . . O = > : > > > > > : > > : > > > > > > > > > > > > > > > > > > > > > > > > > > : : > : : 2 @ # @ @ @ 3 : > > : > 3 : * 3 + @ @ # # # @ 2 * > > > > > > > > > > > > > > > > > > > > > > > > : > : : : * 3 @ + 2 : : > > > > * # , X X X X X X X X X X X X X X X X X X X X X X X X X X X X X X X X X X X X X X X X X X X X .",
" . X X X X X X X X X X X X X X X X X X X X X X X X X X X X X X X X X X X X X X X . X % # : : > : : > > : : > > > : : > > > > > > > > > > > > > > > > > > > > > > : > > > : > + $ . X X X o & 2 : > : > > : # $ X X X X X X X & > > > > > > > > > > > > > > > > > > > > > > > > > 3 > > > > > > : : : : > > > > > : : & . X X X o X X X X X X X X X X X X X X X X X X X X X X X X X X X X X X X X X X X X X X X .",
" . X X X X X X X X X X X X X X X X X X X X X X X X X X X X X X X o X X X X X X . % - + : : > > > : > > : : > : > 3 > > > > > : > > > > > > > > > > > > > > > > > > : > > : # O   X X X o . . - > : > > * > & . X X X X o X . $ 3 > > > > > > > > > > > > > > > > > > > > > > > > : : 3 > : : 3 : > > > : > > : > > : + - O X X X X X X X X X X X X X X X X X X X X X X X X X X X X X X X X X X X X X X X X X X .",
" . X X X X X X X X X X X X X X X X X X X X X X X X X X X X X X X o X X X , = = = # > : > > : : > > > > > > > > > > > > > > > > > > > > > > > > > : > > : : > > : > > > > * $ . o o X X X o X , ; 2 * > * # % o X X o X X o X . ; : > : > > : > > > > > > > > > > > > > > > > > > > > > > > > > > : > > : > > > > : > : : - . X X X X X X X X X X X X X X X X X X X X X X X X X X X X X X X X X X X X X X X X X .",
" . X X X X X X X X X X X X X X X X X X X X X X X X X X X X X X X X X o X O : : : 3 : : > > > > > > > > > > > > > > > > > > > > > > > > > > > > > > > : : > > > > : > > : 2 % . o o X o X o X . X = : > : - . . X X o X X X X X ; * > > > : > > : > > > > > > > > > > > > > > > > > > > > > > > > > > > : > > > > > > > * & . X o X X X X X X X X X X X X X X X X X X X X X X X X X X X X X X X X X X X X X X X .",
" . X X X X X X X X X X X X X X X X X X X X X X X X X X X X X X X X X X . O > > > : : > > > > > > > > > > > > > > > > > > > > > > > > > > > > > > : > > > > : : > > : : 3 % X X o X X X X X o X . 1 : : : ; . X o X X o X X X X O 2 : : > > 3 > : > > > > > > > > > > > > > > > > > > > > > > > > : > : > > : : > > > > * O X o o X X X X X X X X X X X X X X X X X X X X X X X X X X X X X X X X X X X X X X X .",
" . X X X X X X X X X X X X X X X X X X X X X X X X X X X X X X X o o o X & * * > > > > > : : > > > > > > > > > > > > > > > > > > > > > > > > > > : > > : > > > > > > : > % X X X X X o X X o o X = : : : ; X o X X X X X o o . o & > : > > : : > > > > > > > > > > > > > > > > > > > > > > > > > > > > > : : > : > : > : & X X X X X X X X X X X X X X X X X X X X X X X X X X X X X X X X X X X X X X X X X X .",
" . X X X X X X X X X X X X X X X X X X X X X X X X X X X X X X X X . . X % & = : > > > : : > > > > > > > > > > > > > > > > > > > > > > > > > > > > : : > > > : * : : : # % X X X X X o o X X X . 1 : > : ; . o X X X X X o o X . % 2 * : : : : > > > > > > > > > > > > > > > > > > > > > > > > > > : > > : = $ + : > > : @ , . X X X X X X X X X X X X X X X X X X X X X X X X X X X X X X X X X X X X X X X X .",
" . X X X X X X X X X X X X X X X X X X X X X X X X X X X X X X X o X o o . . O : > > : : > > > : > > > > > > > > > > > > > > > > > > > > > > > > > : > > : > @ = # 3 2 $ X X o X X X X o X X X . 1 : : * ; . o X X X o X X X X X . ; 2 3 2 # 3 : > > > > > > > > > > > > > > > > > > > > > > > > > : > : : $   ; * > > : > & X X X X X X X X X X X X X X X X X X X X X X X X X X X X X X X X X X X X X X X X X .",
" . X X X X X X X X X X X X X X X X X X X X X X X X X X X X X X X X o X X $ + # : > > > > > > : > > > > > > > > > > > > > > > > > > > > > > > > > > > > : * + , . o o , X o X X o o o X X X X o . 1 : > : ; . X X X X o X X X o o X X , X . X $ 2 > > > > > > > > > > > > > > > > > > > > > > > > 3 3 > : * + ; # : > > > : # O X X X X X X X X X X X X X X X X X X X X X X X X X X X X X X X X X X X X X X X X .",
" . X X X X X X X X X X X X X X X X X X X X X X X X X X X X X X X o X . % # * > > > > > > > : : > > > > > > > > > > > > > > > > > > > > > > > > > > : > : 3 $ . X X X o X o o X o . o X X X X o . 1 * > : ; X o X X X X X o X X X o X o X o X . & > > > > > > > > > > > > > > > > > > > > > > > > : > : > > * : : > : : > > * - . X X X X X X X X X X X X X X X X X X X X X X X X X X X X X X X X X X X X X X X .",
" . X X X X X X X X X X X X X X X X X X X X X X X X o o X X o X X   $ + 2 : : > > > > > > : : > > > : > > > : > > > > > > > > > > > > : > > > > : > > : : # % X X X X X X X X X X X X X o X X o . 1 : > : ; . o X X X X X X X X X X X X X X X X X O > > > > > > : > > > > > > > > > > > > > > > > : > : > > > > : > > * > > > & . X X o X X X X X X o X X X X X o X X X X X X X X X X X X X X X X X X X X X X X .",
" . X X X X X X X X X X X X X X X X X X X X X X X X X X X X X X X , + : : > > > > : > : : > > > : : > > > : : > > > > > > > > > > > > > > > : > > > : > 2 O X o o X X X X X X X X X o X X X X o X 1 : : : ; . X X X X X X X X X X X X X X X X X X % : > > : > > > > > > > > > > > > > > > > > > > : > > > : > > > @ & + : : : 2 % X o X X X o X X X X X X o o X X X X X X X X X X X X X X X X X X X X X X X X X .",
" . X X X X X X X X X X X X X X X X X X X X X X X X o X o o X O = # > : > > : > : > > > > > : > : : > : > > > > > > > > > > > > > : : : : : : : : > : : > o X o X X X X X X X X X X o X X X X X . 1 : : : ; . X o X X X X X X X X X X X X X X X X % : > > > > > : > > > > > > > > > > > > > > > > : > > > : > > + o   o = > : > & . X X X X o X X X X X X o o X X X X X X X X X X X X X X X X X X X X X X X X X .",
" . X X X X X X X X X X X X X X X X X X X X X X X X X X X X . $ * : : > > : > > : > : > > : @ & ; & 1 > > > : : : > > > > > > > > > > > : > > > : > > > > , X X X X X X X X X X X X X X o X X X . 1 : : : ; . X o X X X X X X X X X X X X X X X X O > > > : : : > > > > > > > > > > > > > > > > > > : > > > : > ; . o . & * : > @ o o o o X X X X o o X X X X X X X X X X X X X X X X X X X X X X X X X X X X X .",
" . X X X X X X X X X X X X X X X X X X X X X X X o . , X X X % : > > : > > > > > : > > : : - . . . ; : : > > > > > > > > > > > > : : > > > > > > : : : # , X o o X X X X X X X X o X X X X o o X = : : : ; . X o X X X X X X X X X X X X X X X X O 2 * : 3 > > : > > > > > > > > > > > > > > > > > : > > > > : - . . . ; : 3 : * O X . o o X o X X X X X X X X X X X X X X X X X X X X X X X X X X X X X X X X .",
" . X X X X X X X X X X X X X X X X X X X X X X X X o X . $ ; $ > : : > > > > > > > > > : > # ; X   - : : > : : : > > > > > > > > > : 3 > : : * > # # @ $ X . o X X X X X X X X X o X X X o o X . 1 > : : ; . X o X X X X X X X X X X X X X X X X . ; 2 3 > * > 3 > > > > > > > > > > > > > > > > > > : : > > : # @ + + 2 * > > : # $ . . X X X X X X X o X X X X X X X X X X X X X X X X X X X X X X X X X X X .",
" . X X X X X X X X X X X X X X X X X X X X X X X X X . , # 3 + : : > > > > : > > > : > > > : 2 $ O @ : : > : > > > > > > > > > > > : > * : 2 2 # o X o X X o o X X X X X X X X X X o o X o X . % @ > > : ; . X o X X X X X X X X X X X X X X X X o o o % - 2 3 : > > > > > > > > > > > > > > > > > > : > > > : : : : * > : : > 3 : @ 1 = 1 $ X . o X X o o X X X X X X X X X X X X X X X X X X X X X X X X X X .",
" . X X X X X X X X X X X X X X X X X X X X X X X X X $ # : : : > > > > > > > : > > : > > : > : 3 # : : > > > 3 : > > > > > > > > > > > : @ % o o o . X o X o o X X X X X X X X X X o X X o . o + > : > : ; X X X X X X X X X X X X X X X X X X X X X o X X o & 3 > > > > > > > > > > > > > > > > : > : 3 > > > : : 3 > > > : > : : : : * * 2 + # % o X X X X X X X X X X X X X X X X X X X X X X X X X X X X X .",
" . X X X X X X X X X X X X X X X X X o X X o . o X X % - : : > > > > > > > > > > > > > > > > > > > > > > > > > > > > > > > > > > > > : 2 o X X X X X X X X X X X o X X X o X X X X o X o . o = : : > 3 * > ; % o o X o X X X o o X X X X X X X X X X X X X X o % 2 * > > > > : > > > > > > > > > > > > > > > > > > > > > > > > > > > > > > : : * & X o X X o X o X X X X X X X X X X X X X X X X X X X X X X X .",
" . X X X X X X X X X X X X X X X o X X X X o X % 1 o   O 3 > > : > > > > > > > > > > > > > > > > > > > > > > > > > > > > > > > > > > : 2 o X X X X X X X X X X X X o o X X X X X o X . o o @ : > > : > > : : > 3 # 2 2 ; , X o X X X X X X X X X X X X X o X X o ; > > > : > > > > > > > > > > > > > > > > > > > > > > > > > > > > > > > > > : : 2 , o X X X X X X X X X X X X X X X X X X X X X X X X X X X X .",
" . X X X X X X X X X X X X X X X o o X X X X X $ 2 . , @ : > > > > > > > > > > > > > > > > > > > > > > > > > > > > > > > > > > > > > : 2 o X o X X X X X X X X X . X o X o o X X X X , # > > : > : > > > > > > : : : 4 > - . X o X X X X X X X X X X X X o X X . O > : > : > > : > > > > > > > > > > > > > > > > > > > > > > > > > > > > > > > > : % . o X X X X X X X X X X X X X X X X X X X X X X X X X X X .",
" . X X X X X X X X X X X X X X X . X X o o X , @ @ . ; : : > : > > > > > > > > > > > > > > > > > > > > > > > > > > > > > > > > > > > : 2 o X o X X X X X X X X X X X o X X X X X X . + 3 3 2 > : > : > > * * : > > 2 3 : = X X X X X X X X X X X X X X X X o X . $ : : > : > > : > > > > > > > > > > > > > > > > > > > > > > > > > > > > > > > > > $ X X o X X X X X X X X X X X X X X X X X X X X X X X X X X .",
" . X X X X X X X X X X X X X X X o o o o X X O : > + 2 > : > : > > > > > > > > > > > > > > > > > > > > > > > > > > > > > > > > > > : : 2 o X o X X X X X X X X X o X o X X o o o X X X o o , - 2 # 3 > > 2 @ 3 * - X X = 1 . X o X X X X X X X X X o o X X X X X $ > > > : > > > > > > > > > > > > > > > > > > > > > > > > > > > > > > > > > > > : # O X X X X X X X X X X X X X X X X X X X X X X X X X X X X .",
" . X X X X X X X X X X X X X X X X X X o X X % > : : : > > > > > > > > > > > > > > > > > > > > > > > > > > > > > > > > > > > > > > > : 3 , X o X X X X X X X X X X X o X X o X . X , o X . + $ . . = * : ; X - * ; .   1 = X X . X X X X X X X X X o o o X X X . $ > > : : > : : > > > > > > > > > > > > > > > > > > > > > > > > > > > > : : : > > * ; X X X X X X X X X X X X X X X X X X X X X X X X X X X X .",
" . X X X X X X X X X X X X X X X X o X X X X X ; : > : : > : : > > > > > > > > > > > > > > > > > > > > > > > > > > > > > > > > > > > : > % X X X X X X X X X X X o X o X o X . , + 3 &   o # ; X , + : : 3 2 > * - , , + 1   X o X X X X X X X X X X o o X X X . $ : : > > > : : > > > > > > > > > > > > > > > > > > > > > > > > > > > > > > > > 3 * ; . X o X X X X X X X X X X X X X X X X X X X X X X X X X .",
" . X X X X X X X X X X X X X X X X o X X o o . % : > : : > > > > > > > > > > > > > > > > > > > > > > > > > > > > > > > > > > > > > > : > % . X X X X X X X X X X X X o X X . , @ : : 3 O 1 > > 3 3 > > > : : 3 2 3 3 3 > = X X X X X X X X X X X o X X X X X X X $ : > > : > : > > > > > > > > > > > > > > > > > > > > > > > > > > > > > > > > > : : $ . X X X X X X X X X X X X X X X X X X X X X X X X X X X .",
" . X X X X X X X X X X X X X X X X X X X X X X X O & : > > : > > > > > > > > > > > > > > > > > > > > > > > > > > > > > > > > > > : > > 3 % . X X X X X X X o o X X o X o X o = : > : > 2 $ @ : : : > 2 > : 3 = o 1 : : > 3 & o o X X X . o o . o o X o o X X X X $ : > > > > > > > > > > > > > > > > > > > > > > > > : > 3 : : : > > > > > > > > > : # $ . X o X X X X X X X X X X X X X X X X X X X X X X X X .",
" . X X X X X X X X X X X X X X X X X X X X X X X   ; : > > > > : > > > > > > > > > > > > > > > > > > > > > > > > > > > > > > > > 3 : : 2 o o o X X o o X X o X X X o , - # 2 : : > : > : 2 > : > > : ; ; > : 3 2 2 > > : * : 3 - X o , o . o o X X X X X X X X . $ : : > > > > : > > > > > > > > > > > > > > > > > > > > > > > > > : : > > : > > : : : # O X X o X X X X X X X X X X X X X X X X X X X X X X X .",
" . X X X X X X X X X X X X X X X X X X X X X X X X , O - > : > > > > > > > > > > > > > > > > > > > > > > > > > > > > > > > > > > : : > 2 o o . o o o X X o X . X @ # 2 > * : : > > : > > * : : : > : & , 1 : : ; o = : > > : : 3 2 2 # - o . o X o X o o X X X . O > : > : > > : > > > > > > > > > > > > > > > > : > > > : > > : : > > > > > > > : > * : $ . . X X X X X X X X X X X X X X X X X X X X X X X X .",
" . X X X X X X X X X X X X X X X X X X X X X X X o .   ; : * > > > > > > > > > > > > > > > > > > > > > > > > > > > > > > > > > > > : : 2 , X X X X X X o X . % 1 > : : : > > > > > : * 3 3 : 3 3 > : 3 3 3 : : $ < 1 * > : > 3 : : : * > ; X X o o X X o X X X X ; > > > : : > > > > > > > > > > > > > > > > > > > > : > : > > > : > > : : : > > : > : > O . X o X X X X X X X X X X X X X X X X X X X X X X X .",
" . X X X X X X X X X X X X X X X X X X X X X X X X X X o 1 > > : > > > > > > > > > > > > > > > > > > > > > > > > > > > > > > > > : 3 > : + , X . o o o X . , = * > > > > > > : > : 3 2 & o + ; , # : : : > > : 3 & 1 > > > : : > : > > : + o   X X X X o X X o % 2 : > > > : > : > > > > > > > > > > > > > > > > > > : > > > : > > : > 3 > > > : > > : > O X o X X X X X X X X X X X X X X X X X X X X X X X X .",
" . X X X X X X X X X X X X X X X X X X X X X X X o o o . O : : > > > > > > > > > > > > > > > > > > > > > > > > > > > > > > > > > > > : > : @ = , X X X X % = > : : : : > > > : : > % X . . @ 2 2 : > > > : > > : > 2 * : > > > > > > > * 3 & X o X X X o X X o % : : > > > : > > > > > > > > > > > > > > > > > > : > > > : > : > : 3 > * > 3 : > > > : > O . X X X X X X X X X X X X X X X X X X X X X X X X X .",
" . X X X X X X X X X X X X X X X X X X X X X X X X . o X $ : > > > > > > > > > > > > > > > > > > > > > > > > > > > > > > > > > > > > > 3 : > * 2 # 2 2 # 2 : * 3 > > > > > : > > > , o = 2 3 : > 3 > : & o + : > : > : > : > > > : : > > : > # 2 2 2 # # # # # 3 > > > > > : > > > > > > > > > > > > > > > > > > > > : : > ; % O + - 1 > : > * > : : : : O . X o X X X X X X X X X X X X X X X X X X X X X X X .",
" . X X X X X X X X X X X X X X X X X X X X X X X X X X X $ : > > > > > > > > > > > > > > > > > > > > > > > > > > > > > > > > > > > > > > > > : > : : : : : > > : : > > > > > > > > 3 # > : > : O . + * $   = > : > : > > : > : : > > : > > : : : > : : > : : : : > : : > > > > : > > > > > > > > > > > > > > > > : > > : > $ O + 2 # ; = : > > : : > > : O X o X X X X X X X X X X X X X X X X X X X X X X X X .",
" . X X X X X X X X X X X X X X X X X X X X X X X o X X X $ : : : > > > : : : : > : > > > > : > : > > > > > > > > > > > > > > > > > : > > > > : > > > > > : : : > > > : : > > > > > : : : > : 3 $ . + * O . = > : : - , , - * : > > : > > : > > : : : > > > : > > > > : > > > > : > > > > > > > > > : > > : > : > : : : : > 3 3 : * : - X - * > > : 3 : 3 O X X o X X X X X X X X X X X X X X X X X X X X X X X .",
" . X X X X X X X X X X X X X X X X X X X X X X X X X X X $ > > > > > > > 3 > : > > 3 : : > : : > > > > > > > > > > > > > > > > > > > 3 : : 3 3 > : > > > > > : > : > 3 > > : : > > : > > > : : 2 @ 3 * 2 2 > : > : &     & : : 3 : 3 > : > > > 3 > > > : : 3 3 : > > > > > > > > > > > > > > > > > > > : : > > = O $ = > * > > : > : 2 O X = : > > : : : % X o X X X X X X X X X X X X X X X X X X X X X X X X .",
" . X X X X X X X X X X X X X X X X X X X X X X X X o X . $ * : 3 : : : > > * > + % , 1 > : > : > > > > > > > > > > > > > > > > > > : : * 2 ; % % % % % % % $ + * > > : : > > > > > > : : : : : : * > 3 : * > > > : & o X o = > : > : : 3 > * @ % % % % % % , - : : : > > > > > > > > > > > > > > > > > : > : : ;   . o = > > : > > > : &   & : > > > > : % . X . X X X X X X X X X X X X X X X X X X X X X X X .",
" . X X X X X X X X X X X X X X X X X X X X X X X X o X . $ 3 > : > > > > : : + o . . - : > 3 > > > > > > > > > > > > > > > > > > > : > 3 $ X   X . X X X X X & 3 : : > > : : > > > : > & O # > > : > : > > > : > : @ = $   o = : > > > : : @ % . X X X X X . , - 3 : > > > > : : > > > > > > > > : > > > > : : ; X o   ; : : > > : : > @ 1 # : > : : > > O X X o X X X X X X X X X X X X X X X X X X X X X X X .",
" . X X X X X X X X X X X X X X X X X X X X X X X X X X X o % ; > : : > > > > 1 X X $ 2 * > : : 3 > > > > > > > > > > > > > > > > : : : # o . X o o o X X o . X % 2 : : : > > 3 : : > : ,   , O # : > : > : > : : > * : # @ = @ : : > : : @ ,   o X X X X o X . X - > > > > : > > > > > > > > > > > > > > > > > - . X . - : > > : 3 > > : : : > > > > > - o X . X X X X X X X X X X X X X X X X X X X X X X X X .",
" . X X X X X X X X X X X X X X X X X X X X X X X o X X o X . O : > > > > : : 3 # # 3 : > 3 > : : > > > > > > > > > > > > > > > > > > : 2 o X o X o X X X o o o X $ 2 : > 3 * : > > : 3 , X . . @ * : > > : 1 $ + : > : : : : * > > : : @ O X X X X o o X X o X X $ > > > > : > > > > > > > > > > > > > > : > : # # 2 2 3 > : : : : > * > 1 1 3 : > : : O . o o o X X X X X X X X X X X X X X X X X X X X X X X .",
" . X X X X X X X X X X X X X X X X X X X X X X X o X X X X X O > : : > > > > : * : > > > : : > : > > > > > > > > > > > > > > > > : > : 2 o o o X X X o o X X o X X O O % $ 2 : > > > > # + %   , @ > > : : O   % O % = : : > : + O O O , . X o X X X o X X o X . $ : : : > > > : > > > > > > > > : > > > > > : : : : > - O O % - : > > + X o # > > > : & . X X X X X X X X X X X X X X X X X X X X X X X X X X .",
" . X X X X X X X X X X X X X X X X X X X X X X X X X X X o . O : > : > > > > > > > > > > > : > > > > > > > > > > > > > > > > > > > > : 3 o X X X X X X X X X X X X X . X . & # : > > > : : + = o 1 * > > : $ X . .   o + : + & , . X . X o X X o X X X X X X X . $ > > : > > > > > > > > > > > > > > : > > 3 > : > > : 2 @ $ < $ : : : 2 $ & 3 : : > : # % X X o X X X X X X X X X X X X X X X X X X X X X X X .",
" . X X X X X X X X X X X X X X X X X X X X X X X X o X X X . & > > > > > > > > > > > > > > > > > > > > > > > > > > > > > > > > > : : > 2 o X o X X X X X X X X X X o X o X X + * : > > > : ; @ % - : : > : $   & @ + = 2 : ;   X X X X X X X X X X X X X X X X X $ : > > > : > > > > > > > > > > > > > > > > > > > : > : > # + # * ; = : $ X # : > : > - o X o X X X X X X X X X X X X X X X X X X X X X X X X .",
" . X X X X X X X X X X X X X X X X X X X X X X X . X X X o % = * > > > > > > > > > > > > > > > > > > > > > > > > > > > > > > > > > > : 3 o X X X X X X X X X X X X X X o X . O ; 2 > > : > % 1 @ # * > : : = 1 # : * : * : & X X X X X X X X X X X X X X X X X X $ : > > > : > > > > > > > > > > > > > > > > > > : > 3 > : : 3 * > ; X % o X 1 : > > 1 X . X X o X X X X X X X X X X X X X X X X X X X X X X X .",
" . X X X X X X X X X X X X X X X X X X X X X X X X X X X X o ; > > > > > > > > > > > > > > > > > > > > > > > > > > > > > > > > > > > : > % X X o X X X X X X X X X X X X o X o . % & $ $ & X - : : > - + : > * : : : : > @ % . X X X X X X X X X X X X X X X X X $ : > > > : > > > > > > > > > > > > > > > > > > > > : > : > - = * 2 % . ; # 3 > > 4 # O o X X o X X X X X X X X X X X X X X X X X X X X X X X .",
" . X X X X X X X X X X X X X X X X X X X X X X X o X X o o . O : > > > > > > > > > > > > > > > > > > > > > > > > > > > > > > > > : > > > % X X X X X X X X X X X o X X X X o o X X X X X   . 1 4 : > & - * : > > > + ; ; O X X X X X X X X X X X X X X X X X X X $ : > > > : > > > > > > > > > > > > > > > > > > > : : > : : & - : : # + 3 : : : > : 1 o . X o . X X X X X X X X X X X X X X X X X X X X X X X .",
" . X X X X X X X X X X X X X X X X X X X X X X X X X X X o X $ : > > > > > > > > > > > > > > > > > > > > > > > > > > > > > > > > : > : > , X o X X X X X X X X X X X X X X X X o X X o X X & 2 > > * # # : > > : * &   . . . o X X X X X X X X X X X X X X X X X $ : > > > : > > > > > > > > > > > > > > > > > > > > > : > > 2 3 > : * * : > > : * > & . X o X X X X X X X X X X X X X X X X X X X X X X X X X .",
" . X X X X X X X X X X X X X X X X X X X X X X X o X X X X X $ > > > > > > > > > > > > > > > > > > > > > > > > > > > > > > > > > > : : # X . o X X X X X X X X X X X X X X X X o X o X . $ 3 4 > > > : > > : : > : ; . X o X o X X X X X X X X X X X X X X X X X $ : > > > : > > > > > > > > > > > > > > > > > > > : > > & O # : > > > 3 > : : : - $ o X X X X X X X X X X X X X X X X X X X X X X X X X X X X .",
" . X X X X X X X X X X X X X X X X X X X X X X X o X X o o X $ > > > > > > > > > > > > > > > > > > > > > > > > > > > > > > > > > > > > # , X X X X X X X X X X X o o X X X o X o o X X X O & @ : : 3 : : : > + $ $ % . X X X X X X X X X X X X X X X X X X X X X $ : > > > : > > > > > > > > > > > > > > > > > > > > > 3 + + 2 > : > > : : > > : & X . o X o , X X X X X X X X X X X X X X X X X X X X X X X X .",
" . X X X X X X X X X X X X X X X X X X X X X X X X X o X o X O : > > > > > > > > > > > > > > > > > > > > > > > > > > > > > > > > : > : : 1 % X o X X X X X X X X X o X X X o X X o X o X X . 1 * > : : > > @ , . . o X X X o X X X X X X X X X X X X X X X X X X $ : > > > : > > > > > > > > > > > > > > > > > > > > : ; , , o + : > > : 3 : > - o X X o X X X o X X X X X X X X X X X X X X X X X X X X X X X .",
" . X X X X X X X X X X X X X X X X X X X X X X X o o o . o X O : > > > > > > > > > > > > > > > > > > > > > > > > > > > > > > > > > : > : 3 O   o o X o o X o X X X X X X X X X X X o X X X X O 2 : : > : = o X X X X X X X X X X X X X X X X X X X X X X o X . , + 3 : > > : > > > > > > > > > > > > > > > > > > > > : O . X . = * > > 3 : > 3 O X X X X X X X X X X X X X X X X X X X X X X X X X X X X X X X .",
" . X X X X X X X X X X X X X X X X X X X X X X X . X X o o . $ > > > > > > > > > > > > > > > > > > > > > > > > > > > > > > > > > > > 3 : : 1 X . X . . . o X X o X X X X X X X X X X X X o X X O # > : : - . X o X X X X X X X X X X X X X X X X o X X . . . % + > : : > > : : > > > > > > > > > > > > > > > > > : * : O . o X = : > : > > : - . X X X X X X X X X X X X X X X X X X X X X X X X X X X X X X X .",
" . X X X X X X X X X X X X X X X X X X X X X X X o o X X X % + : > > > > > > > > > > > > > > > > > > > > > > > > > > > > > > > > : > > > * 3 = 1 - 1 - , X . X X X X X X X X X X X X X X o o . . 1 > : : ; . X o X X X X X X X X X X X X X X X X . % - 1 1 - = : : : > > : : > > > > > > > > > > > > > > > > > > > > 3 $ X X . = : > > > : > $ X X X X X X X X X X X X X X X X X X X X X X X X X X X X X X X X .",
" . X X X X X X X X X X X X X X X X X X X X X X X o X o X O 2 : > > > > > > > > > > > > > > > > > > > > > > > > > > > > > > > > > > : : > > : : : : * * = , X o X X X X X X X X X o o o X X o o X 1 : : : ; . o X X X X X X X X X X X X X X X X X % # : * : : > * > > > : : > > > > > > > > > > > > > > > > > > > : > : 2 & X X 1 : > : > : = X X X X X X X X X X X X X X X X X X X X X X X X X X X X X X X X X .",
" . X X X X X X X X X X X X X X X X X X X X X X X X X X . & > : > > > > > > > > > > > > > > > > > > > > > > > > > > > > > > > > > > : > > > > : > > > : 3 % X X X X X X X X X X X X X o X X X X X 1 : > : ; . o X X X X X X X X X X X X X X X X X O > : > > : : 3 > : : : > > > : > > > > > > > > > > > > > > > > > > : : ; . . % # : : * 3 & X o X X X X X X X X X X X X X X X X X X X X X X X X X X X X X X X .",
" . X X X X X X X X X X X X X X X X X X X X X X X X X . % 2 > > > > > > > > > > > > > > > > > > > > > > > > > > > > > > > > > > > > : > : : > : > : > > > , . X o X X X X X X X X X X X o X X X . 1 : > : ; . X X X X X X X X X X X X X X X X X X O > > : : > : > > : : > > : : > > > > > > > > > > > > > > > > > : : > : & . X X = : 3 : - o . X X X X X X X X X X X X X X X X X X X X X X X X X X X X X X X X .",
" . X X X X X X X X X X X X X X X X X X X X X X X o X . O > : > > > > > > > > > > > > > > > > > > > > > > > > > > > > > > > > > > : : > > > > > : > : > 2 , . X X X X X X X X X X X X X X X X o X 1 : > : ; . X X X X X X X X X X X X X X X X X X O : > : > > : : > > > > > : : > > > > > > > > > > > > > > > > > > > > : & X o . + * > > O X X o X X X X X X X X X X X X X X X X X X X X X X X X X X X X X X X .",
" . X X X X X X X X X X X X X X X X X X X X X X X . O # # : > > : > > > > > > > > > > > > > > > > > > > > > > > > > > > > > > > > > > : > > : > > > > > : 1 , X X X X X X X X X X X o X X X X X . 1 : : : ; X X X X X X X X X X X X X X X o X X . % > > > > : : > : > : : > > : > > > > > > > > > > > > > > > > > > > : : & . X o + > * : $ X o X X X X X X X X X X X X X X X X X X X X X X X X X X X X X X X X .",
" . X X X X X X X X X X X X X X X o X X o X X X X % # * : > > > > > > > > > > > > : : > > > : > : > : : > : : > > > > > > > > > > > > > > > > > > > : > * 3 O   o o . o X X X o X X X X X X X X X 1 * > : ; . X X X X X X X X X X X X o X o o . , = 3 : > > > > > : > > > > > > > > > > > > > > > > > > > > > > > : > > > & X 1 2 > > > : & X X X X X X X X X X X X X X X X X X X X X X X X X X X X X X X X X X .",
" . X X X X X X X X X X X X X X X X X X X X X X , @ : : > > > : : > > > > > > > > > : > : > > 3 > > : > > > > > > > > > > > > > > > > > > > > > > > : > > : = o . X . X . X o X X X X X X X X X X 1 * > : ; . X X X X X X X X X X o X X . . . , @ : : > > : : > : > > > > > : : > > > > > > > > > > > > > > > > > > > > * 2 + > * > : : 3 $ o X X X X X X X X X X X X X X X X X X X X X X X X X X X X X X X X X .",
" . X X X X X X X X X X X X X X X X X o X X X X & : : > > > : > > > > > > > > > > > > > : > > > : > : : > > : > > > > > > > > > > > > > > > > > > > : > > : 3 1 & & ; & , . X X o X X X X X X X X 1 * > : ; . X X X X X X X X X X X $ 1 1 ; ; - > : > > > : > > : > > : > > : : > > > > > > > > > > > > > > > > > > > 3 : : > : > > : > 1 X X X o X X X X X X X X X X X X X X X X X X X X X X X X X X X X X X X .",
" . X X X X X X X X X X X X X X X X X o X o o % 3 : > > : : : > > > > > > > > > > > : > : : > > : > : > > 3 : : : > > > > > > > > > > > > > > > > 3 > > > : : > : : * : = , X o X X X X X X X X X 1 * > : ; . X X X X X X X X X X , # * * : * > * > > : : > > > > > > : > > > > > > > > > > > > > > > > > > > > > > : > > > : > > > : : &   o X o X X X X X X X X X X X X X X X X X X X X X X X X X X X X X X X .",
" . X X X X X X X X X X X X X X X o X X X o . % : : > : : > > > > > > > > > > > > : > > > : > 3 > 3 3 > * > > > > > > > > > > > > > > > > > > > > : : > : > > : : : > : 3 % X o . X X X X X X X X 1 * > : ; . X X X X X X X X X X & > : > > : > > : > > > > > > : > > > : : > > > > > > > > > > > > > > > > > > > > > : > > : : : > : * & X , X X X X X X X X X X X X X X X X X X X X X X X X X X X X X X X X X .",
" . X X X X X X X X X X X X X X X X X X X X X $ 3 : > : > > : > > > > > > > > > > 3 : : : : = , o , % - > > : > > > > > > > > > > > > > > > > > > > > > > > > > > : 3 : > % . o X X X X X X X X X 1 * > : ; . X X X X X X X X X X & : > > > > : : > > > : : > > > : : > > : > > > > > > > > > > > > > > > > > > > : > > > > > > > > > : $ . o X X X X X X X X X X X X X X X X X X X X X X X X X X X X X X X X X .",
" . X X X X X X X X X X X X X X X X X X X X $ 2 : > > > > > : > > > > > > > > > > : : + % O o . X X . & : > > > : > > > > > > > > > > > > > > > > > : > > > > > > > > : > % . X o X X X X X X X X 1 * > : ; . X X X X X X X X X X $ : : : : > > > > : : > : : : : > : : > > > > > > > > > > > > > > > > > > > > > > > > > : : > > > > : & X X o X X X X X X X X X X X X X X X X X X X X X X X X X X X X X X X X .",
" . X X X X X X X X X X X X X X X X o o X . - * > > > : > : : > : > > > > > > > > > * = . . X X X X . & * > > > > > > > > > > > > > > > > > > > > > > : > > : > : > > > : ; , X X X X X X X X X X 1 * > : ; . X X X X X X o X X . $ : > > > : > > > > @ - ; - - ; + 3 : > > : > > > > > > > > > > > > > > > > > > > : : > > > > : > > : & . X o X X X X X X X X X X X X X X X X X X X X X X X X X X X X X X X X .",
" . X X X X X X X X X X X X X X X X X X X . ; 4 > > > > : > > > > > : > : > > * 3 3 > 2 & X X X X X o X 1 : 3 > : > > > > > > > > > > > > > > > > > > > > > > > > > > > * > $   o X X o X X X . X 1 : * : + X . o o X X X o X . O @ > : > > : > > : : ;   X . . . O : > > > > : > > > > > > > > > > > > > : > 3 > : > : : > > > > : > : & X o X o X X X X X X X X X X X X X X X X X X X X X X X X X X X X X X X .",
" . X X X X X X X X X X X X X X X X o X o o & 3 : : > > > > : : > > > > > > : > 1 , , % o O + 2 # 2 ; . ; : : > > > > > > > > > > > > > > > > > > > > > > > > > > > : > : : 1 o . . . X X X . X O # > > : : = % . . . X . . . , + : : > > > : > : > * 1   , $ X . & : : : > > > > > > > > > > > > : > > > > > > > > : : > 3 > : > > > : & . o X X X X X X X X X X X X X X X X X X X X X X X X X X X X X X X X X .",
" . X X X X X X X X X X X X X X X o X X X X . $ > : 3 > > : : > > > > > : > : > 1 . . X . o 1 > : : 2 = # : > > : > > > > > > > > > > > > > > > > > > > > > > > > : : > > : 3 - O ; - - - 1 ; ; @ * : > > * > 1 O O $ - 1 - - + : : > > > : > > > : : 2 1 @ 2 1 & o + : : > : > > > > > > > > > > > > : : > > : > : > > > > 3 > > : : : ; . X o X X X X X X X X X X X X X X X X X X X X X X X X X X X X X X X X .",
" . X X X X X X X X X X X X X X X o X X o o . % 3 * > > > : > > > > > > : > > : 2 @ # # @ + 2 : : > : : : > > > > > > > > > > > > > > > > > > > > > > > > > > > > > > > > : : > > : : * : * : > : > > > 3 > : : > > > * : : : > : > > : : > > > > > > > : : : : # < & > > > : : > > > > > > > > > > > > > > > > : : 1 , , , % 1 : : > : # O X X X X X X X X X X X X X X X X X X X X X X X X X X X X X X X X X X .",
" . X X X X X X X X X X X X X X X X X X X X X X $ > : : > : > > > > > > > > 3 > : : : : : : : > 3 : > > > > : > > > > > > > > > > > > > > > > > > > > > > > > > > : > : : > > > : : > : > > : > > > > : : > > : : : > : > > : : > > > : > > > > > : * : : > > : 3 & + : > > > > > > > > > > > > > : > > > > : : > = ,   X X X & : : > : : & X X o X X X X X X X X X X X X X X X X X X X X X X X X X X X X X X X .",
" . X X X X X X X X X X X X X X X o X o X X o X X & # * > : > : > : : > > : > > > > : > > > 3 > : > > : : > > > : > > > > > > > > > > > > > > > > > > > > > > > > > > > > > > > : > > > > > > > > > > > : : > > > > > > : > > > > > > > > > : : : 2 = # : > > > > * : > > * : : : > > > > > > > > > > > > 3 > > = o . X o X X % = > : > : $ . X o X X X X X X X X X X X X X X X X X X X X X X X X X X X X X X X .",
" . X X X X X X X X X X X X X X X X X o o X X X X . ; : > > > > > > > > > : : > > > : > : : > > : > > : > > : > > > > > > > > > > > > > > > > > > > > > > > > > > : > > > > : > > > > : : > > > > : > > > > > : > > > > > > > > > : : : > : : > 2 %   & : > > : > : + O 1 > > > > > > > > > > > > > > > : > * > ; . X o o X . X o # : > : $ . o X X X X X X X X X X X X X X X X X X X X X X X X X X X X X X X X .",
" . X X X X X X X X X X X X X X X X o X X o X X X . O 3 > > : > > > > : > 3 3 > : > > > > > : : > > > : : > > > > > > > > > > > > > > > > > > > > > > > > > > > > > : > > > > > : > > > > > : > : > > : : > : > > > : : > > : : : > > > > : : + % . X & : : > : > : - < $ : : : > > > > > > > > > > > > : > 3 + X X o X X o o o . + : > : $ . o X X X X X X X X X X X X X X X X X X X X X X X X X X X X X X X X .",
" . X X X X X X X X X X X X X X X X X X X X X X X X o , $ > 2 3 : > > > : 1 o ; > > : : - ; > : > > > 2 > > : : : : : : > > > > : > > > > > > > > > > > : > > : > > : > > : > > : : > : : > : : : > > > > > > > > > > > > > > > > > > > > > : & . o   ; > : > > > : @ = # > : > > > > > > > > > > : > : : : ; X X X o X o X o o X + : > : $ X X o X X X X X X X X X X X X X X X X X X X X X X X X X X X X X X X .",
" . X X X X X X X X X X X X X X X X X X X X X X X o X X O = , & > > > > * =   X ; > : : 2 2 : : > : + X $ 3 > 3 > > 3 > : > > : > > > > > > > > > : : : > > : : > : : : > > > > > > > > > > > > > > > > > > > > > > > > > > > > > : : > : : : ; . . o + : > > > : > * * : > : : : > > > > > > > > > > > : > & X . X X o o X o X X + : > : O X o o X X X X X X X X X X X X X X X X X X X X X X X X X X X X X X X .",
" . X X X X X X X X X X X X X X X X X X X X X X X X X X & =   % * : > > * # ,   % : > > : : > > > : = X o O , % % , % 1 3 : > 3 > > > > > > > > > > > > > > > > > > > > > > : : > > : > > : > : : > > > > > > > > > > > > > > > > > > > > > : @ 1 1 + > * > > > > : : = $ 1 > : > > > > > > > > > : > : > > 2 @ ; X X o X X o X . + : : : O . o . X X X X X X X X X X X X X X X X X X X X X X X X X X X X X X X .",
" . X X X X X X X X X X X X X X X X X X X X X X X X o X ; = X O # 2 > : > > 1 o % : > 3 > > > > > : > 2 - o . X X X . o ; > * > > > > > > > > > > : > > : : > > : > > > > > : > > > : : : @ - # > > > > > > > > > > > > > > > > > > > : > 3 : > : : > : > > : > > > : @ 1 # : : > > > > > > > > > > > : > > * : & X X X X o o o . + : : > & X X o X X X X X X X X X X X X X X X X X X X X X X X X X X X X X X X .",
" . X X X X X X X X X X X X X X X X X X X X X X X o X X , % . X o $ 3 : > * > # 2 : > > > > : > > > : @ , . o X o X X . , 1 > : > > > > > > > > > : > > > > > > > > > > > > > > : : > > > $ < 1 : > > > > > > > > > > > > > > > > : > > > > : > : : > > > > > > : > : * : : > > > > > > > > > > > : > : : : 2 = o o X X X X X X o @ : > : # $ . o X X X X X X X X X X X X X X X X X X X X X X X X X X X X X X X .",
" . X X X X X X X X X X X X X X X X X X X X X X X o X X X X o o . O * : 3 : 3 : > : > : > : : > > > * ; . o o X X X o X X X ; > : > > > > > > > > > > > > > : : > > : : : > > : : : > : : O < 1 : > > > > > > > > > > > > > > > > > > > > : : > > > > : : > > > > : > > : > > > > > > > > > > > > > : : > : > 2 # O . o o . o X - > : 3 : : 1 . X X X X X X X X X X X X X X X X X X X X X X X X X X X X X X X X .",
" . X X X X X X X X X X X X X X X X X X X X X X X X o o o X o X . O 3 : > > > * > > > > > > > > : > : ; X X . o X o X X X . $ : : > > > > > > > > > : > : : > > : > : > : > : : + 1 # : > - ; 2 > > > > > > > > > > > > > > > > > : > > : > > > > > > > > > > > > > > > > > > > > > > > > > > > > > 3 > > > > : 4 ; . . , X X X @ : : > : : # $ . X X X X X X X X X X X X X X X X X X X X X X X X X X X X X X X .",
" . X X X X X X X X X X X X X X X X X X X X X X X X o X X X o X o X ; > : > : > > > > > > : > > > : : - . X X X X X o X o X $ : > > > > > > > > > > > > : 3 @ @ > : : > : > : > $ , # * @ - # : > > > > > > > > > > > > > > > > > > > > : : > > > : > > : : > > > : > : : > > : : > > > > > > > > ; o 1 * : > > > 2 O o - $ X . = : : > > > * 2 O X X X X X X X X X X X X X X X X X X X X X X X X X X X X X X X .",
" . X X X X X X X X X X X X X X X X X X X X X X X X X X X X X X X X X $ > : : > : > > > > > > > > > : - X X o X X X X X X . & : > > > > > > > : : > > > : > $ ; * > : * > > : : - 3 2 = O . ; * > > > > > > > > > > > > > > > > > > > > > > > > > > > > > > > > > > > > : > > > > > : > > > * : $ . X - : : > > > : 3 2 3 3 2 , 1 : : > > : : > > 3 2 3 O X X o X X X X X X X X X X X X X X X X X X X X X X X X .",
" . X X X X X X X X X X X X X X X X X X X X X X X X X X X X X X X X X X ; 3 > : > > > > > > > > > > : - X X X . o o X X o X $ * > > > > > > > > > : > > > * # # : : + - 2 : > + 1 1 %   . . O 2 > > > > > > > > > > > > > > > > > > > > > > > > > > > > > > > > > : : > > > > : > > > > > > > 3 ; o ; 2 : > > : : : > : : : > $ = : : > > : : > > > > : $ X X X o X X X X X X X X X X X X X X X X X X X X X X X .",
" . X X X X X X X X X X X X X X X X X X X X X X X X X X X X X X X X o   $ : > > > > > > > > > > > : : ; . X o X X X X X o . O : > > > > > > > > > : > > > : > : > : $ . = : > % . . o O ; o   1 * > > > > > > > > > > > > > > > > > > > > > > > > > > > > > > > > > > > > > > : > > > > : > : * 2 2 > : > > : : > > > > > > * # > : > > > > > > > : : : O . o X X X X X X X X X X X X X X X X X X X X X X X X X .",
" . X X X X X X X X X X X X X X X X X X X X X X X X X X X X X X X X o X $ > : : > > > > > > > > > : : 1 X . o o X X X X X X ; > > > > > > > > > > > 3 : > > : : = & X % # : : O   O @ : : = $ + : > > > > > > > > > > > > > > > > > > > > > > > > > > > > > > > > > > : : : > : > : > > > > > : : * : > > : > > : : : : > > : > > > > > > > > > > : > > ; . X X X X X X X X X X X X X X X X X X X X X X X X X X .",
" . X X X X X X X X X X X X X X X X X X X X X X X X X X X X X X X X o X X ; : : 3 > > > > > > > > 3 : 3 1 , . X X o X o . % 2 : : > > > > > : : : > : : 1 O + : + , X = : : 3 1 $ # : : : : : * > > > > > > > > > > > > > > > > > > > > > > > > > > > > > > > > > > > : > 3 > * 3 > > : : > > > > > > : : > > > > > > > : > > : > > > > > > > > : > > : 2 $ X . o X X X X X X X X X X X X X X X X X X X X X X X .",
" . X X X X X X X X X X X X X X X X X X X X X X X X X X X X X X X o X o X % 2 > * > > > > > > > > > > : > ; o X o X X o X $ > > > > > > > > > : : > : > $ < ; * * &   O 2 * : : > > : 3 3 > : : > > > > > > > > > > > > > > > > > > > > > > > > > > > > > > > > > : : : ; O 1 > : > : : : > : : : > > : > > : : > : > > : > > : > > > > > > > > > > : > : 2 ; o X X X X X X X X X X X X X X X X X X X X X X X X .",
" . X X X X X X X X X X X X X X X X X X X X X X X X X X X X X X X o . X X X % ; > > > > > > > > > : > > : 3 @ # # # # # @ # : > : > > > > > > > > > > : @ = 2 : : = o . $ - # : : > > > : : > > > > > > > > > > > > > > > > > > > > > > > > > > > > > > > > > > > > : : O   o 1 > : : > > > > > > > > > > > > > > > > > : : > : > > > > > > > > > > : 3 > : 3 O . X X X X X X X X X X X X X X X X X X X X X X X .",
" . X X X X X X X X X X X X X X X X X X X X X X X X X X X X X X X o o o X X . & * > > > > > > > > 3 : > > : : : : : : > * : : > : > > > > > > > > > > : : : : > : : @ , . . = : : > > : : > > > : > > > > > > > > > > > > > > > > > > > > > > > > > > > > > > > > > > : & . . & * > > > : > > > > : : : : : > > : : : > > : : > > : > > > > > > > > > : > > : & o X X X X X X X X X X X X X X X X X X X X X X X .",
" . X X X X X X X X X X X X X X X X X X X X X X X X X X X X X X X X X X o X X & 3 3 > 3 3 : : : > > > > > : 3 : : > > : > > > > > > > > : = o % , 1 : > : > > > : > : @ X , @ : > > > > > > > > > : > > > > > > : > > > > > > > > > > > > > > > > > > > > : > : : > > 3 & . X & : : : > > > > > > > > > : : > > : : : > > > > : > > > > > > > > > > > > > > > > > O X X o X X X o X X X X X X X X X X X X X X X .",
" . X X X X X X X X X X X X X X X X X X X X X X X X X X X X X X X o X X X X . X % , o o ; 2 > 2 > > > : 3 > : : > > > > > > : > > > : : : 1 X X   ; 4 > : : + & @ > : > + # : : > > > > > > > > > > > > > : : > > > > > > > > > > > > > > > > > > : : > > : > : > > : 1 X X X X - : : > > > > > > > : : : > > : 2 # : : > : : : > > > > > > > > > > > > > > > > > 3 3 O . o o o X X X X X X X X X X X X X X X X .",
" . X X X X X X X X X X X X X X X X X X X X X X X X X X X X X X X X X X X o o X . . X X X , X O : > > : > > > > : : : > > > : > : > : > : 3 @ ; X - > : : = X . ; : > : > : : > > > > > > > > > > : > > : : > : > > > > > > > > > > > > > > > > > > > : > > > : > > * ;   o X X - : : > > > > > > > > > : > : : - X + > > > > > > > > > > > > > > > > > > > > > > : > $ . o X o X X X X X X X X X X X X X X X X .",
" . X X X X X X X X X X X X X X X X X X X X X X X X X X X X X X X X o X X X o o X o o X X o . % : : > : 3 3 * > > : : > > > > 3 : > > > > : * : @ 3 > : : - . % 2 : 3 : > 3 > : > > > > > > > > > > : > > > > : > > > > > > > > > > > > > > > > > > > : : > > : : : : - o X , - > : : > > > > > > > > > : > : > ; - 3 * > : : : > > > > > > > > > > > > > > > > > > O o , o X o X X X X X X X X X X X X X X X X .",
" . X X X X X X X X X X X X X X X X X X X X X X X X X X X X X X X X o X X X X X X X X X X X X $ 3 3 * : 1 & 3 > > > > : : : > > > > > : : > > > : > : > : 2 $ , = : : : > : > : : > > > > > > > > : 3 - % % 1 > : > > > > > > > > > > > > > > > > > : > > > > > > > : 3 3 2 2 : : > > > > > > > > > : > > > : : 2 > * > 3 > > > > > > > > > > > > > > > > > > > > : % - 3 - X X o X X X X X X X X X X X X X X X .",
" . X X X X X X X X X X X X X X X X X X X X X X X X X X X X X X X X X X o X X o o X X o o o X X , $ # : = X , , O : 3 # 3 2 3 : : : > > > > > 3 : : : > > : 3 @ 3 > : > : * + = > > > > > > > > > : 1 o . < $ : > > > > > > > > > > > > > > > > > > : > : : : > > > > > : : > : > > > > > > > > > > > > > > > > : > > > : : > > > > > > > > > > > > > > > > > > > : ; = * # o o X X X X X X X X X X X X X X X X .",
" . X X X X X X X X X X X X X X X X X X X X X X X X X X X X X X X X X X o X X X X X X X o X X o X . , ; - X X . O : 1 o o X & > : > > : > > : > : : > : : > : : > : > - % % o ; : > > > > > > > > : - X o , - : : > > > > > > > > > > > > > > > > : : : * 2 2 : : : : : > > > > : > > > > > > > > > > > > > : > > : > > > > > : : > > > > > > > > > > > > > > > > : 2 2 * @ . X X X X X X X X X X X X X X X X X .",
" . X X X X X X X X X X X X X X X X X X X X X X X X X X X X X X X o X X o X o o X o X X o X X o X o . . , . o X % > ; . X X & : > > : > > : : > > 3 : : 3 > : > : > : - . . $ 3 : > > > > > > > > : > & & > > > : : : : : : : : : > > > > > > > > : 3 3 3 $ & > 3 3 3 : : > : > > > > > > > > > > > > : > 3 : : > > : > : > > : > > > > > > > > > > > > > > > > > : > : : # o X X X X X X X X X X X X X X X X X .",
" . X X X X X X X X X X X X X X X X X X X X X X X X X X X X X X X X X X X X X X X X X X X X X X X X X X X X X X X o o X X . & : > > > > : > : > > : > > > > > > > > > > 2 @ 2 > : > > > > > > > > > : 3 3 : : : 3 3 > > > : > 3 : : > > > > > : > : ; o , o o , , o 1 > : 3 > > > > > > > > > > > > > > > > > > > > > > > > > > > > > : > : 3 > > > > : > > > > : > : 3 1 % X X o X X X X X X X X X X X X X X X .",
" . X X X X X X X X X X X X X X X X X X X X X X X X X X X X X X X X X X X X X X X X X X X X X X X X X X X X X X X X o X X . & : : : > > : > > > : > > > > > > > > > : : : > > : : > > > > > > > > > : : > > : 3 = , % % % % , O ; > > * > > > : > - , . X X X X X . o 1 > > > : > : : > > : > > > > > > > > > > > > > > > > > > > > : > 3 : : : > : > : > > : > > : 3 & X X X o X X X X X X X X X X X X X X X X .",
" . X X X X X X X X X X X X X X X X X X X X X X X X X X X X X X X X X X X X X X X X X X X X X X X X X X X X X X X X X . X X $ 2 2 3 * > 2 : > > > > > > > : > > > > > > > > > > > > > > > > > > > > > > : : = o o X X X X X . X , % - > > 3 * 3 - o X X X X o X X o X X , , - 2 > > > > > > > > > > > > > > > > > > > > > > > > > : > > > : > > : > > : : > > > : * > $   X X o X X X X X X X X X X X X X X X X .",
" . X X X X X X X X X X X X X X X X X X X X X X X X X X X X X X X X X X X X X X X X X X X X X X X X X X X X X X X o o X o X X , X ; @ & $ 3 * > > > > > > > > > > : > > > > > > > > > > > > > > > > : > : : - . X X X X X o o X X . o + : : : 1 o . X o X X o X X X X X X X . , 1 : : : : : : > > > > > > > > > > > > > > > > > > > > : : > > > : : > > > : : : > > : $ . o X o X X X X X X X X X X X X X X X X .",
" . X X X X X X X X X X X X X X X X X X X X X X X X X X X X X X X X X X X X X X X X X X X X X X X X X X X X X X X o X X X o X o X . o . O 2 > : > : : > > > > > > > > > : : > > : > > > > > > > > : 3 : : - o X X X X X X X X X o o . - : : : - . X o o X X X X X X o X X o X $ : : > > > > > > > > > > > > > > > > > > > > > > > : : : > > : : 3 2 > : : > > > : : : $ . X . X X X X X X X X X X X X X X X X X .",
" . X X X X X X X X X X X X X X X X X X X X X X X X X X X X X X X X X X X X X X X X X X X X X X X X X X X X X X X X X X X X X X X o X X o o ; : > : > > > > > > > > > > > > > > : > > > > > > > > : > 3 2 & . X o o o o o X X X X X . 1 : > * -   o o X X X X X o . o o X X X ; : > > > > > > > > > > > > > > > > > > > > > > > > 3 : > > > * # O o 1 # 2 > : > : 3 @ O X o X X X X X X X X X X X X X X X X X X .",
" . X X X X X X X X X X X X X X X X X X X X X X X X X X X X X X X X X X X X X X X X X X X X X X X X X X X X X X X X X X o X X X o o X o X   - 4 > > > > : : : > > > : > > > > > : > > > > > > > > > : ; . X X X X X X X o o o X X o . - * > : ; X X X X X X X X X o X X X X X ; : : : : : : : > > > > > > > > > > > > > > > > > > : : 3 > > 2 ; . X o o X + * 3 : O , X X X o o o X X X X X X X X X X X X X X X .",
" . X X X X X X X X X X X X X X X X X X X X X X X X X X X X X X X X X X X X X X X X X X X X X X X X X X X X X X X o X X X X o X X X o X X X ; 2 2 3 > > : : : : > > : > > : : > > > > > > > > > > : > & X X X X X X X X X X X X X X . 1 : 3 * ; . X X o o X X o X X o X . o X & 3 2 2 3 3 > > > > > > > > > > > > > > > > > > > > * 2 $ ; & , X X o X X X + 3 $ ; O . X o X X X X X X X X X X X X X X X X X X X .",
" . X X X X X X X X X X X X X X X X X X X X X X X X X X X X X X X X X X X X X X X X X X X X X X X X X X X X X X X X X X X X X X X X X X X X X X X & 3 * > 2 @ 2 : : : : > : : : > > > > > * > 2 > 3 ; o X o X X X X X X X X X X X 6 7 8 9 0 q w 7 X X X X X X X X X X X X X X X X o o o - : : > > : > > : > > : : : > > : > > : 3 3 & X X o X X X X X X X X X X X X X X X X X X X X X X X X X X X X X X X X X X .",
" . X X X X X X X X X X X X X X X X X X X X X X X X X X X X X X X X X X X X X X X X X X X X X X X X X X X X X X X X X X X X X X X X X X X X X X X X - 2 = X . ; 3 2 3 : > > > : > > > : : 2 ; , o % o X X X X X o X X X X X X X X e . 1 : 0 r t y X X X X X X X X X X X X X X X X X X   ; : > > > : > : : : > > > > : > : > : > & % X X X X X X o X X X X X X X X X X X X X X X X X X X X X X X X X X X X X X X .",
" . X X X X X X X X X X X X X X X X X X X X X X X X X X X X X X X X X X X X X X X X X X X X X X X X X X X X X X X X X X X X X X X X X X X X X X X X X o o X X . o , = > : > > : > : : > : 1 X . X . X o o o X X X X X X X X X X X u i 1 * p a s i X X X X X X X X X X X X X X X X X o . - * > * > > > 3 3 > * : > > : > > * : - X . X o o X o o X X X X X X X X X X X X X X X X X X X X X X X X X X X X X X X X .",
" . X X X X X X X X X X X X X X X X X X X X X X X X X X X X X X X X X X X X X X X X X X X X X X X X X X X X X X X X X X X X X X X X X X X X X X X X X X X X o , & > > > : : > > > > > > : 1   . X X o X X X X X X X X X X X X X X o . d f g 9 s h X X X X X X X X X X X X X X X X X X X & 3 : 2 ; , , , % & 2 * > > > : : 2 & X X X X X X X X X X X X X X X X X X X X X X X X X X X X X X X X X X X X X X X X X .",
" . X X X X X X X X X X X X X X X X X X X X X X X X X X X X X X X X X X X X X X X X X X X X X X X X X X X X X X X X X X X X X X X X X X X X X X X o X o o X O + # > 3 2 # 3 > : : : : : * 1 . o o X X X X X X X o X X X X X X X X j 7 k l z : k x X X X X X X X X X X X X X X X X X X X X = : -   X X X . o 1 > > > > : : - . X X X X X X X X X o X X X X X X X X X X X X X X X X X X X X X X X X X X X X X X X .",
" . X X X X X X X X X X X X X X X X X X X X X X X X X X X X X X X X X X X X X X X X X X X X X X X X X X X X X X X X X X X X X X X X X X X X X X X o o X X . X , X ; & o . $ 2 > 2 3 3 3 3 - X o X o o X o o X X X X X X X X X X X c v b n m M k x X X X X X X X X X X X X X X X X o o X   1 4 ;   X X o o X o % , = > * 2 $ X o X X o o X o o X X X X X X X X X X X X X X X X X X X X X X X X X X X X X X X X X .",
" . X X X X X X X X X X X X X X X X X X X X X X X X X X X X X X X X X X X X X X X X X X X X X X X X X X X X X X X X X X X X X X X X X X X X X X X X o X X o o . X o o . . o , o o o o o , o X X X o X X X X X X X X X X X X X X X N B V C Z A S D X X X X X X X X X X X X X X X X o X X X - 3 & X o X X o X X X . X 1 2 ; o X . o X o X X X o X X X X X X X X X X X X X X X X X X X X X X X X X X X X X X X X X .",
" . X X X X X X X X X X X X X X X X X X X X X X X X X X X X X X X X X X X X X X X X X X X X X X X X X X X X X X X X X X X X X X X X X X X X X X X X . X X X o o o X o X o o X . o X X X X X o X X X o o X X o o o X X X X X X X X e i F G H J K L X X X X X X X X X X X X X X X X X X X o X , X X X o o X o X X o . , , X X o , X X X X X o X X o X X X X X X X X X X X X X X X X X X X X X X X X X X X X X X X .",
" . X X X X X X X X X X X X X X X X X X X X X X X X X X X X X X X X X X X X X X X X X X X X X X X X X X X X X X X X X X X X X X X X X X X X X X X X X X X X X X X X X X X X X X X X X X X X X X X X X X X X X X X X X X X X X X X P I U Y Y Y T R X X X X X X X X X X X X X X X X X X X X X X X X X X X X X X X X X X X X X X X X X X X X X X X X X X X X X X X X X X X X X X X X X X X X X X X X X X X X X X X .",
" . X X X X X X X X X X X X X X X X X X X X X X X X X X X X X X X X X X X X X X X X X X X X X X X X X X X X X X X X X X X X X X X X X X X X X X X X X X X X X X X X X X X X X X X X X X X X X X X X X X X X X X X X X X X X X X X E W Q ! ~ ^ / e X X X X X X X X X X X X X X X X X X X X X X X X X X X X X X X X X X X X X X X X X X X X X X X X X X X X X X X X X X X X X X X X X X X X X X X X X X X X X X X .",
" . X X X X X X X X X X X X X X X X X X X X X X X X X X X X X X X X X X X X X X X X X X X X X X X X X X X X X X X X X X X X X X X X X X X X X X X X X X X X X X X X X X X X X X X X X X X X X X X X X X X X X X X X X X X X X X X 6 v ( ) _ ` ' ] X X X X X X X X X X X X X X X X X X X X X X X X X X X X X X X X X X X X X X X X X X X X X X X X X X X X X X X X X X X X X X X X X X X X X X X X X X X X X X X .",
" . X X X X X X X X X X X X X X X X X X X X X X X X X X X X X X X X X X X X X X X X X X X X X X X X X X X X X X X X X X X X X X X X X X X X X X X X X X X X X X X X X X X X X X X X X X X X X X X X X X X X X X X X X X X X X X X [ 6 v v { u . j X X X X X X X X X X X X X X X X X X X X X X X X X X X X X X X X X X X X X X X X X X X X X X X X X X X X X X X X X X X X X X X X X X X X X X X X X X X X X X X .",
" . X X X X X X X X X X X X X X X X X X X X X X X X X X X X X X X X X X X X X X X X X X X X X X X X X X X X X X X X X X X X X X X X X X X X X X X X X X X X X X X X X X X X X X X X X X X X X X X X X X X X X X X X X X X X X X X e } j x | [ X } X X X X X X X X X X X X X X X X X X X X X X X X X X X X X X X X X X X X X X X X X X X X X X X X X X X X X X X X X X X X X X X X X X X X X X X X X X X X X X X .",
" . X X X X X X X X X X X X X X X X X X X X X X X X X X X X X X X X X X X X X X X X X X X X X X X X X X X X X X X X X X X X X X X X X X X X X X X X X X X X X X X X X X X X X X X X X X X X X X X X X X X X X X X X X X X X X X X. .....X.X E u.  X X X X X X X X X X X X X X X X X X X X X X X X X X X X X X X X X X X X X X X X X X X X X X X X X X X X X X X X X X X X X X X X X X X X X X X X X X X X X X X .",
" . X X X X X X X X X X X X X X X X X X X X X X X X X X X X X X X X X X X X X X X X X X X X X X X X X X X X X X X X X X X X X X X X X X X X X X X X X X X X X X X X X X X X X X X X X X X X X X X X X X X X X X X X X X X X X X X } u.o u [ L E } X X X X X X X X X X X X X X X X X X X X X X X X X X X X X X X X X X X X X X X X X X X X X X X X X X X X X X X X X X X X X X X X X X X X X X X X X X X X X X X .",
" . X X X X X X X X X X X X X X X X X X X X X X X X X X X X X X X X X X X X X X X X X X X X X X X X X X X X X X X X X X X X X X X X X X X X X X X X X X X X X X X X X X X X X X X X X X X X X X X X X X X X X X X X X X X X X X X 6 u.. W j ] | e X X X X X X X X X X X X X X X X X X X X X X X X X X X X X X X X X X X X X X X X X X X X X X X X X X X X X X X X X X X X X X X X X X X X X X X X X X X X X X X .",
" . X X X X X X X X X X X X X X X X X X X X X X X X X X X X X X X X X X X X X X X X X X X X X X X X X X X X X X X X X X X X X X X X X X X X X X X X X X X X X X X X X X X X X X X X X X X X X X X X X X X X X X X X X X X X X X X X X X X X X X X X X X X X X X X X X X X X X X X X X X X X X X X X X X X X X X X X X X X X X X X X X X X X X X X X X X X X X X X X X X X X X X X X X X X X X X X X X X X X X X .",
" . X X X X X X X X X X X X X X X X X X X X X X X X X X X X X X X X X X X X X X X X X X X X X X X X X X X X X X X X X X X X X X X X X X X X X X X X X X X X X X X X X X X X X X X X X X X X X X X X X X X X X X X X X X X X X X X X X X X X X X X X X X X X X X X X X X X X X X X X X X X X X X X X X X X X X X X X X X X X X X X X X X X X X X X X X X X X X X X X X X X X X X X X X X X X X X X X X X X X X X .",
" . X X X X X X X X X X X X X X X X X X X X X X X X X X X X X X X X X X X X X X X X X X X X X X X X X X X X X X X X X X X X X X X X X X X X X X X X X X X X X X X X X X X X X X X X X X X X X X X X X X X X X X X X X X X X X X X X X X X X X X X X X X X X X X X X X X X X X X X X X X X X X X X X X X X X X X X X X X X X X X X X X X X X X X X X X X X X X X X X X X X X X X X X X X X X X X X X X X X X X X .",
" . X X X X X X X X X X X X X X X X X X X X X X X X X X X X X X X X X X X X X X X X X X X X X X X X X X X X X X X X X X X X X X X X X X X X X X X X X X X X X X X X X X X X X X X X X X X X X X X X X X X X X X X X X X X X X X X X X X X X X X X X X X X X X X X X X X X X X X X X X X X X X X X X X X X X X X X X X X X X X X X X X X X X X X X X X X X X X X X X X X X X X X X X X X X X X X X X X X X X X X .",
" . X X X X X X X X X X X X X X X X X X X X X X X X X X X X X X X X X X X X X X X X X X X X X X X X X X X X X X X X X X X X X X X X X X X X X X X X X X X X X X X X X X X X X X X X X X X X X X X X X X X X X X X X X X X X X X X X X X X X X X X X X X X X X X X X X X X X X X X X X X X X X X X X X X X X X X X X X X X X X X X X X X X X X X X X X X X X X X X X X X X X X X X X X X X X X X X X X X X X X X .",
" . X X X X X X X X X X X X X X X X X X X X X X X X X X X X X X X X X X X X X X X X X X X X X X X X X X X X X X X X X X X X X X X X X X X X X X X X X X X X X X X X X X X X X X X X X X X X X X X X X X X X X X X X X X X X X X X X X X X X X X X X X X X X X X X X X X X X X X X X X X X X X X X X X X X X X X X X X X X X X X X X X X X X X X X X X X X X X X X X X X X X X X X X X X X X X X X X X X X X X X .",
" . X X X X X X X X X X X X X X X X X X X X X X X X X X X X X X X X X X X X X X X X X X X X X X X X X X X X X X X X X X X X X X X X X X X X X X X X X X X X X X X X X X X X X X X X X X X X X X X X X X X X X X X X X X X X X X X X X X X X X X X X X X X X X X X X X X X X X X X X X X X X X X X X X X X X X X X X X X X X X X X X X X X X X X X X X X X X X X X X X X X X X X X X X X X X X X X X X X X X X X .",
" . X X X X X X X X X X X X X X X X X X X X X X X X X X X X X X X X X X X X X X X X X X X X X X X X X X X X X X X X X X X X X X X X X X X X X X X X X X X X X X X X X X X X X X X X X X X X X X X X X X X X X X X X X X X X X X X X X X X X X X X X X X X X X X X X X X X X X X X X X X X X X X X X X X X X X X X X X X X X X X X X X X X X X X X X X X X X X X X X X X X X X X X X X X X X X X X X X X X X X X .",
" . X o X X X X o X X X X X X X X X X X X X X X X X X X X X X X X X X X X X X X X X X X X X X X X X X X X X X X X X X X X X X X X X X X X X X X X X X X X X X X X X X X X X X X X X X X X X X X X X X X X X X X X X X X X X X X X X X X X X X X X X X X X X X X X X X X X X X X X X X X X X X X X X X X X X X X X X X X X X X X X X X X X X X X X X X X X X X X X X X X X X X X X X X X X X X X X o X X X X o X .",
" . X X X X X X X X X X X X X X X X X X X X X X X X X X X X X X X X X X X X X X X X X X X X X X X X X X X X X X X X X X X X X X X X X X X X X X X X X X X X X X X X X X X X X X X X X X X X X X X X X X X X X X X X X X X X X X X X X X X X X X X X X X X X X X X X X X X X X X X X X X X X X X X X X X X X X X X X X X X X X X X X X X X X X X X X X X X X X X X X X X X X X X X X X X X X X X X X X X X X X X .",
" . X o X X X X X X X X X X X X X X X X X X X X X X X X X X X X X X X X X X X X X X X X X X X X X X X X X X X X X X X X X X X X X X X X X X X X X X X X X X X X X X X X X X X X X X X X X X X X X X X X X X X X X X X X X X X X X X X X X X X X X X X X X X X X X X X X X X X X X X X X X X X X X X X X X X X X X X X X X X X X X X X X X X X X X X X X X X X X X X X X X X X X X X X X X X X X X X X X X X o X .",
" . X o X X X X o X X X X X X X X X X X X X X X X X X X X X X X X X X X X X X X X X X X X X X X X X X X X X X X X X X X X X X X X X X X X X X X X X X X X X X X X X X X X X X X X X X X X X X X X X X X X X X X X X X X X X X X X X X X X X X X X X X X X X X X X X X X X X X X X X X X X X X X X X X X X X X X X X X X X X X X X X X X X X X X X X X X X X X X X X X X X X X X X X X X X X X X X o X X X X o X .",
" . X X X X X X X X X X X X X X X X X X X X X X X X X X X X X X X X X X X X X X X X X X X X X X X X X X X X X X X X X X X X X X X X X X X X X X X X X X X X X X X X X X X X X X X X X X X X X X X X X X X X X X X X X X X X X X X X X X X X X X X X X X X X X X X X X X X X X X X X X X X X X X X X X X X X X X X X X X X X X X X X X X X X X X X X X X X X X X X X X X X X X X X X X X X X X X X X X X X X X X .",
" . X o X o o X o X X X X X X X X X X X X X X X X X X X X X X X X X X X X X X X X X X X X X X X X X X X X X X X X X X X X X X X X X X X X X X X X X X X X X X X X X X X X X X X X X X X X X X X X X X X X X X X X X X X X X X X X X X X X X X X X X X X X X X X X X X X X X X X X X X X X X X X X X X X X X X X X X X X X X X X X X X X X X X X X X X X X X X X X X X X X X X X X X X X X X X X X o X o o X o X .",
" . X X X X X X X X X X X X X X X X X X X X X X X X X X X X X X X X X X X X X X X X X X X X X X X X X X X X X X X X X X X X X X X X X X X X X X X X X X X X X X X X X X X X X X X X X X X X X X X X X X X X X X X X X X X X X X X X X X X X X X X X X X X X X X X X X X X X X X X X X X X X X X X X X X X X X X X X X X X X X X X X X X X X X X X X X X X X X X X X X X X X X X X X X X X X X X X X X X X X X X .",
"   . . . . . . . . . . . . . . . . . . . . . . . . . . . . . . . . . . . . . . . . . . . . . . . . . . . . . . . . . . . . . . . . . . . . . . . . . . . . . . . . . . . . . . . . . . . . . . . . . . . . . . . . . . . . . . . . . . . . . . . . . . . . . . . . . . . . . . . . . . . . . . . . . . . . . . . . . . . . . . . . . . . . . . . . . . . . . . . . . . . . . . . . . . . . . . . . . . . . . .  "
};
