/* XPM */
static char *freeimage[] = {
/* width height num_colors chars_per_pixel */
"300 300 75 1",
/* colors */
"  c #040204",
". c #0c0a0c",
"X c #141214",
"o c #0c0e0c",
"O c #141614",
"+ c #6c6a6c",
"@ c #a4a6a4",
"# c #949694",
"$ c #9c9a9c",
"% c #949a9c",
"& c #949e9c",
"* c #9c9694",
"= c #9c9e9c",
"- c #646664",
"; c #a4a2a4",
": c #949294",
"> c #7c7e7c",
", c #3c3e3c",
"< c #444644",
"1 c #444244",
"2 c #5c5e5c",
"3 c #040604",
"4 c #343634",
"5 c #1c1e1c",
"6 c #1c1a1c",
"7 c #acaaac",
"8 c #747674",
"9 c #7c7a7c",
"0 c #3c3a3c",
"q c #5c5a5c",
"w c #4c4a4c",
"e c #545254",
"r c #848684",
"t c #343234",
"y c #242224",
"u c #6c6e6c",
"i c #8c8a8c",
"p c #2c2a2c",
"a c #8c8e8c",
"s c #848284",
"d c #acaeac",
"f c #2c2e2c",
"g c #747274",
"h c #545654",
"j c #141a1c",
"k c #242624",
"l c #a48a8c",
"z c #cc4e4c",
"x c #ec1e1c",
"c c #e42a2c",
"v c #ac7a7c",
"b c #94a2a4",
"n c #fc0204",
"m c #a48684",
"M c #646264",
"N c #aca6a4",
"B c #4c4e4c",
"V c #d43a3c",
"C c #94a6a4",
"Z c #241614",
"A c #743634",
"S c #b40604",
"D c #2c4244",
"F c #b4b2b4",
"G c #d40604",
"H c #4c0e0c",
"J c #0c1a1c",
"K c #4c1214",
"L c #bc0604",
"P c #ec0204",
"I c #7c0e0c",
"U c #2c1614",
"Y c #c4c2c4",
"T c #bcbebc",
"R c #b4b6b4",
/* pixels */
"                                                                                                                                                                                                                                                                                                            ",
"                                                                                                                                                                                                                                                                                                            ",
"                                                                                                                                                                                                                                                                                                            ",
"    .XXoOXXoOXXOoOXoOoOoXoOoOoOXXoOoXXXXXOoOXXXXOoOoXXXoOoOoXXXoOoOoXoOoOXXoOXXOoOoXXXoOXXXoXOXoXoOoOoOoXoOoOoOoOoOXXoOoOoOoOXXXoXXXoXoOXXoOXXOoOoOoOXXoOoXXoOXXoOXXXOoXXXOoOXXoOoOXXoOXXoOoOoOXXoOXXoXoXoOoOXXXXXoOXXoOoOoOoOoOoOoOoOoOoXoXXXoOoOoOoXoOoOoOoXoOoOXXXXoOoXoOoOoOXXXXoOXXOoOoOoOoOoOoOXXX    ",
"    +@#$$%$$$&*$$%$$$$$=$$=$$$$&*=$=$%$=#$$$%=$&*$$=$%$$$$$$=%$$=*$$=$$=*%$$$&*$$$$$&*$=*%$$=#$=$$$$=*$$=$$$$$$$$$$%$$$$$$$$$$%=$=%=$=$$%$$$=#$$$$$$$&*=$=$$$$%$$$=$&*$=$&*$$&$$$$$%$$$&$$=*$=*%$$=#$$=$=$$$$&$$%=*$%$$=*=$=*$$=*$$$=*$$$=$=%$$$$$$$$$=*$$=*$=$$=*$$%=*$$=$$$$$$$$%$$=$&*$$=*$$$$$$$$#$$o   ",
"    -;#*%$#$#$$#$*%*%*%*%*#$#$#$#$#$#$*%$#$#$*%*$%*#$*%*%*%*%*%*%$#$#$%*%$*%*$%*%*$%*$%*%*$#$$#$#$#$#$%*#$#$#$#$#$#$#$#$#$#$#$*%*%*%*%*%*%*%*$#$#$#$#$#$#$#$#$*%*%*%*$%*%*$%**%*%*%*%*%*%$#$%*%$#$#$%*#$#$#$#$*&*$%*$#$#$%*%$#$#$#$#$%*%*%*%*%*%*%*%*&*%$#$%*%*%*%$#$*%%*#$#$#$#$#=*%*%*$%#$%*%*%*%*%*%$X   ",
"    +;:%*#$#$##$#%*%*%*#$#$#$#$#$#$#$#%*#$#$#%*%#*%*%#$#$#$#*%*&*#$#$#*%*#%*%#*%*&#*%#*%*%#$##$#$#$#$#*%*%*%*%*%*%*%*%*%*%*%*%#$#$#$#$#$#*%*%#$#$#$#$#$#$#$#$#%*%*%*%#*%*%#*%#$#$#$#*%*%*#$#*%*#$#$#*%*%*%*%*%#*%#*%#=#$#*%*#$#$#$#$#*&*#$#$#$#$#$#=#*%*#=#*%*%*%*#$#%*#$#$#$#%*&*#%*%*%#*%*#$#$#$#*%*#%o   ",
"    -@*$%$*&*$$#=$#=#$%$*&$#$$#=$#$*&*$%$*&*=*%*$%*&$*%$#=#$$#$*%$#=*%$*%$*&*$%*%*$%*$%*&$*&$$#$*&*=#$%*=%*%$#=*%$*&*%*&$*%*%*$#$$#$*%*&$$#$$*&*%*%$*&$*%*&*&*$#$%*%*$%*%*$%*$%*&$*&$$#$$%*%$*%$#=*%$*%$#=$#$*$%*$%*$#$*%$#$$#=%*&*%$$#$$#$$#$$#$#$*%$#$$#$%*$#=*%$#=*%$*&$*&$*%*%$*%*&*$%*$%*&*=#=%$#$$X   ",
"    +;#%$*%*%=#$*%*%$*$#$%*=#$*%*%$#$$#=#$$#$%*$%*%$*&*$&*$%*=#$%*$#$%*%=*%*$&*&*$%*$%*%*$%*$#$%*%$#$$#$%*&*=*%=#$%*$%$*%=*%$=#$$#$%*%$*&*$&*%*$%=*%*$#$%*$%*$%=*$&*$%*&*$&*$%*&*$%*%*=#$#$=#$$#$*%=#$%*$#$$#$&*$&*$%*%$%*$%*$#$$#$*&*%$#$%*=#=#$$#$%*$%*%$*%$#$%$#=*%=*%$#$*$&*%$*%$#$$%*$&*%$#$%*$#$#$o   ",
"    -@#$#$*%$*&$#=$*&$#$*%$#=%*$$#=$#$$#$#$$#=%*$%*$%*%*$%*%$#=$#=%*=#$$#$%*%*$%*&*&*%$*&*$%*=#$$#$$#$$*%$*%$#$*&*$%*=*%$#=*%*%$#=*$%*$%*%*$#$%*$#$%*%$*&$#$$#$#$#$$#=$*%$#$#$$*%*$%*%*$%*=#$%*=%*=#$*%$#=#=*%*%$#$#$$#=*%$#=%*%*=%$*%*=*&*%$#$$#=$#=$#=*&*&*$%*=#$$#$#$*%$#=#$*&*&*%$*%*&$*%*$$#$$#$#$$X   ",
"    +;#$$%$*%*%*$%*%*%$$#=*%$*%$#=*%$#=*%=*%$*%*&*$%*%$*&*$&*$$#$*%$#$$#=*%=*%$*%$*%$*=#$%*&*%$*%$*&*&*%=*%$#$$#$$#$#$&*%*$&*$%*$#$&*%=#$$#$$%*=#$=*%=*%*$$#$#$=#$$#$#$%*=#$=#$%*%$*%$$#=*%$#=*%*$%*$%=*%$*%$*%$*&*$=#$*%$*%*=#$$#$#$$#$%*$%*$$#$*&*$#$%*$%*$%*$#$%*%$*%=*%$*$%*$%*$$#=#$$#$*%=#$=#$%$#$o   ",
"    -@#*%*&$$#$$#=$*&*=#$%*$#=*%$#$*%$#$$#=*%$*%$*&*=#$%$#$*%*%$#=*%$*%$#$*%$#=%*%$*&$#$$#$$%*$#=#$$#$$#$#=*&*%$*&$$*%*%$*%*%$*=%*$*%$*&*%$#=*%$*%*%$#=$#$#=$#=#$$#=$*%*%$*%*$#=%*&$*&*%*%$*=%*%$#$$#$#$*%$#=%*%$*%$#$$#=#$$#$$#=$#=#$$#$%*=%*%$*%$#$$#$%*$%*=%*=%*=#$%*%*=#=#$%*$%*&$*%$#=%*$#$%*=#$#$$X   ",
"    +;#$$%*$#$=#$#$%*$#$%*$%*%$&*$%*=#$$#$#$%*%=*%$#$$#$*$%*%=*%$*%$*&*%$*%$*%*$%*=#$#$$#=*%*%=#$$%*$%*%$*%$*%$*%*&*%$*=#$#$$#$#$%*%$*%*$&*=#$&*%$#=*$#=#$$#$$#$$#$#=#$$=#$%*%$*=#$*%*$%=*%*%*$%*=*%$#$$%*$#$*%=*%$#=*%$#$=#$%*=#$%*$%*=*%$#$#=*%=#$$#=*$%*&*%*$%*$#$=#$=#$$#$%*=#=#$*%$*%*$%*$%*$#$=*%$o   ",
"    -@#$#$$#$%*=%*$#=%$*%$#$$#=*%*%$#$%*=%*$#=$#$*%$#=$#=#$$#$#=*&*&$*%*=%*%$*&*$%$*$%*%$#$*%*$%*&*%$*&*$%*%$*&$*%*%*%$#$$%*%$#$#$%$*&$#$*%$*%*=#$$%*%$*%$#=#$$#=$%*%$#=#$*&$*%$#$$#$%*=#$$#$%*$%*%*$%*&*%$*%$*%*$#$$#=*%$#$#$%*$#$$#$%*%*=%*$%*$#$*&$#$#=$%*$%*%$#$%*=#$%*&$*$%*$%*$%*&$*&*&$#=$#$%*%*=X   ",
"    +;*%$&*%$*%*=#$%*$#=*%=*%*$%*$&*$%*=#$=#$$#=#$=#$*%*%$*%=*%$#$%*$#$$#$%*=#$%*=#$%*$&*$$&*$%*$#$=#$*%$#=*%*%*%$$*%$#$$#$$$$$$$$$*%*%$*%$*%$*%$*&*%$*&*=#$=#$%*%*$$#$#$$%*=#=#$=#$&*$#$%*$&*$%*%$=#=*%=*%$&*%$*%=*%*%$$#=*$&*$%*=#$%*%$*%*$&*$%*$%*%*%$*%*$%*=#$=#$*%=*%*$#$%*$%*$%*&*$#$$#$*%*%$*%*%$o   ",
"    -@#$$*$%*&$#$$#=$#$%*%*%$*&*%$*&*$%*%*%*$#$$#$#$$#$$#$#=#$*$%*$%*$%*&*$%*$%*&$*%*&$*%*%*$%*&$*&*%$%*$%*%$*%$*&*%$*=#$$########*%$*$#$%*&*$%*%$*%*$%*%$*%*=*%$*&*&*$$#=#$%*$$#$*%*$%$*&*&*$%*=*%*$%*$#=*%*$#=%*%*=%*%*$%*%*=#$%$*%*=*&$%*%*$#=%*$%*$$#=%*&*%$*%*$%*$#$$#$$#=#=#=%*&$*%$#$$#$$$#$%*%*=X   ",
"    +;#*%$#=*%*$%*%*%=#$*$&*$%*%$*%*%$#$$#$$#$&*%$*&*%=#$=#$$#$&*$%*%=*%*$&*%$*%*$#$$#$#$&*$&*%*$%*$#=*%$*%=*%=*%*%=#$#$%$=@;;;;;;%*%*%$=#$*%$#=*%=*%=#$$#$$#$%=*%$#$%$#$*%$*%$#$$#$$#=#$%*$$#=#$%*%$#$%*$%*$%$*%$*%$#=*%=#$$#$%*=#$=#$%*$#$$#$%*=#=*%=#$*%*$%*=#$&*$&*%=#$=#$$#$$#$*$#$&*$&*$#=#$=#$$#$o   ",
"    -@#$$#$%*$%*=%*=#$$#=%*$#=$#$%*=%*=#$$#=$$#$*%$*$%*$#$$#=$#$#=*%$#$$#$*%$#=$#=$%*=$#$*%$*&$*%*&$$#$#=#$*%$#=$#$*$%*%*=>,<<1<12=$$%*&*$%*=*%*%*%$*$#=#=#$$#=#$*%$*$#=%*=#$$#=#$%*&$*%*$%*%*%*%*&$*&*$%*&$#=#=*%$*%$*%$*%*&$*%$#$#$$#=%*=#=$*%$#$%*$#$%*$%*$%*$%*%*$%*$#=#$#$$#$$%*%$*%*%*%$$#$#$*%#$$X   ",
"    +;#%*$%*$&*=#$$#$$#$#=*%$#$$#=*%*$#$%*$#$#=*%=#$%*=#$%*$#=#$$#$$#=*%$#$$#=*%$#$*%*%$*%$#$#=#$%*$#$$#$$#$%*$#$$#$&*$$#;- XoXo34=#*%*$%*$%*%$=#$$#$%*$%*$%*%*$%$*&*%=*%$#$=#$*%$*&*$%*$%*%$$$$$*$*%*$%*$#$$#$*%=*%$*%$#=*%$*&*$%*$%*%*$#$$#$#=*%$*%$#=*%=#$&*%$*&*$%*$%*$%*$%*&*%*%=*%$*%$*&*%$*%$$*%=o   ",
"    -@#$%*$%*$%*%*%$#$$#$$#$*&*%$*%$%*$%*&$$#$%*$#$#=%*$%*&$*%$*&$#=$#$*&$#$$#$*%$#=$#$#$$#=$#$$#=$#=#$$#=$*&$#=#=*%*%$##;+X5656X17#%*$#=#=*%*&*$%*=#$%*$%*=#$$#$#$$#$#$*%$*%*%$*&$*%*$%*$%*####%#$%*=%*&$*&*$%$#$#=#=*%$#$$#=$#=*&$*&$*%$#$$#$%*=#=#$$%*$#$$*&*%$#$%*=#$%*=%*=%*$*&$*%*%$*&$*%*=%*&*%*$X   ",
"    +;*%$#$#$%*$%*=#$=#$=#$&*%$*$%*&*$&*$*&*$&*$%*$$#$%*&*$#$$#$#$$#$*%$#$$#=*%=#$$#$*%=*&*$#$$#$#$%*$%*$#$#$*%$*$%*$$#$#@8o5OO6O5<:$#%*%*$%*$*%$#$#$$*&*&*%$$#=#$&*%$*%=*$#$%=*%*%*%$#$%$#$$$$$$$*##%*%*$#$%*$#$=#$$#$&*$%*$#$#$%*$#$*%=#$&*%=*%$*%$*%*%$*&*%*$%*=#=*%=#$$#$#$*%$%*$#$&*$%*&*$%*%*$%*%$o   ",
"    -@#$*$$#=*&*$%$*%*%$#$*%$*&*&*$%*%*%$%*%$*$#$%*%*$*%$*%$#=$*&*%$#$$#=*%$#$$#=*%$#=$#$%*%$#=$#=*%$#$%*$%*%$*%$#$%*%$#=90XO66O6O3q==$$$%*=%$%$*&$*%*%$*%$*&*$%*$*%*=%*%*%$#$*%$*%$*&$*$#$#######$;;*%$*%$*&$#=#$$#=$#$*&*%$*%$*%$#$%$*%*$*%$*%*%$*&$*&*%$$#$%*$%*$%*%*=#$$%*%$*&*%$#$*%*$%*%$*=%*%*%*=X   ",
"    +;#$%=#$$#$%*=#$%*=#=*%$*%$#$$#=*%=*%*$=#$#$#$#$%*%=*%=#=#$%*$%*$$#$*%=#$$#$*%=#$*%*=#$$#=*%*$%*$#$*%$#$$#$#%*%*%*:;woo66O5O6O5Xer###*%#*#$*%*$&*%=*%$*%*%=*%$#$$#$#$%=*=#$&*%=*%*%$#==t5yyyy54u+#$*%$#=#$*%$*%*$#$$%*%=*%$*&*$%*=#$$#$%$*&*%=*%*%*%$*&*$%*$&*%$#$$*%$#=#$$*%*$&*$$#$%=#$$#$#$$#$$#$o   ",
"    -@#$$#$#$$#=%*%*$%$*%$#=%*$%*&$#$$#=$#$#$$$%$$$$*%$#$*%$*$#=#$*&$#=$#=*%$#=$#$*%$#$%*$%*=%*%$#=%*=%$*$%*%$$$*=$$$%;iOO5O66O66O6O64;$$$$$$$#$#$#$*%*%$#=$#$#$*&$#=*%$*$#$%*$#$$#=$#$#=qp6OOOOOOXo.r=#$*%$*%$*&$%*%$*&*$%*&*=%*%*=%*%*%$*&*%$*%*%$*%$*%$#$#=*%*$%*=#$%*=%*=#=%*%$*%*&$*&*$%*=%*&*$%#$$X   ",
"    +;##$*%$*&*$#$$=#$#$%*=#$$#=*%*$%*$#$#$$#$#$*###$%*=#$$#$%*$%*%$#=*%$#$$#=*%$#$$#$=*%*&*%*$%*=#$$#$#$%*%*a::::a:a*84X66O6O66O6O6X68::a::a#$#$#$$#$$#=*%*$%*%$#$*%$$#=#$%*$%*=#$#$*$#@,366O6O66666i%*$%*$%$#$#$*%=*%*%$*%*$#$#$$#$$#$=#=#$=#$$#=*%=*%=*%=*%$#$%*$#$%*=#$*%$#$#$*&*%$*%*$%*&*$#$$#$*%$o   ",
"    -@#$%$#$%$#$$#=#$*%*$%*$#$$#$$#$#=%*$%*&$#%*%;;=#$$#$%*=#$%*=$#$$#$*%$#$$#$*%$#=$#$%*$%*$%*$%*$#$$#$%*:;-o56565555Oo5OO6O56O5O6O5OO55655X-@$=$#$$%*=%*%$#=$*&*$%*%*$%*&*=#$%$*%$#$%*;1X6O666O5O6Oa;###$#$*%*=%*$#$$%*%$*%$%*$%*=#$*%*$%*$#=#$$%*%*%$#$*%$*&$*=#$$#$$%*%$*%$*=%$*%$*&$#=*%$#$$#=$#*%$X   ",
"    +;*%$*%*=#$=#$#$$&*$&*%$*&*%=#$$*%*$&*$#$$*=$88s@#$#$*&*%$*%*%$*&*%=*%$*&*%=*%$*&*&*$&*$%*&*$%*%=#$$*==d+.6OOO6OO6O6O666O6O6O666O66OO6OOXyffy2;##=*%*$%*$#$%*$%*&*$&*$$#$%*=#$$#=*$#;<o5O6O5O6O6Oyu;$$*%*%$$#$#$$#=#$$#$*&*$&*%*$%=#$%*$%*%$*%*$%*=#=*%$#$*%$#$%*$#$#$$#=*%$#$#$$#=#$$#$$#$$#=#$%$#=o   ",
"    -@#$#$$%*$#$*$%*%*%$*%*%$*$%*=#$%*$%*%$*%#=9fXoOw$#$#$%$*&$*&*%$*%$#=*&$*%$#=*%$*$%*%*&*$%*%*=%*$*%#=90<fO6O66O66O666OO666O56O5O6O6O56O66OXO.e;#$#$$%*=%*$#=%*$%*$%*%*%$*&$#$#$$#$#%;<o66O66O66O6oyai#$%*$#$$#$%*=%*$#=%$*%*$#$%*$*%$*&*$%*=%*&*$%$*%$*&$#=*%$*&$#$*%*%$#$*&$*&*%$*%*%$#$$#=$*%*=#$$X   ",
"    +;#%$*&*%$*%$%*=#$$#=#$=#$%*$#$&*$%*%*$#$#;g356Oo9@#$#$*%*%$#$$#$%*$#$$#$%*$#$=#$%*$%*$%*&*$%*$%*%$#;+3oX66OOO66O6O5O66O5O66O6O66O66O6O6O666oh;#$%*&*%*$&*%$*%$*%$#=*%$*&*$#$$&*$%$#;1o5O66O66O6O5OOX>=*=#$$#$$*%*$*%$#=*%=#$%=*&*%$*%*$&*$#$#$$#$#$$#=#$$#$$#$#$$%$$$#=*%$*%*%$*%*$&*$$#=*%*%$*%$#$o   ",
"    -@*$%$*&*%$*&*%$*&*%$*%*$#=%*$%*$#=$#=%*%*@hX6O6X4s#$$*%*$#$$#=$#=*%$#$$#=*%$#$*&*%*$%*$%*$%*&*$%*%#;uX66jow$9OOO56O6O56O6O66O56O5O66O66O6O5oe@#$#$*%$#$#$*%$%*&*$%*%$*&$#$$#$#$#$*#;<X6O6O5O6O66O66Oyk5g=*%*%*%$#$%*$%*%*$%*=#$$#$#=%*%*$%*$%*&$#=#$$#$*%$#=$#$*%*%*%$*%*&*$%*=%*%$*&*%$#$$%*&$#*%$X   ",
"    +;#%*%*%$*&*%=*%$*%$*%$#$=#$$#=#$%*%$*%*$a4O6O6O5.t;##$%$#$=#$*%*$%$#=*%*$%$#$$#$$#$%*$%*$&*&*$&*$$#=go6O6.h@gO66O6O66O6O66O5O6O6O66O6O66j66oe@#*$$%*$#$*$%*=#=*%$*&*=#$#$$#=*%*$%$#;<o56O6O665O6O6O6OOo4@#$=$#$#$=*%=*%$*&*$#$$#$$%*$&*$&*%=*%*$*%$*&*$&*%$*%*$%$%$%$*%$%*$%*$#$%*$#$&*%$*&*$%*$%*=o   ",
"    -@#$*%$*%$$#$*%*%$*%$*&$#$*%*$%*$#=*%$*%=io66O66OX,;#$%*$%$#=$#=%*$#$$#=%*=#=*%$#=$#=$#$#$*%$*%*%*%*;uo666oq8.OO66O66O566O66O66O66O66O6O66O6oe;#$#$$#$$%$%*%$*%$#$%*%$*%$*%$#$$%*%*#;1o6O566O6O6O6O6O66o,$:#>>;:$#$#$#$*&$$#$%*%$#=*%*$%*$#=#$$#$%*$%*%$*&*$%*%$*%**$%$#*$%*%$#=*=%$*%*=*%$*%*=#$*%$X   ",
"    +;#$%$*&*%*%$#$&*$&*&*%*$%$#$&*$&*$%$#$#$aO6O6O66o,;:#*$%*$#$#$%*$#$=#$%*$#$*%$#$*&*$#$%=#$%*%$#$$$#=go5O6O55O666O65O6O6O66O66O66O66O666O6O6oh7%#$#%$$%*%*%**%$*%=*%$*%=*%$#$*%*%$%$7<o66O6O5O6665O66O6O6y5yX<@==$#$$*%$#=#$$#=*&*$&*%$#$%*$%$#$&*$&*%$*%*$%*%$#&&&&&*%$$%*=#$*%$#$#$$#$%$#$%*%$*%*%X   ",
"    -@#$*%$*%*=#$$#$*%*$%*$%*=#$$*%*%$#=*%$#$iO6O56O5o0=;;=#*%$*$%*$%*%$#$*$%*&$%*$$#$$#$$#$*$%*=#$$#$##;uo66O6OO6O5O6O6O6O6OOOOOOOOOOOOOOO66OO6Oyg:$$*$%*$%$$$%$$#$$#$$#$$#$$#$$%$$**#s,5O6O666O6OO6O6O56O5OOOOO6844$$#=%*=%*$#$$#$$#$*&$*&*$%*$#=$#$#$*%*&$*%*$#$%lzxcv**$#$%$*&$*%$*&*%$*=#=*%$*&$#$$o   ",
"    +;#$%=*%$$#$=#$%*%$%*$%*%*$&*%*$%*$*%=*$=iO66O5O6o1;,1h;#$#$%*=#$$#=*%=#$$#=*%=#$&*%$#=#$&*$#$$#$%$#;go5O66O66O6O666O665yyyyyyyyyyyyyyy5O66O6O38$###*%$*###$##$##$##$##$##$##$###%:OoO6O5O6O66666O66O6O6O6O66OXoy#$##$*%*$%*&*$%*%$#$*%*$%*&*$*#$*$%*$%*$%*%$$#bcnnnnm%#$#$*%$#=*%$#$$#$#$*%$*%*%$#$X   ",
"    -@#$%*%*=#$%*=#$$#=*%$*&$#$*%*&$*&$#$#$#=iO6O66O6Xfh.o6i=#$#$$#=#$$%*$#$#$$#$*%*%*$%*%$*%*%$%*%$*#$#=uo6O6O5O66O5OjO6O38=#############=+36O6O664M7=;=$#=;;;=;;=;;=;;=;;=;;=;;=;;=NBo5O66O6O5O6Oj66O66O66O6O6O66Ok$#$$$#$%*$%*&$*&*$%$#$%*$%*%$%$%$#$%$*%*$%*#*&vnnnnnVC:$$#$*%$#$*&$*%$*&$%*&$*&*%*&X   ",
"    +;#*$%*$#$%*$#$$#$*%=#$#$$#$%$*%*%*$%*$#=aO65O66O6Oo65o<i;#$*%*%$*&*$%*$%=#$$#$$*$#$*$*%$*%**%*$%$$#;go5O6O65O6O6jZjXyh$$#$$#=*$%$$*%$$#B5X6OO6o5u8us#=rug8ggggggggggggggggggggg8,6O66OO666O6jOZjj6O6O6O665O6O6Ok$$#=#$&*$&*$%*%*$#=*%=*%$*&*%*$*%$%*$#$#$#$%*CAnnnnnSDN##$%*%*$%$*%#$#$#$*&*$%*$%*$o   ",
"    -@#$%*=%$*$%*%$#=$#=*%*=#$$#=*%$*%$#=$#$$iO6O6O56O66OO5.,##$#$$#$%*$#$%*$#$*%$#$%$$%$%$*%$$%$$%*$###*,X6O66O6O666O6O6-7#%*%*%*%#*%*%*%*%72O66O66OoX BF#<3ooooooooooooooooooooooooXO6O666O5O66O66OZj6O566O6O66O6Ok$*%$*%*$%*%*$%*$%$#$*%*&*%*$$%$%$$$%$$%$$%*$$16GnnnnHj1==#$%$$#$#$$$$%*$%$*%*=#$*%$X   ",
"    +;#%*$#=#$%*$&*$#$%*%$$#$=#$*%$#$=#$*%$#=iO6666O6O6O6O65o4;#$%*$%*$%=#=*%=*%$#$%*#%*#*#%*%*%$#$$#=@st5OO66O666O6O65og=#*%*&*$%*$%*%=*%*%:;-.j6O6665OfqkX65665656565565565656565655O66O5O5O66O66o66XO6O6O6O65O66Xk%$#$#$=#$#$=#$$#=#$$#$$#$$%$#$#*#*#*$#$*%*#$u.JKLnPIOOXBi$#*#*%*$%*##$$#$#$%*%=*%*%X   ",
"    -@*$%$$#$#=#=*%*$*%$*&*%$#$$#=*%$#$$#=*%$ioXXXO6O66O66O6X4;#$#=%*&*$*%$#$#$$#$*==;==;=;==;=#*###*se5XO6O6O6OO6O6OO.f=#$%*$#=#$%*=#$#$#$%*#*pOj6OO6O6O.O66O66O6O6O6O6O6O6O6O6O6O6O6O6O6O66O6OOO5Ba#BXO6O566O66O6Ok$*%*%$#$$#=#$#=$#$*&$#=$#$*%$#=;==========@1o66JOUZJ666oX9@========;=#$%*=*%$*%$#$$o   ",
"    +;#%*$#$=*%$*%$&*%=*%*$%*=*%$#$%*$#=#$%*=iftff6O66O65O6OX4;*%$*%*$%*%$*%$*%*$#$a9>s>>>>s>>s=@@;;@#5Xj6O6O6666566Xkpw;#$*$%*$&*$%*%=*%$$%*#;fX6O6666O666OXO6O6O6O65O66O6O65O66O5O6O6O665O66O66X0d#=aX5O6O6O6O6O6Ok%$#$$#=*%$*%$$#=*%$#$*%*&*%$#;hp4t44t4t4ttt5OO66OjO6O6O5Xk4tttt4t4tt4*%*%*%$*%$#$#$X   ",
"    -@#$$#=#$%*$%*$*%$*&$#=*%*%*$%*=%$*%$*$#$%==;#66O66O6O56o,=#=#$$#$*&$#=*%$$%#=%yoXoXXXXoXoo1w<w<wByOZjO66OooX..OX+7$#$#=#$%*$#=#$*%$*&*$##=pX66O5O5OO5X,wo5O666O6O6O666O6O6O66O66O66O6O5O6O6O30=:=9X6O56O566O6OO5$*%*%$*%*%$*&*%*%$*&$#=$#$%*#;13XXoXoOXXXXXO666O666O56j66OXXXXXoXXoO.2;#$%*&*=#$#$%X   ",
"    +;#$%*%$#$*&*&*%$*%*%$*%$%*$&*$#=#$$#$%*&*%*#$4.5OO66O66X4;$#$=#$%*$#$*%$#$#$iwX66666j66666oooooooOj6O66o5eBBBw-$###$#$#$$*%$*%$*%$#$*%$%*=fO6O5O6O66OOyyO66O5O66O66O5O66O665O65O66O5O6O66O66ea;#;0o5OO66O6j6O6.1=%*&*$%*%=*%*$%$*&*$#$$#$*$$#;<o66666XXOOOOOXXoOXoXXoXXOXOOOj5O65665o1;#$*%$*%$$#$=o   ",
"    -@#$$%*=$#$$#$$#=%*=#$%*&*$%*%$$#$%*=#$%*$#$#;9ko6OO66O5o0=%*%*$#=%$*%$*%$%#;- 5O6O656O6O6O5656566O6O6oX9a;;@@@;#$*%$%*=%*&*%$*&$*&*%$*%*#=fXj66O66O666OO6O66O5O66O56O6O56O6O66O6O56O666O6OO5>99#@4o666O66O6O6Ops=%$*%*=%*$#=%*$#$%*%$*%$#=%*#@<X6O5OyissrsrsiM1is1440f-isssifX66O6O5o<;#$%*%$#=#$#$X   ",
"    +;#%*$#$#$&*$%*&*$%*$%*$*%$#=*%*$%*$#$$*%$*%=#=#MX66O6O5X0;*%$*%$*%*%$*%$$$*=uo6O65Xo6O6O66O6O6O666O6Otg$=#$####$#$#=*%$#$*%$*&*%$*%=*%$%*=fX65O66O5OO6O6O6O6O66O66O6O66O6O65O6O65O66O5O66O6Oo.6i:tX6OO65O66O6Oi=#*%*%$#$=#$%*$#$=#$$#=#$$#$$#;1o6Oo3M@========;==;=;;=;===$@1o6O5O6OX<;##$$#=*%$*%$o   ",
"    -@**%$$%*%*&*$%*$#$%*=#$%*=%*%$#=*&$$#=%*$%*#$#$=0o5O66OX4=#*$%*%$*$#$%$#$##;+o6j634<X6O6O66O6O6OjO6X,;=$#$#$%*$#=%$*%*=#$%*=%*$#$%*%*=#$#=fX6O6O66O66O66O56O56O5O66O66O56O6O66O5O6O66O6O66O665OOO6O666O6O5O6OOs=*%*$%*=#$$#$$#$%*$#$$*%*&$*%#@<o66qea$#$##$#*%#%##$#%*##*%#$sX6O6O66o<@#$#$$%*$#$#=X   ",
"    +;#%$*&*$$#$$#$*%=#$$#$%*=#$$#=*%$*%*%*=#=#$%*$#;Mo6O6O5o0;:$%*%*%$%$$#$$%$:@u.5X549s.5O65O65O66jZ6Oos=##$#=#$*%$#=*%$#$$%*$#$%*%=*%$*%$%*=fX65O65O65O6O5O6O66O6O65O66O5O66O65O66O65O65O66O5O66O5O65O6O66O66O6Xr=%*$%*=#$%*$%*%=*&*$&*%$*%*%$#;1XOp@;$#=#$$#$&*$#$=#$*%*$%$#=rOO6O6O6Xt#*%$*&*%$#$#$o   ",
"    -@#$%$*%*%$*&$#$$#=*%$*&$#$#$$#$%*&$$#$%*$%*=%##;ho66O6O6Or@#*%$$$%$%$$%*%:Nuy6.4i=@+o6O6O6O66O5OjOy8*%*%$#$*%$#=$#$*%$#$#=%*$#$$#=*%$*%*#=fX6O66O6O66O66O66O66O66O5O66O6O66O66O56O6O6O6O66O6OO66O6O6O6O56O5O6Os$#%$#$%$*&$#=*%*%$#$*%*&$$*%*#;<XOk###$#$#=*%*&$*%*$%*%$#=#*=so66O6O6Oo9=#$%*$*&$#$$X   ",
"    +;#$*%*%=*%$#=*&*$#$%*%*$%*$&*%$*&*$#$$#$%*$#$$#;qo5O666OXt8;#$#*#***#*#*:;ukXX4s;:=go6O66O66O6O666k=$#=#$*%$=#=*%*%=*%=*$#=*%=*%*%=#$#$%*=pOO66O5O66O65O66O5O66O6O65O66O66O5O6O6O66O66O66j6O666O66O665O6O6O6OXa;#$*%*$#$#$*$%*$%*$%*%$*%*%$$#;<o6k$*%*%$*%$*%$*%$#=#$=#$*$%=sO5O666O6X9=%*$#$%*$*%$o   ",
"    -@#$%*=%*&*$%*%$#$$*&$*&*$%$#$*%$*%*=%*=#$$#=#$#;2.66O5O66oXu@$=========;=:yo56s;##;uo66O6OXXXXXXoo5#$#$*$%*%*$%*$%*%*=#$%$*%$#$$#$*%$*%*#=tX66O66O5O66O6O66O6O566O6O5O56O56O66O66O56O66j6O66O6Oj6O6O6O66O66O6Oea$#$$$#$$*%$#=%*=$#=$$#=$#$#$:@woOy$%*$*%$#=%*$%*$%*$%*$%*%*=sXO6O5O6OX9=*%$$#=%*%*=X   ",
"    +;#$$#$*%*$&*$%*$&*%*$%*%*=#$*%=#$$%*%*%$*%$#$$#;qo5O5O66O6O6ffffffffftfffkO63k;#*#=8o6O6Oy44t4t44t,*%$#$&*&*$%*%=*%$*%$#=*%$#=*%$*%$*%$%*=fX6O5O66O66O5O65O666O5O66O66O6O6O65O65O6O66O6OjZjO6OjZj6j6O66O65O6O63q7##$#$%*%$#$#$#$#$#$#$#$#$$#@<j6o-;##$&*$&*$#=#$&*$%*&*%$*%=sO65O66O6X9=#$#=#$*%$#$o   ",
"    -@#$#$%*$%*$#=*%$*%$#=*%$%*$#=$#$#=*$%*=#=*%$*&#;qo6O6O6O5O6OOXXOXOXXOoOXXX3,gu$##=N,X6O5oqN==;=;=;=$*%*$*%$*&*$%*%*%$*%$*%*$%*%*=%*&$*%$#=fO66O6O66O66O66O6O5O6O6O56O666O66O6O5O66O6j6O6666666666O66jj6O6O6O6O5O1=$#$$*%$$$$$$$%$$$#$$$$#$#$BZO63u;#$%*%*$%*$%*$*&*$%*$#=%*=rXO6O6O6OO>;#$$#$$#$#$$X   ",
"    +;#$%=*%$#$%*%$$#=#=*%$*%*$%$#=*%$#$&*$%*$%*%*%#@qo5O66O6O66O65665O566665Oke9@=*#=ge6O6O.6:%#%*#%*#%*%$#$&*$%*%$#$*%=*&*=#$&*$&*$#=#$*%$#*$fo6O665O5O5O66O5O6O665O66O6O5O65O66O66O6O6O6XXOXOOOXOOOOOoZOO66O66O6O6oBa$##%*#######*###$####$#=8.O6O1r$%**%*$%*%=*%$#$$#$=#$*%*=sX6O66O6X1;##=#$$#$%*%$o   ",
"    -@#$$#$$#=*$%*&*%$*%$#=%*$#$*%$#=*$%*&*%$#=$%*$#;qo6O6O66O6O66O6O66O6O6O 1*@$#$#$;p36jOy,1%*$*%$*%$#$*%$*%*&*=#$$#=$*%$#$$#$#=*%$$#$$#$*%#=tX66O6O66O66O56O666O6O66O566O66O6O66O5O66O6Xfgaririiriris1j66O66O6O6O653M@;=;=@=;@;=@=;=;=;=;==7<X6j6O$;##$%$%*$%$#=*%$#=#=#$%$*%=sO6O6O65o<;#$%*%*=%*%*$X   ",
"    +;#$#$&*$#$%*$#$$*%$*%*$$#$%=#$$#$%*$#$$#=*%*$%#@qo66O65O5O65O5O65O66OOf8r=##$:@9kO566o97=*%*%=#=#=*$&*%=#$$*%$$#=#$#=#$$#$$*%$*&*%$#$%$#*#kO6O5O66O66O6O65O6O6O66O6O6O66O6O65O6O66j6Ok:;===========@M35OjO6O66O6O6O,00,000,4000,0,0,0,000,6OO6o.ks@*%$*$%*$#$*%=*%$*%$*=#$#=sX5O6OO6o<@#*%*$$#$$*%=o   ",
"    -@#$$#$%*=%*&$*&*&*%$*&*&$*&*$#$$#=#$$#$$#$*&*$#;qo6O56O66O6O66O6O6O66op@=#$#$78fo6OO31=#*%*%$*%$*%$#$*&*$#$%*$#$$*%$*&$#=#$%*%$*%*=$#$#=@M.5O66O5O66O56O6O66O6O6O666O5O5O666O666O6OOy#*#$#$#$#%*#$#$:eo6Zj6O5O6O6O6oXooXoXoOXoXoXoXoXoXoXo666X1-Xwsa$#$%$%$*%$*%$*%$*%$#$*%=sO6O6666o<;#$$%*&$#$#$$X   ",
"    +;#%*%$*%*&*$#$%*$%*=#$%*$#$*%=#$$#$$#$&*$%$#$%#@qo5OO6O5O66O5O66O6O6X5h$#$*=ruf.56Oye$$%#$=#$#=*%$#$$#$$#$%*=#$&*%$*%*$#$$#$$$#$#$##$#$9,OO6OO66O66O5O6O66OO666j6O5O66O66O5O5O5O6O6o-;#%*&*$#=*$%*%*=$<5O6O6O66O66O5O66666XXXXXXXXXXXXXXX>:aaa$;=p4ps=#*#$*%$*%$*%=*%$#$$%*=so6O6o>:a:&#$#=#$*=#$#$o   ",
"    -@#$$*%$*%$*%$*%$#$$#$$#=%*$%$*%*%$#=*&*%*$#$$*#;qo6666O66O56O6O66O6ow#;#$%#;- O6O6o1d#$*%*%$#$$#=*&*%$#=$#$$#$$*&*$%*%$*&*=#$#$$$=$$$=*k.66O56O66O566O66O666OOOZj6O6O66O66O6O6O6O66o+;#$%*%$$#$#=$#$##@kOO666O56O6O66O65X6>99>9>9>9>>>9>>$=$$=#=shX92===$#$$#%*#%*#%*#$#*$#=iX6XX9#=$$*$*%*$%$#$#$$X   ",
"    +;*%*%=*%=*%$#=*&*=#$%*=#$$#=#=#$=#$$#$$*%$=#$%#@qo6O6O66O5O6666O6O6oM@:$#$#;uX6O6OX,=#*%*%$*$&*%$#$$#$*=#$&*$%*%*$&*%=*%$#$$#$#a:a:aa#-o5O6O6O5O65O6O66O5O5O6y55OO6O66O65O666665665o+;##$$#$#$%*$#=#$#%pX6O6O6O66O66O6j3k8=;==;=;==;==;;=$#$#%*=<0-hq2ri#$#$$$$$$$$$$$$$%$#=ho6kg=%*%#$#%$=#$#$%$#$o   ",
"    -@#$$#$#$#$*%$#$$#$$#=%*%*%$*%*$%*$#$$#$%*%*$%*#;qo66O5O66O6O6Oj6O65oq=%*$#$#;tX6O5o,;#$%*=#$%*$#$$#=$%*%$*%*&*$%$#$*&*%*$$#$#;eo5665656O6O6O66O6O66O5O66O6Oo+=:%+XO6O6O6XXXoOoXoXoO -;#$#=$*&*=%$*%*%*=go6O66O5O5O6OOOZ<-@##*##%#$#%*####$%*=#$##4Xrtt+<u=:################;tXo47#*%$*&$*&*$#=*$#$$X   ",
"    +;#%*%=*%$*%$*$%*%$#$*%$*%$*%$$#=#$=#$%*=#$=#$$#@qo5O6O66O66O6jZj6X.6:$#$%*$#=4o6O6X,;##$$#$%*=#$$#$#$*%$#$%*$%*%*$%*$%*%$#$##@eo6O6OO6O6O6O6O5O65O66O66O6O6.u@#$$yOO6O6X44040404040t8=#$$#=#$$#$*%$*%*=go6O6O66O66O6Xua;;#$$#$%*$#=*%$#$$#=*%$#$=aq0h.fw;;;;;;;;;;;;;;;;;;;0O6Xg$#$#$#$*%*%$$#$&*%$o   ",
"    -@#$$*%$*&$*&$#=*&*$%*=#=$#=#$#$$#$#=*%$%*$#$#$#;qo6j66O66O56O6O6o188=$#*%$%#;to666o,;#$*%$*%$#=$#=$%*%$*=#$$#=$*&*%$#=$*&$#$::<o56O66O6O5O666O66O5O66O66O66o+=:##yO6O6Xk#;;=;;;;;;=@=*$#$*%$#=%*&*$%*%;go6j66O66O6O6Oi;:#$#$%$*%$%*%*$$#=%*%*$#$#$7uug O1,,,,,,,,,,,,,,,,,,OO6or=#$*%$%*$%*&*$%*%*=X   ",
"    +;*%*%$#$#=#$#$$#$$#=#$%*%*$%*$&*%$*%$*&*$%*%$%#;qo5OO6O5O6O6O6O5oed=#$%$$#$*=4XO6OX0;#$#=#$=#$$#$#$#$=#$#$$#=#$#$$#=*%*%*$#;uo66OO66O65O66O5O66O6O66O5O66O5ogd=7gO6O6.w=##%*#$#%##*##$%*%$$#$*%*$%*%*%=go6O6O6O66O5ow;##$#$#$*%*$#$$&*%*$#$$#$$#$*##$$+y.oXoXXOoOXXXoOXXX.X666X>=*%=#$*%=#$*%=*%*%$o   ",
"    -@#$$*%$*%$*%$*%$#=$#$$#=$#=*%$*&*$%*%$*%*=%*$*#@qo6666O6O66O666O.+=#$#*&*$#%@4X6O5o1@#$#$#$#$#$$*&$*%*$%*&*$%*%$#$$#$$#$%*%;go6O665O66O6O66O6O5O66O66O6O6O6oeg-84o6OXtr=$$*%$#=*$%*%$*&$#=#$%*$%*=%*$#;u.66O66O5OO6ow@#$*%$$%$$%*$#=*%$#$$#=%*%$%$$:=$>kO665OXXXXoOXXXoOofXooOs#%$%*$%*=#$$%*%$*%*=X   ",
"    +;#%*%=*%=*%$#=#=*%*$$#=*%$#$$#$#$%*&*$%*%*=#$&#;qo6O5O6666O6O6oyr=*&*%$#$%$*ifXO6OX4a=$*%$=#$=#$%*=#$&*$&*$%*$$#$=#$&*$%*%*=go6O5OO66O5O65O65O666O5O5O666O6OXoooO66Op#=#$#=#=*%=#$%*=#$*%*$&*$&*%*$%$#;8yoO6O6O6666ow;#%$$%*%$#$%*$#$$*%=#$#$*%*%*#7BfoX6O53<s889>89>8998:9989$=*&*=#=*%$*&*%$*%$#$o   ",
"    -@*$#$*%$#$*%$*%$#$%*%$#$*%$#=$#$$#=$#=*&$%*$%*#@qo66O6O6O6jO6of9=#%*$#$$#$##5X66O66XOe:#*%*$%*$#$%*$%*%*$%*=%*&*$#$$#=#$$*%;go66O66O66O66O6O66O5O66O66O5O66O66666OOy$#%$#$#$$#$*=#=$%*%$*%$*&*$%*&*$#=#$#25Oj66O6O5oB@:##*#*#*#$#$%$#=%$*%$*%$$$#$=h6o66O6.<i;=;=;=;=;=;===;;=$#$#$%*$%*%$*%*=#$#$$X   ",
"    +;#%$$#=#=*%=*%$*%$*&*$$#$=#$$#$=#=*%*%$*%*$%*$#;qo5O6O66jOZ66.u@#$$*%*$#$#$=yOO5O6O66o:$%*$%*%*%=*%$#=*%$#$#$#$$#$%*%*$&*%$=go6O66O65O66O5O66O6O65O66O6O6O6O6O6O6O65:$#*%*$$#$%*%$*&*%$*&*%*$&*%$*%$$#$%$=yO66O5O6OXt$;=;=;==$==$#$#=#$*&*$%$#$###MXOjjO6O,a;#%*##*#$##*#$#%#*#$%*$#$%*%=*%=*%$%*%$o   ",
"    -@#$*%$$#$%*$#=#=*%$*%*%$#$$#=#$#$%*$%*%$*&*$%*#;2o6O666O66jo5i$#$#$#$%$$#=#9yO6O6O5OO5a$#$%*$%$$#$*%$*&$*&$*%$*&$*&$*%$*%$#;go6j6O66O6O66O66O56O6O6O66O566O56O6O66Oy#$%$*%$#=*$%*%$#$*%$*%$#$*%*$%*&*$#*$#5Oj66O6O66o4s8>9>2pfty9;#$*$#$*%*$#$%#7w3j6Zj631d%*%*%$*%$#$$#$#=*%$#$*&$*=#$$#$*%$#=*%*=X   ",
"    +;#$%*&*$%*$%*%$*%$#$$&*&*$#$$%*$%*$%*=*%=*%$#$#;q.5O6jO6OOXp>=#*%$#$$####:>oOO6O66O6O6:$##*%#*$#$*%$#$#$#$*%$#$#$#$*%$#$*%*=go66O66O6O66O6O5O6O66O65O66O5O6O666O6o.O#=*#$&*$#$&*$%*$$#=*%=*%$#$=#$%*$#$%*i5ZOO65O65O6XoXooXXOXO.-=##$%$$%*$%$*$*ejZ6jO6XBi$#$#$$#$&*$%*%$*%$*&*$%*%$#$$#=#$%*$*%$#$o   ",
"    -@#$$%*%$*&*$%*$%*=%*%*$$#=$#$*%$*&*$%*%*%*$*%$#;qo6OjZjO66.-7#$%*%$#$;;=@pX66O66O6O6O5a=;=$$;=##$%*%$*%$*%$*%$*%$*%$*%$#$$#;u3OO66O566O66O66O66O666O6O66O6O6O5O6Oehq#$#$$#$%*&*%$*&*%$*%$#=*%$*%*=#$%$#$rO6O66O6O6O6O56666oXoOXX e;:#*##$##*%%#=yXOO666o8@#$#$#=*%*=%*=#$%*&$*%$*&*%$*&$*%$*&$#$#$$X   ",
"    +;##$*%$*%*$&*$#=#$#=*%=#$%*$#$&*%*%$#$%*$%*%*%:;2ojZj666OX,#*%*%*$#$#8uggyO6O6O5O65O6Oyt9B6tu>;=$#$$*%$*%$*%$*%$*%$*%$*$%$#=90pO6O6O5O65O65O66O6O5O6O65O665O6O6O6=@=$#$%*=#$$*%$*%*%$*%$#$*%=*%$#$$#=*$=rO6O6O5O66O6O6O6O611<p,<,87=;=;@=;;=$*:k6j66XoX3-;#*%=*%$*%$#$#$$#$*%$#=#$$*&*%*%$*&*%$%*%$o   ",
"    -@#$%*$#$$%*%$#$$#$$#$$#$*%$#=$#$$#$*%*$$#$$%$*==pX6O6O5oks=%*%*=%*%*:O.ooO6O6O66O6O66OOOooOO 4ar$*%######################*$%$deo6O66O6O6O5O66O566O6O56O6O6O66O666a*#$$#$%*$#$%*=%$*%*&*$%*%$#$*%$#=$#$#=rX6O66O66O566O6OOpaa#wr>,14,04,40400ad2.6Oj3q98ga$#$#$%*&$*$%*=%*=%*$*%$*&*%$*%$*%$*%*$*%*$X   ",
"    +;#$$#$%*&*$$#$=#$$#=#$*%=#$$#=*$#$$#$$#%*%#*#$r1Oj6O65op8;#*=#$%*$#;=yO666O65O5O66O6O6O6566656o6a%*;;;;;;;;;;;;;;;;;;;;;;$###7ho6O6O66O66O66O6O5O666O5O65O66O66oO:$#$#=*%*%=#$$#$#$=#$$#$=#=*%=#$*%*%$$$iO6O6O66O6O6O66O6OoXXOOoooXoXoXoXXoX:-yO665e#;===$%*$%*=*%$#=*%*%*$#$&*$%*%$*%$*&*%$*%$%*%=o   ",
"    -@*$#$$#=$#=#$$#$#$$#$%*=#$*%$#$%$*%$#$;===;$@uoXZOO6Ook8@:$%#$*%*%$8M56O6O5O6O66O56O5O6O6O5O6O666r=--+-+-+-+-+-+-+-+-+-+-#;;a+0o56O6O66O66O66O6O6O5O66O5O6O6O6otu=%*%$#$*$%*$#=$#=#$$#$*%*$%*=#$$#$$#$#=rO6O66O56O6O6O6O666O6O6666O56666O5j6#po53-*;$#$#*%*&*$%*%*%$#$$#$%*=%*%*$%*$%*&$*%*&$*%*%*$X   ",
"    +;#%$=#=*%*%$$#=#$=#$=#$%*$%=#$*$#$%:;2ktttft4kO5O65.ts:;#=#$$$%*$#;t3O5O5O66O66O5O66O66O5O6O6O6OX>8..ooooooooooooooooo.o3-srq O6OO665O6O6j6O6666O6O66O66O66O6Ou=;#$*%*$%=#=*%$#$$#$$#$%=*%$#$%*&*%=#$*%$sOO6O6O6O666O666666666O6O66O65O666OO$4XOu*=##$#$%*$#$&*%$*=#$=#$$*%*=#$=#$$#$#$*%$$*&*$&*%$o   ",
"    -@#$%*$%*%$*%*$%*$#$%*=#$$#$*%*%$$#=N#yoOoXXXoOjO6O30s;*#$*%*#*$#%#;4O6O6O6O66O66O6O66O66O6O6O6O66qo5665656656565656556555XooO56O56O6O66666O6O6jO666O56O66O66oX:=#$#=$%*$#$%*=#=#$$#$$#=#$*%$*$%*$%*$%$#;aO6O66O56O5O6OoooooooO6OO6O6OO6O6O66ifXOi=#$%*&*&$%*$#=*%$%*%*=#$%*%$*%*&*&$$*&$*&*%$#$*%*=X   ",
"    +;#$*%$*%$*&*$&*$%*&*$#$$#=#$$%$#$=92Bo5O65O66jZ6XkB9@#%%*%*%$$%==@eo6O6O66O5O65O66O5O65O66O665OOO5O66O6O6O6O6O6O6O6OO6O6O6665O6O6O6O6O6XoX66O6jZj6O6O66O6O6O48$#$#$#$*&*%=*%$#$$#=*&*%*$%=*&*&*$%*$#$#=iBO6O5O66O6O6OyeBeBeBhpX6666666O6O6OO6OjXr$$#$*%$*%*$%*$%*%*$$#$%=*%$*%$*%$*&*%$#$*%$#$$%*%$o   ",
"    -@#$%*&*=#$%*%*&*$%$*%$#$$#$#*%*=8y53X6O66O66O65o1$;=#$*=#$$#*%*9g86O6O66O56O66O6O66O66O5O66O5O666O6O56O6O56O5O6O56O666O6O6O6O6O66O66O5Of,po66O566O6O6O666O6.8N#$$*%$#$%*$#$*%$*%$#$$#=$#$#$$#$%*&$#=$#;u36O6O6O66O66o07;@@@;7rOXooooo666O666O6ZOr=*$%$*%$*&*$%*&$*&*%$*%*%$*&*%$*%$*%*=#$%*=$#=*%*$X   ",
"    +;#*$#$$#$$#$$#$$#=#$&*$%*$%$$$#@93665O66O66O6X.Xr=##=#$#$%*%$#@p3XO5O6O5O6O66O5O66O66O6O65O6O66OO5O6O6O66O66O666O66O5O66O66O5O66O5OO6o.sFu55O6ooO6O665O6O66o+;#%*%=*%=*$%*$%*=#=#$=#$$#=#$$#$$#$*%$*%*=8o66O666O6O6OX4=######:p5q8ugu6OO6O6O6O6Xs=%#$*&*%$*%$#=*$%*%$*&*$&*%*%=*%$#$$#$%$*&*%*%$*%=o   ",
"    -@#$%$*%$#=$#$$#$$#$*%*%*%*$#$#=>0O6O6O6O6O66Xf22$#$#$*%$*$#$##q565O6O666O66O66O66O5O66O66O56O6O66O5O6O66O5O66O5O5O66O6O56O66O6O66O66Xt8$##;1oO<q6O6O5O6O5O6ou;#$#$#$$#$#=$#$%$*%$*%*%*$%*=#=#=$#=*%$*%;uo6O6O5O66O66.f=*$*$#$#=%;;;@$5O6O6O6O6OOi$*$%$*%*%$#=$#$#$$#$%*%$*$%*=#$$#=#$$#$*%$*$%*%*%$X   ",
"    +;#$$#=#$$#$#=#$=#$$#$$#$$####$#Oo66O6O6O66oya#@;%*&*$%*%*%$#$#XO6O6O6O5O65O66O65O6O65O66O6O65O65O66O665O6O66O6O6O66O66O6O65O66O5O6O6.27#$*=1oosdyOO6O666O66ou;#$$#$$#=#$$#$#=*%$*%$#$$&*$%*%$*%*%$*%$#;go66O6O66jO6Okq=#%$#=*&*$#####i:>O66O6O6Or=#%=*%$=#$*$#$%*=#$=#$$#=#$$#$%*=#$$#=*%=#$%*=#$#$o   ",
"    -@#$#$*%*&$*%$*%*&*&$#=$#$;@;7ip66O66O66O6ofi$$##$$#$#$%$%*##$956O66O66O6O6O5O66O66O6O66O56O6O66O6O66O5O666O66O566O66O666O5O6O666O6O5.27a%:7<XXM>5O666O5O6O5.u;#$#$#$$#$$#=$%*%$#=#$$#=*%*%$*&*$%*%*=#$=go66O66O6jZj.wd#$*%$#$$#%*$$%$$=:6oj6O66Xr;*$*%*&*$%*%$#$$#$%*$#=$#$#$$#=#$$#$$#$$#$#$%*$#$$X   ",
"    +;#$$%$=#$*%=*%$*%$*%*$#$#h<wB,oO6O6O66O66Og@##=#$#$%*$*#*%;7hoO6O6O66O66O66O66O5O66O66O5O6O666O6O66O5O66OO6OO6O6O6O6OjjO6O666O5O66O6OpuN;@2kOOXOO6O5O6O6666ou;#$#$$=#$$#$#$*%$*&*$$#$#$%=*$%*%=*%$$#$#=9o5O66j6O6O6Og=%#$=#$$#$*%$#$#$#=s5Zj6O6Or=#$&*%*$&*%$*$&*%$*&*$#=#$=#$=#$$#$%*%$#=*$%*$%$#=o   ",
"    -@#*%*%*=%*&*%*&$*%$$#$#$$6.ooo66O6O66O6o5:=#$#$#$$#$%#=;=*2-yO6O6O66O5O66O56O66O6O56O666O66O5O6O56O56O6O566666O6O6O66ZjZj6OO66O6O6OO5.k+2-6XO666O66O566O6O6ou;#$$#=#$$#$$%*%$#$$#$#=$%*$#=#=%*%*=#$*%*$Bo5O6O6O6656O#$#$%*$#=*%$*%$#=#=#==t.O6OXi$*%*$$%*%*=#=%*$#$%*%$$#$$#$#$$#=*&*=#$$#$%*=#$#$$X   ",
"    +;#$$&*$%*$%*$&*$%*%*$%%*#pO5666O6O6OOX.ui$#%*%*$#$##:@r89u.oO6O6O65O6O66O5O66O5O66O66O5O65O6O666O6O6O66O6OOOoX6O6666666666666O6O666O65O.ooO6O5O6O6O6O6O6O66ou;#$#$#$$#$#=#$$#=*%$#$*%*=#$#$$*%$$#$#$##;yX6O66O6Oooo0:$*&*%=#$%$*%=*%*$#$#$i95O6Or$%$%*%*$%*%$#$*%=*%$*&*$%*&*$&*%$#$$#$$#$&*=#$&*%$o   ",
"    -@#$#$$#$%*$%*$#$*&$#$*$$%kXO66O6O6O6yk+#=$#$#$$%$#;;@q6oXo65O6O6O6O666O56O6O66O56O5O66O6O6O66O5O66O66O56O6Xf80o66Ooo.ooooo.X66O6O6O6O6O565O666OO66O66O566O5.u;#$$#$$#=$%*$%*=%*&*=%$*%*%$$#$%*$#$$$#=$15O6O6O6Oy++8;$%$*$#$$#=*%$#=$#$$#=#=$5O6Or=*$$%*%*$$*%$$#$#$*&$#$#$$#$%*$#$$#$%*%*$#$%*$*%*=X   ",
"    +;*%=*%$#=*&*%$*%$*%*$%##*kX6OOjj66o1;#@#$#$$#$#*#=+e25X5O66666666O6O6O6O65O66O66O6O66O66O665O6O65O66O5O6O6o0Yq.5opqehhheheqto66O6O665O6O6O65OO666O5O66O5O66ou;#$#$%*%*&*$%*&*$#$$#$#$$%*$#=#$##$###%:eo6O6O666Ok;;=##=#$#$$#$#$%*$#$$%*%*%*:5X6Xs=###$*%=#$%*=#$%*$%*$#$=*%=*%*%=*&*=#$$&*$%*%$#$#$o   ",
"    -@#*$#$*$%*$%*&$*%#$#%*;#k6O666ZOoyra$##$#$#$$$$%:7t oO6666joXooX6666Oj6O6O6O56O66O56O5O66O5O66O6O6O66O6O66Xf90OOyu7;@;@@@;78ko6Oj6O6O6O66O6O66O5O6O6O66O6O5o+;#$$#$$#$*%$*&$#$$#$$#$#$$$%*%*=;;=@;=N2356O66O6OOk###$#$*&$#=*%$*&$#=#$*%$*%=#56oB7=;=;%$$#$*&$#$*=%*=#$$#$#$#$$#$*%$#$$#=#$%*=*%$#$%X   ",
"    +;#$%$#$&*$%*$#$#$$$*$#gfOO6O6Ojk,>=$%*%*$%*%###:=w5666OX.o.+8u9q3oojZ6O66O65O66O5O6O6O65O6O65O66O665O66O6O6OoOo6#=###%#####=%MXjZj6O665O66O65O6O666O65O66O6ou;##$$=#$$&*%*$#$$#=#$$%$###$#$:00404,40O5OO5O66O6Xk;$#=*%$#$$*%$*&*$%*$%=#=#$#:yOOk,404<=##$#$#$*%=#$%*$%*%$*%=*%=*%$#$$#$*%$*%*%$*$#$X   ",
"    -@#$*%$#$*%*&$$#$#:#:=23X6O66O6y*==$*$#$%*%$=;;=7>oOjO6X4-q-@d7d#h-<XjO6j66O6O6O66O66O66O56O6O5O56O5O6O56O6O65Opg=#%*%*%$*%$#$=4X6O66O6O6O56O6O56O6O56O6O6O6ou;#$#$#$#=*%$#$$#=$#$#$*=;;;#$$aXoXXXoXo6O66O6O56O65e:$#$%*=#$%*=%*%*$%*$#$$#$$#5X6OoXX.p;#$$$%$*%$*%*%$#=$#=%*$#$#$$#=*%$#$$#=$#=#$#$%X   ",
"    +;#$%=*$%*%=*%*$$i555y665O6631$a%*#$%#$=#$*=gM+Mu0XjZj6oeF;g-M-M8779.66O66O66O665O66O5O6O6O66O66O66O666O66O6O6ow7#*%*$=#$%*%*#;h.5O6O6O666O65O66O5O66O6O6666o+;#$#$=#$*%$*$&*$$#$$$#=8--u$#$:5O65O665O6O6O66O6O6Oor=*%*=#$%*$#$#$$#$*%=*%$#$:yO6O666Oyr*#%#$*%$#$*$%*$#$*$#$%$#$$#$*%=#$=#$#$$#$$%*$o   ",
"    -@#$$#$#=$#$%*&#=iXOOOO6O6O5fr=$$#$#=*%*$%#;f oooX6O6O5oer5.o.o.o0=uo6O6Oj6O66O5O6O66O66O66O66O66O66O5O5O6O6O6o1=%$*%*%*=#$#$#;eo6O6O66O6O5O66O66O66O56O5OO5.8@:$#$#$$%*&$#$%*%$#$##;0 .5$#$a566O66O5O66O5O66O6O66i$%$#$$#=$%*$%*&$$#$#$*%*=:5O66O6O53-F=*$%*$#$%*%*$#$%*%$*&*$%*=%*%*$%*=%*&*%*%*%$X   ",
"    +;#*%*%$*%*=#$$*$rO6O66O66op@=#$#$&*$%*%$*%=0O5665O6O66.hs356656O5=gXyO6jZj6O5O66O65O66O66O6O6O6O6OO6O6O66O665o<;#*%$#$$#$$%$#@w X6j66O6O6O66O65O66O5O66O66OOf8;#$&*$#*%*#$#*%*#$#$:dwXOy$#$a6OO6O5O666O6O66O6O6Ooi=*#$$#$*%*%$*%*=#$&*$%$#$:yO6O66O6Ot1q=#$$%$*%$%$%$%*%$*%*$&*%*%$*$%*$#$*%$*%$*%$o   ",
"    -@#$$%*$%*%$*%*%=iX666O6O5Xp*#$#$*$%*=%*%$#;f.O6O6O66O5.hso6O6O6Oy=-gho566OO66O6O56O6O6O6O6666565666O66O6O6OXO.1;#$*&$*%$#=*%*=uB<XXO66j66O5O66O5O66O6O5O6O66of=##*%$$$$$$$$$$$$$$#$upOXw==;:5O66O66O6O66O6O666X6ea=%$#=$#=$#=#=$%*%*$%*=#$%#5O6O6O6O6O3f;#*%*%$$*$*$%$$$$%*$%*$%*=#=%*=%*&$*&$*&*%$X   ",
"    +;#$%*$&*%$*%$#$=iOOjj666OOp$%#$#$%*$#$=#$*=e4pO6O6O5O6oh>o5O6O6O57M8e ooX666O66O6O6O666j6Xooo...o.O66O6O6X<assa=#$%*$&*%*$&*%$=N=sa-3O66O6O66O6O66O66O66O5O6OO6s;:################toO6Okpg-yO6OO66O6O6O666665X4a;=*%*=#$$#$#$$#$*%$*&*$#$#*:5O6O65O66O6y5-7:%*#######*###$#$#=#=*%$#$*%*%$*%*%$#$#=o   ",
"    -@#*$%*$#$*&*$%*=rO6ZOOO66of$*%$*%*=%*%*$%*%=d+.5O66O65.hs.O6O6OO60a+us89<o6O6O666O66O6O6X,9u9>>>89to6O6OXor;$==#$#=*%*$%*%*=#$###=;a9035O66O66O56O5O66O66O6O66Ok97;@;@;@;@;@;@@;@:OO6O6OOooO6O666O666O6Oooooo3t@:$#$$#$#=*%$*%$#=*%$%*%$$%$:yO666O6O6O6OX52d$$@;@@@;@;@;$%$*%$*%$*%$$#$$#$%*=#$$#$$X   ",
"    +;#$#$=#$=#$%$*%=iO6j666O6Xp$##$#$=#$#$=#$%$#=Mo6O6O6O6.hs.5O66666oBhhq-dM.5O65O6O66O6jO6.h7;9h2hgF1o6O6Xk-%*%*#=#$$#$&*$&*$%*$%=#$#$@>,X6OO65O66O6O65O5O6O6O6O6.4heeeeeeeeeeeeeehfO6O5O66656O6O5O6OjO6Xk2hqq2h+=#$#=#$%*$%$*&*&*$%*$#$$#$*$:5OO5O6O66j6O5XkBriwheeeeehBu=#$%$*%$*%*=#$%*=#$$#$$#$#$o   ",
"    -@#$$%*%*%$*&*%*=rooXoX66O66Oe@#$#$#$$$#=*%*#;Mo6O66O66oB=ii6.oXXj6.3 3.thX6O6O66O6j66665oh>jO.o..<<X66o1$;#$#=%*$#$$#$#=*%*$%*%*$#$#:78.6O66O6O66O66O66O666O6O65X.oooooooooooooo.OO6O6O6O6OO566O6O6Zj6.q7;;@;@;#$%$*%*=%*=#$$#$$#=%*=#$$%#;ho66O66O5O5O6O6O <B ooo.ooo w@#*#$#$#$%$#$%*&$*&*&*%$#$$X   ",
"    +;#$%*=#$$#$#$=#$#999>uOO6OjO6B@$#$$#$#$#$#$:=-.56O66O6oeF$%998>2XX4ssh.pqo6O66O6O66oo..o es36665o,wo66oh;#*%$#$$#$%*$%*$%*%$*&*$&*%$#=+o666O6O66O66O66O66jj65O6O65656556566565665666O66O6O66O6O666O6OXfa$######$#=*%$*%*%*$%*%$#$#$$#$$%*#;B.5O6O5O66O6O6O65Xo5565556565h;%$%*$&*=#$$*&*$#$$#$$#$#$o   ",
"    -@#$*%*$%*=%*$#$#$=;=;iB6O6ZjX6ea$#$$$$#$$%*=dMo6O5O6O5Ofw>@7@7FrXo1;@+3fqo6j6O66OOOq-ugu+rgo5Oj6o1<o6O5:$%*%*$#$$#$%*=%*=%*&$*%$*%*$#;uo6OO6O6O6O6O6OO6OjZOO6O6O6O6O6OO6O6O6O6O6O6O6O6O566O56O6O6O6O5u=$#=%*$%*&$*%*%$$#$%*=%*$%*=#$$#$%*#7ho6O66O66O56O66O566O66O6O6OOOZ>#:*%$*%*$%*%$*%$#$$#=$#$$X   ",
"    +;#$%$%*&*%*$%*%*%*#$#=@sXOjO6j e;:########=gq5OO6O66O6OO -+2M2MB6O,@@+.fqo66O65O66X#N-u+8<O6OZj6o1wo6j6a=#$*%$&*%$*=#$#$#$*$#$%*&*$%#;uo56666666666666666666O66O65O6O666O65O5O65O6O65O6O5O6O6665O6OXh7##$#*$%*%*=#$%*=#$$#$#$$#=*%$#$$#$#=8tX5O6O66O5O66O6O6OO66OO66O666OOO1;##$$%*&*=#$%*=#$%*%*%$o   ",
"    -@#$*%*=%*$%*$%$*%$#*%#*%syOZO5ohd;;=;;;;;;rk3O6O66O66O66O2O.ooo.o3ts>h.5qo5Oj6O6O6Os-3..3o66j6O6o1<o6O6:$#$%*$#$*&$#$$%*=%*%$*%$*%$*#;- oXoXoXoXoXoXoXooXo.66O66O6O66O6O66O66O6O66O5O666O6O6O6OO6O6Xr$*%*=%*&$$#$$#=$#$#$$#=*%$#$$#$%*$#=$yo6O6O5O66O6O5O66O66O566O66O6Oj6o,;#$*&*$%*%$*&$#$*&$*%*$X   ",
"    +;#$%*$%*$%*&*$#$&*$%*$#$;kO6O6Xp<,11111,1,XO56O5OO65O6O6X2yO65Ofg+o 3 6>h OZO66O6Oy2356666Oo5665.4wo665a=$#$$#$$&*%$*&*$%*%=*%$*&*%$#=i+uuuuuuuuuuuuuuuuuugjXO6O6O66O6O6OO6O6O65O66O6O5O6666OO66666O>=%*%$#$*$#$$#$*%*%=*%$*%=#$$#$*##:N8pO56O66O66O66O65O6O6O6O6O6O6O6jZ6o1;%*%*%=*%$*%*$#$&*$%*%=o   ",
"    -@#$$%*%$#$$#$#=$#$#$%#$##kO66O6OoooooooXoo6O66O666O6O5O6oM5666o0d7+2h2gFsepO6O56O65MX6Oj6XpB.oX.kg1o6O5a$#$#=%*%*$#$%*%*=#$*%$#=$#=*%*=;;;@;;;;C;;;;;;;;;=@+yX6O666O6O666666O6O6O5O666O6OjO666jXXoX.>=*$#$$#=%*$#$%*$%$*%*%$*&*$#$#$;;@8fo6O6O6O56O5O66O66O566O6O66O66O6O5X,;#$$%*%*=#$$#$$#$*%*%*$X   ",
"    +;#*%*=#=*&*%$$#=*%=*$$#$*yoXj6O665656556556O6O6O6O66O6O6X2O.oo.pg+8s7>8uuF<oO6O66O52.5665o1711,0uT1o6O6#=*%$*=#$=#$=#$$#$%*%$#=*%*$%*%$########*########*##N-5X6O6O6O6OXoXoj6O66O66O6O66jZ6O6OX,,,,0r=#%$*%$#=*%=#$$#=*&*%=*%$*%$%$:uu8p.5O6O66O6O6O66O66O6O5O6666666O6O66o,@##$*%$*%$&*%$#$$#$%*%$o   ",
"    -@#$$%*$%*$%*=#$%*$#=#$#$%4ppO6O6O6O6O6O6O6O66O56O5O666O5ogi>s>9k.o.o0..o.fkO666OO6OsM3o..X500-T-t05O6OXq=#$#$%*$#$%*=#$$#$$*&$$#$%*$%*=%*%*$#$$#$%*%$$#$%*%#;a56O66O6Oy8g8g6O6j66O56O5O6j6O6Oks;;@;@$#=$#=*%$*%$*&*%$*%*$%*%*$%*$#=s3ooO5O6O6O566O66O5O5O666O6O6jo.o66O6O5o1;#$#=*%$*%*$%*=#$$#=#$$X   ",
"    +;#$%*%=*%$#$#$%*$%*%$#=#$$=#yO66O66O6O6O6O65O6O6O66O5O6OX,qheq=tO56635565.X6O6O666O#@-++u,oX.5+<3XO6O6o<7:#$%*$%*&*$#$%*=#$%*=#$%*=#$#$#$$%*%$#=#$=*%*%=*%*$#$kOO6O66Okd7@*5OO66O6O66O66O6O63M@#####$*%#=*%=*%$#$*%=*%$%*=#$=#$#$*=>X566O66O66O6O65O66O66O6O65O6XhM2XOO6O6X,;#$$#$%*&*$%*$#$=#$*$#$o   ",
"    -@#$$#$#$*%$*%$*&*$%*=$#$*%#;23O6O6O66O66O66O56O66O66O6O66oo..o#tX5OOwooX.1kO66O6O6Oq-guusMo5j p<.566O5X48;$#$%*$%$*%$*&$#$*%$#$*%$#$$#$$#=*%$*%$*%*%$*&*%$#%*%kO66O6OOyM2:#5O66O56O5O6O56O661:$#$*$#$%*$%*$#=*%$#$$#$*%*%$*%*$%*%#=rX6O6O6O56O56O5O6O66O56O5O6O6Oa@=e6X6O6o1;#*%$*%$*%$#=%*=#$%$#$$X   ",
"    +;#$#$$#$%$*%=*%*%$*%*%$*%$#$:upO6Oj6O66O5O6O6O66O5O66O65O65665*k3 pidiiirF<o5O66O6Ooo.3 OB3Xwia;h36OO6OXOk-@:#$#$*%$#=#$$#$&*$%*=#$=#$$#$*%=*&*=#$%*=#$$#$=*%$kO6O66O6Oo.kf6O6O5O6O66O66O6O5=$#$#$%*&*$%*%$*%$#$$#$*%=#$=#$$#$#$:@>y6O6O66O6O5O6O66O66O6O6O66O66Oa@$=a,o66o1@:%$*%$*%=*%*$%*%*=#$#$o   ",
"    -@#$$#$$*&*%$#$$%*%$*&*&*=#$#$;#56jZj6O66O66O66O66O6O56O6O6O6O5=>gui=,wwww<yOO5O66O665X0ug:h3-i,B41O6O6O66oyM7$%$$#$*&$*%*=%*$#$%$*%*=#=%*%$*%$#$$#=$#$%*=#$#$*kO6O5O5O655XXO6O66O66O56O6O6O5:#$#=*%$*&$*&*%$*&*=#=%*$#$$#$*%$$$#;8po5O66O66O66O66O66O666O66O56O6O,,g;FBo66O5a;#*%$*%$#$$#=*$%$#$#$$X   ",
"    +;#$#$%*%*$&*$#=#$=#$$*%$#$%*%#;h.6O6O66O66O66O6O66O66O5O6O66O6h----B.oooooO66O65O6O66owd$-e -g oX-O6O66O65oyq9=#$#$%*$#$$#$*%=#$*%$#$%*$%*=#=#$=#$$#$%*$#$%*%$kO6O66O6O6O5O66O6O65O6O6O666Oy:=#$*%$*%$#$#$=#$$#$%*$&*%$#$#%$####$fo5O6O5O5O65O66O5O65O5O65O6O6O6OX h+2fX5O6o1r=#$#$#*=#$*%$#$*%$$#$o   ",
"    -@#$$#$%*%$*&$$#$$#$#$%*$$#$*&*%*-o6O66O66O66O666jj6O66O6O56O6Oo....o5655656O6O6O6O6O5owi6.o6yk655MXO66O5OO5O h;#$$*&$#=$#=%*=#$*%*$%*=#=*%$#$$#$*%*&$*%$$#$#$#pX66O66O66O66O56O66O56O56O5OO5:$#$%*%$*$%*$%*%*%$*&*%*$#$%*$$$;=7sjX6O6O66O66O6O5O66O6O66O6O666O5O6565ooXO6O66oXhd=$%$$%*&$*&$#$*%#$$X   ",
"    +;#$#$=*%$*%*%*$%*&*$%*&*%*$%*$#;8o66OO6OO6OO6O6OOZO6O6O66OO6O6556565O6O6O6O6O66O6O6O6.Br.5j5o.o.X2O66O6O66O6X2;##=#$*%$#$#$$#$%=#$&*$%*%$$#$$#$%*$&*$%*&*$$#$$kO6O6O5O5O66O6O66O6O5O66O6O6Oy#$#$#=*%$#=*%*=#$=#$$#$$#$$*$#=8t,,fX56O6O5O66O66O66O5O65O6O66O5O66O6O6O6556O66O5Oy,,*%*%*%$*%*$$#$$*%$o   ",
"    -@#$$%*%*$%*=%*%*$%*&*$$#=%*%$#$=go66666666666666666O6O6O666O6O6OO6O6O6O6O6O56O66O66O6.Bro66X02hq2+XOO66O6O66o2;#$%*%$*$%*=#$$#$*%$*&*$%*%*$%*=#$%*$#$*&$#=#$*%kX66O66O66O56O5O566O66O66O66O5#$#$$*%*=%*%$%*$%*%*%$#$$%*%$#=M3XoX6O6O66O66O5O66O66O66O666O56O6O66O5O66O6O6O6O66Oo6:*%*$#$%*&*&$#=#$$X   ",
"    +;#$#$#$=#$%*%*$&*$%*%$#$$#$=#$#$#aaaaaaaaaaaaaaaaaaa:po6O6OO66O666O65O65O65O66O6O6o0#:=soXo MsyffyO66O66O6j63h@#=*%$#=#$=#$$#=*%$*%*%$*&*$&*%*$&*$%*%=*%*$$#$$kO6O65O66O6O66O6O5O66O66O5O6O5:$$#$#$&*%$*&*$&*=#$%*$#$#$%:;qX6665O6O66O66O5O66O65O66O5O6O5O66O66O5O66O6O66O5O6O6665i=*%$*&*$%*$*%$#$o   ",
"    -@#*$$#$#$*&$*&$#$#$$*&$#=*&*$%*%$=$=$=======$======$$ato6O66O66O5O66O6O66O6O6O56O6o<=t4p6>is=g3OXOO6O5O6O6Xf>i$#$%*$$#$#$%*%$*%$#=$#=#$$#=*%$#=*%*=%*%*$%*%*%$kO6O6O66O56O5O666O6O5O5O66O6Oy#$#$#$$#$*%$*%*$#$*$*%$$%$$#;#5O6O6O6O6O6O5O66O6O56O6O66O6O66O6O5O66O6O5O66O66O66O6O6or=%*%$*%$*&$#$#$$X   ",
"    +;#%*%=*%$%*$#$*&*$%*&*$*%$#$%*$*%#$#$#$#$#%*%#$#$#%*#;8666j6O5O6O66O5O66O66O66O6O6Op1oOop8<eB4O5O66O6O66O6o1N%$#$*%$#$$#=*%=*%$#=*%$*%$#$$%*$%*%$$#$$*%=#$$#$*kO66O65O5O6O66O6O66O66O65O66O5i$#$$%*$$%$*%$$%$$%$#$$#$*#*>0X6j66j6O6j66O66O66O6O5O65O666O6O66O66O66O666O66O66O6O6j5i=*%=*%$#=*%$%*%$o   ",
"    -@#$%$#$*&*$%*%$*%$*&$#$%*$%*=%*%$*&*$#$$#=$#=*&*%$*%$#=$yo6O66O56O66O66O5O66O56O6O5X3XXoke ooXO6O6O66O6O6oe;#$#$%*=#=#$$%*$#=*%$*%*%$*&$*%*&*$%*=#=#$%*$#$#$$%kO6O66O66O66O56O5O66O66O6O6O6OOr$##*%##*#%*##*##*%*%*$##@2.o56OXXXX66jO6O6O6O66O66O6O6OOj6O6O6O5O5O66O5O66O5O6O66X5:#$#=*%*$%*%*=*%*$X   ",
"    +;#$$#$*%*$%*%$*%*&*$#$%*=#$$#=#=*%*%$&*&*$#$$#$%*=#$#$##:4XO6O66O5O6O5O6O66O5O66O6o0$iai*Mo5656O6O65O66j6Oyp4$$%*$%*$$#$#$%*$&*$&*%$*&*$%*%*$%*$#$#$%*$%*$%*%*kO66O5O5O65O5O66O66O5O5O65O6O6o<7$===$=$=$===$====$==$@rkyO6X3kisi8.oZjO6O665O665O66O66jZoX6O6O66O66O6O65O6O6O66opa#$#$*%*%=#$$#$%*%=o   ",
"    -@*$%$*&$%*=%*=%*=%*%$*$%*%*%$*$%*$%*$#$$#$%*%$*&$#$%*%$#@,X6O6O66O66O6O66O56O6O6O6Ok<<<<wpOO6OO566O6O5O6O6Ook$##$#$%*&$*&*$%*%*&*$%*%$#$*&$$#=%*$%$*=%*=%*$%$$kO6O66O66O66O6O5O6O66O66O66O6O66<iiraiiiiaiiiiiiiiiaraufXO6XBg8===#gh6jZj6O6O6O5O6O66O6OO+4X6O6O66O666O6O6O66O6O51@#$%$%*$%*$#=$#$#$$X   ",
"    +;#%*$%*%*$#=*%*%$#$$#=#=*%$=#$%*$%*=#$$#$$#=*%*$#$$*&*%#;,o66O66O66O6666O5O66O666O6OoooooO66O66O6O66O66O6O6Ok*#$#$$#=*%$*$%*$$%*$%*=#$*$%*$#$#$=#$#$#=#$*%*%*#kOO66O66O66O66O66O65O66O66O66OO6oO6OO6O6OOOO6OOO6OOOO6Xo65Xk;;=*%*#;@>X6O6Oj5O6O665O6O6owR1o56O6O66O5O66O666O6Oya=#*%*%*$%*=#$%*$#$#$o   ",
"    -@#*%$#$$%*%$#$$#$*%*$%*%$*&*$%*&*%$#$$#=#$$#$%*%$#$%*$#*;,X6O6O666O6j6O666O6O5O6O5O6565656O56O56O6O66O56O6O5o+@#$#$$#$*%$#$%*&*$%*%$*&$#=$#=$#$#$$$#$%*%$$#$=;kO6O6O5O66O5O66O56O6O6O66O5O666O56O66O5O66O6O666O56O6O56X3t*##*%*&*##;,.6j6ZO666O5O66O6ow;#w366O6O56O6O56O6O66O9$#$#$$#=#$%*$%*&$$#$$X   ",
"    +;#$#$=*%*$%*$=#$$&*%=*%$*%*%$*%*$&*$$#=#$$#$$#$=#=*=#$$#;,o5O65O6O6O6O6jO6O66O66O66OO6O6O6OO6O6O665O6O6O65O6O5q;#$$#$%#$#$#$#$$#=#=*%$#=*%$#$*%=#=#$=*%$*#$#aqO6O666O65O6O65O6O6O66O65O6O65OO6O66O5O66O66O66jO6O666OO648s=#$&*%*%$#$aBX6O66O6O6O66O66oB;#:ho66O6O6O66O6O6O63qa=#$$$#$*%=*%$*%*&*$#=o   ",
"    -@#$$%*%$#=*%$#$*%*$%*&*$%*$%*&$#=*%*%*$%*&$#=*%*$%*%$*&#;,X6O6O66O6O66666O6O66O56O666O6O5O666O66O5O66O66O6O663,;#*%$*$$$$$$$*%*%$*%$*%$*%*=#$%$*$%*%*%*$%$:7136O6O5O66O66O6O66O66O566O66O6O66O5O6O66O6O6O6OjZOj6OO66X4@==#$#$*%$*%$#NM O6jO6O666O66O5oB;:@go6O666O66O66O66Oh:;#$#$#=%*=#$%*&$$*%#$$X   ",
"    +;*%$#$*&*$%*%*$&*%$#$*$&*%=#$*%$*%$#$$%*$#$*%$*%$#$=#$$#;,o6O66O6O66OoXOO6O65O5O66O5O66O66O5O65O6O66O65O6O6O6X<@$=$#########$#$=*%$*%=*%$#$%*$#$#$*%$$$#$#$8pO66O6O66O5O66O65O65O6O6O5O65O66O66O666O6O66j6666666666X.f;##$$#$%=*%*%*=8<ko666jj6O6O6O6oB;:$uo66j6O6jj6jO6jOO#=##$#$$#$$#$$#=*%*%$$#$o   ",
"    -@#$*%$%*$%*=%*&*$%*=%*%*$%*=%*=#$#=$#=*%$*%$#=%*$%*%*%*#;,X6O6O66O6owi>9O6O6O6O6O66O6O56O66O6O6O66O56O6O666OOOytfkB7;;;;;@;$%$#$#=#$%*&*$%*=%*$#$%*$####:@83O6O6O66O66O6O66O6O6O666O6O6O66O56O66O5O66O6O6oooooooo.5r>r$#$#$$#$#$$%*$%=@:< OjZOO6O56O6ow;$d8.6O6O6jZOjZOjZj6r$#$#=%*=#$$#$$#$*&*%*%$X   ",
"    +;#%$*&*$%*&*$%*$%*=#$%*$%*$#$#$$#$$#$#$&*%$*$#=*&*$%*$$#;,o66O66jjO5r;=#6O6O666O66O66O6O66O66O665O6O6O66O5O665OoXX5<111<1,w#*%*%$#$$*%*$%*$#$#$%*#$#$@;;7ukO5O5O66O5O66O66O66O66O6O666O66O6O66O5O66O6O6XOuu+u+u+u-g;==$*%=*%*$&*%*&*%*#;r+fX66O66O6O6oeR2,4O6O66O66666666o.i=#$$#$*%$#=*&*%$%*$%*%=o   ",
"    -@#$%$#$#$$#$#=*%*%$*%*=%*&$*%$#=$#$$#$$#=*%$#$$#$%*=%*%#;,X6O66O6Zop;:$i6O66O5O6O56O56O56O5O66O5O66O66O56O6O6O6656OooXoooo6:$#$*$$#=%*$%*&$*%$*%$$#=ihqq2f.6O66O5O6O6O66O66O66O66O6O6O6O56O5O666O6O6O6OyM;=;;;;;;;;#$#$#$#$$#$*$#$$#=#$#$d0.O666O6O66Xt-k.XO6OO6XOOOOOXOX,h:$#$#=%*$#$%*$$#=*%$*%*$X   ",
"    +;*%*$#$=#$&*$%*%$*&*$%*%*$#$$#$*%$*&*=#$*%=#$$#$%*$#$#$#;,o6jO6O6O>a#*=#6O5O6O666O6O6O66O6O65O6O65O66O6O66O5O66O6O6565656jk$###$%#$%*$&*%*$#$#=q5pkp5.oo.O56O5O6O666O6O666666666666jO666O6O66O6O66O66O.s@#*######%##$#$#$=#$=#$%=*%*%=#$#$irakoj6O6O6OO.Oj6O6Xuaririiriir$@$#$$%*$%*%=*%$#$*%=#=*%$o   ",
"    -@#$#$$#$*&*$#$$#=%*%$*=%*%$#=$#=#$%*$%*%$*%*=#=*$%*$%*$#;,XjZj6O6Xh;#=rt6O6O66O5O66O66O66O66O56O6O5O56O5O66O6O56O6OO6O6O6OX-d;=$*$#=*%*$%*%$$:dh36XOO55656O6O6O66O6O6O6Ooooo.o.o.ooZjO6O666O56O6O56OO5g##$#%*=#$$#=$#=$%*%*&*$#$#$$#$*%*$#===stX6O66j665jZj63t===========*#$$#$*&*$%*$#$*&$#$*$#%*=X   ",
"    +;#%$$#$%*$%*%$#=*%$*&*%*$%*=#$%*$%*$%*%=*%=#$$#$&*$&*%$#;,o66O6O6o4=:=8.O6O66O6O65O66O5O66O6O6O66O66O6O66O6O66O66O66O5O6O6Xfqw8=%#$$#$&*$&*$#=-pO5O6O6O6O6O66O66O6O66O66h2q22222222kO6O6O6O6O65O66O6Oy=$#$*$%*%$#=*%$#$*%$*$%*$%=*%$*%$%*&#$:7wo6O6O6O6O6O6X0>=#*%*%*#$#$#=#$#$%*$&*$&*%=#$$#$%$*%$o   ",
"    -@*$%*$#$%*=$%*=%*$#$$#$%*=%*%*$%*$%*=#$*&*$%*&$*%*&*$#$#;,X6O66O6O5yyy556O6O566O6O6O66O6O566O66O56O5O66O56O56O5O66O56O6O6O6Oo q;#$#$$#$#$*%$#;t.6O6O56O5O6O5O66O566O6Oya;;;@;@;@;;;$0X6O6O56O5O6O66OOy:#$#$#=$#$$#$*%$#=*%$#$%*=#$#=%*$#$$*%##$ho6O6O5O5O6ou;=%*$#$*%$#=$#$#=*&*%$#$#$$#$*%*=#$#$#$X   ",
"    +;##$&*%=*%*%*$#$#$$&*%$*&*$%*$%*&*$%*%$#$%*%*$#$%*$%*%$#@,o5O5O65O6OOOOO6O66O6O66O66O5O66O5O66O5O6O666O5O66O6O66O5O6O66O65O65o2;*#$%*$%*%$*%*=,o65O66O6O666O66O6O6OO6 2;###########=>.O6O6O6O66O66O6Oy#$#$%=*%$*%*%$*%$*%$#=*$&*$%$*$#$=#$#$$#@M.56O66O666o9=#$#$&*%$#$*%=#$$#$$%*=#$$#$$#$$#$$%*%=o   ",
"    -@#$$#$$#$$%*%$*%$#$*%$*&$#$*%$*&$#=*&*$%*=%$*%$*=%*$%*$#*0o6O6O6O6O5O66O6O6O6O5O66O56O66O66O5O66O66O6O56O6O56O5O66O56O56O6O6Oo2;#$$#=#$$*&$$#;4X6O6O5O56O6O66O566O66Oqa$$%*%*$%*&*%*%+5O66O66O566O56Oy#$%*$#$*%$*%*%*$#$#$$#$#$%*$#=%*&*$%*%*#$ho6O6O66OO5X8=*%*%*$%*=%*=#$*%$#=*%$*&*&*&$*%$#=*%*$X   ",
"    +;#$#$$#=#$#$=#$$#=*%$*&*%*$%=*&*$#$%*$%*$#=#$$#$#$$#$##=fOO66O66O66O65O66O6666O66O6O6O6O5O6O665O66O5O6O6O66O66O66O66O6O66O6O6oq;#%*%*$&*%*%##;4XO5O66O6O6O66O6O6O6O6Oa=*%*&*%=#$*$%*#;pO6O66O6O6O6OOOy#$#$#$%$*%$%$$%$$#$$#$%=#$*%=#$%*$%*$$#;wo6O6O66O666o8;#$%*$%*=#$#$$#$%*$#$=#$%*$%*$&*%*$&*%$o   ",
"    -@#$%*%$*$#=$#$#=$#$%*&$*$%*%*%$#$$#$$#$%*$#$#%*%*%*%*=$f6O6O566O5O66O6O6O6OjOO6O56666666O666O6O6O66O666O56O5O66O56O66O5O66O66o2@#$$*%$*&$#$$#@0X6O6O6666O66j666O66OOXs=%*%*$%*=%*&*%#$5.O6O66O666O66Oy#$#$$#$#$*%*$#$#$$%*$#$*$%*=#$*$%*=%*%#;<o6O66O66OO6X8;#$#$%*$%*$%*&$*%$%*%*%*$%*=#$#=$#$*%*=X   ",
"    +;#$#$$#$%$*&*%$*%$*&*$#$%*=#$$#$=#$*&*%*$%$*$$$=#$*$#:hoO6O6O6O6O66O5O66O6jZk6O6OOOjOOjO6OjO6O666O66O5O66O6O66O6O66O5O66O66O6oe$##$%$*%*$$*%#:4o65O66O6O6OO6O6O6O6Oykr=*%*$%*$#$%*$#$#9MX6O6O6O5O66jOf*#$#$%*$%$%$%$%$$#$#$*%=#$%*$%$#=#$#$$#;<o66O65O6665o8=#$%*=*&*%$#$*%$*&*$%*$=#=#$%*$$#$%$*%$o   ",
"    -@#$$#=$#=#$$#=*&*%$$#$$#$%*$%*=#$$#$$#=$#=#$###*%*%#=t.56O5O5O56O5O66O6O6OOO#0O6666666666666666Oj6O66O6O5O66O56O5O66O66O5O6O65o1;#$#$%*%*%*#$yOO6O5O66OO666O6OO6O6.-;#$#$%*&$#=*%$#=$#@aO6O66O6O6O6X4=#$$%*$%$*%*$#$*%*$%$%$$#$*%$#$*$%*$#$##;1o66O6O6O6O6o9;#$*%$#$$#=$#$#=%*%*$%*%*$%*=%*%$*=#%*$X   ",
"    +;#$%*%*%*$$#$$#$%*=#$&*%$*%=*%*%$#$=#$$#$#$%:pyyyyyykO6O6O6O66O66O66O6O6o9ai=f.oXoXoXoXXXXXXXXOjZj66O66O666O5O6O666O66O6O65O6O6O0=#$*%$$#$#@-o66O6O66O666O.8aiiiiii#$%*=#$$*%*$%*=#$#%*#r:g3X6O6O66ot;#$#$$%*$%$$%$$%$$%$*$%*$#$&*$#$&*$%$$$#@wo5O6O665O66X8=%*%=#$$#$*%=*%*$#$=#$%*$%*$#$%*&*%$*%=o   ",
"    -@#$*$%*$%*&$*%$*%$#$*%*=#$%*&$*&*$%*&*%$*%*$#6OOOOOOO66O5O66O66O56O66O6Opi=$$>8998>98>2kffffffkO6O6O6O66O5O56O66O5O66O56O5O6O6OOk#$#$%*%$#;q5O66O66O56O6O5B$=$=====$#$%*=#=#$$#$%*$%*$#$==#gf6OO6O5X4=%$%$#$%$#$#$#$#$#$#$%*%$$#$$#=$#$#=#$#$w5O6O56O6O6O6o9=*%$*%$#=$#=#$$%*=%*$*%$#=%*=#$$$#$#$#$X   ",
"    +;#%$%*$&*&*$#=#$=#$$#$$#$$#$*$%*$%*$#$$*%$*#a5O66O66O6O6O66O65O6O6O6O6Ok%$%*%=;;=;=;=;======$;rX66O6O65O6O66O65O6O65O5O66O66O6O6.M=##*#$##=0.5OO66O6O6j6o-N##$#$#%*%*&*$%*%$$#$&*$%*$#$#$#$;=fX665OXt$#*#*#*#*#*#**#**#*##*%$$#$$#$%*&*$#$$#=po6O6O65O66O5og=#$*%$*&*%*%$*&*%$*%*%=*&*$#$$#$#$$*%*=o   ",
"    -@*$%*$%*$$#$$#$%*%*&$*&$#=$#$#$$#=#$$#=%*%=0O6OO666O56O5O6O66O666O6O6.p*#$#$*%##*%*##*%*%*#$##;13O6O6O6O66O66O6O66O66O6O5O6O66O66ohN$==$$;4O6O6O5O66O6OXg=#%$#$%*$*%$*%*%$*&*$%*$#=%*=%$#$##=go6O6O6Ok$=$====$===========;=$#*%$#$*%$*%$$#$#=tX66O6O6O6O6O6o-7#%*#$$*%$*%$*%*%$*&$#$$*%$#=$#=#=%*%$X   ",
"    +;##$$#=#=#$=#$*&*$&*$%*%*$#$%=*%$#$$#$%*$#;4o666O5O5O6O66O66O5O6O6O6Xwa%*#$#$#$$%*%*$%*%*$%*$%$aMkO66O666O5O5O665O66O66O66O66O6O6Oyfffffff6O6O66O66O6O6o9;#*$&*$#$&*%$$#=*&*$%*=#$%*$#$#=#$#;9.5O66O6Offffffftfffffffffff49i==*%*%$#$%*%*$%$=fOO5O5O66O65O6O5<$*%$%*%$*&*%$*%$#=#$*&*%$#=*%*$%*$%*%X   ",
"    -@#$$#$$*%$*%$#$$#$*%*%$$#$$#=*%*$%*%$*#$##=0o6O66O66O66O66O56O6O5O6Ok#;#$%$*%$#$*&$%*$%*=#$%*=#=@sO6O6O6O66O66O5O66O5O66O56O56O5O6OXOOXXOXO6O6O66O56O6OX>=$#$*%*=%*%*%*$%*%$#$%*$%*=%$*%$*%*=8X6O6O6O6OXXOXXOoOOXOXOXOXXoO3,#i$#$#$$*$%*%*$#=tX66O66O56O6O66O.g$#*$%*$%*$#=%*$$%*$%*$$#=$#$%*$%*#$$o   ",
"    +;#$#$%*%$*%$#$=#$%*%$*=#$$#$*%*%=*%$*%$%$;@4XO65O66O66O5O5O6O666O6Xk$##$#=#$%*=#$*&*$&*$#$%*$#$##$iO6O6O65O66O6O66O6O66O6O5O6O6O6O65O665O65O5O66O6O6O6.1;##$#$%$#=*$&*$&*$%*$&*$%*%*%*%=*%$%=9o56O6O65O65O56665O665O6666666OO5#;#$##$%*$%$#*=fX6O66O6O5O6O6O65o+;#%*$#=#$&*$%*&*%$*&*%*$#$&*$&*%$#$X   ",
"    -@#$$#=$#=#=*%$#$*%$*&$#$*%$#$$%*%*%*%$#$#uf6O6O6O6O5O66O66O56O5O6X4:*%*%$*$#=$#$%$*%*$#=%$*&$#$$#=iOO666O5O6O56O6O566O66O66O66O66O6O66O666O6O5O66O6O6oe#$%*%$*&*$%*%*$%*%*$#$*%$*%$$#$$#$*%*=9o6O66O6O66O66O56O66O666O5O6O566X<s=$$$#$%$*%$#=to66O56O66O66O6O6Oyki$$%$*%$*%*$%*$#$%*$%*%$*$#$*%*%*%X   ",
"    +;#%*$#$#$$#$$#=*%=*%*%*$&*%$*&*$%*$%$*#=>.XO6O66O65O66O65O66O6O66o,;#%$$#$%=*%$#=*%$#$%*=*%*%$*&*$iO6O5O66O65O66O6O5O66O65O66O5O66O66O5O5O66O66O66O65.2@#*%$*%*$%*%$*&*&*$%=#$%*%*=#$$#$#$$#;8o56O66O66O5O6O6O66O5O5O6O5O6OO6O.fa*##$$#$%$#$#pX5O66O66O65O6O6O6Oor=#$*%$*&*%=*%$#=*%=#$=#$%*$%$$#$=o   ",
"    -@*$%$*&$*%$#$$#$%*&$*=%$*%*=%*%*=%*$#=;=0X56O5O66O66O56O6O6O566O6o,;#*#$$#$#$*%$*%*=%*=%*%*=#$%*%=iOj6O6O66O6O6O566O6O5O5O6O66O6O56O56O6O6O66O6O5O6O6oq=#$$#=$#=#=*%$$#$$#=*%$*&$$#$%*=%$#$#;8X6O6O56O56O66O66O66O6O666O6O66O66X5=;;#*#*#*=@2o5O6O5O5O66O66O6O6O6r$#$#$#$$#$#=*%$$#$*$%*=#$%*%*&*%$X   ",
"    +;#%$*%$*%*&*=#$$#$*%$#$#=*%*&*$&*%$#=9-p6O6O6O66O5O6O6O66O66O5O66X,;#%=#$#$=*%=#$%$#$*%*%$$#$=#$#$aOZjO6O6O66O66O6O66O66O665O5O66O5O6O666O65O65O66O66oq@#*%*%*$%*$%*&*$%*%*%$*%*&*%$*%*=#$$#;8o6O66O6O6O65O65O65O665O6O6666O66O6X<+u;==;==>06O6O6O66O65O6O5O6O6X4=;$#$#$=#$$#$%*$#$%*&*$#$$#=*%*$#$o   ",
"    -@#$#$*%$*%$*%$#=$#=*%$*%*%$$#$%*$#$#@, OO6O6O6O66O56O66O56O66O6O6o,;#$*%$*%*%$*%*=#$$#$$#=#$%*$%*=iXO6Zj666O56O56O5O66O66O5O6O66O66O66O6O66O6O66O56O5oq;#$$#=%*$%*$%*&*$$#$$#=$%*$%*&$%*$%*#;8X66O566O66O6O6O66O6O6O6O6OO6OO6OO6OX35s>>>>rp.O6O666O66O66O66O6O66ou>i=%$$#$#$$#=$#=*$%$*%$#=$#$$%*%$X   ",
"    +;#$$%*=#$&*%$#$*%$#$$#$%$*&*$%*=#$$#;wX6O65O5O65O66O66O6O65O6O666o,;#$&*$&*%$*%*$#$&*%=#$*%$*&*$#$iy6Oj6O6O6O66O6O66O5O5O6O666O5O5O66j6O66O6O66O6O6O6oh@#&*$%*$#=#=#$$#=#$=#$*%*$%*$#$*%$#$#;8o5O6O5O65O65O65O6O6O6O66O666666666665jXoXoXXO56O6O6O66O66O65O666jO6X3q;#*%*%=*%=*%*%$#$*%$#=*%$#=#$#=o   ",
"    -@#$#$%$*%*$#=$#=*%$#=$#=*%*%*$%*=%*#@<o66O6O66O6O6O66O56O6O66O5O5X,;#$*&*$%*=%*&$$#$*%*$%$*&$#$%*%#=uX6O666O6O6O66O66O66O66O6O66O66O6O66O6666O6O66O66oq;#$%*&$#$$#$$#$$#$%*&$%*$%*&$$#=$#=$#;8X6O66O66O6O66O6O66O666XXOXXOXOXOXOXOXO666O6O6O66O6O6jO6O6O6O6O5O66O5oq;#$$#$*%*%*$%*=%*&*$%*%*$%*$#$$X   ",
"    +;#$%*=*%$*%$*%*%$*&*$#$*%$%*$%*%*%$#=r6OO6O66O66O665O6O6O65O66O66o,;##$*%$#=#$%*$#$$#$$#=#$$#$$#$$#;u36OOOOO66O65O66O66O66O5O65O66O6O66O6OXOXOO66O6O6oq;#*%*$#$=#$$#$=#$$#$*%*$&*%*$#=#$*%$#=9o6O6O66O5O66O6666O6OoX>isrrrsrsrsrrsiu.6O666O6O6O66jZOX6O66O66O6O6O6oq@#*%=#$%*$%$*&*%*$%*$%*$%*$%$#$o   ",
"    -@#$$%*%*=%*&*$%*&$*%$#$%*=#$%*=%*$*%*:5O66O6O5O66O5O66O66O6O5O66OX,;#$%$*%$*%*$%*&*%$*&$*%*&*&*=#$#=85kkkkp5O6O6O6O6O5O56O66O6O6O66O56O6O5pkkp6OO6O66.h@#$$#$$#$#=#$$#=#$$#=$#$#$$%*$%*%$*%*;8o566O6O66O5O6O6OO6O6t8$===============<6OOO6O66O6O6O5pk5O6O6O66O56O5.2;#$$#=*%$#=#$$#$$#=#=*%$#=#$#$$X   ",
"    +;*%*%*$&*%$*%$*%$*%$*%=*%*$&*$#$*%$#=:5O6O6O6O66O5O66O65O66O65O65o,;#*%*&*=#$=#$$#$=*%*%=#$$#$$#$%*&*$$$$$=go66O6O65O66O6O6O66O665O6O6O6Xw@#$=0X56665oq;#$#$&*%$*%$*%*%=*%$#=#$$*&*%$#$$#=*%=9o6O6O65O66O666O666o1@=$#$#*%*%#*%*#$#*@2o66O65O66O6oq=;wo6O6O6O6O5O6o2;#$#$*%=*%*$$#$=#$%*$%$*&*$%*%$o   ",
"    -@#$$#$%*$#$%*&$*&*$#$$#$%*%*$%*%$*%#%*ayo6O666O566O6O56O5O56O6O6OX,;#$#$$#$%*%*&*$%*%$*&*$#$$#$$*&$#$#$#$#$$9oO6O6O66O56O566O56O6O66O6OO3<;##;4.XXoX3M$#$#$$#=*%$*&$$*%*%*$%*$%*&$*&*=#$%*%*=9o66O66O6O66O5O6O6Oor=##$#$%*%*=%*%$#$#$$+o6O6O6O5O5o27#:r=,o6O666O66oq;##$*%$#=$#$#$%*=#$$#=#$$#$*%*=X   ",
"    +;#%*$%*=#$$#=*%*$%*%$#=*%$*%$#$=#$=*$#$r1X5O6O6O5O66O6O6O66O66O66X,;%*$$#$$#$$#$$%*&*=#$$#$%*=#$%*$#$#%*%*#$=e5O6O66O6O66O6O6O5O65O66O6yha%$#=wpfp2>8:=*%$*%*$%*%$*%*%$*%$&*$%*&*$#$$#$$#$$#;8o5O65O5O65O6O66OOy9*%*$%=*%*$%*&*=#$$$#$$4X6O5O66O6Okts==w5O66O5O6O6o2;#$$%*%*$#$%*&*$#$$#$#$$#$%*$#$o   ",
"    -@#$$%*%$*&*$%*%$#$$#=$#$*&$*=%*%*&*%$*%;aO6O6O66O6O666O66O66O56O5o,;##$#$%*=#$$#$*%$*%$#=$#=%*$#$%*=%*$#=%$##7+o6O6O56O6O566O66O6O6OO6o9N$%*$#=====;==$%*&$$#=*&*%$*&*&$*%*$%*=%*%$*%$#=$#$#;8X6O6O66O6O66O5O6Ok=$#=#=#$*%$*%$*%$#=#$#@1o5O66O5O6OO39=*yX6O56O5O66oh;###$$#$%$#=$$#$%*%$*%$#=*$%#$$X   ",
"    +;*%$#=*%$#$%*$%*=*%$*%*%$*%*%*$%$*%$#$#$ioXX66O6O66O5O66O5O66O6O6o,@:$%*%*$#$%*&*%=*%$#$#$%*$#$$#=*%*$%$*%*%#;+o5O66O5O66O6O66O65O66O6o9=*%*%*$#%*%#*#$#$*&*%$#$$*&*$%*$#$=#=#$*%$*&*%$*%*$#;8o66O66O665O66O66Xk$#$#$#$$&*&*=#$%*$#$$#=1o66O6O6O6O6X9d-o5O6O6O66O6O5:;=;$#$#$*$#=#$=#$=#$=#$#$&*$#$o   ",
"    -@#$*%$#=*%$*&*$%*%*%$*&$#=$#=%*$#$%*$#$##sr1oO6O6O56O6O56O6O6O666Xtr$$#$%$%$#$$#$$#=*%$*$#$$#=%*=%*%$#=#=$#$#;-o66O66O66O56O5O6O66O566o8;#$%*&#$#$#=%*&*%$*$#$$#$%*%$*&$*%*$%*%$*&$*&*$%*%$#;8X6O6O66O5O6O66OOOk$#$#$$#$*%$#$$*&$#=#$#;1o6O56O666O6OktyO6O5O66O66OO6k+>8#$$$#$%$#$#$*%*%$#=$*%*%*%$X   ",
"    +;#%=*%*$%=*%*%=*%$=*%$*&*$#$$*%*$&*=#$=#$=@i566O66O666O6O66O66O6O6oya##$$%$*$$#$$#$#$=#$%=*%$#=*%*$%*$#$*%*$#=+.5O66O65O6O6O66O66O6OO6O>=%*$#$$*&*$%*$#$$#$%*=#$&*%$*&*%$#$%*$=#$*%*%$%*&*$#;8o5O65O6O66O65O66Ok$$#$$#=#$%*$%*&*$%*$$#;1o56O66O5O5O6OXOO6O66O5O5O66OXoo.8$##$#=*$%*$%*$%*$#$&*$%$#$o   ",
"    -@#$%*%$#$#$$#$#$*%*%*%$$#$$#$%*&$*%$*%#$*%#$:5O66O6O6O66O6O56o6O6O6O5:;#**#%$#$%*=%*%*=#=#$*%$*%$%*=%*$%$#$%*;+o6O6O66O56O56O56O56O66o,;#*&$$#$%*$#$%*=%*=#$%*$%*=*%$*%*=#=*%$#=%*$%*$#$$#$#;8X6O6O66O6O56O6O5Xk#$#$#$$#=*&*$%*%*$%*&#@,o5O6O66O6O6O65O66O6O66O6O6O65666og@#$$#$#$$#=%$*&$*%*%*$#$$X   ",
"    +;*%*$%*=#$=#$$*%$#$$&*$#$&*$%*&*$#=*%$*&*%*#:6OO6O66O66jO6Oo6,X6O6O6o,>====$*%*=#$#$$#$$#$$&*$&*&*$#$%*=#$$*#;+o5O65O6O6O66O6O6O6O5O6o1@#%*$#=#$*%$#=*%*%*%$*%$*%*%$*%$*%$*%$#$#$$%*=#$=#$$#;8o6O65O665O6O6O6ot:$#$#$=#$$#$%*$#$=#$#$#;1o66O65O66O6O5O66O6j65O66O5O6O6O6Okg#$#$#$$#$#$*&*%*%$*%$#$&X   ",
"    -@#$%*$%*$%*=#$%*=%*%*$%*$#$%*=$#$%*%$#$$#$#$:tO6O6jO6jO6Zj6y,;f6O6O66oyrrrs:%*%$*%$*&$#$$#$*%*%$*%*=#$%*$#$%#;-o6O6O66O66O66O66O66O66o1;#$%*$%*=%*=%*%$$#=$#=#$%*=%*&*$%*%$*&$*=#*%$#$$#$#$#=8X6O6O6O6O66O666o0@#$$#$#$#$$#=%*%$#=$#$#;1o66O6O6O666O66O66jO6O6O66O66O6O6OO.i$%*=%*=%$*%$*%$*&$*&#$*o   ",
"    +;#%*$%*%$*%*%=*%*$&*$#=#$%*=#$#$=#$*&*=#$$%$#;fXjOZjjZ66jOOa$:=fOO66O6OXXO3h;#$#$%*&*%$*%*%=*%$*%$%*$&*$%$#$#@g.56O65O66j6O665O65O6O5o,;#%*$&*$%*%*$%*=#$$#$*%*=#$#$*%$#=*%$*&*%$$$#$$#$#$##78o5O66O6O6OO6Oo5X0=$#$#$=#$$#$*%$*%*$#$$#;1o5O66O6O6jO66O6OjZ5O6666O66O5O6jZjja=#$#$%*$#$%*%$*%*&*$*%$X   ",
"    -@*$%*$%*%$*$%*%$#=*%$$*%$*&$*%$#$$#$$#$%*&*$#=8X666666jOjZja@=;fX6O5O66665oq;#$$%*=%*$#=$#=#$$#=*&*%$*&*$#$#=r1X6O6O6O6O6O6O6O6O66O66o1;#$*&*%*$%*&*%$#$*%$#=$%*$%*$%*$%*%*%$*%*#$#$#$#$#$$$+kOO6O6666666Xk1o.t;#$#$#$$#=$#=*&$$#=%*%#@,X6O6O666666XXXO6O6O6OO5O5O66O66OjOZr=%$*&*&$*=#=$#=$#$%*%*%X   ",
"    +;#%$#$#$=#$&*$#=*%$*%*&*=#$*%=*$%*%=#$$#$*%$#;9oOOOOOOjZ6OOg>9skO66O66OjOO.q@#*%*$#$*%$#$$#$$#$#$*%$#$#$%$*#;,35O6O66O656666O6O66O6O5o1;#$#$#$=#$$#$*&*$&*%$*&*%$*%=#$&*$%=*%*$%$=$$$$$$$$#8oX66O66OOOOOOo2#pfB=#$=#$$#$#$$#$#=#$$#$=#;1o66j66OOOOOft4yX6O6O66O6O66O6O6jZjOi=*%*%$*%*%$*%*%*$%*$#$=o   ",
"    -@#*$%$$#$*%*%$$#$%*&$$#$%*$%*%*&*$%*=#$$#=#$#=>6y5y5y6o6O66XoXoO6O66OjjZ6yO2;#$#=%$*%$*&*%$*&$*%$%*$$#$$##=;9X5O6O6O66oooooO6O6O6O666o1@#$$%$*%*&*$%$*%$#=*%$*%*&*$*%$*&*$#$#$##:aaaaaaai#8.6O6O6Ooyy5y5yy:#;==$%$#$$#=$#=#$$%*$#=*%*#;1o6O6X6y5y5y:=@+OkOX6O6666O56O56O56Oi=*%$*&*$%*%$*%$%*%$#$#$X   ",
"    +;#$%*=#$%*$%*=#$$#$*&*%$*%$#$$#$$#$*%=#$$#$$*%*#####*i<O6O6O6656O5O6jZ6oB=:#$#$%*=*%=#$#$$*%*%$#$*&*%$$#$@r1O6O6O6O6jX1heew6666666OO6o,;#$#$*%$#$$#$#$%*$*%$#$%*$%*%$*%*%*%$$#$70X65656565O66jO6X6ha######%*#$#=#*$$#$#$#$$*%*$%*%$%$#;1o66oya#####$#*##$84X6OO5O6O66O6O6OOa=&*$%*%=*%=*%*=#$=#$$#=o   ",
"    -@#$%$#$*%$#=$#$#$$#$$#$*&$*&*%$*&$%*$#$#=$#=#$%=$$*=#=;po6O66O6O6O6O6O5oe7#$#$*$%*&*$#$$#=%*=#=$#$$#$#$#a9,35O66O56O6o>7=@#OXOXXO6666X1;#%$*&*$%*&$*&*$%*&$*&*$%*=%*&$*&$$#*%$s8fX6OO6OO6O6OjZjj6B@$$$$$$$#$%*%*$%*&$$#$$#=%*%*=%*$#$#@1o6Oy-;#$$$*&*%$$#@rOO66O6O6O6O66OO6i*#$#$$#$#$*%$%*$#$*%*%$X   ",
"    +;#$#$*%=#$$#=#$=#$%*&*$%*%*$%*$%*%*$%*$&*%*%$*%*%*%#$#=+55O6O6O66O666O6owa#$$%$%*%$*%$=#$#$*%$*%$#=#$$#7s O66O6O6O6O6X8=:$akkkkp5.o.X 4@#*$%*%$*%*=#$$#=#$*%*$%*%*$%*$#$*#$%:dq O5O66O66O6jZj66 w7:$#$#%*%*%*&*$&*%*=#$$#$#$&*$%*=#$$#;,X5.-@#$*%#$#$&*#$#;0X6O665O66O6O6O.i$%*$&*%$*$%*&*$%*%$&*%$o   ",
"    -@#$$#=$#=*%$*%$#$*&$*%$*&$#=*&*$$#=#$%*$*%$*%$*%*%$*%*%#;,X6O66O56O6O6O66ow$#*$*%*$%*&*$%*$%*&*=#$$#$##q<66O6O6O66O66o9=$#$$*=%=aqqq2hg=#$#$%*&$$#$%*%$*%$#$%*=%*&*$%*$%$%*#@gfO6O6O66O66O66OO5q:#$#*&*$#=*%$*%$*%$$#$%*=%*=*%*%$#$%*#;1o6Xq;#$%*$%*=#$%*#;4Xj6O6O6O66O6O6q:%*%$#$*%$#=$#$#=$#$*%*=X   ",
"    +;*%$#$#$*%=#$*&*$%*$%*&*$#$$#$%*&*$%*$%*%=*%$#=*%$*%$#$#;1o5O6O6O5O65O5O6O5%$#%$#$%*%*$%*$&*%$*%$$#$#$:XoO6O6O665O6O5o8;#$*%$#$$$@@;@@=*$%=*$%*=#$$#$$*%=*%$*%*$%*$%*%$#$*#$9k.5O6O66O6O6O6O6XkN%$#$$#$%$*%=*%$#=*&*%$*&*$#$%*$&*$%*$#@0.5o2@#$#=#$$#$=*%$=0o6O6O6O65opO.,@$#$#=*$&*%$*%*$%*%*$%*%$o   ",
"    -@#$*%$*%$*%$#$$#$*&*$%$#$$#$$#$%*%$*&*$%*%*=#$%*=#$*=#$#$to6O66O66O6O6O6OOp*#$$#$$#$$#$*$%*$*%$*$#$$#$#yO6O566O6O66O6o9=#$%*#$#$######*%#$#$#$$#$#=*&*%$#=*%$#$#$$#=$#$$##7#6X5O6O6O56O56O666Oks#*%*&$*=#$%*%*$%*%*$%*&$#$$#$%*$#$*%$#=e55o2;#%$*%*%$#$%*#;4X666666X.5g,y9=#%*$%*%*=#$%*%$*=%*&*%*=X   ",
"    +;#$%=*%$#$$#$=#$&*%$#$*$&*%*&*=*%$*%*%=*%$#$&*$%*$&*%$#;8.56O5O65O66O66O6Xk$%*%$$#$$#$%*%*%*%$#$#$%*%$:5O6O6O6O65O666X8;#=*%$*&*%$*%$*%=*%=*$&*%$*%$#$$#$*%=*%$=#$#$#$##@:<tO5O66O66O6O6O6XoXo.3i=%*$#$#$$#=*%$#$$$#=*%*$%*&*$&*$%=#$$#7h  q;#*$%*$&*$%*$#;t XoX.X30+a$==$%=*$%*%$*%$$#$=#$#$$#$$#$o   ",
"    -@#$$#$*&*&*$%*=#$$#=$#=#$$#$$#$%*=%*$%*%*$$#$*%*&*$%*%*=8X6O6O66O5O66O5O6Xk$#*%*%$%$$#$%$%$#$#$%$#$%*$#5O66O56O6O6OO5o9=$#$#=%*$#=%*=%*%*$#$%*$#=%*$%*&$*&$#$*&*$%*$%*$=+B.XO6O5O6O566O6OO,BBwBB:%*&$*%$#=$#$%*=#$#$%*$%*$%*$#$%*=#$*%#=gw<9=*$#=%*$%*=*%#=M<BwBBB<97*%*%*$#$%*=#$%*&*$%*=%*&*$%#$$X   ",
"    +;#$#$&*%$*%$#$#$$#=*%$#$$#$=#$%*$#=#$#=*%=#$$#$%*$%*$$#;8oO6O66O6O65O6O66Ok=%*%$$*$*%$$$*$*$$$$*$$$$*#:yOO6O6O66O6666o9=$#$=#$*%$*=#$#$$#$%*=#$$#$$#=*$#$%*$#$#$&*$%*%:8Xo56O5O6O66O6O6O6.sN;@;@$*%*%$%*$#$$#=*%$#$&*$%*=#$$#$%*$#$%=#$$=@@=&*%$#=*&*%*%$$#;@@@@;;@=#%*%*&*%$*%*$&*$*%$#$#$*$%*$*%=o   ",
"    -@#$$*%$*&$*&*$$#$%*%*$%*&*%*=#$$#$$#=$#$$#$#=%*=%*=#$##;8X6O6O66O66O66O5OOka*%*#####*############:###$#5O66O66O56O5O6o9=#$#$$#=$#$%*$%*&$*%$%*%*=#$$%*%$*%$#=$%*$#=#$=io65O666O66O56O6O6O5>$####$%*=*%*=%*%*$%*=#$$*%*&$#$*&$*&*%$*%*=#$###$#$#$$#$$#$$#=#$#####%#*#$#$*&$*%*&$#=*%*%$*&$*&$#=%*#$$X   ",
"    +;#%*%$*%*%*$%$#=*&*$=#$=#$$#$$%*%=#$$#$*&*$%*$=#$%*%$%$=8o66O66O66O6O66O6O6Oi==;;=;;=;;=;;;;=;;=;;;;=$:5O6O66O5O6O6O6X8;$#$$#$#=#=*%$*&*$%*=#$=#$$#=#$$#=*%$*%*$%*$%*=ro6O6O6O66O5O66O6O6a$%#$$%*=#$%*$#=#$=#$$#$%*&*$#=*$%*%$*%$*&*$#$&*%$#$#$$#$%*$%*%*$&*$%*$#$%*&*$%*%*%=*%$*%$&*=#$*%$#$*$%$#$o   ",
"    -@#$%*%$$#$%*=#$%*$%*%*%*$#$%*%*=%*$#$%*%$#=*&*#$#$$#$*#;9o56O6O6jj66O6O66O6Oyfguguguguuguuguguguguugq5k6O6O5O66O66O65o9=#=#$$#$$#$%*&$*%*$%*$#$%*&$*%*%$#$*&$#=#$%*$#=a06O66O5O66O6O5OOyi#$*$*&*%$*%*&$%*$%*&*%$*=%*%$$#$%*&*%$*&$#$%$*$#=*%$$#=*&*&$#=$#$#$#=%*=#=%*$#=$#$$#$*%$#$*%$*%$#$$#=#$#$$X   ",
"    +;#*$%*=#$$*%*%=*%$#$=#$$#$$#=*$%*$#$$#$=#$$#$%$$$*%*$%*#Mo6O6O66OZOO6O65O66OOXoooooooooooooooooooooooOO6O66O65O66O5O6o9=$#$$#$=#$$#$*%*$&*%=#$$*%*$#$$#=*%$*%$*%$*%$%*$;yO5O6O66O66O66Xp=$#%$#$%*$#$$#$*$%*$#$$#$#$$#=#$%*$*%$*%*$%*=#$%*$%*=#$$#$$#$*$#$$#$$#$*%$*$#$%*&*$#=#$$#=*%$#$$#=*%$#$%*%$o   ",
"    -@*$%*=%*&*&$%*$#=*%*%$*&$#$$#$%*=%$#$*&*$#$%*$#%*%$###dq.66O66oO5666O66O5OO66655655565656566565656565jO6O6O66O5O66O65o8;#$#=#=#$%*=%*%$#$*%*$%*&$*&$#=$#$%*&*%$*&$*%*%#ayO6O66O66O56OOOp##$*%$#=*%$#$$#=#=#$$#=$#=#$$*%*=#$%*$%*&*$%*=#$%*&$#$*%$#$$%*%$#=$#=*%$*%$#$$#$$#=$#$%*$%*=#=#$$#=*%$*$#$$X   ",
"    +;#%*$#$#$%*$*%$#$%*$%*%*%$=#$%*$#=#$=#$%*%$*=#$$====;:25jOO6OX1r:a$4o5O6O66O5O6OO5OO6O6O6O6O6O6O6OjOOZ6O66O6O6O66O6O6o9=$#$$#$$#=*%*$&*$$#$$#=#$*%$#$*%$*&*$&*$%*$#$#=1OO6O66O5O5O6O66Ok$$#&*$*%$&*$&*$%*$$%*=#$#$$%*%$*%$&*=#=#$$#$#$$#$$#$*%=#$$#=*%$*=#$$#$%*&*%$*&*=#$%*$#=*%*%$*%$*%*%$*%*%$#$o   ",
"    -@#$%$*%$*$%*&*$%*=%*=$#=*%*$*%$#$*%*%$*&$*&$#$#$i999s-3O666OO0==$%=0X6O66O66O6O66O66O6O6O66O66O6O6Zj6j6O6O66O66O66O65o9=#$#$$#$$#$$#=*%*&$*%$$#$%*%$*&*%$$#$*&*$%*&$#;0o6O5O66O66O66O6Op*%*$#$%*$#$%*%*$%*%*%$*%$*&*=#$%*$*%$*%$*&$*&$#=#$$#$$*&*&$#$*&$#$#$$#=$#=*%$$#$$#$%*$%*=%*%$*&$*&$#=$#$#$$X   ",
"    +;#$$#$$#=#$%*$%*=#$%*%*$%*%$&*$$%$*%$*%*$#$#$$#@h3XooX666OoO0;:$#$d,o666O5O66O65O65O66666O6O6O6O66j6O6O6O66j66O65O6O6X8;$#$$#$&*$&*%$#$&*$%*&*$%*=*&*%$*%*$%*%$%*=#$*=,XO6O66O66O65O6OOk$%*%$%*=#$$#=*%$*&*%=*%$*%*%*%$*&*%$*%$*%*&*%*$#$=#$%*%*$#$*%$*%$#$$#=*%*$%*&*$%*%=*%=*%$#$*&*$#$%*$#$%=*%$o   ",
"    -@#$#$#$$#=#$$#=%*$#=*%$#=$*%*%*%*%*$#$$%$*%$*%#;qo566jO6O5ea##$#$9qkO6O66O6O56O6O6O6O6O6O66666666O6666666O6O6O66O6O66o9=%$#=*%*%$*%*$%*$#$*&$#$*%$#$$#=%*%*=$#=*%$*%#;0XO6O6O66O5O66O6Op=#$#=*%$*&*$%*&*%$*$#$#=%*$%$*%$*%$#=#$%*$%*$%*$%*=#$%*%$$#$%*&*$*&*%$#$%*$%*%*$#$*%$#=*%$*%$#$$#$$#=*%*%*=X   ",
"    +;*%$%=*%*$$#=#$*%$*%$%*=#$%*$#$===$%*&*$#$&*%$#;q.6OjZj6Oy;$$#$$7h O6O5O5O65O66O66O66O6O6jXOOOOOOOOOOOOOO56O66OO666O5o9=*%*$%*$%*&*$&*$%*%$*%*$%=#$$#$*%=*%$#$*%$#$$#;,o665O66O6O66O66Ok#$#$*%$#$%$#$$#$$#$%*$%*$=#$*%$#$$#=*$%*$&*$%*&*%*%=*$%*=#$=#$*%$%*$&*$%*=#$=#$%=*%$#$*%$*%=#$$#=*%$#$$%*%$o   ",
"    -@#$*=#$*%$#$$#=%*%$*#$*%*$#$#$irrr:#$#$%*=#$#*#@qo6O666.o0#$#$#raeX5O66O66O6O6O5O66O6O66O6pkkkkkkfkkkkkp5.O6O666O5O66o9=*%$#=%*$$#$%*%*=%$#=$%*$#$$#=%*=#$*%$#$$#=#$#;,Xj6O5O56O66O5O6Xp$#$%$*%$*%*=#$$#=$#=%*=#=#$%*=#=%*=%*%*&$*%*$%*=%*$#=#$$#$#$*%$*&*%$*%*$%*$#$$#=*%$*&$#$*%$*%*&$*%*=%*%*%*$X   ",
"    +;#$%*%$%*&*=#$$#$*%$$%$$#$%$#7<.6327:$#$*%$$$%#$ho66OoXhu=#$##=pXOO6O6O66O66O66O66O66O6O.8;#$$$=*$$$$=$=a24.5OjO6O666o8;#$#$*=#=#$$#=*%*%*$#$#$#$$#=#$*%$#$%*$&*=#$$#;,o66O66O6O5O6O66Ok$$#$*&*$%*$#$%*$#$#$*%$#$$#=*%$*%*%*%$*$#=#$&*$%*$%*%$=#$%*$%=#=*%$*&*%$*%$#=#$*%$#=*%$*%$#=*%*=#$%*%*$%*%=o   ",
"    -@#$$%*=*%$*%$#$$#$#$#$##$#*#=9tX5X,r=#$#%*##*#@+O6jOk<w;;#$*%:;fO66O66O5O5O56O56O56O66O5e$%*%*%*%*%*%*%*$78fo6Zj6O6O5X8;#$$#$%*%$#=$#$$%*$#$*$#=$#$$#$%*=%*=#$#$%*%*#;0o566O66O66O66O6Op#*%*%$*&*&$$#$%*%$*=%*$%*%$*%$#=$*%$*&$%*$%*$#$#=#$$*&*$#=$#$*%$#$*%$*&*&*$%$*%$*%$#$*%$*&$#$$%*$$#=$#=*%*$X   ",
"    +;##$*%*%=*%$#$$#$$$==$=$$$$$:5o6O6.ta$$$$$$$$$s86O6owd=##$*%*;rkOO6O5O66O66O6O6O6O66O6o4@#*%*%*%*%#$#$#$##@syO6jO6O66o8;#$#$&*$$#=*%$#$*%$$%$%$*%*&*$%*=#$*%$*%$*%$$#;,o6O6O5O65O66O5OXk$$#&*$#$%*$#$=#$=#$%*%*=#=*%$#=#$%$*%*%*$%*$%*$%*$%*%*$%$*%*%=#$$*%=#$%*$$#$*%$#=*%$*%$#=*%$*&*%=#=*%$#$$#=o   ",
"    -@#$%*$%*%*&*$%*$#:aaaa:a:aa$2o56O66ok#a:a:a:a#e.O66 ,;:#$#%$i<XO6O56O6O66O666O6O6O6O66Xt=*%$*%$#=$*%*$%*%*#$=t35Zj6O5o9=$*%$*&*%$*%*$#$#$##$#$%*$%*%$#=%*$%*&$*&$*$##;,X66O66O6O5O66O6Op$#$$*%$*%$#=#$*&*$#$%*%$*%$*&$*$#$#=%$*%$#=#$%*=%*=#$%*&*%$*%*$#=%$*%*$%*&$*%*=%*%*$%*=%*%*%$*%*%$#$*&*%*%$X   ",
"    +;*%*$%*$%*$$#$#=rO566565655566OO5O66j665655565yO6X6w+=#=*%*=>.66O6O6O65O66O5O6666O66j6op=#$#=#$$#$#$=#$%*$$#=9tOj6OO6X8;#%$*%*%$*%$#$%$;=;=;=*%$%*=#$*%*$%*&*$%*%*%$#;0o5O65O66O666O66Xk&*%*%$#=*%$*$%*%$#$=*%=*%$#=*%$#$$%*$*%=*%*$&*=#$$#$$#$*%=*%$*%$#$*&*$&*%*$%*%*&*$=#$%*%*$&*$%*$$#$$#$$#$#$o   ",
"    -@#$$%*&*$%*&$*%$:yX6OZjO6OOO6O66O6OjZOO6OOOO6OO6O5<@=*$%*$%=sOOO6O66O6O5O66O6O6Oj66O6O5B=#$%*=#=$#$%*&*$%*%*#@go6O665o9=*$$#$$#=%*%$#$ag889gr=*$$%*$%*$%*=%*$#$$*%$##;,X6O6O5O66O6O6O6Op*%*%$#=%*=#=#$$#$$#$#$#=*%$#$*%$#$*&$#$#$$#$*%*%*%$#$$#$$#=*=%$*=%$*$%*$%*&*$%$*%$#=*%$*%$*%*=%$#=*%$#=$#$$X   ",
"    +;#$%*%*$&*&*$%*#=eo5O5O6O6O66O6O6OjZj66O6O66O666o,7:%*%*%$#=sX66O65O66O65O65O66jZjOO6ow7#$%*$%*$#$$#$*$%*&*%#;M 5O6O6o8;#$#$%*$#$$$*#;+ XoX B;##$#$&*%=#$#$*%=#$&*$$#;,o6j6O66O5O66O6OXk$$#$*=#$*%$#$$#=*&*&$$*%$#$*%=#$=#$#=*%=*%=#$$&*$%*=#$&*%*%$#$#$#$#$%*&*=#$$#=*%$#$*%=*%$#$#$#=#$*%$#$*%*%$o   ",
"    -@#$*%$$#$$#$#=#=iXOO6O56O66O66O6O66O6O6O66O6O5O5o,=*%*%$*$#=so5O66O5O66O6O5O6O6O6666631;#*$%*&$#=%*=%*&*$%*$#=r1X6O66X8;#%*$#$#$#$#$:@8o665oq;#$#$*$#$*%$*%$*%*%*%*%*;,ojZO6O666O6O566Op%#$#$%*%$*%$*&$#$*%*#%*%*$%$*%*$#$$%*%$*%*$%*&*%$*%$*%*$$#$#$#$#$#$#$#$#$$#=%*%*=$#$%*%*=$#=$%*$#=$#=$#$#$$X   ",
"    +;#$%*&*%$#$$#$$$rO66O66O66O6O6OjZjO6O656O6j66O6OX0;%#$*&$%*=rX6O6O6O66O66O66O6O6OoXoO0M=#=#$*%*$%*$#$%*$&*$%*%=:yOOj6o8=#*%$%$$$$#$#=awX5O6o,@##$#$%$*%$*%$*%$$*%$$$#=0X66j66O5O666O6Oo5$*#$&*$$#=#=#$#$%$$$$$$$$#=*%=*%=#=*%$*%*%$#$*%$*&*%*$%$#$$$$$$$$$$$$$%$$#$*%*$&*%$*&*$%*%$*%*$%$*%*$#$%$#=o   ",
"    -@#$$%*=%*=#$$#$=iOO6O6O56O66j6666666563X66O6O666o,;#$%$*#$#=wXO666O66O5O66O66O6Op>89>@=*$#$%*$%*$%*=*%$#$#=*%*:@e.6Zjos7;;#*#######;2Oo66O66Xki;#*#############%*%$##;t O6O6O56O6O6O6O+>$%#$*%*%$*%$*%$*$#######*%*%*%$*%$#$*&*=$%*=%*$#$$#=%*=#$#############*$#=%*$%*=#$#$$#=*&*%$#=#=*%$#$$#=#$$X   ",
"    +;#*%*$%*$#$%*%*=rO66O66O6O6O6O6XooX3f>MB3O6O66O6o,;#*$#$$$#74o5O6O65O6O66O5O6O6327==;##$#$%*$%*&*$%*%$*%$*%$%#;#kOjjOO,e<2@=@;@;@;@a6X5OO6O65o4>@=@;@;@;@;@;@;;$$#*##@>-56O66O6O65O66Xa;#$*$#$%$*%$*%$#$#$=;;;;;%$$#$$#$$#$$#$%*%*=#$%*$&*%$*%*%$=;;;;;;;@;@;;$%*%*$&*%$*%$=#$%*$%*$%*$*%=#$=#$*$#$o   ",
"    -@#$$#$#=%$*%$*%=iX6j6O56O6j6O5opB<w<h;@iwpo6Ojj6o0;#$#=#$##upX6O6O6O666O66O6O66<:##$#$#$%*=%*=%*%*$%*&$*&$*%*$rBX6OZj6oo.y+MMMMMMM+wo5O66O6OO5.,+MMMMMMMMMMMM-Mr====;++u5O6O66O66O6O6Or$$#%$$#=*%$#=*%$#$=+M-M-+#*%*$#$%*=#$$#$%*&$*%*&$#$*%$*$#=gM-M-M-MMMM-Mi$%*$%*$#$%*$#$*%$#=#=*%$%*%*=#$%$#$$X   ",
"    +;#$%*$%*$*%=*%$$rO6O6O6O6jZj6o6+d;;@;*##7u5X6OZ6X,;#%*$$#$$OX6O65O66O5O66O66jO5=$%*%*%$#=*%*%*&*$&*%$*%*%*%*#;- 5O65O6665Oo.oooooooo66O6O5O66O6X.ooooooooooooo r+yftfo..O5O66O5O6j6O6Or=#$*$#$*%=#$*%$*=rpo.oo35;$%*%$=*%*%$#=*$&*$#$$#$*$&*%$#:;4 oo.o.ooooo3r;#$#$#$&*=*%=#$&*$%*$%*%*$$#$%*=#$#=o   ",
"    -@#$*%$*&$#$#$$#=iO666666O6O6oe:=:####$#$#=:pO6O6o0;#$%*%#$#kO6O5O66O56O5O5O6OZja$#$*=*%$*%$*%$*%$*%*$%*=%$*%#;+o6O6O6OO5O65556565665O66O56O6O66565565565656565OtyoXoOO56O6O6O66O66O56Xi$$%$%$*%$*%$#$#$$rX6656651a$%*%*%$$#=$#$#$$#=%*=%*%*=*%$#;,X6555556566649=#$$#$*%$#$*%$*&*$%*&$*&*%$*%$#$#$$X   ",
"    +;#$%=#$*%*$$#$#=rooXooXO6OjOp*=#$%*=#$=#$#;to6OjX,;*%*%$*%*yOO6O66O5O6O66O66O65:$#$%*%=#$&*%=*%*&*$&*%=#$*%$#;+o6O6O666O6O5OO6O6O6O6O6O6O6O6O5OO6O6O6O6O6O6OO6X1tX56666O66O665O66O6O6Or$%*#$*%$#=*%$#$%=aO6O6O6OXr=*%*%*$#$*%$#$$#$#=*%*%$#$%*$#;,o5OO6OO6O6O63-;#*%=*%$#$$#=*%*%$*&*$%*%=*%$*%$$#$o   ",
"    -@#$$#$%*$%*&$$#=a0,0,0,5X66.B;#$#$%*=#$#$#=h5O66o,;#$$*%*$%yO66O5O66O66O66O66O5:$$#$*$#$$#=*%$*%$#$*=#$$#=*%#;+o66O6O5O6O6O66O6O56O66O5O66O66O66O6O66O6O5O66O6OfkO6O6O56OO6O6O6O56O66Oa@#$$#$$#$%*$#*%*#MO6O6O5O5a$#$$$%*$#$*%*$#$$#$#$%*$$#$#$:=0XO66O66O6O66o+;#%$#$*&$*%$%*$%*%$*%*$#$*&$#=*%#$$X   ",
"    +;#$#$=*%=#$*%*=#$@;;;=7eOO6X<;##=#$*%$#$$$#7eo56o0=##*%$#$#kOO66O66O66O5O66O6O5a=#$%=#$$#$*%$#$&*$%*%=*%$#$$#;+o6O6O6O666O66O66O6O65O6O65O65O66O5O65O66O66O66O6OOO6O66O66665O666O66O6O4<@##$%*$%*$%$$#@036O6O6O6oq7:%$#$%$$#$$$%$%*$%$$*%$#$$%$$d,o66O65O6O6O6o-;#*&*$%*%$#=*%$*&*$%*$%=*%$#$*%$*%$o   ",
"    -@#$$#$#$*%$%*&*%*##$##:@q.5ow@#$$#$%*$%*&##;wo6Oo17#$%$*%$*yX6O56O66O56O6O56O66:*%*=#$%*&$#=*%$*%*$%*%*$#=%*#@- j6O666O5O66O5O66O66O66O6O66O5O66O66O6O666O66O6O6O66O6O5O5O6O6OOj6OO6OOoZB=$##$#*%*##$$e6O6O66O66O5-;*##$*%$*%##*%*%#*%*%*#$#*#$8BpX6O5O6O666O6o+;#$$#=*&*$%*%*%$*%*&$#=#$$#=$#$#$#=X   ",
"    +;#$#$&*$%*=#$$#$$#$#$$#;qo5o<;#$#$$*&*$%*$#;w.66Xp8$#$#$#$#kOO6O66O5O6O666O66O5:$#$#$$#=*%$*%$*%*%=#$$#$$#=*%=81kX6O5O6O66O6O65O66O5O66O66O6O66O66O6j6O6O6j6j66O66O65O66O66O6665666O666Oo2#;==;====;#2oO6O5O6O6O6X6u==;$###%$*;====;====;====7BooO5O66O65O6j66o+@#$#$$#$$#=*%=*%$=#$*%*$$#=*%=#$$#$o   ",
"    -@#$$*%$#=%*$#$$#$$#=#=#;ho5Xw;#$$#=%*%*$%*#;2566jXOa*#$$#$*jX6O6O666O66O5O5O6O5:%$%*&*$#$*%$#$%*=$#$*&$#$$%*$#$Feo6O66O56O56O6O6O56O6O56O5O66O666O66O66O6O6O6O6O6O6O66O5O6O6X.o..o66O6O66.k4ttf4ttt4ko6O6O6O56O6O6Oof4k-d;$##a4ttt4f4ttf4f4tf45O6OO6O56O66O5O5o+=#$%*%$*%$#$$#$#=#$%*$%*%$*%*$#$#$$X   ",
"    +;#%*%$*&*$%*$&*%=#$$#$#;e X 1@##$$#=*$&*%$$#@uoo66oMd#%*%$#upOO66O6O65O6O6O6665:=*#$*%$&*%$*&*$%*&*$%*%$*%*%$#$ryO6O6O6O5O6O66O66O6O65O66O66O5O6j6OjZjO66j66j66j6O65O6O66O6Ohugug-X.OO6O66OOoXXXoOoXO66O6O66O6O66O66XO.pe,97@#OoOoXXOoOXXOoOXXO6666O6O6O5O66O6.+;#*%$*=#=#$$#=*%*$&*$&*%=*%$#$$%*%$o   ",
"    -@#$%*%$*%*&*%*$%*=#$$#$=8we<+=#$#$$#$%*=#$#=#$r<O6X08$#$*%#74o6O66O6O66O566O6O5:$%$$%*$#$$#=$#=*%$#$*&*=%*$#$#=9o6OO66O66O66O56O56O66O6O66O66O6jO66j666j66OoXXoXO6O6O66O6O6oisM+MrhepX6j6O6665O56656O5O6O66O56O5O5O6O56Oo30-2q66665O666O5666O56OOO6O66O56O6Oj6o-;#$$#$%*$%*&$#$$%*$#$*%$*&*$%*&*%*$X   ",
"    +;#$*%=*%$*$%*$&*$#$%*=#$=@;@;#$*$%*%$*%*$%*$%*==kX531@:*%$*=gX6O6j665O66O5O6O65a=*#=#=#$$#=#$*%$%*$&*$%*%$#$#$7rX6O66O65O66O5O66O6O6O5O66O66O6OZ66OO6oo.. 0*aai$wo6O66O6O6o1F4 o.5@F<o6O6O65O66O66O66O665O5O6O66O6O66O6O65X.oo6OO6O65O66O6O66O6666665O66O66jZ5.g@#*%*%*$%*$#$$#=#$%*$%$*%*%=#$*%$#=o   ",
"    -@*$%$*&*%$#=%*$#$$#=%*%*%###%*%$#=$#=#$%*$%*#=#;-XoX,#;#$##=iO56O6O6O6O66O6O6O5:*%$*%*$%*$%*%$*%*=#$%*=#$*%*;-04O6O6O66O6O56O6O66O566O6O6O6j656j6O66Xe99>8:h,11<fXO6O66O66oeq56j6Otawo6O66O5O6O66O5O66O6O66O66O66O5O66O56O5656O665O6O5O666O6O6OO6O6O66O66O6OjOOkg=#$#$$#=%*=#$$#$*$%*&*%$*%*$%*=#$$X   ",
"    +;##$*%*%$#=*$#$%$#$*%*$%*=#=*%=#$*%*$%$*%=*%$#$#$iwOXy2$%$*=>3XOO66O6O66O6666O5:$%*%$$#=*&*$%*&*$#$%*$%*$%$#@B X6O6O66O5O6O6O65O66O5O666O66OooO66665o9ih2226oXX.o66O66O6O6.BfojZj63rwo5O5O66O665O6O66O5O66O66O5O66O65O6O6O6O6O65OO66O66O6jO6j666j6O6OO6OO6OjZO6op=$#$$#$#$*%$#$$#$&*$#$=*%$*&*%*$#$o   ",
"    -@#$%*$%*$$%*%$*&*$%*$%*$%*$%*$#=$#$%*=#$%*%*$$#$#;aO6Oo9$#%$i,166OO666O56O6O6O5:$#$*%*%$#$%*=%*$%$*&$#$%*=#$%1O56666O66O666O66O5O66O6O5O6Oot115Ooooo 8e ..3ooo.4fOO6O6O665oe0Xj6O6Oiwo66O6O66O5O66O5O66O5O5O66O5O666O66O66O66O6O66O66O5O6jZj6oO56666666666665j66Xq#;###$*%$*%*&*$%*&$*&*%*%$*%$%*%$X   ",
"    +;#$*%$*%*&*%$*%*$&*%$*%=#$%*$%*$#$%*$#$$#=*%=#$#$=>X66oB7#*%$=7-366O5O6O6O66O65:=#$&*$&*$%*$#$$#=#=*%$*=#$#=s oooooO6O66O6j66O6O65O66O6O6OM#;70Xgsss>@2oyO1isr>dq.66O666oo w4o6666 rwo6O665O6O66O66O66O66O66O6O66O6O6O6O6O66O6O66O6O66O66O6O +0 oooooooooooo.X6O6ok0$@;$#$#$=#$$#$*$#$%*$%=*%$*%*%$o   ",
"    -@#$%$#=$%*%$*&$#$*&*&*=#$$#=#$%*$%*=%*&*$%*=#$#$#$%f.5Op-$#$*#$ah6O6O66O66O66O5:%*%*%$*%*=%*=#$$#$#$*%$#$$#=:MMM2M-kX6O6O6O6O66O6O5O66O6OXr=:=0o$-eeeefOX wuBheefO6O6OOohu-rtXXo.oh;wo66O6O56O6O5O56O66O66O56O66O666O66O66O66O66O66j6O6OO5.0-#92MMMMMMMMMMM2+136O6OowBB#$#$#$$#=$%*%$*%$#$*%*%$*#$$X   ",
"    +;#$$#$*&*$$#$#$=#$$#$$#$$#$*%=*%=#$#$%*$%*$%*$%$$#=9fX5.f7#####$#O6O65O66O6jOO5:=*%$*&*$%*%$#$$#$$&*%$#$$#=#$@;;;;7+ko6jO6O65O6O6O666O6O6Xr;$@0X#p oo.OX<<+y  3 oXO6jO5w;9+uyXfhwe;9fO6O5O66O65O66O6O6O5O6O6O66O6O6O66O66O66O66O6O6O666O6X4>7#=@;;@;;@;@;@;;7><kX666o3X:$%*$%*%*&*%$*&*$%*%$&*$%$#=o   ",
"    -@#$#$$%*%$#=$#=#$#$$#$%*&$%*$#=*%$*&*$%*&$#$%*$#$*#@g.5Ots=@;;;@:6O66O6O66O6Zj5:$#$*%$#=*&*$%*&$#$*$#=$#=$#$##%####=$h.6Zj6oo6O666O5O56O6Opfff5O#465666Oksdsr:aasspX6Xp;4X..joqe40fXO6O6O66O5O66O66O566O66O6O6O6666666666666666666O6O6O6o4;$#$###############=@#<.6666y:%*%*$%*$#$*&$*%*=$#=*%*$#$$X   ",
"    +;#$$#$#$=#$*%*$%*$%*=#$$#$*%$#$&*$%*$%*=#$$#=*%$#$%=+o6OOO111111,OO6O6O66O6O6oXa*%*%=#$$#$$#=*%*$#$%$*%*%*$%*$#$$#$#=:pOj6owMo5O5O6O66O6O6OoXXO6#p3oo6O6oy+R+,w1>dfX5Xk#6O566.h5 33oOO6O66O6O66O66O6O5O66O66O6O.ooooooooooooooo.o666O6O6X,;#$#=#$=#$=#$$*%=#$*:=i5OOjO5==#$$%*$%=*%*%*$%*%*$%*%=*%$o   ",
"    -@#$%$*%$#=$#$%*=%*&$#$#=$#=*$%*$#$#$%*%$*%*$%*=#=#*;-o5O66oooXooXO6O6O6O6j66O<q#$#=$*%*%$*&$#$$#$$#=#$$#$%*=%*=#$$#$#;4o66X,eX6O6O66O66O6O6566O6:-eh1X6O5op-y3X34=to6Op#pOOO6oh+ehhqpXO66Oj66O5O5O566O6O5O6O6OkqeeheheheeeeeeehhBO6O66O6o,;#*$%*$#$%*=#=%*$#=#$#=pXjZO6ha%*%*$#=#$$%*&$*&$#=*%$#$#=X   ",
"    +;#*$#=*%*$#$%*$#$$#$*%=*%$#$%*$%*$%=*&*=#$%=*%$#$$#;+o66O655565566O6O66j6XoX3>7$#$#$#$=#$#$#$=#$&*%*$&*%$*%*$%*%$#$#$#*,.XoXo6OO666O5O5O666O6O6Oytk+RtO665O.O666X#tO6Ok#Oo6666yfttp#Bo66OjZ5O66O66O6O66O66O6o1$;;@@@@@;@@@@@@@;;7<.5O6O6X,;#$%*$%*&*$#$%*$%*%$#$$kO6O6OoZ9=#$#$#$*&*$$#$*%$*%=*%*%$o   ",
"    -@#$%$#$%*%$*&$#=#$$#$$#$*%$#$$#=%*$#$$#$$#=#$*%$*%#;-o66O6OO5OO6O6O66OO6.M88ga%*%*$%*%*$$#$$#$*=#$$#$*%$*&$#=*%*=%*%*%$#B2gO6O66O5O66O66O5O666O6OXXOM, oooXj6j6O6#to5op;r-.oo.oXoO3:Bo6O6O5O6O66O66O5O66OO6Oor=#########*#####%#*aB36OO6o,;#$#=#$$%*%$#$$#=$#$##$kX6O6O6o0@$#$%$$%*%*%$#=*%$*%$*%*=X   ",
"    +;*%$*%=*%$*&*$%*$%*=#=#$&*$$#=#$*&*$%*%$#$*%*%=#$$#;+o5O6O66O66O5O66O665q#;=;=*&*%=#$$#=#$=#$%*%$*%$*%$*&*%*$%*$%*$%$*=8ts#6O66O6O66O65O6O6Ojj66665o48qqqq25O66j6#tXjZ5eh>qqqM0X66XBfO6O66O6O66O5O66O65O66Ok-$#$#$*%*$&*%$*%$$#$#=awO6O6X,;#$#$$#=*%$*=#=#$#$$*%=fO66j66O6Ba*%*#*%*$&*%$*%$#$&*%$#$o   ",
"    -@#$%*=#$*&$*%*$%*%$#$$#$*%*%$$#$%*%$*=#$$#$$$#$*%*#;-o6O56O66O66O6O6O532d#$#%*%*$$#=*&$*%$#=*$%*&*&*&$*&$*%$#=$#$%*=##@1 y5OOO5O66O6O6O6O6OjZoXoooo6o9R>5ff6ZoX e@fX6OOo.6fp5r-.5663o6XhOO6O6O56O6O56O66O5Xt@#$*&*%$#=*%*%$*&*$#=#;io666o,;#$$*&$#$*%$#$$#$$#$#$*aaa#po6j6oO4$%$$#$%*$*&$*%$*%*$#$$X   ",
"    +;#%*$%*%=*%$#$%*$=#$$#$$#$%*=#$$#=*&*%=*%$#=#$$#$&#;+o66O6O5O66O666O6oM#*##=#$$#=#$*%$#$%*$#$&*$%*$%*$#$#$$#$*%$#$*%$#;BXOO666O65O665O666jZjXus>iriB 8+OXo.6owas#7to6O655OXO392 XX3g1XXgsXX6O6O5O65O6O5O6OXf$#$%*$&*$%*%=*%$*%$#$#=>X6O6X,;*%*%*%*$%=#$$#$$#=#$$#$=$$a4.6O5Xp@$*%%*$#$&*$%*$#$$%*%$o   ",
"    -@*$%*$%*%*$*&*$#=#$$#=#$$#=$#$#$$#$$#$#=*&$#$#=$%*#;-o66O56O66O5O6O6jXs;#$$#$*%$$#$%*$%*=%*$%*%*$%*$%$*%$#=$#$#=$%*$#$@Bo66OO66O66O5O6OO6O6X4$@g<<i- >q.XBwXohMww<yO66O6O6O5o+>hM2q#<Xog@ukX66O66O66O66O65ot=*%*%$*%*$%*$#=#=*%$#$=sO6O5o,;#$$$#$$#=*%$#=*%$*%*&$#%*#@956O6O5Bi#*$%$*%*%*&*%$*&*%*=X   ",
"    +;#%*%$#$$#$%*$%$#$$#$#$=#$*%$#$=#$%*$%*$%*$*%$*%*$#;+o5O66O6O5O66O6O6X>=%*%*$&*%*%$*=#$$#$#=*&*$%*&*$#$&*$#$$#$*&*%$$#;Bo5O66O6O5O6O66666O6O6i@w  u+ s2o.88.Xhk3ooO6O6O6O66OO6ykyyk6O6o8=74X5O66O66O65O66OXt=%*%$*&*$&*$%*%$*%$*%*=so6O6X,;##=#$$#$#$$#$*%=#$%*$#$*%$#=$kXO6OoXs=#*$%*$%*$%=*&*%$#$o   ",
"    -@#$$#=$#=$#$%*=#=$#=$#=#$#=#$$#$*&*&*$%*$%*%$#=$%*#;+o66O66O66O6O5O663>=*%$*&*$#=*%$#$*&$*%$#$%*=%*%$*&*$%*&*=%$*%*&*#@wo66O66O66O66O6O6O66O66shoXu- >2o65yjoqtO66666O666O566OOOOOOO6OOypk66O6O5O5O66O5O66Xf=$$*%$#$%*=#$$#$%*&$*%=sX6O6o,;#$#$*%$*%$#=$#=*%*=%$*%$*%*##:4X6O5X>=#$%*&*$%*$#$$#$#$$X   ",
"    +;#*%$*%$#$#=*$#$$#$#$$#$$%*$=#$%*%$*%$#$&*%=*$#=#$#;-o5O66O65O66O66O6-:$#$#$#$%=*%$#$=#$#$&*$%*=#$$#=#$$#$#$$#$#$%*$$#;eo6O65O65O66O5O66O6O66O>sO.gg.>h 5OXX Bto6OO6O5O6O6O6O6O6665O6O6OOOO6O6O66O66O6O66jXt=#*%$*%$*%*%=#$*&*$#$#=>X5O6X,;#$#$%=#$&*$#$%*%$$#=#$$#=*%$#@1o66OXs=#$#$*%$*&*%$#$$*%=o   ",
"    -@#$%*%*=%*$%*%$*%$*&*%$#=*%$#=*%$*%$*&*$#$$#=%$#$$#;+o6O6O56O6O66O6O6#$#$%$$%*=#$*%$*%$*&$*%*$%*$#$$#$$#=$%*%$*&*$%*%#;Bo666O66O6O66O6O66O6OXr@BXo-7++r0o6OBh8pO666O5O6O66O5O56O5O6O66O66j6O666O66O666O6O5Xf=$%*%$*&*$$#$$#$$#$$#$=sXO66o1;#$$*%*$%*=%*=#$*%*$%*&*$%*%*#;,o666X>=*$$%$#$%$*&*=#$#$$X   ",
"    +;#$#=*$%*$&*%$*&*%$#$=#$*%$#$*%=*&*=#$$#$$#$#$*$#$#;-o66O66O6O65O6O6O6>;#$*&*$#$%$*&*%*%$*%*%=*%$#=#$$#$#$*&*=#$$#$#$#;wo5OO66O5O65O66O6o<$a:@<X6OOM8+F=:#:@d@kOO5O6O665O5O66O6O66O66O6O66O6O6O5O66O5O66O6Xt=#$$*%$*%=#$$#$&*%$#$#;>X5O6o,;#%*&*$%*%*%*%$*%$&*$#$$#=#$$#;1o5OOXs=#$#$*%*$*%$*%$#$#$o   ",
"    -@#$$%*%*&$*&*$%*=#=*&*$#=%*=%*$#$%*%$*&$#$$#$#%*%$#;u.5O66O56O5O6O6O6o9=#$%$*%$*%*%$*&$*%$*&$#$*$%*$%*=%$#$$#$%*&$#$$#@Bo666O66O66O6O6O5.eht406Oj6 B>50t0404tt6O66O66O6O66O6O56O5O66O6j6OO66O66O6O56O6O66OXf=*%*&*%$*%*&*$%*=#$$#$=sX6O5X,;#$%*%$*&$*%$*&$*&*%$$#$$#$%*#;,X666o8;#%$#$$%*%*%$*&$#$$X   ",
"    +;#$%*%$*$#$*%$#$%*$%*%$%*$*%*%$#=*%$*&*%=*%$$$$$$*##,O6O6O5O66O665O6jX>=*#$*%$#=#$=*%$*%*&*$#=#$%*$%*$#=*$&*%$*%*$$*%*=wo6OO65O66O5O66O6oBt3Xo666O1rg.OoXoXoXXO6OO66O5O66O666O66O65O6O66556O6O6O66O5O65O66Xt=#$%*%$*%$*%$#$*%=*%$#=>OO66o,@#*$%*$#$*%$*%*%*$%*$#$%*%$*$#;,X5O6Xf##*#$$#$%$$*&*$#$#$o   ",
"    -@*$#$*&$%*%$*&$*%$#$$#=*%$#$$#$$#$$#$$*%*%*######=iOXO6O66O6O66O6O6O6o>;#$*%*$%*$%*&*$%*$%*%$*$%*&*%$#$%*%*$$#$$#%*%#=,X6O66O6O5O66O5O66oe0O5o9e gd+o56O5656j56O66O56O66O5O6O5O66O6O66.5:$fXO566O66O66O6O5Xf;#$*$$#=*%$*&$$#$#=*%*=sX6O6X0=*%$*%$#$%*%$*%$#$#$%*$#$*%*%#;,XOO6O5Xh7=###*$#$%*%$$#$$X   ",
"    +;#%$$%*&*%$*&*$%*=#=#$*%$#$=#$$#$%*=#$#$#$$=;;;=7>yO66O65O66O5O5O66OjZ58@#%*$&*$%*%*$%*%=#$$#=#=*%=*%$*=#$%#$#$#$*%*7>o6O65O66O65O66O666oBt Oo9$r@qO6O6O6O6O66O65O6O66O5O66O6O65O66O6Of1$=4X6O6O65O66O5O6OXt=#$&*&*%=#$%*$#$%*$%$#=so5O6o1;#%*%$*%$*%$*%$*%*$#$*%$$%*%$*@,o665O6X5g>;;@=%*%*%$*&*%=o   ",
"    -@#*%*$%*$*%$#$#$%*$%*$%*=%*%*=#=*&$#$$*%$#:>,111<to5O6O6O5O666O66O66O6ota#$*%*&*$#$$#=*&*$#$$#$%*$#=*%$#$*$$#$#$#%$#-pX6O6O6O66O6O6O6OO6owu+<3gu,wyX6O666O66O666O56O5O66O6O566O6O6O66Oa@#=to66j66O6O66O665Xf=*%*$$#$*%*$%*=#$$#$$#;sX6O5o0=**%$%$$%$$%$$%$$%$$%$$%$$%$###0X5OO6O5OoX1148;#$$*%$*#$$X   ",
"    +;#$$&*$#$&*$&*$&*$%*$&*%*$&*$%*%$#$*%#$%*#yXooXooX5O66O6O65O5O66O6O6665Oos=%*%$*%$&*%$#$$#$%*%$*%$#$%$#$#$##$$$$$*;,.O6O5O6O65O66O66666O6OXs-.6XooO5O6O5O66O5O6O6O6O66O66O6O5O66O66j6Xr$*=tX5O5O6O65O65O6OXt=%*%$#$$#$$#=#$$*%*%$#=ro66O6o8=#%*#*#*#*#*#*#$#$#$#*#*#*##=pXO6O66O6O56oX M;#%*&*%$$#$o   ",
"    -@#$#$%*=%*%*$%*$#=*%$*%$#=#$#$$#$*%$$*%=:k6O655656O6O6O66O66O6O6O6OXooX.ya$#$*%$*=#$*%$*&$*&*=#$*&$*&*%*%@+6kkkkkkk56O66O56O5O6O56O6Oj66O5.8M3OO66j6O66O5O66O6O66O66O5O5O566O6O56O6O6Oi$#=tX66O56O6O5O6O66of=#$$#=*%$#$$#$%*&$*$#*=>X6O66OOuN=========================*pO6O66O5O66O665o-;#$$*%*%*%$X   ",
"    +;#$$%*$%*=*%$*%$#$%$*&*$#$$#$$#$$&*%*%*awo5O5OO6OO66O666O66O66O66O64988gi=#$#$=#$#$$%*&*%*%$*%$#$$*%*$#$*>kXOOOOOOOO666O6O66O666O6O6jZjOOjoM9q+4X6OO66O6O66O666jO65O66O66O6O66O6O6O66Xr=#;4o5O66O66O666O6OO1=#*&*$&*%$=#$$#$*%$%$#=sXO6OO6Xyhisrsrsrssrsrsssssrsrsrssieo6O5O6O66O6O6O6.M;##$&*$%*%=o   ",
"    -@#%*$%*$%*%$#=*%$*%*%$#=$#=$#=%*%*$$##=ko6O6O66O66O56O5O66O5O66O6o1@==;;=#$#$%*=%$#=*%$*%$*%$*&$#$%*%$#=8oO6O66O66O6O5O6O5O66O6O66O6O6666ZjOj566OjZjO666j6O6j6jZj6O6O66O66O5O6O66O66OOi$#=tX6O6O5O66O6O66ow@#$$%*%*=*&*$#$$#$*#$##$>X6O66O5XoOOOOOOXOOOXOOOOOOOXOXOXOXXO66O6O6O66O5O66o+;#$#$#$*%*$X   ",
"    +;#$=#$#=*%$#$*%=*%*$&*$%*%*%$**%*%$#$%$pO66O66O5O6O6O6O66O6O66j6OOs=#*%##=#$$*%*$#=*%=*%$*&*%$#$*%*=*#;+o66O6O5O6O66O6O66O66O6O66j6O6OoXOjXXXoO666666OoOXXOXXXOj6O666O66O66O6666O6O66Or=*=fX5O66O66O5O6Op#:#$#$#$$#$%*%$=#$%#%;==NgOO6O5O6O65O65O6665O665O6666666666j666O6O666O6jXX6O6o-;#$*%$$%*%$o   ",
"    -@*$#$$%*%$*=%*&*%*&$*%*$$#=*%$%$$$#$#*=pX6O6O66O66O66O66jj66O6O66Oi$*%*$%*$%*&$%*$%*$#=#$%*=#$$#=$%*%#;M.6O6O66O66O56O5O66O66O66O6O6.wrr,.ffh1OOOOOOOpttf4kp4tZXO6OjO6Oj6OO6OOj66O6OOXr$#;uXO6O56O66O6O6O4:$#$#=*%$*$%*%*%$*=*>>gfkO6O6O6O6O6O6O6OO6O6O6O6OOOOOOOOOO6O6j6O6O5O6OOtpO66o-;#$%*%*=#$$X   ",
"    +;#%$#=#$$#=#$$#$$%*=#$&*%=*%$#$*##$#*%$tOO6O66O66O66j6O6OZ6O666O6Or=%*$&*%$*&*%*$%*%$#$$#$*%$*%$#=#$$#;-o66O66O66O5O66O66O6j6O6O6O65OMN@hXi;=N16y5yyO87==7+>@=f55666665666666jZ6O6j665i$#=sX6O6O6O5O65O6OXa$*%$*%$#=#$$*%*#::rXooXO6O66O665O66O6O66O6O6O66y5y5y5yy5yO66O66O6O6jZk;9o66o-;%*&*$%*$#=o   ",
"    -@#$$%*=#$$#$#$$#=*%$*%*=#$%*$*%=;;=;%*#=,X6O6O56O6O66O6j66j6O6O6OOi$*$%*=#$%*$*&$*=#$$#=$#=%*&*$%*$#$#;-o66O5O6O56O6O6jO66O6O66j66ot=##$###$#########*##*###$##;<3XoXoooXoXoXO6j6OXo6:$%#;9o6666O66O6O6O66a$#$#$$#$%*&*%$#;+o56656O66O66O5O6O66O5O66O6OjXor$#######:5oX6O666O6o4;@8o66o-;#$$#=*%#$$X   ",
"    +;#$#$*%$#$%*$&*%*%$#$$#$%*$#$%$ruggg:%$@1o66O6O5O66OOXOXOOXO6O666Oi=$%*%*%$*%$%*%*%$*&*%*%$*%*$%*$%*%#;Mo5O6O665O66O6OZ6O6j66OOXOX5h=#$#$$$#$#$$$$$$$%*%$#$$#$#;-t,40000,400,5XOXk,tu=#*#=rX5O5O66O66O66O6a$%*$=#=*=#$$#$#;hoO6O6O6O5O5O6O665O65O66O6jZXkM=$#$$$=#$$iB5O6O6O66Op89ho66o-;#*%$*%$$#$o   ",
"    -@#$#$%*$#=*%$*&$*=#=#$$#=$#$*#;q Xo39=ra0o5O666O6OOykppkpkpk66OO6Or=#$$*&$*&*$*&$#$*&$*%$*%$*%$*&*$%*#;-.6O66O6O6O66O6j66O6O6pkkp5q7#$%*##%*%$#$#$#$#$%*$%*%*%$#=;;@;=@;;;;=dB5p5+7==$%$#;<XOO6O5O5O66O6O5a$##$#$%*%$#$#$#s6O6OO66O6O66O66O6O5O66O66O6j69@#$*%*%*%*%*dho6O6O5O6OooXZj6o-;#$%*&*%*%$X   ",
"    +;#$%$*$&*$%*%*$#$%*$%*%*=#$%$#;2o55X>#ZOO6O6O5O6O5.2;##%#$#;4o666Oa$$#$#$*%*%$%*$=#$%*%$*&*%$&*%*%$#$#;Mo6jO6O65O66j6O6XX6O.,;#$$$%*$#$$$$$$*$##*#$#$%*$#=*%=*%*%####*####%*#%$$$$#*#$*$#=fX666O66O66O66O6i$;%*%$*%$*$%*=sXO6O66O6O66O666O6O6O66O6jOj6Xs=#$#%*&*$#$#$#:66O66O6O6566jO5o-;#=#$*%$*%$o   ",
"    -@#$$#$#$%*=%$#$$#$%*=%$*%$*#$#@2o66O5yO6O6O66O6O66oqt6yyyy55O6O6OOu;#$#$%*$%*&*%$#$*%$*&$*%*$#$%*$#$#=$kO6Zj6O5O66O6O6okM#>+##$#$#############=;=;==$*$%$*%*%*$%*$#$*%*%*$#$#$#$#*%######;4o6O66O66O5O6O6O5fg*$*%#$#%*%#=iX6O6O66O56O6OXXO666O6O6O6ZOoya$*%*$%*$%*%$#=a5O6O66O6O6OjjZjo-;#$*&$*%%*$X   ",
"    +;#*%=#$$*%*&*$%*=#$$#$*%$#$$%*:Bo6O6OO5O6O5O6O66O6oqkXOXXXXp5O6O6ofa*%$%*$%*$*%*#$*%*$#$*%$*%$*$$#$%$#96OO5O66O66O6O665g7$==$$#$*=@;@;@;@;@;;7ef44p2;#%$*%$$$%$#$#$$%$#$$#$*%*%*%$$=@;;;;,66O65O5O66O65O6OOXXr=%*$=*$=*=#uO5OO66O5O6O65ftkOO6O65O6jOpk2@#&*$%*$%*&*$#$a6O6O6OO6O6jZ6O63-;#*%$#$$*%=o   ",
"    -@*$%*$%*&$%*$%*%$*&*=%*$#$###$,.5O6O66O6O66O56O6O6oqfO65556$4XjO6OXy##*#$#$%*%$$$%$$%*$%$*%$*%$#$%*#$9o6O6O6O66O6O665o>;##*##$##=u1wwwwwwwwwwB5oXX3B;#*#%*##*#$*%*##*$%*%$$%$*%*##=q<www<OO6O6O6O6O66O6O6O65ow=a::a::a:#+36O6O5O66O66o4;@go6O6O6O66X>@$#$#$%*=#$$#$#$$:yO66666O6O6555yX+;#$*%$#$#$$X   ",
"    +;#%*$&*&*$*%$#=*%*$%*%*%$#$$;4O66O6O6O6O66O6O66O66327fO:##:;4o66jZj65:;=$#$#$#$#%*%#$#%*#%*#%*#$#$=N8o5O66O66O6O66OoX38=#$==;==;$k.oooooooooooO665XBN==;$#$;=;##$=;;=%#*###*#$==$#;k3oooo5OO6O666O65O66O66O6O65655655565666O66O66O66OX4=;go56O666O6a$#*#$#$*&*%=#$=*%*%#koOXOXXO.B=a::#%#$#$%*$#$#$o   ",
"    -@#$%*%$*%*&$*%$#=%*$%*$#$@Bkf6O6O6O66O66O66O5O5O6o-sf65*,pff5ZjO6O6OOk0>$$=$=$=$==$=$=$===$==$===:89fX6O6O6O66O6OX5t2i:$#=w<s89>Mo565656565656O6O6Oyp2>8#7a898$dq,>89*@=@;;=de51==t665565O6666O5O66O6O66O56O5OO6OO6O6OO6O6O6O66O66O56o,qykO6O6O6O6Ou$==$%$*%$*%*=#$%*%*=rssrssrssa=$$$$*%*$%*=%$#$$X   ",
"    +;#$#$$*%$%*=#$*%$*%*$%*%:w6oOO6O66O6j65O65O66O6O5.sq36y#poOOO6O66O66OXoOiaiaiiiiaraaiiaiiiaiiiar:u3oX6O6O6O66j6O5517==$#*F<3Xoooo66O6O6O6O6O6O6O6O6OOoo.t<p.oo0<k.Xoo011,11,15Xot1XO6OO6O66O5O6O66O6O6O6O6O6O66O66O6O65O5O6O5O66O6O66o,,.O6O6O66O6O.uaia*#$%*%$*%$#$*%*$=========$%*%#$#$%=#$#=#$#$o   ",
"    -@#$$#=%*=#$%*&$*%$*%#$#;h 6666O6O666O6O66O6O66O66.>e oO#pO66OO6j6O6O6j66OOOOO6O6OZOOO6OO6OO6OO6O6O66O66Oj66O6O6.M;#:##:;rBy.66656O66O6O66666666666O6O565XoX566XoO5656ooXoooXoO65Xo66O666O5O6O666Oj6O6666O6O66O666O56O6O66O56O6O566O6O6O666O6O66O5O6OO6o4;#$*&*$%*=%*%*%*%*#%#*%#*%$#=*&$#$#$$%*$#$$X   ",
"    +;#$%*%*$#$$#$$#$%*%$$#$72o6O6O6O6j6O6O6jO666O66O5o>801w=pOO666O666O6jZjj66jZjj6O6O6O6O6O6O6O66O6OO66O6OjZ6O6O6OX8=$;=;;a051w5O6O6O6O66jXooXoXooXoO666O6O565O6O665OO6O666656556OO656O6O6O6O666O6OjZj56ooO666O66O6O6O6O666O6O5O66O6O66O66O6O5O65O6O6O65OX4;%*%*$%*%*$%$*%=#$&*$&*$%*&*$%*$#$=*&*$%$#=o   ",
"    -@#$*%$*%$#=*%*=%*$%*%*ae5O6j66O566O6jZjZjOjO6O6O6o-aaaarkO6OO66OO6O6O6OZOOO6OZO6O6O66O66O5O6Oj6O66O666j6OjO66O6<=$>t04,O4T-05O66O6O6O6Xq>88889889yo6O6O6O6O5O6O6O66O6O6O6O6OO666O6666O6O66O5O6O66663y>8yOOOO6O6O66O66O5O66O66O56O6O5O6O6O6O66O56O66O66o0=%*$%*=%*%*&*%$*%*$%*$#=*%$*%*&$*%*%*$#=#$$X   ",
"    +;#$%=*%=#$*%$*%*$#$##$k.O6O5O66O5O6O66jOjZ666O66OOOOoXoOO6O66Oj665565565565656555666O6O66O66jZj566O6Oj66jZ6OXX<;:;g3OooXfq5.O6OO66O65oy#;=;;;=;=;gko66O6O6O66O6O66O65O65O6O66O6O6XooO66O6O6O6O66ooXhg;;yO6566j66jO66O6O65O66O6O65O66O5O66O66O6O66O6O66o0=*%=#$#$$#$*%$*&*$%*%$*%$#=#$&*$%*%$=#$#$#$o   ",
"    -@#$%*&*$*%$#$%$%*%*=7-o56O6O6O66O6O6Xo66Ojo6O6Oj66666666O66O66.f#aa:aa:aa:a:a:aa:soX6j6O66O6O5OXoOj6jZoO6jo5ha:##=8X6665X.O56O66O66Ooku;#####$#%#@gkX6O6O66O56O5O6O6O66O666O66O6ofBwkO6O66O6O6OX1<w=;##-:a:a$h3XjZjO666O6O6O56O5O6O66O66O5O66O5O66O5O5X4;#$*%$*&*=%$*&$*%$*&*%$*&$*$%*$#$$*&*$%$#$$X   ",
"    +;#$#$$#$%$*%*$#*%$=rB5O6O6O66O5O66O6kM+2MMrfX6jZ5OO6O6O6O6O6OOf9=*$=$=$=$=$=$=$=$%sto6O6OO66OO6t4p65664ko6pe7$=;;7>o5O6O65O6O66O6OjXq$=#*$#$=#$#$#==2o6O65O6O66O665O66O6O5O66O6X2$=F<o6O6O666O6s;@;##=#;=$=$=:+pO6O6O5O66O66O6O66O66O5O5O66O65O65O66O6X4;%*&*$#$%*$#$#$%*&*%$*&*$#$%*=#$%*%*$%*$*%$o   ",
"    -@#$$#$$#=#$$%=@=$a:p.O6O6O5O666O6O6or*O6OX$0o5O5O66O66O56O66Ok$=*%*%*%*%*%#$#$#%*#@9O6Oj66O66Xf;@9 o3y7uXf==:=9,<<0OO66O6O6O6O66O66o8;#$%*$%*%$*%*#;9o6jOO6O6O66O6O66O666O6O6O5o>;:=1X6O66OO6oh@:##$*%*%#$#$#=;ay6O66O6O56O5O66O56O56O66O6O6O6O6O6O66OX4;#$$#=$#$%*=%*$#$$#=*%$#$$#$%*$%*&$$#$%*#$$X   ",
"    +;#$#$&*$#$$#=ge+7ho566O66O66O6O66O6osBoOOOa0o66O66O5O5O6O6O.p=##$%*%=#$$#$$#=#$*%$#=>XjZjO6O6Of$$rBee2$##*%##;- Xoo66O6O6O65O6O6O66ou=*%*%$*&*$&*$%=gXjZ66666O6O6O66O6O5O665O66og=#@1o5O6O666og=#$#$%*%*=#$%*%*##5OO6O66O66O66O6O6O6O66O66665O66O65O65X4;#$#$%*=#$$#=*%=*%$#$%*$%*$&*$%*$*%*&*$%$#=o   ",
"    -@#$$#$%*=%*#;, Op5O6O66O66O56O5O6O6ore s1.#0o666O66O66O6O6Ot8=*$#=#$#=%*=#$$#$%*&*#$*>6O66O66of;#$@;@;#=$%*$#;-X566O6O666O6O666O6O5og=#$%*%$*%*$%*#;go5OOjOj666O666O666O6O6O6O5o>@pk5O6O66Oj6ou;#$%*&$*%$*%*%$##;Mo6O66O5O66O56O66O66O56OjO6O6O66OO6O6o4;#$$#$%*&*%$*%$#=*%$*%$#=#=*%$*&$%*$#$#=#$$X   ",
"    +;#%*%$*%*%$#;<X6XO5O6O5O6O5O66O66O6XrB3s,.#0o5O6O5O66O666OO#;#$%*%$*$%*$#$%*$&*$#$$#%*pO6O6O6Op#%*####$#*%*%#;+o6O6O66O6O6O6O6O6O6X u;#=*%=*%$#=*%*$#k.6jZjZjOO6O6O6j5O666O65O6Ot0OOO6O65O666ou;#$#=*$%*=#$=#$$*=go6jO6O6O6O6O666O66O6O6jZ666O66j66O66X4;##=*&*$%*=*%$#$*%$*&*$#$$#$%*%*&*$%=*%*$#$o   ",
"    -@#$$*&$*&*$#@<o5O6O6O5O666O6O5O6OO63shoOXO:0o6O666O6O5O6O66r$#*%$*&$#=*%$*&$#$#$$#$$#;-.5O66O5.M=*%$$#$$$#$$#=+o6O6O6O66j6O66O6j6X42s=*%*$#=*%$%*$%#=9tO66j666665j6O6O6O5O66O6O6Xo666O6O6O6O5og=#$$#$#$$#$%*=#%#;+ 6Zj6O6666O6O6j6O66O6OjjjOj6jO6O66oOX4;#$$#$%*$%*%$*&$#=*%$#=$#$$#$$*%*$#=#$$%#$$X   ",
"    +;*#$%*$%*%$#;<o66O66O66O5O66O66O66O0:8OX,a;f.66O6O65O66O6Oji$$%$*&*%*$%$#=#$*%$=#=#$#;-oO6O5O6OXe=##$#$##$##*7uo66O6O6O6OXXo9$w 8:#@$%$#$%*$%*=#$%*%*=;23XXoXoXoo6XXO6O6O66O6O5O65O6O65O66O66ou;#*%=#$$#$%*$#$$#=>4j6O66OO6O66jO6O66O66jZjZjZjZ6O6OOt8:a$#$#$%*$&*%$*&*$%*%$#$$#$*&*%*%$=#$#$$#$*%=o   ",
"    -@#$$#=#$*%*#@1.6O6O66O66O6O56O56OO6#:4Xo8N=wk6O6O6O66O6O6OOi=#$*%$*%$#$*%$*%$*%*$$#$#=-o66O6O65oBF*$$$$$$$=7efkO6O66O6O5XM>9%=i8%=$#$#*=#$$#=%*$#$$#=#=:8>>99>9>9.-9O6O66O66O66O6O6O66O6O56O6ou;#$*%*=#=*%$#=%*=#;ao6OO666O6j66Zj6O66O6O6O6O6O6O6O6.s@$=#$$*%*$%*=#$%*%*$$#$$#$%*%$*=%*&*%$$#=$#*%$X   ",
"    +;#%*%*$%=#$#;wO666O6O65O66O6O6O6O6O:to5o+#i$@5O65O66O6O6jZ5i=#*%=#$$#=*%=*%$#=*%$#$$#;+.5O66O6OXf<9#aa:a:#u<y.O6O66jO66op$;=*%==*$#=#$$#$$#=#$*%$=#$#$#$;==;===;=-##6O66O65O65O6O6O66O5O66O66og;#$&*%$#$%$*&*$#$#=>6556X5O6O6O6j6O6Oj555555555555556>=##$#=#$&*%*%=*%$*%$#=*%*=#$=#$%*$#$*=#$#$%$#$o   ",
"    -@#$$$%*=#$$#$##y.O66O6O6O566O66O6O6:to6XX56k26O6O66O666OOk$$*%$$#=#$$#$$#=*%$#$$#=#$#;-o66j66O66OoO5556565O.O56O6O5jZjop8=##$#$#$#$#$*&$#$$%*$%*&*$%*%*%#*#%*#$#*==i6O6O66O6O66O566O66O66O6O5ou=%$*&*$%*=#$$#$$#$#$#:#:fo6O666O6O6OX8$::#:###:#:#:#a%*%*$%*$%*$%*$#$*=%*$%$#=%*$%*$#$%*=%$#$*&*$#$$X   ",
"    +;*%*%*%*%$#$#$=<4yOjO6O66O5O66O5O6O#B6ottoXo3O5O66O6O5O6Oy8#%*&*$#$$#$%*$#$%*$&*$#$$#;-o6O6O6O6O65O6OO6O6OO56O5O6O6O6Ok8@#$#$$#$#$%*$%*%$#=#$%*%*$%*=#$$*%$*&*%*%#$a6OO6jO6O66O6O6O65O66O6OO63u;#*%*$%*$#$&*%$#=#$#$$#@uyX6O6O6O6O6e=*%=$=$$$$=%=$$$*$#$&*$%*=#$$&*%=#$%*&*$%*$#=#$=#$$#$#$$%*$&*%$o   ",
"    -@#$$$#$$#$$%*$#=dM jZj6O66O5O56O6O69F2y=;ftttO6O6O566O6O6Ooi=#$#$$#=$#=#$%*=%*%*%$*%#;-o66O66O6O6O6O66O6O66O6O6O66OZjos;#$#$%*=$#$*&$*&*$$#$*&*$%*=%*=#=%*&$*%$*%*=a5666666O6O666Oj6O6O66O66Xqa$$#$$#=%$*%*$#$$#$$#$#$#;>6O6O66O6XB@#$#$#$#$#$#*%*%*%$*&*%*%$#$*&*$$#$*%$*%*$%*$%*%*=#$%*=#=#$%*%*=X   ",
"    +;##$#$=#$*&*%#$###M6X6O6O6O66O6O6O6O<qhehhhhe66O66O5O666O66i$%*$%*%*%*$%$*=#$*%$=#$$#;-o6O66O66O66O66O6O6O5O66O66O6j6X8=%*%$*%*%$=#$#$*%$#$$#$$&*&*%*%$#$*$#$%*%$#*aXooXXoX6j6O6OjZj6O66O6OjOa;##$$#$#=*%$*%$$#=#$=#$#$#$rX6O6O6oq;#*%*%*$%*&*$%*=#$&*%$*%=*%=*%*%$#=*%=*%$#=*%=#$$#$$#$$#$*%$*%*%$o   ",
"    -@*$%*$#$%$*%$*%*$#@qyO6j6O66O56O6O6Ooooooo.ooO6O6O6O6O6O6OOa=#$#=$%*$%*=#$%*%$*&*%$#*=+o6j6O6O6O6O6O66O666O6O66O56OO5o9=*%*&$*&*&*$%*%$*&$#$%*&*$$#$$#$$#$%$*%*=#$$:1,1,,1pO6666666566O65656.>=$#$#=$%*%*=%*&*$#$#$%*=*%=sO6O665oq;#$$#$$#$$#$#$$#$$#$*%$*%*=#$$%*%$*%$#$*%$#$$#=*%$#=*&*$%$*%$*%*=X   ",
"    +;#%$*%$#=*%$*%$#$#:dBojZj6O66O66O5O665656555566O66666O66666i$$#$*&*$&*%*$&*$$#=*%$*$#@2o566666666666O6jO5O666O5O6O6O6.8=*%$*%$#$*%$#$=#$*%*=#$*%$#$$#=*%$#=*%=*%$%*%;;@;;d< o.oooooooO6OOo.og#*&*%$*%*$%*%*%*$%$*%$*%$%*=rO6Oooo h;#$#$$#=#$%*$%*%$#=*%=#$$#$%*&*$$#$%*=#$=#$$#$*%=#$$#$%*=#$&*%$#$o   ",
"    -@#$*%$*&$#=*&*$%*%*;<o6O6O6Oj6O66O6O6O6O6OO6OO66OjOj6O6joooi=#$%$*%*$#$%*$#=#$%$*%*&#$rZ3ooooooooooX6jZjO6O5O66O66O6Xpa=%*&*=#$$%*$*&*%$%*%$*%$*%$#=%*%*=%*%*%$*&*%*#####$82MMM2MM2-qO66XqM-=$%*$#$%*&*=$%*=%*=#$*&$*%*#=s..5-2M2>=#$%*&$*%*=%*=$#$$#$$#=#$$*%$*%*&*=#$%*&*$#=$#$$#$*%$*&$#$*%*$#$$X   ",
"    +;#$%$#=*%*$%*%$#$$#@wX5666O66O66O66O5O65O66O666OjZjZjXX.1B<:$%*$#$$#$%=*%$#$$#$*%=#$$#;2<wwwwwwwwwBpo6jZ6O6O65O66O66o<@#*%$*%$*&*%$#$$#=*%=*%$*&*$%*=#$$#$$%*=#$#$$#$$#$=#;@;@;@;@;N#XX.t=;;#*%*%=*%$*%*&*$%*%*$%$#$#$$#=iw<2N;@;;#$*=#$*%$$#=#$#$=#$%*%*$&*%=*%=#$$#$$#$$#$&*%$*%*$&*&*%*$$#$$%*%=o   ",
"    -@#$$#$%*%$#$$*%$*&#;1 oooX6O66O66O66O6O66O56O6O66O6O6p4t:@@$#$$#=#=$#=*%*$%*&$*%*$%*%*%;;;@@@@@@;;@$ho6Oj666O66O56O5X,;#$*%$*&$*&*&$#$$#=*%*&*%*%*$%*$%*=#$*%$#$$#=$#$%*%*#%#########ss>:=##$%*%*%*=#$$%*%*=#$%*=#$$#$#$%$@@;###%#$#$%*%$*&*$%*%$*%*$#=$#$*%$#$*%$*&$#$$#$$#$*$#=%*%*$%*=%*%$*&*%*$X   ",
"    +;#%*$&*$%*=#$%*&*$#=>-+-gwo5Oj6Oj6O65O66O6O66O66j6O63>N=%*##$*&*%$*%*$%*%=*%*$#$&*$#$%*#%##########$*6XjZj6O66O6O6O5o,;#*%$#=#$#$$*%*$#$%*$%*$%$*%=#$%*%*$#$&*$$#$#=#=*=#$%*=#$=*%$*$===$#$*&*$#$$#$$#$#$$#$$%*$#$=#$$&*#$###%*%*$%*&*$$#$#$%*$=#$%*%=*%$#$$#=*%$*%*%$*&*&*$%*%$*%=*$%*$%*&*=#$&*%$o   ",
"    -@#$$#$%*$%*$#=$#$%*$=@;;@a6XjZOjZjO6O66O56O5O66O6O6Owi%#$#$#$%*%$*&$#$*%$#$$#=$%*%$*%*$%*&*%$*%*&*%#=upO6O6O6O666O66o1;#$$#=$#$$#$%*=%$*%$#$%*=#$$#$*=%*%$%*$#$#=$%*$%*%$*%$#$#$#=#$#%#*%$#=#$#=*%$#=$#=*%$#=*%$#$#$#=*%$*%$*=%*&*%$*%$#=$#=*%$#=*%$*%*$#=#$$#$%*&$*=#$$#$%*=%*&*$#$#=$#$$*%$*%*%*=X   ",
"    +;#*%*%*$&*%$*%*%=*%*%####=q56j66O66O66O6O6O666O6O6Op==#$#=#$&*$$#=#$$#$$#=*%$#$*&*$&*$%*$#$=#$$#$%*$#7ho565O66jO6O66o1;#*%*$#$$#=#$$#$#$#$=#$*%=#=*%$#$$#=*$%*%$*&*$%*%$*%=*%$*%$*%$#$=#$#$*%$$*%$#$*%$*%$#$*%=*%$*%$*%$#$=#$#$*%$$*%$#$*%$*%$#$*%=*%$#$$#$$#$=#$*%*%$%*$%*$#$$#$%*%=*%*&*%$*%$*$#$o   ",
"    -@*$%$$#$*&*&$$#$*&*%*$#$$:7B 6oX6Oj6O666O66O6O66O6oM;#$#$$#$*&*%$*%*%$#=$#$*%$#$%*%*$%*&$*%*&*%$*$#%#;< o.o6OjZjO6O6o,@#$%*%$#=$#$*%$*&$*%*$%*$#$%*=#=#=$#$#$$#=%*%*=#=*%$#$*%$*&$*&*%*=%*&$*%*%$*&$#=#$*&$*&$#$*%$*&$*&*%*=%*&$*%*%$*&$#=#$*&$*&$#$*%$#=%*&*%*=%*=%*%*%$*&$*&*$*&$*%$*%$#=*&*%$#$$X   ",
"    +;#%*=#$%*$%*$#$$#$%*$%$$##=g26B<XjZj6O6O66O6O6O6O6oq;#$#=#$$#$%*=#$=#$$#=#$&*$%*$#$=#=#$*%$*%$*%=#$$#=8q2M,X66666665o1;#=#$$#$*&*%=#$%*=#$&*$%*%$*%$*%$*%*%=*&*$#$$#$%*%$#$*%=#=*%*%$*%$*%$*%*%=*&*$#$$#$%*%$#$*%=#=*%*%$*%$*%$*%*%=*&*$#$$#$%*%$#$*%=*&*$#$$*%$#$%*$*%=*&*%*$%*%$*%$*%=*$%*%$*%*%$o   ",
"    -@#$%*$#=%*$%*&*%$*=%*%*&$$#=FkeBo6O6O6j6O66O666j65o2;#$$#$#=$#$$#$%*=#$$*%$*%*=%*=%*$%*$%*&$*&*=#$%*$%=@;N$iaaaaaaaaa:$#$*&*$%$*%$*&*$%*$%*%*=%*=%*%$*%$*=%*%$#$$#=$#$$#$$#=$#$%*$%*=%*%$*%$*=%*%$#$$#=$#$$#$$#=$#$%*$%*=%*%$*%$*=%*%$#$$#=$#$$#$$#=$#$$#$$#=%*$%*$%*&$*%$*%$#=$#=#=*%$#$#$$#=%*%*$X   ",
"    +;#$$#$$#$$#=*%$*&*%*=#$$*#;2pyoX56666666666666666o h@#%*$%*$#$%*%$*%*$%*%$*&*%$#=#$*&*$%*&*$#$%*%$*&*#$###%===$=$=$===#$%*$%*%*%$*%*$%*%$*&*$%*&*%*=#$$#=#$*&*$%*&*%*=#$$#=#$*&*$%*&*%*=#$$#=#$*&*$%*&*%*=#$$#=#$*&*$%*&*%*=#$$#=#$*&*$%*&*%*=#$$#=#$*&*%$#=#$*&*$%*&*$#=#$%*=#$#$$#$%*=#$=#$*%$*%=o   ",
"    -@#*%$%*=#$$#$$#=$#$%*$%*&#@1 ooX..ooX.oo.o.ooo.o.q-s$#$%*=%$*&*=#$%*&$*&*%$*%$*&$*%$#$%*=%*%$*%$*&$*%$#$#=#$#*%*%#$#$#$#$%*=%*=#$%*&$*&*%$*%$*&$*%$#$%*=%*%$*%$*&$*%$#$%*=%*%$*%$*&$*%$#$%*=%*%$*%$*&$*%$#$%*=%*%$*%$*&$*%$#$%*=%*%$*%$*&$*%$#$%*=%*%$*%$*&$*%$#$%*=%*%$*%$*&$*%$*%$*&$#$$#=%*$#%*$X   ",
"    +;#$%$*%*%$#=#$#$#$$*&*%*$#;uweeBeeBeBeBeeBeeBeBeB*@=*%*$%*&*%$*%$*&*$#$*%$*&*$#$*%$*&*$#$*%$*&*$#$*%$*&*$#$*%$*&*$#$*%$*&*$#$*%$*&*$#$*%$*&*$#$*%$*&*$#$*%$*&*$#$*%$*&*$#$*%$*&*$#$*%$*&*$#$*%$*&*$#$*%$*&*$#$*%$*&*$#$*%$*&*$#$*%$*&*$#$*%$*&*$#$*%$*&*$#$*%$*&*$#$*%$*&*$#$*%$*&*%*$#$$#$#$*%$*%$o   ",
"    -@#$*%*$%*$$#$$#$$#$%*$%*%$*=@@;@;@;@;@;@;@;@;@;@@$#$%*%*$%*$#$%*%$*%$#$%*%$*%$#$%*%$*%$#$%*%$*%$#$%*%$*%$#$%*%$*%$#$%*%$*%$#$%*%$*%$#$%*%$*%$#$%*%$*%$#$%*%$*%$#$%*%$*%$#$%*%$*%$#$%*%$*%$#$%*%$*%$#$%*%$*%$#$%*%$*%$#$%*%$*%$#$%*%$*%$#$%*%$*%$#$%*%$*%$#$%*%$*%$#$%*%$*%$#$%*%$*%$#$%*%$*%*%*%$#$X   ",
"    +;#$%$%$*%$#$$#$$#$%*$%*$$#%*######################$#$#$$#$$#$$#$$#$$#$$#$$#$$#$$#$$#$$#$$#$$#$$#$$#$$#$$#$$#$$#$$#$$#$$#$$#$$#$$#$$#$$#$$#$$#$$#$$#$$#$$#$$#$$#$$#$$#$$#$$#$$#$$#$$#$$#$$#$$#$$#$$#$$#$$#$$#$$#$$#$$#$$#$$#$$#$$#$$#$$#$$#$$#$$#$$#$$#$$#$$#$$#$$#$$#$$#$$#$$#$$#$$#$$#$$#$$%$$$#$=o   ",
"    -@#*$#$#$*%*%*%*%*$#$#$#$#$*%*%*%*%*$#$#$#$#$*%*%*%*%*$#$#$#$#$*%*%*%*%*$#$#$#$#$*%*%*%*%*$#$#$#$#$*%*%*%*%*$#$#$#$#$*%*%*%*%*$#$#$#$#$*%*%*%*%*$#$#$#$#$*%*%*%*%*$#$#$#$#$*%*%*%*%*$#$#$#$#$*%*%*%*%*$#$#$#$#$*%*%*%*%*$#$#$#$#$*%*%*%*%*$#$#$#$#$*%*%*%*%*$#$#$#$#$*%*%*%*%*$#$#$#$#$*%*%*%*%*%$#$X   ",
"    +;#%$$%$$%$$%$$%$$%$$%$$%$$%$$%$$%$$%$$%$$%$$%$$%$$%$$%$$%$$%$$%$$%$$%$$%$$%$$%$$%$$%$$%$$%$$%$$%$$%$$%$$%$$%$$%$$%$$%$$%$$%$$%$$%$$%$$%$$%$$%$$%$$%$$%$$%$$%$$%$$%$$%$$%$$%$$%$$%$$%$$%$$%$$%$$%$$%$$%$$%$$%$$%$$%$$%$$%$$%$$%$$%$$%$$%$$%$$%$$%$$%$$%$$%$$%$$%$$%$$%$$%$$%$$%$$%$$%$$%$$%$$%$%$*%$o   ",
"    -@*$#$*%*$#$*%*$#$*%*$#$*%*$#$*%*$#$*%*$#$*%*$#$*%*$#$*%*$#$*%*$#$*%*$#$*%*$#$*%*$#$*%*$#$*%*$#$*%*$#$*%*$#$*%*$#$*%*$#$*%*$#$*%*$#$*%*$#$*%*$#$*%*$#$*%*$#$*%*$#$*%*$#$*%*$#$*%*$#$*%*$#$*%*$#$*%*$#$*%*$#$*%*$#$*%*$#$*%*$#$*%*$#$*%*$#$*%*$#$*%*$#$*%*$#$*%*$#$*%*$#$*%*$#$*%*$#$*%*$#$*%*$*$%*%$X   ",
"    +;#%$$%$$%$$%$$%$$%$$%$$%$$%$$%$$%$$%$$%$$%$$%$$%$$%$$%$$%$$%$$%$$%$$%$$%$$%$$%$$%$$%$$%$$%$$%$$%$$%$$%$$%$$%$$%$$%$$%$$%$$%$$%$$%$$%$$%$$%$$%$$%$$%$$%$$%$$%$$%$$%$$%$$%$$%$$%$$%$$%$$%$$%$$%$$%$$%$$%$$%$$%$$%$$%$$%$$%$$%$$%$$%$$%$$%$$%$$%$$%$$%$$%$$%$$%$$%$$%$$%$$%$$%$$%$$%$$%$$%$$%$$%$%$#$$o   ",
"    -;#$#%*%#$#%*%#$#%*%#$#%*%#$#%*%#$#%*%#$#%*%#$#%*%#$#%*%#$#%*%#$#%*%#$#%*%#$#%*%#$#%*%#$#%*%#$#%*%#$#%*%#$#%*%#$#%*%#$#%*%#$#%*%#$#%*%#$#%*%#$#%*%#$#%*%#$#%*%#$#%*%#$#%*%#$#%*%#$#%*%#$#%*%#$#%*%#$#%*%#$#%*%#$#%*%#$#%*%#$#%*%#$#%*%#$#%*%#$#%*%#$#%*%#$#%*%#$#%*%#$#%*%#$#%*%#$#%*%#$#%*%#$#$#$#$X   ",
"    +@#$$$$$$$$$$$$$$$$$$$$$$$$$$$$$$$$$$$$$$$$$$$$$$$$$$$$$$$$$$$$$$$$$$$$$$$$$$$$$$$$$$$$$$$$$$$$$$$$$$$$$$$$$$$$$$$$$$$$$$$$$$$$$$$$$$$$$$$$$$$$$$$$$$$$$$$$$$$$$$$$$$$$$$$$$$$$$$$$$$$$$$$$$$$$$$$$$$$$$$$$$$$$$$$$$$$$$$$$$$$$$$$$$$$$$$$$$$$$$$$$$$$$$$$$$$$$$$$$$$$$$$$$$$$$$$$$$$$$$$$$$$$$$$$#=o   ",
"    -=:################################################################################################################################################################################################################################################################################################*X   ",
"    gd=@;@;@;@;@;@;@;@;@;@;@;@;@;@;@;@;@;@;@;@;@;@;@;@;@;@;@;@;@;@;@;@;@;@;@;@;@;@;@;@;@;@;@;@;@;@;@;@;@;@;@;@;@;@;@;@;@;@;@;@;@;@;@;@;@;@;@;@;@;@;@;@;@;@;@;@;@;@;@;@;@;@;@;@;@;@;@;@;@;@;@;@;@;@;@;@;@;@;@;@;@;@;@;@;@;@;@;@;@;@;@;@;@;@;@;@;@;@;@;@;@;@;@;@;@;@;@;@;@;@;@;@;@;@;@;@;@;@;@;@;@;@;@@=;@o   ",
"    <g-+-+-+-+-+-+-+-+-+-+-+-+-+-+-+-+-+-+-+-+-+-+-+-+-+-+-+-+-+-+-+-+-+-+-+-+-+-+-+-+-+-+-+-+-+-+-+-+-+-+-+-+-+-+-+-+-+-+-+-+-+-+-+-+-+-+-+-+-+-+-+-+-+-+-+-+-+-+-+-+-+-+-+-+-+-+-+-+-+-+-+-+-+-+-+-+-+-+-+-+-+-+-+-+-+-+-+-+-+-+-+-+-+-+-+-+-+-+-+-+-+-+-+-+-+-+-+-+-+-+-+-+-+-+-+-+-+-+-+-+-+-+-+-+-+.   ",
"                                                                                                                                                                                                                                                                                                            ",
"                                                                                                                                                                                                                                                                                                            ",
"                                                                                                                                                                                                                                                                                                            ",
"                                                                                                                                                                                                                                                                                                            "
};
