/* XPM */
static char *freeimage[] = {
/* width height num_colors chars_per_pixel */
"200 200 151 2",
/* colors */
"   c #a9a9a9",
" . c #a5a5a5",
" X c #b3b3b3",
" o c #9b9b9b",
" O c #aca6af",
" + c #9daca7",
" @ c #a3b3ad",
" # c #a7a6aa",
" $ c #ac9fa9",
" % c #b6a4b2",
" & c #9ea4a0",
" * c #a5aba7",
" = c #a9a8a6",
" - c #af9fa0",
" ; c #b0a0a1",
" : c #bababa",
" > c #aeb0a5",
" , c #aab5ab",
" < c #b2adad",
" 1 c #a3b8a9",
" 2 c #a3b1a2",
" 3 c #6c6c6c",
" 4 c #747474",
" 5 c #646464",
" 6 c #7b7b7b",
" 7 c #949494",
" 8 c #8c8c8c",
" 9 c #848484",
" 0 c #5b5b5b",
" q c #726d6d",
" w c #696562",
" e c #696866",
" r c #72676d",
" t c #617363",
" y c #3d3d3d",
" u c #353535",
" i c #535353",
" p c #424242",
" a c #4b4b4b",
" s c #2d2d2d",
" d c #453e42",
" f c #42333b",
" g c #3a363b",
" h c #3f2f3a",
" j c #4c2c3a",
" k c #2b3e3a",
" l c #c2c2c2",
" z c #443d4a",
" x c #3b4648",
" c c #325149",
" v c #2e5143",
" b c #34493e",
" n c #36444b",
" m c #5b515a",
" M c #28442d",
" N c #56362b",
" B c #6b3531",
" V c #4d3a33",
" C c #39433c",
" Z c #aca3a6",
" A c #6c332a",
" S c #db0124",
" D c #f9022f",
" F c #931d29",
" G c #4e4139",
" H c #6d7479",
" J c #353c2d",
" K c #b31d1f",
" L c #f40903",
" P c #ff0a00",
" I c #f4030a",
" U c #a71e28",
" Y c #fa0013",
" T c #fe000d",
" R c #de0814",
" E c #61392f",
" W c #343c3c",
" Q c #2b4134",
" ! c #603a37",
" ~ c #a81728",
" ^ c #c01422",
" / c #872a22",
" ( c #4a4333",
" ) c #7e736f",
" _ c #2e3d36",
" ` c #275145",
" ' c #4b3b3c",
" ] c #583d36",
" [ c #3a482f",
" { c #424437",
" } c #75776a",
" | c #483f44",
".  c #697c6c",
".. c #4a3d4e",
".X c #413d3e",
".o c #543542",
".O c #464649",
".+ c #3b4243",
".@ c #36463b",
".# c #3d3743",
".$ c #697d71",
".% c #494446",
".& c #43433a",
".* c #364234",
".= c #433447",
".- c #625f60",
".; c #605c5d",
".: c #3a3637",
".> c #4b4748",
"., c #924d3e",
".< c #e90000",
".1 c #a72314",
".2 c #3e432c",
".3 c #374a4c",
".4 c #c83d44",
".5 c #ff0307",
".6 c #762c2b",
".7 c #9bb2a2",
".8 c #b84145",
".9 c #dc0517",
".0 c #7a5e52",
".q c #b1141b",
".w c #c50f1b",
".e c #703225",
".r c #364935",
".t c #b1afbb",
".y c #473e2d",
".u c #334547",
".i c #3e3e41",
".p c #5e5c62",
".a c #1d453a",
".s c #334841",
".d c #53384b",
".f c #472c33",
".g c #b9aeaa",
".h c #787471",
".j c #51665f",
".k c #725b65",
".l c #58655e",
".z c #68655e",
".x c #5a6f5c",
".c c #636558",
".v c #262626",
".b c #373739",
".n c #9f9fa1",
".m c #aeaeb0",
".M c #4f4f51",
".N c #989896",
".B c #91918f",
".V c #b0b0ae",
".C c #a1a19f",
/* pixels */
"                                                                                                                                                                                                                                                                                                                                                                                                                ",
"                                                                                                                                                                                                                                                                                                                                                                                                                ",
"                                                                                                                                                                                                                                                                                                                                                                                                                ",
"                                                                                                                                                                                                                                                                                                                                                                                                                ",
"                                                                                                                                                                                                                                                                                                                                                                                                                ",
"                                                                                                                                                                                                                                                                                                                                                                                                                ",
"                                                                                                                                                                                                                                                                                                                                                                                                                ",
"                                                                                                                                                                                                                                                                                                                                                                                                                ",
"                   .             .   . .       .     . .       .   X . .   . .   .     .     .       .             . . .     o       . . .   . . .   . X . . X .   .         .         . .       . X   .     . .     .     .   .     .     . .   .   .             . X .   .       . .         . O O . + @ # $ % . .     .   .   . X .   .   .     . .     .   .     . . . . .     . .   o .                    ",
"                       . . . . . . o . . . .   . . .   . . .   . . . . .   . . . .   . .     . .   . . . . o . X . .   . .     . . . .   . . .   .         . o X . .   . . . . . . . . .     . . . . .   . .   . . . .     .     o     .     . . . . . . o .   o   . .   . . .   . . .   . . . . & * = - ; = *   . o .   .       .   .   .       . X   . . .     . .             .     X .   . .                ",
"                 .   .   X . X   X . X X   X     X     X X X   .   .     X X X     X X X X           X   X X   . : .   :       X   X   X X     X X     . . :     X   X X   X X   X X     X     X X X   X     X X X . .   .       X   X X       X   X X     X   X       X       X X X   .       X > , , < < , 1 2 X           . .   .   . . . . . o   . .         .     . . . . .         .                      ",
"                 .   .   o 3 4 3 5 4 3 5 3 4 3 4 3 3 3 3 3 5 6   7 3 3 3 3 3 3 3 3 3 3 3 3 3 8 X 6 3 3 3 3 3 4 4 3 3 5 5 3 4 3 3 3 4 3 3 3 3 3 5 5 5 8 X 9 3 3 3 4 3 3 3 3 4 4 3 5 3 3 3 3 3 3 4 5 3 5 5 3 3 3 5 3 3 o   4 3 3 3 4 5 3 4 3 3 4 3 3 0 5 3 4 3 3 3 5 4 4 3 3 5 3 5 5 3 3 3 . X 9 5 q w e q r 3 3 t 3 3 3 3 7     .   .   .             .     .     .     . .         . . . . . . .                ",
"                     .   8 y y u 4 8 i u y y u y y y y y y u i X 9 y u y u u u u y y u u u u 4 : 0 u y 9 8 p u u p u u i i y u p u y y u u u y u a 6 o X 3 s y u y u y u u y y u y y u u u y u u y 6 7 5 y u u y u y 7   a y y u u u y u y y u u 6 7 9 p u y y y y y y y 9 8 8 a u y y y 7 X 4 s d f f g h j f k u y u y 8 X   .   .   o     . .   .     . .     .     . .     .   . . .                        ",
"                 .   . X 7 y p p 7 X 5 y y p y p p p p p p y i X 7 y y p p p p p p p p a a y 6 : 5 u a .   a y p y 0 6 6 i p a p p p p p p y 0 4 a .     4 y a y p p a p p p y p p p p p p p p p y 7 l 6 y y p a a y 7   a p p y p a p y a y y 9 o X   9 a p y p p y y i   X . a p p p y 7 X 4 u z x c v b p p n y p p p 7   . . .   X . .     X   .           .               . .         . .                  ",
"                 . . .   7 y y p p 0 y y p 4 7 7 a p p y y y 5 : 8 y p p p p y y p y p y p u 6 X 5 u p i i y 3 . 7 . :   3 y y y p y y y y y 4 o u a 6 X 4 u y p y y p p p y y a p y y p p y p y y i 7 6 y p p u p y o X a y p p y y y y p u a . X i 0 . 0 u p p u p a 9   .   8 y y p p 7   3 y m v M N B V C a a p y y 7 . .     . . 9 a i a a i i i i i a a 5 i a a a i i i i i 9   .       .                ",
"                     .   7 p p y p y y a y 9 : X i y p p p p p 3 6 u p y y p p p y p p y p y 9 : 5 y a y y y a 5 5 5 5 5 i y p p y p p p p a 8   7 u 3 : 3 y p y p p y y p p y 0 7 0 y y y p p y p s 7 . a y p p p y 7   i p y p p p p y p p p 5 0 y p . 8 0 y p p p y 7   . . . 9 a y y o X 6 i Z t A S D F G 5   3 y y 7     .   .   9 u y p y p y y y p u a . i p y y y y y p u 6 X . . .   .                ",
"                     .   7 y p y y y y y y 0 6 4 a p y y y p p u 6 a u p p p p y p p p y p y 6 X 5 u p y a u y y p u p u y p a y y p p y u 0   . 4 p 3 : 4 u p y p y y p p y 4 o : 3 y y p y p p p y 0 7 3 y y p p p o   i u y p y p y p p p y y p u i   : 5 y p y p p 8 X . X . 3 a y y o X 3 5 H J K L P I A g o 3 y p 7   . . .     6 y p p p y p p p p y 5 . . i y p p p p p u 4   .                        ",
"                     .   7 y p y 4 7 9 i p p y u p p p a a y p y 9 i y p p y y y p p p y p y 6 X 5 y p p u 0 4 y y p p a y p y p p p y p 0 9   8 u y 4 : 4 y p y p p p p p p i 5 5 p y p p y p y y y y i p y p p p y o   a p p y p p y y p p y p p p y 0 5 a y p p y y 0 5 i 5 i p u y y 7 X 3 5 H J U Y T R E W 7 4 y y 7   .     .   6 y p p p y p y p y y 7 X   0 p y y y y y y 6 X   . . . .                ",
"                     .   7 y p y 8 X X 7 0 y y p y y y 9 o 0 p y 8 0 y p p y p y y p p y p y 6 : 5 u p p y 5 6 y y y y p y y p y p p y y p i 6 7 u y 4 X 3 u y p y p y y p y y y y u y p y p p p y p u y y p p y y y 7   a p y y p y p a p p y p p p y y y y y p y y p y u u y y y p a p 7 X 3 5 4 Q ! ~ ^ / ( W 7 4 u y . :   .   . X 9 y p y p a y p y p p 6 X 7 p y y p p p p u 6 X .   . . .                ",
"                     .   7 y p y i 0 9 X . 0 y p 9 0 y 7 X 0 u y 9 i y p p p p p y p p y p y 6 X 5 p a p 8 8 . 8 9 a p i p y a y p y p p y u p 5 a u 3 : 3 u p p y y p y a p p p p p p p y p p p y p y p p y y y 6 8     a y y 9 o a y p u p p y y y y p p p y p y p p y p p y u p p p y 7 X 4 5 ) _ ` ' ] [ { y 7 3 y p 4 6 .   . o X 9 y p p p y y a p p u 5 o o p y p p y y a u 4   .                        ",
"                     .   7 y p y y y a o X 3 u p a p y 7 X 0 y y 9 i y p p p p p p p p y p y 6 X 9 o o a a p 6   : 6 i 3 p p y p p p p p p p y y p u 4 : 3 y p y y p p u y y y y p p p p p p p y y y y p p y p p 7 X   . i y p 7 X 0 p p p p p y y p p p y a a a y p p y p y p a p y y y o X 3 5 } f n z | C ' W o 3 y p p p o : . . X 6 u p y y p p u p p p 4 i 6 p p p y y y p y 6   .     . .                ",
"                     .   7 y p y p p p i 0 p p p y a y i 0 y p y 9 i y p p y y y p p y y p y 6 X 9 . : 9 y y p 5   . 9 i y p y p p p p y u y p p p y 4 : 4 u y 0 o 7 4 p p p p p p y y p p p y p p y p y p p a y 8   . . i y y i i y u y p y y p p p y p u y u u p y y p p p p p p p p p o X 3 5.  j.. z d.X.o W 8 3 u y y u 4 9 X X X 9 p p p y y p y y u p p u p u y y p p p y y 6   .                        ",
"                     .   7 y p y p y p y u y a u y p p y y y p u 9 i y p p y y y p p p y p y 6 X 3 4 . o p p y i . X . y y p p y y y y a p p y p p u 3 X 4 u p 4 :   9 a y p y y p p p p p y y p p y p y p p p u o .     a y p y 6 9 5 y p p p p p y p 9 9 9 9 8 4 p p p y p p y y p p y 7 X 3 3.  f.O.+.@.@ d.# 7 . 9 8 9 5 8 4 5 5 5 i y p p p a p p y i 9 y p p p p y y y p p y 6   .                        ",
"                     .   7 y p y p p y p p y p p p y y p y y p y 9 i y p p p p p y p p y p y 6 : 0 u i i y p y i   . 8 p y p y p y a y y y p p p p u 4 : 4 y y p a i i y p p y p y y y p p p y p p y p y p y p p a i 7   a p p p o : o i y y p y p y a o   . .   5 a 7 9 p p y y y p p y o X 3 5.$ W.% '.&.*.+.= 6   o . o 8 X 8 y y y p y y y y y y p y a o 0 y p y y y p u y a p 6 X . . . . .                ",
"                   . .   7 y p p y p y p p p y p y p y y p p p y 8 a y p p y y p y y y y p y 6 X 5 y p y p y p y i 6 p p p y p y y y p p y y y y p y 3 X 4 u p y y p u p p y p p y p p p y p p p y p p p y p p p y p 7   a p y p y 8 X i u p p y p y p y p y i . o     0 y a p p p y p y 7 X 3 3 4 u p y p y p p p y p y y i X 9 y p y 8 9 0 5 0 u a p p p p p y y y p y a 3 6   . o .     . .                  ",
"                   . .   7 y p p p y y p p p y y y y p p y p p y 9 i p p y p p y p p p p y y 6 : 5 y p y y p p y y i y p p p y y p p p p p p p y p y 4 : 4 u p p 9 4 y p p y p u y y y y y p p p y y y y y p y y p y 7   a p y y p a p y p y p y y p y p p y y a 5     i p p u y y p p p o X 3 5 6 y p p p y p y p y p p p 0 X 9 u a 6 X X   X o 4 y u p y y p p p p p y a 3 9 : X     . .   . .                ",
"                   . .   7 y p p p p p p y p p p p y p u p a u y 8 i y y y y y y y p p p p u 4 X 5 s p p p y y p p y u a p y y p y y p p y y p y p u 3 : 4 u p y i i y p u 5 o 5 p p p p p p y p p p y y y y p p p y o X a y p p p y y p p 6 7 p y a p p p y p y p 5 5 y y y p p y p p y 7 X 3 5 6 y p y p y y y p y y p y 0 X 8 y a 6 9 o     X X 4 3 p y p p p y y p y y y a 6 6 7   . .                      ",
"                   . .   7 y p p y p p y y p y p y p p a 7 o p p 9 i y p p p p p p y y p p y 6 : 3 u p y y p p y p p i 7 3 y p y p y y y p p p p a u 3 X 4 y p y y p p a u 6 : 4 u y y y p y y p p y y y p p y p p y 7   a y a p y p i u y   X a y p u y p y y y y u y p p y p y p p p p 7 X 3 0 6 y p p p p p p p y y p y 5   8 y y p y 4 9 5 4 . 6 7 a y p y p p p p p p p y p u 4     . .                    ",
"                   . .   7 y p p y p p p p p y y p p y p   X p u i p p y y y y y y p y p p y 6 X 5 u p p y y y p y 0 8 : 4 u y p a p p y p y u p u u 4 X 4 u y y y p u y y i 0 p y p p p p p p p y p p p p y u y u y 7   i u y y y y u p 6 8 0 p p p p p p y y a p y p u p y y p y y u y 7 X 3 5 4 u p y p y p p y p y p y 0 3 a p p y y 5 i u a . a 5 a y p y p p y y y p p y y u 4   .       .                ",
"                   . .   7 y p p p y p p y y p p y y p a 9 8 p y p y y p p p y a y p p p y y 6 : 4 i i 0 0 0 a p y i 7 o 5 p y p y y p y 0 0 i 0 0 i 6   6 i 0 0 i i 0 0 p u u y y p y y y y p y p p y y a 0 0 0 i 0 o . 5 i i i 0 0 0 7   i s p y y y y y y y p y y 0 i i i i i i i i 0 o   3 5 6 y p y p y p y y p y p p 6 0 y y p p p p y p i 8 y p y p a p p y p p y y y p p y 6 X .       .                ",
"                   . .   7 y p p y y y y i p y p y p y y y p y p u a a y y y u a p p y y p p 9 X   X X   X : 8 p a y a p p i p a p a a p 7 : X X :     :       X :   X X 3 p a a a a a i a u p p p p p 0 8 X : X :   X X   X X X X     X   i i a a a a a p y i p p 0 o : X   : X X X X   : X 3 3 6 y p p p p p p y y y y y 8 i y p p y p y p p y y p a y y p y p y y y y y p p y u 4 X .   .                    ",
"                   . .   7 y p p y a u p 8 4 y y p p p p p y p y p 7 o i y p p y y y y p p u i 5 5 5 5 3 5 5 9 . . . . .   o .       9 y 0 3 5 5 0 5 5 5 5 3 5 5 5 5 4     o   .   . . . 4 y y y 9 . X o 6 5 0 5 0 5 3 5 5 5 0 5 3 5 3 0 o .   . . . . o i p 7   . o 4 0 3 0 5 5 5 5 5 0 5 3 a 5 3 s u u y y y y p y p y u 8 i y y p p p y p y p p y y p p y p y p p p p p y p p y 4   .   . . .                ",
"                 .   .   7 y y 3   p u p a a y p p y p p p p y y y o 7 a p p y p p p p p p p y y u y u y y y p i i i i 0 i p 5 o o 9 p p y y y u y u y u y u y u y s 0 X 7 i a i a i a a a p p y a i i a y y u y u y y u y u u y u u y y p a i a i i i i p p a a i a y y y y u u u y y u y y y 5 o 6 4 6 6 5 y p y p y p y 9 i y a y p y p p y p p p u p p p p y p p p p p p p p y 6   .                        ",
"                         7 y p 3 . 0 p p y p y p p y p p y u a 7 8 9 0 u y y y p p p p p p p p p p p p p p p y p y y p s y p y y p i u p y p p p p p p p p p p p y p 5     5 y p y y y p p y p y y y y p y p p p y p p y p p p p p p p y p p p y y y y y y y p y p p y p p p p p p p p p p p y i 5 5 5 3 3 i y y p p p p y 8 0 y y y 8 i y p p p y p p a u y y p p p p y p p p p y 6   .                        ",
"                 .   .   7 y y a i y y p y p p y p y y y y y 0 X 7 a y p p p y p p p p p p p p p y p y p p p y y y 5 8 a p p p y 0 3 p p y p p y p y p y p y p p p p a . l 4 u y p p p p p y p y p p y p y p y y p p p p p p y p p p p p p p p p p p p p p p p y p p p p p p p y p y y y p y u y u u y u y y p a y p p y u 9 0 u 5 0 o i u y y p p y y y a 6 i y p p p y p p p p y 6   .                        ",
"                       X 7 y p p y y p p p p p y p p p p a p 0   8 u y a p y y p y y p p p p p p y y y y y p y p y 5 . p y p y y 3 6 y p p a p y p y p y p y p p p y y 4 o 3 y p p p p p p y p p p p y p y p y y p p y y y y p p y p p p y y p p p y p p y y p y p y y y y p p p p p p p p p p p a p p p p p y y p y p p y 8 0 u 6 8 7 6 a p y y y p p y i 6 0 y p p p y p p p p y 6   .                        ",
"                 . .   X 7 u y y y y y y y y y y y y y y y u i X 8 y p p y p p p y y p p p p p p p y p p y p y p y 0 o y p p p u 5 6 y p y p y p p p p p p p p p y p y p a a p p y y y y y p p p y y y p y p y p p p p p y p p y p p p p y y y p p p p p y y p y p p p p p p p y p y p y y y y p p y y y y y p y p p y p p 6 0 y 0 o   X 5 p p y y y y y u y u y p p p y p p p p y 6   .                        ",
"                         o 3 3 5 3 3 3 3 3 5 3 5 3 3 3 5 3 3 4 X 8 u p p p a p y p p p p p p p p y y p p y p y y u 5 . p p y p y 5 6 u p p y y p y y y p y p y y y y p y u y p y p p p p p p y p y p p p y p y p y y p p p p p p y y y p p p p p p y y p p p p p y y y p p p p p p y p p p p p y y p p p p p p y y p y a u a p p y 0 . X 3 u p p a p y p p p y p p p p y p p p p y 6   .                        ",
"                   .   . X   l X : X X X X : : : X X : X : :   X 8 y p p p y y p p p p p p p p p p p p y y 0 0 0 0 6 o y p y p y 5 6 u p p p y y p p y p y p p p p y p p a p p y y y p y y p y p y p y p p p p p p y y y u u y y y y y y y u u y y y y y y y p y p p y y y y y y y y p y p p y p y y u u y y y p y p y 5 a y u p p u 3 o 4 y p y y y y y p p p y p p p y p p p p y 6   .                        ",
"                   .     . 4 4 6 4 3 4 6 4 4 4 4 6 4 6 6 4 4 9   8 y p y y p p y p p p p p p y y y y p y a 7 . . . o 7 y p y p u 0 6 u p y p p p p p y p y p y p p y p y p p p p p p p p p p y p p p y p y p y y y a 5 4 4 4 4 3 4 3 3 4 3 3 3 3 3 3 4 3 i a a a p p y y y p a a a a i a p p p i 4 4 3 6 6 i y p y p y 9 9 3 p y p p u 6 i p p p p p p p y p y p p p p y p p p p y 6   .                        ",
"                 .     X 7 u u y y i i y y y y u u y u u y u i X 8 y p y y p p y p p p p p p p p y p p p u 4 i y y p p p p p p u 5 6 u y p p y y p p y p p y p y y y u y u u y u y y u y y u y p y p y y p u i 3 p s o X   X X X   X   X X X : X : : : X       . a y p p u a   . .     . X 8 s 4 7 0 3 4 3 i y p y p y 6 :   7 a y y y y y y y y y p y y y p p p y p p y y y y y u 6     .   . .                ",
"                 .       7 y p p p . . i y p a p p p p p p y i X 8 y p y p p p p p p p p p p p p a p y y u 9 5 y p p p p y y p y 0 6 y p p y y y p p y p p y p y 3 6 4 4 4 4 4 6 3 4 4 4 4 6 0 y a i a a i i 8   9 3 .   . . . . . . .   9 3 4 3 3 3 4 6 8 7 o 7 a y p p p i 7 o o o 7 o . 9 y 5 3 y y u u y y a p p y 5 o   X 4 a i i a a i i i i i a i i p y p y p y a i p i i p 6     .   .                  ",
"                     .   7 y p y y   . p y y p y p p y y y p i l 9 y p p p p p p p p p p p p p p y p p p y 9 0 u y y p a p p p u 5 6 s p p p p p y p y p p p p y 9 X X X : X X : X : X X : : 6 u 8 o       o   X X X     X X X X   X :   5 u y y y y u u p a p y y p p y p y p p p p p y y 6 8 6 i p p y p p p p p y y p i 4   o                         . 4 p p y p a 8 X   X .       .     . .                ",
"                   . .   7 y p y a 6 3 y p y y y p y i i p p p 4 9 p p p p y p p p p p p p p p p p p y p y 9 5 y p p y y y p p y 0 9 u y y y y p p p y p p p p y 6   7 5 4 3 3 3 3 3 3 3 3 3 i u p a a p a i 5 5 9   4 5 4 5 3 3 4 3 3 4 i y p y i i a y y p y y y y y u y y y y y y y y y 8 : 7 u y p y p y y u y y p p u i     7 o o 7 7 o o 7 7 o 7 7 o o o . o . o o o 7 7 7 7 . X .   . .                  ",
"                   . . X 7 u 0 4 a p y y p y p p y p o   a y y s 9 a p p p y p y p p p p p p p p y p p p u 6 0 u y a a p a a p y 4 4 u a p p y y y p y y y y y u 9 X 9 u y u u u u u u y y y y p p p y u y y p u 3   i u y u y y y u u y p p p y 7 o o 8 9 8 8 8 8 8 7 7 o o o o 7 . 8 o 7 4 i i y p p y p y p p y p y y y 5 X 9 y y y y y y y y y y y y p i 0 0 0 0 a y u y p a y 4 X     .                    ",
"                     .   7 u 9 X 5 y p p p y a y u p 8 7 a y p y 9 i y p p y p y p p p p p p p p p p p p y 8 8 6 8 o . . .   . . . 3 u p y p p p p a p p p p p y 6 X 7 y p p p p a p p p a p p y p p p y p p p y 3 : i u p p p y y p p y p y p p p a a a a a a a a a 5 4 4 4 4 3 3 4 3 6 6 a u y p p p p p y y y p p y y u 0 X 6 y p p p p p p p p p p p y y y u y y y y a a y p y 4 X .       .                ",
"                     .   7 u 9 : 5 y p y y p p y p p y y y p p y 9 i y y p y p y p p p p p p p p y p y p p . 8 0 0 i 0 i a a a i a y y p y y y u u y y y y y y u 9 X 8 y p y p y y p p y y y p p p y p y p y p y 5 X a y p p p y p y p y p p p y y y y p p p y y p y y y u u y u y y u u u y p p p y p y p y p p y y y p y 5 X 8 y p p p p p p y p y y p y y p p y p p p y y y p y 4 X .   .                    ",
"                     .   7 u 4 7 0 y p y p y y p p y y a y p p u 9 0 y y p p p p p p p p p p p p y a p y y 7 3 s y u 0 6 9 6 3 i 0 5 0 y a 0 0 5 4 9 9 9 9 9 9 6 7 X 8 y p y p y p p p p p p p p p y p y p y p y 3 X a p y y p p p y p p y y p y p p p p y y p y p p y p p p a p a y p p p p y p p y p y p p p y p y p y y 4   3 y y p p y p p y y p p y p p y p y p y y p y p p y 4       .                    ",
"                 .   .   7 y p y p y p y p y p p a a y u y y y y 9 i y y p p y y p y p p p p p y y p p p p y p p p y 4 :   X   . o   9 y 0 . o .   : X X : X X X     8 y p p y y y p p y p p y y y p y p y y a p 4   i y p p y y p y p y y p y p p p y y p y p y p y y p p p y y p p y p p p y p y y p p p p p p y p y p y 9 i u p p p p p p p p y y y y y y y y p y p y y p y p u 6   .                        ",
"                 .   .   7 y p y p y p y p y p p 7   4 5 p p p u 8 i y p p p y y y y p y y p p p p p p p p p p p y y 4 X 6 0 a p p p p u p a y p i i 0 5 0 0 3 0 7   8 y y p p p p y y p p y p p y p y p y p 9 X . X i p y y p p y p p p p p p y y y y y p y y y y y y y y y p p y p p y y p p p p p p p p p p p y p y p y 9 0 p p p p p p p y y p p p p p p p p y y p p p p p p y 6   .   .                    ",
"                 .   .   7 y p y p y p y p y p p 7 X .   p u p y 8 i y p y y p p p y p p p y y p p p p p p p p p p y 4 : 3 u y y p y p p p y u p y p y u u y y u 6 X 7 y y p p y p i a y p p p p y p y p y p 6 . o   a p y y p p p y u y y y a y i 0 i i i i i i i i i a y y y y y y y y p y y p p p p p p y y y p p y p y 9 i y p p p p y y y y y y y y y y y y p p p p p y p p u 4       . . .                ",
"                 .   .   7 y p y p y p y p y p p o   .   3 5 u y 3 a p p y y p p p p p y p a p u p p y y p p p y p u 3 : 3 u p p p p p p y p p p p p i 5 i y p y 6 X 8 y p p p u 4   6 y p p y p y p y p y y p p 3   i y p y y y y 0 3 4 i s y y 6 9 9 9 8 8 o . .   . 7 8 9 9 9 8 8 8 9 9 0 a p p p p p p p p y p p y p y 9 0 y p p p p y y y y p p p p p p p p y y p p p y p p y 6 X   . .                    ",
"                 .   .   7 y p y p y p y p y p p 7 .   .   . 3 y y y p y p p y y y y p p y y p a p p y y p p p y p y 3 : 4 y p y y y y p p p p y p s 6 l 6 y p y 9 X 9 y a p p y 5 . 4 y y p y p y p p y y p p s 5 X i y p y y p a 7 7 9 3 y y p u u u u u u y p y p p p p a a a a a p p i 8 . 6 y p p p p p p p y p p p y 6 0 y p p p p p y y y y y y y y y y y p p p y p y p y u 4   . .     .                ",
"                 .   .   7 y p y p y p y p y p p . o .   X . o i p p p y p p y y p y y p p p a y p p p p p p p p y y 3 : 3 u p y p p y y p y y p a u 4 . 5 y p u 9 X 8 y p y p p u a y y p p p p p p p p p p p y 3 X i y p y p p y o 5 p 9 o o o o o o o o 7 o o 7 o 7 7 7 7 7 7 7 o o 7 y 9 X 8 y y y p p p p p p p y y y 9 i u p p p p p p p p p p p p p p p p y y i p a p a a a 6   . .     .                ",
"                 .   .   7 y p y p y p y p y p p . 4 y p 6 i p i 9 i y y p p p p y p p y 0 . . i p p p p p p p p p y 4 : 3 y p p y p p y y p p y y p p a p y p y 9 X 8 y p y p p p y y p p p p p p y y p p p y u 3   a p p y p p y . 5 u 3 4 3 3 3 3 3 3 4 3 4 3 3 3 3 3 3 3 3 3 4 3 4 X a 8 9 u p p p p p p p p p y y p p 6 0 p p p p p p p p p y y y y y y y y p 5 . . . . o o o . X . . .                    ",
"                 .   .   7 y p y p y p y p y p p 4 a p 0 4 p y o X 0 u p p p p y p p p y p 8 . 4 y p p p y y p p y y 3 X 3 y y y p y p p y p p p y p p p y p p y 9 X 8 y y y p y p p p y y p p p p y p y y p y u 3 X a y p y p p y o 4 u y u u u u y u u u u y u u u u y y u u y y y y . p 8 4 y p p p p p p y y y y p p u 0 p y p p p p p p p p p p p p p p p p y 5 X       .   X .   .   . .                  ",
"                 .   . X 7 y p p p p y p p y y p y u p 7 X i y .   a p p y p y p y p y p y u .   a y a y p y p y p u 4 l 3 y p p p p p p y p y y p p y y p p p y 6 X 8 y p y y p y p p y y p p p p y y y y p p y 5 X i y p y p y y 7 3 u p p p p p p p p p p p p p p p p p p p p p p p   p 8 6 y p p y y p p y y y p p y y p y y y y y y y y y y y y y y y y y y u 5   . . X .   .         . . .                ",
"                     . X 7 y p p u 0 a y p p a p p p u 4 X 5 y 8   a y p p p y y p p p y p 0 o 7 i u p y p y y p y y 5 o 0 p p p p p y y y p p p y p p p y p p s 9   8 y p p p p y p p p p p y y p y p p p p p u 5 X i y p y p y y 7 3 u p p p y p p p p p p p p p p p p p p p p p p p   p 8 6 u p p y y p p p y p p p y p y y a a a a a a a a a i i a a i i i i p 3 X X   . . .                                ",
"                   . . X 7 p p p a 4 i y p y y u y p y a   o p o   i y p p p y p y y y y 0 o X X 8 y p p p p y y y y i 9 y y p p y y p p p y y y p y y p p p a 0 7 X 9 y p p p y y p y y p p p p y y y y y y y u 5 X i y p y p y y o 3 u p y p y y y y y y y y y p p p p p p p p p y a . p 7 6 u p y y y y p p p p p p p p y y 0                                       .                                        ",
"                   . .   7 y p y u a p y p y p p p p a p 8 7 p 9 . i y p y y y p y p p y i 7 o o 9 p y y y p p y p y i 9 u y p y p p p p y y a 0 y p y y p u 0 X . : 8 y p y p y y p y y p y p y p p p p p p p y 5 X i y p y p y y o 3 u p y p y y y y y y y y y p p p p p p p p p y a . a 8 6 u y y y y y y p p p p p y p y y 0 o o o 7 7 7 7 7 o 7 7 7 7 o o o 7 o   . . . . . . . .       . .                ",
"                         7 y y p y u p p y p p p u y y y p p p y 8 a y p y p y p y p y y u a y p a y y p y y p y p y i 9 p p p y p p p p p a 0 4 y p y y p y a 8 7 X 8 y p y p p p p p p y y p u y p y y p p p u 5 X i y p y p y y o 3 u p y p y p p p p p p p p y y y y y y y y p y a . a 9 6 u p p p y y y y p p p p y p p y a y y y y y y y y y y y y y y y y y 5         .   . . .                          ",
"                         7 p p 0 9 p p p y p y p p 3 6 0 y y a 3 7 i p p y p y p y p y p p y y p y p p p p y p y p p p 0 y a y y y y y p y y y p p y y y p p y u 9   8 y p y p y p p y y y i 6 6 6 6 i y p p p y 5 X i y p y p y y o 3 u p y p y p p p p p p p p p p p p p p p p p y a . a 6 6 u p p p p p p p p y p p y y p y y p p p p p p p p p p p p p p p p y 5   . .   .           . .                    ",
"                 . . .   o p p 3 X i y a p p y p y 8 X 0 y p u o X i p p y p y p p p y p p y y p y p y y y p p y y p y p u p y p y y p p p p y p p y y y u y p y 9 X 8 y p y y y p y y y y 4 X X X X 3 y y y y y 5 X i y p y p y y 7 3 u p p p y p p p p p p p p p p p p p p p p p p p . a 3 6 u p p y y p p p p p y p y y p y y p y y y y y y y p p p p p p p p y 3 X     X   X         . . .                  ",
"                         7 y y 3 7 a y p y y p p y 8 : 5 y a p 7 X p u p y p y p y p p p p y p p p y p p y p y p p y a a y p y y y p p p y y y p y p p p a 0 i y 9 X 8 y p p p p p p p p u 0 o 8 8 o 0 u p p p y 5 X i y p y p y y 7 3 u p p p p y y y y y y y y p p p p p p p p p p p . a 0 6 u p y y y p p p p p y p p y p p p p p p p p p p p y y y y y y p p u 5 7 8 8 8 7 8 7 o .     . .                  ",
"                 . .     8 y y y u u p y p y p y y 5 4 a y u y 8   i y p y p y y p p p p p p p p p p p p p p p p p y 0 8 y p p p p y p y p p y y y p y y 9 l . u 9 : 6 y y y y y y y y u u u u u u u u y u u y u 5 X a y a y y p p o 4 u p p y y y y y y y y y y y y y p p u p y p y a . a 3 6 u p y p p u 6 3 u p p p p p p p p p p p p p p p p p p p p p p p p p y y y y y y u s 4   . .     .                ",
"                       . . 9 8 9 9 8 4 y p y p y 5 6 6 9 8 8 9 .   i y p y p y y p p p p p p p p p p p p p p p p p y i 9 u p p y y y p p y y y p y p p y 5 8 6 y 6 X o 9 8 9 9 9 8 8 8 8 8 8 8 9 8 9 8 8 8 8 8 9 7   i p y y p p u 5 i u p p p p p p p p p p p p y p p p p p 4 7 i y a . a 0 4 u p y p p u 6 3 u p p p p y p p p p p p p p p p p p p p p p p p p y p p p p y p 3 0 9   .     .                  ",
"                   .   . X   : X   : 7 u y a p s 4 : X X X : X     i y p y p y p p p p p p p p p p p p p p p p p p y i 9 y y p p p y y y p p p p p y p y y p p s 9       X   X                         X         X . i y y p p p y y y p y y y y y y y y y y y y y y y y y p 9 : i y a . a 5 6 y p y p p u 6 3 u p p p p y p p p p p p p p p p p p p p p p p p p y p y y p p 3 X     X .     .                  ",
"                   .     . 9 9 9 8 6 5 y p y y p 0 . 6 9 8 8 9 . . i y p p p y p p p p p p p p p p p p p p p p p p y i 7 i y p p p p p y y p p y p y p p p y p p 8   .     .     . . . . .       . .           .     i y a p u p p y 3 7 8 8 8 8 8 8 8 8 8 8 8 8 8 8 8 8 9 9 o   8 9 4 . p 5 9 u p y p p u 6 3 u p p p p y p p p p p p p p p p p p p p p p p p p p p y y p y i 9 9 o   .     . .                ",
"                   . .   8 u y u u a 0 y y y y p a 9 0 p u u 0   o i y p p p y p p p p p p p p p p p p p p p p p p y i   3 y y y y p p y a 0 i y p y p y p y p y 6   . .   . .   . . . . . . .   .           . . .   i y p y y y y y 8 X   X                           X X X   .   X 8 . a 5 6 u p y p p u 6 3 u p p p p y p p p p p p p p p p p p p p p p p p p y p p p p y y y u 4   .     .                  ",
"                 .   . X 7 y p p a o . p u p p y 4 X :   4 p y 0 7 i y p p y y p p p p p p p p p p p p p p p p p p y a X 4 y y p p p p p 0 6 3 p p p p y p p p y 6 X .       .           . .     .           .       i y y 4 o a y y 9   .     .                 .   . . .     . o   9 . i 5 4 u p y p p u 6 3 u p p p p y p p p p p p p p p p p p p p p p p p p y y y y y p a p u 6 X . .                      ",
"                     .   7 y p p y 5 7 9 9 0 y p y a 5 o   5 y u 8 i y y p p y p p p p p p p p p p p p p p p p p p y a   4 u p p y p p y y p y y p y p y y y p y 9 X . . .   .   .       . .     .     .     .   .   i y p 7 : 5 y y 9 X       .                 .       .         X 9 o a 5 4 y p y p p u 6 3 u p p p p y p p p p p p p p p p p p p p p p p p p p p p p y p p y y 6   .     . .                ",
"                   .     8 y y p p s 4   : 3 y p p 5 0 6 8 a y y 9 i y y p p p p p p p p p p p p p p p p p p p p p y a   4 y p y p y p p y p i 3 p y p p p y p y 6 X .   .       . .     . .     .   . .     .     . i y y a 0 p p y 6 X . .     . . . . . . . . . . .   .   .   . X 9 . a 5 6 u p y p p u 6 3 u p p p p y p p p p p p p p p p p p p p p p p p p y y y p p y p p y 4       . .                  ",
"                     .   7 y p y p p p 0 . 4 y p y 8 l 0 s p p y 8 5 y p y p p y p y y u y y p y p p p p p p p p y p p X 4 u p y p p p y y p i 5 p p y p y y p y 9 X .   .   . .   .     . .   . .   .   .     . . X a p y y y y p u 6 : . . X .                 .     . .   . . .   9 o i 0 6 u y p p y u 9 5 y p p p y y y y y p p p p p p p p p p y p p p p p p p p p p p p p y 6   .                        ",
"                     .   7 y p y y p p y 5 i y p y 8 : 0 u p y p 0 a y p p p y p p y 0 6 3 p y y p p p p p p p p p y a X 4 u p p y y p p p y y y p p y p y y p y 9 X .   .   . . 5 i i i a i i a i i i i i i i a 6   i y p y y p p y 9   3 i i i i i i i i i i i a a i a 4 .   . . X 9 o a 5 7 y a p y p u 6 5 y y y p p p y y y y y y y y y y y p p p y y y p y p p p y p p p p y 6   .                        ",
"                     .   7 y p y y p p u p i a p p 4 8 i p p p p y y p p u y u y u 0   : 6 y y p p p p p p p p p p y i 8 5 p p y p p y y p p p p p p y p y y p y 9 X .   .   .   i u y y p y u y y y y y y y p u 5 X i y p p y p y y 9   0 u y y y y y y y y y y y y y u 5     . . X 9 o a 5 . p y y y a y 6 3 u p p p p p p p p p p p p p p p p y p p p p y p y p p p y p p p p y 6   .                        ",
"                     .   7 y p y y p p p p 0 i y y y y u p y p u 5 a a p p 4 6 4 3 .   3 y p p y p p p p p p p p p p y y y p p y p p y y p p p p p p y p y y p y 9 X .   .   .   0 y p p y y p y y p y p y y p y 3 X i y p p y p y u 9 X 5 y p p p p p p p p p p p p a u 0   . .     9 . a p 4 y y p p p u 3 4 y y y u u u u u y u u u u u u u u u u u y y y y p p p p y p p p p y 6   .                        ",
"                     .   7 y p y y p p p u a p y p p y p y p 8 8 . i y y i . : X : 6 a y p p y p p p p p p p p p p y p a p y y p y y p p p y y y p p y p y y p y 9 X .   .   .   a y p p u 5 7 i p p p p p p p y 3 X i y p p p p a y 9 X 5 y p y p p p p p p p p y y p y 0   .       9 o i u p y y p y p y 9   8 3 3 3 3 3 3 3 3 3 3 3 3 3 3 3 3 3 3 3 3 3 3 p p p p p y p p p p y 6   .                        ",
"                     .   7 y p y p p y p y p u p y a p a u a   : X i y p p 3 4 3 3 a y y y a p y p p p p p p p p p y 4 . 3 y y p y y p p p p p p p p y p y y p y 6 X .   .       i y p p u 3 X 0 y y y p y y p y 3   i y p y p p p u 9 X 5 y p p y y y y y y y y p p p y 0 X .   . X 8 o 0 y y a p p y p y i 4 3 4 4 4 4 4 4 4 4 4 4 4 4 4 4 4 4 4 6 6 4 6 . i y p p p y p p p p y 6   .                        ",
"                     .   7 y p y p y p p p p y p y p u y p a 4 4 7 a y a u y u u u u p p u p y p p p p p p p p p p u 4 l 4 u p p y y p p p y y y p p y p y y p y 6 X .   .       i y y y y i 9 i p p p p p p p y 5 X i y p y y y p u 9 X 0 y p y y y y y y y y y p y y u 0   . .   X 9 7 0 y y p p p p p p y y y u u y y y y y y u u u u u u u u u u u u a . i y p p p y p p p p y 6   .                        ",
"                     .   7 y p y y y p y y y y p y p p y p y y 3 o 0 y p y a p p p p y y i 4 a y p p p p p p p p p y 3 X 3 y p y p p y y p p p p p p y p y y p y 6 X .   .       i 5 i y p u y y y p y p y y p y 5 X a y p p p p p u 9 X 5 y p y p p p p p p p p y p p y 0 X   .     9 o 0 y p y y p y y p p y p p p y y y y p p p p p p p p p p y y y p a   a p p p p y p p p p y 6   .                        ",
"                 .       7 p y 0 4 p y p y p p p p y p p p p p o X a y y p p y y p y a y 0 . i y p p p p p p p p p u 4 X 3 y y p y y p y y y y y y p y p y y p y 9   .   .   .   i a a y y p y p y p y p y y p u 4   i y y p p y p y 9 X 0 y p p p p y u y y y p p p p y 0 X .       9 . i p p y p p p p p p p p y y i 4 4 5 u y y y u u y y y u a 4 a y a . a p p y p p p p y p y 6   .                        ",
"                   . .   7 y p 3 X i y a p y y p p p p y p p p o   a y p p y y p p y p y p 3 y y p p p p p p p p p u 4 : 3 y p y p y p y i 8 9 4 p p p p p p p y 6   .   .   .   i y p p y p p y p y p p p a p y 5 : i y a y y y y y 9 X 5 y y y y y 4 8 9 9 5 u p p p y 0 X .   .   8 o a y p p p p p p p p p p p y 3 X : o 9 9 9 8 9 9 9 9 9 9 7 X 0 u a . i s p y p p p p y p y 6   .                        ",
"                 . .     7 p u p a u u u u p y y y y y y y u y 7 X i y p p y y p y p y y y p y p p p p p p p p p p u 4 : 3 y p y p y p y 3 : X . y p y p y y p y 6 X . . .   .   0 y y p p p y p y y p u y 8 . 0 5 X i y y y p y p y 6 X 5 p y y p p o l X X 6 y p p p y 0 X .   . X 9 o 0 p y p p p p p p p p p p y p 5 . X   : X X   X X X X X X o p p i . 9 4 a y p p p p y p y 6   .                        ",
"                 .       o 9 8 8 9 9 8 8 8 8 9 9 8 9 8 8 9 8 9   . a y y p p p y y a y p p y p p p p p p p p p p p u 4 : 3 y p p p p p u p 5 0 i p p p p p y p y 6 X   . .   .   i y y p p y y p y p y 5 8   : 3 5   7 0 y p p y y u 9 l 0 y p p y y 0 0 0 5 i y p p p y 0 X .   .   9 o i y y y p p p p p p p p y p u i   7 0 5 0 0 0 5 0 5 0 5 X 7 y p u 0 3   a p y p p p p p y 6   .                        ",
"                     .     X X   X X X X X X X : X X : X   :     . a y p p y y y p p y p p p y y p p p p p p p p a u 3 : 3 y p y y p p y y u y u y y y y y y p u 6 X .   .   .   i y y p y y a y y a u 6   6 3 i 5     5 y p y p p y 6 X 5 y p y p p u u u u y p p p p y 0 X .     . 8 o i y p p p p p p p p p p p y y 0 X 9 u y u u y y y y s a . o p y 0 4 5 o i y y p p p p p y 6   .                        ",
"                   . 5 0 i 7 6 i 5 i 0 0 i 0 0 i 0 0 i i 0 i 0 7 X a u y p p p a p y p y y p y p p p p p p p p p p u 4 : 3 y p p y p y p p y p p p p p p p p p y 6   .   .   .   7 9 i u p p p p y p y a 0 p u y a 8 X 7 i y a u p y a 5 a y p p p p y a a p p y p p p y 0 X .   . X 9 o o 4 y p p p p p p p p p y p y 0 X 7 u 0 i y p y 5 0 u a   . 9 9 . : 8 o i y y p p p p p y 6   .                        ",
"                   . a u u o 3 u y y u u u y y y p y u y y u p o   i p y p p y y p y p y y p p p p p p p p p p p p y 4   5 y y y y y y y y y y y y y y y y y p u 8   .   .   .   X   0 y a p y p y y y p y u p p y a o . 0 u a p y p p u y y a y p y y y y y p p p p p y 0 X .   . : 6 o X 8 y p p p p p p p p p p p y 0   9 u o 4 y p y 8 9 y a     X X   7 5 . i y y p y p p p y 6   .                        ",
"                     a p y o 5 y p 7 7 a y p p p p p p p p p y i 0 y p p y p p p p y p p p p p p p p p p p p p p p y 3 X o 8 7 7 7 7 7 7 7 7 8 7 7 7 7 7 7 7 7 8 7   .   . . .   5 i y y y y a u 4 o 0 u p p p y a u 8   8 0 u p p p p p 6 8 8 a y p p y p p y p p p p y 0 X .     . 8 o 3 a p p p p p p p p p p p p p p 0 0 u 7 4 u a u 7 6 u a 0 i i 5   8 y . a y y p y y p p y 6   .                        ",
"                   . a y y o 5 u 8 X   a u p y p y y y y y p p u u y p p y p p y p p p p p p p p y p p y y p p y p u 6 X X X X X X X X X X X X X X X X X X X X X X X     . .     a y p p y p p u 8 : 3 u p p y p y p p p p p p y p y p y 8 i 8 i u p y p y p p p p y p y 5   X   . . 8 . a s u y y y y y y u u u y p p y y s u 8 3 u p y 8 9 s y u u u i X 8 a   i y p p p p p p y 6   .   .                    ",
"                   . a y y o 3 u 3 .   i y p y y p y a p p p y 3 6 p y y y p y p p p p p p p p p p y y y y p y y y p 0 6 6 6 9 4 4 4 4 4 4 4 4 4 4 4 4 4 4 4 4 4 6 4 3 0 i i i i a p p p p p p y 5 6 i y p y p y y p p p p p p y y y p p 9 0 9 i 5 6 p y p p y p y p p y p 0 i a 8 : 9 5 6 9 4 4 4 4 4 4 4 4 4 4 p y y a 4 6 4 o 8 5 y u 8 o 4 6 6 0 p 0 X 8 a   p y p y y y p p u 6 X . . . . .                ",
"                   . a y y o 3 u y 5 5 y y p p p a y y u y u p o X i y p y p y p p p p p p p p p y y p p p p p p y p y y y u y u y y y y y y y y u u u u u u u u y u u u y y y y y y y y y p p y u y y p p p a p p p p p p p p p p p p y i p 0 y o   0 p a p p p y p p p y y y y 7 X 6 u 5 5 3 5 3 3 3 3 3 3 3 3 p y p a 5 4 5 5 o 9 p u i 5 3 3 3 a y i X 8 p   a y y y a p y y y 4     . .                    ",
"                   . a y y o 3 y p y y p p y p y y p y 3 9 a y 3 . i y p y p p p p p p p p p p p y p p y y y y y p y p p p p y p p p p p p p p p p p p p p p p p y p p p p p p y y p p y p p p p p p p p p y y y p p y y y y p p p y y y y u y y a i y y p p a p y p y p p y p p p a a u y s y u y y y y y y y y y p y y y y u s 0 5 0 6 a u y u y y y i X 8 a . i y y y p u a 6 4 9       . . .                ",
"                   . a y y o 3 y a y y i 5 3 4 a p p p 8   5 y s 9 i y p p p p y p p p p p p p p p p y y p p p y y a y y p p a y p p p p p p p p y y y y y y y y p p p y y y p p y p p y p p y p p p p y p p y p y y y p p y y y y p p p p p p y y u p p p y y y p p y p p y p y y y p p p p p p p p p p p p p p p p p p p p p p y p 4 l 3 y a y y p p 0 X 8 a   a y p p p y 5   . .   . .     .                ",
"                   . a y y o 3 y y p p y a 6 . . . 0 u a i p y y 9 0 y p p y p y p p p p p p p p p y p p p y p p i 7 i p y a 9 y y y y y y y y y p p p p p p p p y y y y y y p p y p y y p y y y p y p p y p p p y y p p p p y y y p y u y p p y a y p y p p y a y p y y y y p y a p y p y y p p p p p p p p p p y p y y p p y p p u 6 l 5 u p p p p y 0 X 9 p   a y y y p y p i a 4   .       .                ",
"                   . a y y o 3 y p p p p 6       X 0 y y y p p y 9 i u y p y p p p p p p p p p p p y p p y p p u p   i y y p 7 y p p p p p p p p p p p p p p p p p p p p p p p p p p p p p p p p p y p p y y p y p p p p p p p p y y p 4 8 a y p p y p y p p y p p a p p p p a p u y y p p y p y p p y y y p p p p p p p p y y p p y 6 X 5 y y y p p y 0 X 8 p . a p p y p p y y u 6 X   . .                    ",
"                   . a p y o 3 u p y p y 5 3 3 . X 5 y p p p p y 9 i p p y p p p p p p p p p p p p p p y p 3 3 u a   i y p a 7 i y y y y y y y y y y y y y y y y p p y y y y y p y y y y y p p y y p y p p y p p p p p p p p p p p p y i 6 p p y p y p y p y p y y y y y p p y y 3 8 5 u p p p u y y y y y y y p p y p y y y y y p y 0 4 a y p y y y y i X 8 a . a y p p p y p p y 4   .     .                  ",
"                   . a y y o 3 y p y y p u 3 0 a i a y 6 p p p u 8 0 y p p p p p p p p p p p p p u a y a 7     o o   a y p p . 0 y y 0 . 7 . o o . o o o o o 7 8 0 y a a p a p a a a p a p p p a a u a y p y p p p y p y a u p y p y p y y y y p y y a u p i p a a p a a a a a p 7 l 4 a 9 8 o o o o o o o o 7 7 p p y 0 . o o o 5 y p u 4 o o o . 3 y i X 9 p . a y p p y p p p y 4 X .     .                  ",
"                   . a y y o 3 y p y p y p 0 a y y u y 9 0 s p y 8 i y p p y y y p p p p p p p p a y y 9 X   4 5 3 3 y p y p   0 y y 5 8 5 3 3 3 5 3 3 3 3 5 i a p p 6 . . . . . . .     .   .   3 y y y a p y p p y y y p y p y y y p p y p y p y y p u 3 . . . . .   . o . . . .   7 9 0 p 5 3 3 3 3 3 3 3 3 5 y p p a 3 0 5 . 6 y p y 8 o 5 5 3 i u i : 8 p   a y p p y p y p y 4 X .     .                  ",
"                   . a y y o 3 y p y a y p p p y p p 0 6 7 i p y 9 i y p y y p p p p p p p p p p p y a 7 o . i u u u p a y p . i u y 5 4 u y y u y u u u y y y y y y 9   .     X . 7 o o o . 7 . 5 p p a 5 i p p y p p y y p a p p p p p p p y y p y y y 4 . . o o o . o o X       . 8 . 5 y y y y u u u u u u u p p y u i p s 8 4 u p u 9 6 s y p a p i . 8 a   a y p p y p y p y 4 X .     .                  ",
"                   . a y y o 3 y p p p y p y y p y y 7 3 y u p u 8 0 u p y p p y p p p p p p p p y p y a u 8 0 p a y y y p a . 0 y y 5 6 u p a p p p p p p p p p p y 9 X .   . . a y p p p p y p p y y y a p y p p p y p p p y u u p y y p p y y y y p y p p y p p y p y 5 . . .   X 6 o   8 y y p p p p p p p p y y p 5   7 y 7 6 u a y 8 6 s i   . .   X 9 p . a y p p y p y p y 4 X .     .                  ",
"                   . a y y o 3 y p p p p p p y p y 5 X 6 p i 4 4 o 3 u p a p y y p p p p p p p p p p y p s 9 0 u p p y y y p . 0 y y 5 6 u y y y y p p p p y y y p u 9   .       0 p y y y y y p y p a y y y p a y y y p y y i 6 p 5 0 p p y p p p p p y p p p p y y p y 0       o : 6 o X 7 y p y p p p p p p p p p y i   7 u 7 4 y p u 8 9 y i   X       o 3 . a y p p y p y p y 4 X .     .                  ",
"                   . a y y o 3 y p y y p y a y p p 0 o . p p . 4 4 9 p y p y y p p p p p p p p p u y y a y 6 0 y p p p p p p . i y u 5 6 u p p p p y y y y y p p a u 9   . . .   0 y y p p y p p y y p p p y y p p p p y p p 0 o 7 . 3 p p y p y y y y p p y p p a y p y 0 X     .   9 o 3 i y p y y y y y y y y p p y i : 8 s 0 i y p u 0 i u a   o i i 9   6 . a y p p y p y p y 4 X .     .                  ",
"                   . a y y o 3 y p y a y u p p p y p y i p p . a y 8 a u p p y p p p p p p p p p p p y y p 9 . . . . o     o   0 y y 3 6 u p y p p p p p p p p y p u 8 X     .   0 u p y p y y p p y y p p p p p y y y a 8 o o . X X 5 u y y p y p p p p y y 4 . o 0 p y 0 X . .   . 9 o a u p p y y p p p p p p y y y i X 9 y y u y y y u u y a   7 p y u a a   a y p p y p y p y 4 X .     .                  ",
"                   . a y y o 3 y p p 4 a p y p p p p y y y p X a y 7 y p 3 i y p p p p p p p p p y p y p p a 5 0 i 0 0 i 0 i 0 p y y 5 4 u p p p p y y y p p p y p u 9       .   0 p 6 8 8 4 p y p p p p y y p y p p y y o X . . .   5 y p y y p y p p y p y 0 0   i y y 0 X .   . X 9 o 0 y p y p p y y y y p p p p p 0 X o 7 8 7 7 8 o 7 7 o 8 X 7 y y a 8 9 o a y p p y p y p y 4 X .     .                  ",
"                     a p u o 5 y p p p a y p 9 a y p p p y p   0 y 9 p p a p y p p p p p p p p p y p p p y y y y y y y y y y p y y p 5 6 u p y y p p p p p p p p p y 9 X .   .   0 s . 3 y a y p p u p y p y p y p y p p p 8   5 .   3 y a y p p y p y y p y 4     i p y 0           8 . i y a y p y p y p y p p y y 5 .   . X                   .   a p a   0 p p p y p y p y p u 6 X                          ",
"                 . o a y y o 5 0 o 7 i y p p 7 o o 5 y y p a . a p 8 p y p y y p y y y y y y y y p y y y p p y p p y p y p y p p y y 0 6 u p y y p p p p p p p p p u 9 X .   .   i p o . . 4 y p y a p p 6 0 u p y p p p u i 0 y a 0 p y p y p y p p p p p y a a 0 y p y 5 X .   .   9 o i u y p p p p p p y y p p u 4 : . 0 a i i i i i i i i i 4 X 0 u a   a p p p y p y p y p u 6 X                          ",
"                 X . i y y o 5 3 :   0 s y y 3 o 3 a y p y p . i y 8 p y a p y y p p p p p p p p y p p y p p p y p p a y p p p y a u 5 6 u p y p p p p p p p p p p u 9 X .   .   i p 0 5 3 5 p y p y u a i p y p a p u p y y y y y y y p p y p y y y p p y p a y y y p u 5 X .       8 o 0 y y p p y y y y y p p y y a 5 0 p y p y y y y y y y y p 3 i y a . a p p p y p y p p p u 6 X                          ",
"                 . . a y p 7 4 3   . 4 a i a i 0 a p a a a 0 . i p 8 a u p y p p p p p p p p p p y p y y p p p p p y p u p p p p p u 3 6 y p p y p p p p p p p p p u 9 X .   .   i y p u s y p y p i y 5 0 u y 3 8 0 y p y p p p a y p p y y p y a p y p y p p y u y p y 0     .     8 o i y p y y p p p p p y y y u u u y u y y y y y y y y y y y u u y p o 0 y p p y p y p p p u 6 X                          ",
"                   . a y p 8 .   . . . o .   . o .     . . . . i y 9 i p a p p a p p p p p p p p a p y p a y y p p y p p a p y p a p 4 4 u p p y p p p p p p p p p u 9 X .   .   0 u y p i p u a y 7 5 p p y p p a y y a p p p y p y y y y p y y o 3 y y p y u a a a p y 0   . . .   8 o i y p p y p p p u i 5 3 5 0 4 3 0 0 3 5 5 5 5 5 5 5 5 5 5 5 5 5 4   0 y p p p y p y p p u 6 X                          ",
"                   . p p y a i a a a i a a a a a a i a a a a i y 0 7 9 8 8 8 8 8 8 8 8 8 8 8 8 8 9 . . . . o . o . . . 9 8 7 8 8 8 9 8 4 y p p y p p p p p p p p p u 9 X .   .   a y 8 7 9 4 p y y i p 5 0 p a y p p p p y y y a y p p y p a y y 8 3 y p y y p 9 . 7 a u 0   .   . X 9 o 0 u y p p p y p y 6 o o . . o 7 X   o o o o o o o o o o . . . 7 7 o a y p p p y p y p p u 6 X                          ",
"                   . a p p p y y y y y y y y y y y y y y p y y y y a p p p p p p p p p p p p p p 3 .   . . .   . .   7 a y a p p y p a p u y p y p p p p p p p p p u 9 X .   .   0 p o 4 p p y p p y s p a y y p y p y y y p y p y p y y p p y p y p y a y p a 9 X o a u 0       .   9 o a y i y y p y p y 4 3 u y y u a 8 5 u p y y y y y y y y p u y p p p y p p y p y p y p p u 6 X                          ",
"                 . . i y y p y p p y p p y p a y p y y y p p y p p y y p y p y y y y y y y y y y y a p p a p p p p a i u y p y p y p y y p p p y p p p p p p p p p u 9 X .   .   0 u o .   6 p p p y a y y p p p p y y p y p y p y p y p y y y p y p y a y a u p p a y p 0     .     9 . i 5 8 p p p y p u 4 4 u p p a y a p p y p p p p p p p p p p p y y y p y p y p y p y p p u 6 X                          ",
"                 X . a y p p p y p p p p p p p p y y y y y y y y y y y y y y y y y y y y y y y y y y y y y y y y p y y p y y p y p p p y p p p p y y p p p p y y p y 8 X . . .   i p a 0 i i p y p p p p p p p p p p y p p y p y p p p p p p p p p p p p p p p p y y p y 0 X . . .   9 . a 5 7 p p y p p u 4 3 u p p p y p y p p p p p p p p p p y p p p y p p p y p y p y p u i p 6     .   .                  ",
"                   . a y y y p p y y y y y y y y p p p p p p p p p p p p p p p p p p p p p p p p p p p p p p p p p y p p p p p y p p p y p y p y y y y y y p y y p y 9 X .   .   i y y p y p y p p p p p p p p p 3 5 a p y y p p p p p p p p p p p p p p p p p p p y p p 5 X . X . X 9 . a 5 9 u p y p p u 4 5 u y y p y y y p p p p p p p p p p y y y p p y y y p p y p y p 5 o o   X . .   . .                ",
"                   . a p p y p y p p p p p p p p y y y y y y y y y y y y y y y y y y y y y y y y y y y y y y y y y y y p y y y y y p p y p y y y p p p p p p p p p u 9   .   .   0 y p p y p y p p p p p p p p p a a y y p p 0 0 p p p p p p p p p p p p p p p p p p p y 0   .   . X 9 o a 0 6 u p y p p u 4 5 u p y p y p p p y p p p p p p p p p y y p p p p p y p p y p u 5 X     . . .   .                  ",
"                   . a y p p p p p p p p p p p p p p p p p p p p p p p p p p p p p p p p p p p p p p p p p p p p p p p p p p p p y y p y p p p p p p p y p p p p p y 9 X         i y p p y p y p p p p p p p p p y p y p p y a p y y y y y y y y y y y y y y y y y p p y 5 X   . . X 9 o a 5 6 y p y p p u 4 5 u p y p y y y p y p p p p p p p p p p y y p y y y a u p p p i o   . .       . .                  ",
"                 . o i y y y y y y y y y y y y y y y y y y y y y y y y y y y y y y y y y y y y y y y y y y y y y y y y y y y y y p y p y p p p p u p y y y y y y y y 6   . . .   i y y y y p y p p p p p p p p p y p p p p y p p p p p p p p p p p p p p p p p p p y p y 0 .     . X 8 o i 5 4 u p y p p u 4 5 u p y p p p y p p p p p p p p p p y p p p p p p y y a p p 7 o .                 .                ",
"                     8 9 8 8 8 8 8 8 8 8 8 8 8 8 8 8 8 8 8 8 8 8 8 8 8 8 8 8 8 8 8 8 8 8 8 8 8 8 8 8 8 8 8 8 8 8 8 8 8 8 8 8 8 7 i y p y p p y y 6 7 8 8 8 8 8 8 8 9 .       .   i y p p y p p p p p p p p p p p y p p p y y p p p p p p p p p p p p p p p p p p y p 3 8 7   .   . X 9 o a 5 4 y p y p p u 4 5 u p p p y p u y y y y y y y y y y y y y y y y y y p p y a . X   . .   . . . .                    ",
"                 .         X     X X X X X X X X                                                                               X 5 y p p y p p y o X     X   X X X     . .   .   i y p p p p y y p p p p p p p p p p p p p y y p p p p p p p p p p p p p p p p p y y 9 X   . . .     9 o a 5 6 y p y p p u 4 5 u p y y p 0 i a i i i i i i i i i i a a i i i i 0 a p y a 8 . .           . .                    ",
"                   .   . .   . . . . . . . . . . . . . . . . . . . . . . . . . . . . . . . . . . . . . . . . . . .   . . . . .   3 y p p y p p y 8   . .   .   . . .   . .   .   i y p p y p y p p p p p p p p p p p p p p p p p p p p p p p p p p p p p p p p p p y 9 X . .     .   8 . i 5 4 u p y p p u 4 5 u p y p 5 . X   X X X X X X X X X :     X . 8 6 9 6 y p p u 4 :     . o     .   .                ",
"                 .   .                                                                           .     .     .     .     .     .   4 u p p p p y 7   .         .                 a p y y y p y y y y y y y y y y y p y y y p y a p y p y y p y p y y y y y y y y p y 6   . .   . .   9 . p 5 6 u p y p p u 4 3 u p p p i   . 8 7 7 8 7 8 7 8 7 7 8 8 7 7 9 a u u y y p y p 5 7 7 7 .   .     . .                ",
"                 .       . .   . . . . . . . . . . . . . . . . . . . . . . . . . . . . . . . . . .   . .   . .     . . . . . . . X 4 y p p y p y 7   .     . . . . . . . . . . . 7 9 5 a p a a i a a a a a a a a a p p a y y p p y p a a a a a p a a a a a a a a a a 6   . .   . . X 6 o a 5 6 y p y p y y 6 3 y p y y 0 : 8 y y y y y y p y y y y y y y p u p a p p p p u u p y y 4   .   . .                  ",
"                 X     X X   X X                                                 X X X X X X X X   X     X     X   X           X : 4 u y p y p y o X             X X X X X X X X : X   . . . . . . . . . . . . .   .   o 0 y p y p 8 X . .       . . . . . . . .   o   :     X X . l 8 . p 5 6 u p p p y y 3 0 y p p y i 7 4 y p p p p y p y p p p p p y p y p p y y p p p y p p u 4 X     . . .                ",
"                   9 q 4 6 4 4 4 6 6 6 6 6 6 6 6 6 6 6 6 6 6 6 6 6 6 6 6 6 6 6 6 4 4 4 4 4 4 4 4 6 6 6 6 6 6 6 6 4 6 6 4 6 4 4 6 . 4 y y p p p y 3 6 4 4 6 4 6 6 4 4 4 4 4 4 4 4 4 3 0 i a a i i i i i i i i i i p i . o i y p p y 9 X 6 i i a i i i i i i i i i a i 5 4 6 6 4 6 4 5 0 . a 5 6 u p p p p y a p y y p y y y p y p y y p y p y p y p p p y p p p y p p y y y y p p y 6 X . .     .                ",
"                  .- u y y g g y u u u u u u u u u u u u u u u u u u u u u u u u y y y y y y y y y u u y u u y u u y u u u u u y a p y y y y p p u y u u y u y u y y y y y y y y y y y y y y y y y y y y y y y y y y 7 3 u y p p p y 8 6 s y p y y y y y y y y y y y y u y u u y 0 i 3   a 4 6 u p y y p y y y p y y p 0 y p p y p p p y p y p p p y p y p y p p p p p y p p p p y 4   . . .                    ",
"                 <.;.: p p.X.X.% p p p p p p p p p p p p p p p p p p p p p p p p p p p p p p p p p p p p p p p p p p p p p p p p y p p p p p p y p p p p p p p p p p p p p p p p p p p p p p p p p p p p p p p p p y o 5 u a y y a s 8 9 y a p y p p p p p p p p p p p p p p p i   X o 8 y 8 9 u p p y y p p p p p p p 9 0 p y y p y p y p y p y p y p p p y y p y y p y y p y y y 4       . .                  ",
"                 < 0.X.>.%.X.X d y y y y y y y y y y y y y y y y y y y y y y y y p p p p p p p p p y y p y y p y p y y y y y p y p p p y p y p y p y p y p y p y p p p p p p p p y y y p p y y y p p p p p p p p p p . 5 u p p p p y 8 4 u p y p p p p p p p p p p p p y p y y i X 7 p y s 8 6 y p p p y p p p y p p u 9 0 y y a p y p y p y p p p y p y y p p p p y p y y p p p y 4   .     . .                ",
"                 X.-.X p.X p d.X p p p p p p p p p p p p p p p p p p p p p p p p p p p p p p p p p y p p y p p y p y p p y p p y p p p y p y p p p y p y p p p y p p p p p p p p p p p p p p p p p p p p p p p p y y o 3 y p p y p u 8 9 y y p p p p p p p p p p p y y p p y y a   7 y p y 7 6 u p y y p p y y p y p u 9 i y p u p y p y p y p y p y p y y p p y p y p p y p y p u 6 X     . .                  ",
"             . . <.,.< L.1.2 y.3 y p p y p p y p y y y y y y y y y y y y y y y y y y y y y y y y y y y y y y y y p p y y p p p y y y p p y y p y p y y y p p p y y y y y y y y y y p p y p p p y p p p p p p p p y p 9 5 y p p p y p 6 4 p y p p p p p p p y y p p p p y y p y i   o y p u 7 6 u p y p p p y p p y y y 3 8 i y p y p p p p p y p u y u p y p p p y a y p y p y p y 6 X . .     .                ",
"             . . ,.4.5.5 Y.6 b p p p y y p p p p p p p p p p p p p p p p p p p p p p p p p p p p p p p p p p p p y p p p y y p p p p p p y p p y p p p p p p p y p p p p p p p p p p p y y p p p p p p p p p p p p y i p y p p y p u a a y p y y y y y p p p y y y y p y p p y a X 8 y p u 7 4 u p p p u a p y p y a y 0 : 7 y p y p p p p p p a 9 9 i p p p y y y p y p p p p y s 4 X   . . .                  ",
"             . ..7.8 T T.9 B.& ' p y y y p p p y p p p p p p p p p p p p p p p p p p p p p p p p p p p p p p p p p y y y p p y y p p p y p p p y p y y y y y y y p p p p p p p p y p p p p y y p p p p p p p p p p y y y p y p p y y y y y p y p p p p p y p p y p y p p p p y i   8 y p u 6 4 y a y p p p y p p p p y 0   8 p p y p y y p y p a X X 0 u y p p p p p y p y p 3 3 3 8   . . . . .                ",
"             . . @.0.q.w.e.r.X y p y y p y y p y p p p p p p p p p p p p p p p p p p p p p p p p p p p p p p p p p p p p p y y p y p p y y p y p p p p p p p p p p p p p p p p p y y y y p p p p p p p p p p p p p p y p p y y p y p p p p p p p y y p p y y p p y p p p p y y i   o y p u 5 6 u p u p p p y p y y p u i X 8 s y y y y y p y y a .   0 y p p y y y y p y y a . :       .     . .                ",
"             . ..t 0 J.y.&.+.u.i p y p p y p p p y y y y y y y y y y y y y y y y y y y y y y y y y y y y y y y y p y y y p p p p y y p y y p y p y y y y y y p p y y y y y y y y p p p p p y y y p p p p p p p p p y p p y p y y p p y y y y p y p p p y y p p p y p p y p y y a   8 y a y 0 9 u y p y y 5 5 a a a i p 5   8 a i i a a i i a a 0     5 a a a a a a a a a a i o .     .                          ",
"             . ..t.p.a.s p z.3.d p p p p y y p p p p p p p p p p p p p p p p p p p p p p p p p p p p p p p p p p p p p p p y y y a y p p y p y p p p p p p p p p p p p p p p p p y p p p y p p p p p p p p p p p y y p p y p p p p y y y y y p y p y y y p p p p p a p y p p p a . a u p u 5 6 u p p p p 8 : .   X . .     .   .     .     . .   . X o .           . .   . . X . . . .       .                  ",
"             . . #.p W.o W y W.f p y y y y y y y y y y y y y y y y y y y y y y y y y y y y y y y y y y y y y y y y y y y u p 6   0 y y p y p y p y y y y y y y y y y y y y y y y p p y u y p p y p p p p p p p p y p p p y p p p y y p p p y y p p y p p p y y p y y y p p y y i . p y y u 3 6 u p y y y 9 . 8   7 7   .   . .       . .   . .   .       .   . .     .       . o     .   .   . .                ",
"             . ..g.h.j.k.l.z.x.c 5 5 5 3 9 7 7 7 8 8 8 8 8 8 8 8 8 8 8 8 8 8 8 8 8 8 8 8 8 8 8 8 8 8 8 8 8 8 8 8 7 7 8 8 8 7 . : 3 y y p y p p y 9 8 8 8 8 8 7 7 8 8 8 8 8 8 8 8 8 7 8 8 7 8 5 y p p p p p p p p p p y p y y y u p p y y p p y p p y y y y p 3 7 8 8 7 7 4 p y i   4 i y y 5 6 u p p y y 8 6 p 8 p y 7 X       .     . .         .       .   .   .   .   .   .   .   .   . .                    ",
"                 .   X   X   X X X X X X X X                     X X X X X X X X X       X           X X X X       . X   X   7 7 0 p y p p y p y o X   X X X   X         X X X X     X     : 4 u p y p y a 0 p y p y p u 0 i i i p y p y p u i 0 a u p p p y 6 X .     X 8 y p a 8 . 8 u y 5 6 u p p y y 8 6 y 8 p p 9 7 . .   .                 .   .   .     .     . X o   o X         .     .                ",
"                       .   . . . . . . . . . . .                 . . . . . . . . . . . .         . . . . . . . .   .   .   o a y a y p p p y p y 7   .   .   . . . . . .       .   .     . X 3 y p p p p 8 X 5 y p y p p 7     . a y p y y p 9 X 0 y p y y y 4   .       8 y p p y 5 6 u y 3 6 u p p p u 8 6 y 8 p y y a 7   . . . . . . . . . . .   .   . . . . o . . .   . X o . . .     . . .                ",
"                   .   .         . . . .         . . . . . . . .                                 . . . . . . . .     . . X . p y y y p y p y p y 7                   . .     . .   . . . . X 3 y p p p y 8   0 y p p p p 7     . a y p y y p 8 X i y p y y y 6 X .   .   8 u p p u 0 9 y u 5 9 u p p p u 8 6 y 8 p p y p o X . X                                 X         .         . .   . .                  ",
"                 . .     . . . . . . . .                         . . . . . . . .     . . . . . . . . . . . . . .     . .   . p p p p p y p p p y 7 . .   . . .     . . .     . .     .   . X 3 y p y p y a 0 p y a p y y 7 X X   p p p p p y i i p y p p p y 6 X .   .   8 y p p p 5 9 y y 5 6 u p p p u 7 6 y 8 p p p y i i a i i i i i i i i i a i a i a a a a p i i i p 0 5 7 .       .                      ",
"                 .       X X X X             X X                                             X X   X X X X X X   X     X X . a y p p p y p p p y . X X X   X X X X       X X X X .   .     X 3 y p y p p y y y p y y p p 6 8 9 9 p p p p p y p y y y p p p u 4   .   .   8 y p p y 0 6 y y 5 6 u p y p u 7 6 y 8 a y p p y y y y y y y y y y y y y y y y y y y y y y u y a 7 .     .           .                ",
"                     6 4 6 4 4 4 4 4 4 4 4 4 4 4 4 4 4 4 4 4 4 4 4 4 4 4 4 4 4 4 4 4 4 4 4 4 4 4 4 4 4 4 4 4 4 4 4 3 4 4 3 3 p y y y p y p y p y 3 6 4 4 3 4 4 3 4 4 4 4 4 4 4 4 o   .     X 3 y y p y y p p p y y y p y p y y y y y y y p y p p p y y y p y 6   .   .   8 y p p y 0 9 u y 0 6 y p y p y 8 6 y 7 p y y p p p p y p p p p p p p p p p p p y p y p y p a p u i     X   . .   .   .                ",
"                   . a u y u u u y y y y y y y y y y y y y y y y y y y y y y y y y y y y y u u u u u u u u u u u y y y y u y y a a y p p p y p y u p y p y y y u y y u u y y u u 7   . . .   3 y y p y y p p p y a y a p p y p p y a p y p y y p y y y y p y 6 X .   .   8 y p p u 0 9 y y 0 8 u p y p y 6 6 y 8 p p y y p p p p p p p p p p p p p p p p y p y p y y y p y p 9 8 9     .   .                    ",
"                     a y p u y y y y y y y y y y y y y y y y y y y y y y y y y y y p p p p p p p p p p p p p p p 7 o o o . . o . 0 p y y p y p y 7 . o . o . . o p p p p p p p p 7 X   . .   4 y p y p p y p y y y a 9 . o o . o . o 3 y y p p p y p p p p u 6 X .   .   8 u p p y 0 9 y y 3 . p y p p u 3 9 y 8 p p y p p p p y y y y y y y y y p y p p y p y p y a u a y p y y u o   .   .   .                ",
"   .   .   .   .   . a p y 5 3 5 3 3 3 3 3 3 6 3 5 4 4 3 4 4 3 5 5 3 5 4 4 4 4 3 4 a y p p y p p p p p p p p p y o X       X . X 3 y p y y p y y 7 X     X     . p y p y p y p y o   . .   X 3 s y y p p p p p p a u .             X 3 u p p p p y y p p y u 3 X .   .   8 y p y y 0 9 y p 0 6 p y a y y i 5 p 8 p p p p p y y p p p y p y p y y y p a y p p p y y y p p p p p p p o     . . .                  ",
"   .   .   .   .   . a y p 7 X     6 4 6 4 3 4 4 6 4 4 4 4 3 6 . l   6 3 3 4 4 6   5 y y y u u u u u u y y y p y 7   .   .   . X 5 u p p p p p y 7   . .   . . o p y p y p y p y 7       .   8 9 0 p y y 9     X 4 y 7 . . . . . o X 0 y 8   . X 0 p y y 0 9 o   . . .   8 u y y y 5 9 u y u y u p y p p p y y 8 p p y y p p p p y y y p p p y 0 0 y 9 i y p y p y y p p p p p p p .   .       .                ",
"   .   .   .   .   . a y y 7   .   p s s u u u u u u u u u u y 3 6 3 p u u u y i : 9 3 4 4 4 4 4 4 4 4 4 5 p y y 7   .   .   . X 5 u p p p p p y 7     .   .   . p y p y p y p y 7   .         : 3 y p y 3 9 6 6 5 y 7   . . . . . X 5 y 3 9 9 6 a y y y 4     .       X 8 y p p p a 4 i a 0 5 p p p p y i 0 i o i p y y p p p y p i p y p y a 7 o a 7 a u a y y p p p p p p p p p 8     . .                    ",
"   .   .   .   .   . a y y 7 X X 7 a p a p p p p y p p p p p y y y p y p p p y i 7 8 7 7 7 7 7 7 7 7 7 7 4 a p y 7       .   . X 3 y p p y y p y 7     . . .   . p y p y p y p y 7   .     . . X 3 u p y y s y y y y o X           X 3 y y y y u y p p u 4   . . . . .   8 y p y p y 6 8 9 o . p y p p u 3   . 7 a p p p p y y y o . a p a y y p p y 4 i p y p p p p p p p p p p y p 7     X .                  ",
"   .   .   .   .   . a y y 7 8 4 a y p y y y p p p p y y p p p p p p p p y p y y y y y y y y y y u u y p y y p p o             X 5 y p p y y p y o   X           p y p y p y p y 8   . .       X 5 y y p a y a y p p 8 o o o . . 7 o 5 y a p y p p p p u 3 X . .     .   8 y p p p p y y u i 8 p p y p u i   X p p p p p p y p p o o p y a p a y y p y y p y p y p p p p p p p p a u 8 X   7 7 X                ",
"   .   .   .   .   . a p p 7 5 s y y p y y p p y y p y y y u p y p y y p y p p p p p p p p p p p a p y y y p p y 0 5 5 5 5 5 5 5 a y p p p p p y 0 5 5 5 5 5 5 5 p y p y p y p y 7     . . . . . o 9 i y p y p y p u a p p y y y p a p y p p p p p y 5 9 7   .   .   . X 7 u y p y p y p y p 8 p y y p p 0   o a y y p p p y y p y p y y y p y p y a p p p p y y p p p p p p p p y p 9   7 a 3                  ",
"   .   .   .   .   . a y y 7 3 y p p 5 a p p y y y p y 5 4 a p p p p p p y p y p y y y y y u u u u u u y y y p y u y y u y y y y p y p y p p p p y u y y y y y y p y p y p y p y o . X       . .     3 u y p y p p y y y i i a i p y p p p a p u y u 4 X   . .   . X .   7 p p y p p p p y p 7 p y a p y 0 7 a p p p p p p y y y p y p p y p y p y y p y y y p p p p p p p p y y y y p i i s 3 X                ",
"   .   .   .   .   . a p y 7 7 8 i y 0 a y p y p a p y o l 5 u p p y y p p p y i 8 7 9 3 3 4 4 3 3 3 3 3 i p p p p p p p p p p p p p p y p y p p p p p p p p p p p y p y p y p y i 5 7   . . .   . X 7 9 7 7 i y y p y a 8     . a y y p 8 X 7 8 8 9 7   .     .     6 0 0 u p y y p p y y p 8 p y p p u 0 . y y p y y p p p p p p p p p y p y p p y p u a u p y p p p p p p y y p u p u p u 4                  ",
"   .   .   .   .   . a y u 8 X : 0 u u u u y y u y u u i 5 p u u y y y p y p y 0 : 9 6 4 4 4 4 4 9 o o . 6 p p y y p y p y y y y p y a p p p y y y y y y y y p y p y p y p y p y p y 7         .       X   X 0 y a 0 y a 7     o a p p 4 . .             . .     . X 5 u y p p p y y p p u a 8 p y y p y 5 . p y p p p p p p p p p p y a u y y p p y p a y p p y y p y p y p p p y y p p p y 4   . .            ",
"   .   .   .   . .   a y p 7 X   9 3 4 4 3 4 3 4 4 4 3 4 4 3 3 4 3 3 y p p p y i X i s u y u u u y y u p p u p y 9 7 8 7 7 7 7 7 0 y p y y p p y 8 7 7 7 7 7 7 8 p y p p p y p p y y o X   . .   .   . . . X 0 u 3 l 0 y .     . a y 9 X   .   .   . . .       . . X 4 u y p y p y y y p y a 8 p y y p y 0 o p y p p y y y y p p y y y y p 5 a p p p y u y p p y y p p p y y y p p p y p p y 4 X . .            ",
"   .   .   .   .     y y p 5 3 3 4 3 4 4 4 4 3 3 3 4 4 4 3 3 4 4 4 7 a p p y a 3 X 6 a y p p a p p a p p p p p y o     X       X 5 y p y y p p y o X             p y y p p y p y p p 7 .     .   .       . . 0 u 0 7 a y 8 8 7 8 p y 6 7 .   .   .   . . . . . .   . 4 y y p y p p p p p y p 8 p p y p y i o p y y p y y y y p y p y p y a 4 a p y p y i 0 i y a y p p p y p y p y p p p y u 3 X . .            ",
"   .   .   .     .   i a y y s u u y u u u u y u u u u u s u y s p 8 p y p y 3 X . X 4 y p y p y y p p p y p p p 7   .   . . .   5 y p p y y p y 7   . .   . . o a y y p p y p y p y i a 6     . . . o   .   7 7 4 p y y y y y y y y p y 9 X o         . . .     4 i p y y p p y p p p p y p 8 p p y p y p 7 p y p y y p p y y p p y y y y a y y a y a   X   i u y p y y y p p p a p y y p y 3   . .            ",
"     .   .   .     o a u y 5 0 0 i p y a a p p 5 5 0 0 0 0 5 5 a y 7 p y p u 3   . : 4 u p y y p p y y y y p p p 7   . . . . . X 5 y p p p y p y 7 X   .       . p p p p y y p p p y y u 4 : X       . X . .   : 9 u p p y p y a p p p y 9 :     .   .       X X 3 y y a p p y y p p p p y p 7 a y y y p p 8 p y p y p p p p y p p p y p y y y a y y 9 X . . 3 p y p p p a p p y y u y p p y 3 X . .            ",
" .   .   .   .     . 4 4 8 X X : 7 p p y y y a     X X X X : X 8 y 8 y y a y 3 X .   4 y p p p y p y p p p p y y 7   . . .   . X 3 y p p p p p y 7 X   .   .   o y y y p y y y p y p p y 5 6 3 4 7   .   . . .   6 y p p p p y p y y p p 9   .   .       7 4 6 6 i y y y y y y p y y y p p p o 0 y p y p p 8 p y p y y y y y y p y p y p p y p y p y o         3 p p y p y y i a i y p p y u 3 X . .            ",
" .   .   .   .   o   X : o 9 9 8 4 y p p p p p 9 9 9 9 9 9 8 9 3 p 8 p y p u 3 X .   4 u y y p p y p p p y y y y o X   X X X   X 5 y p y p p p y o X   X     X . 3 a y p p p y p p p p y y y u y 9   . .     X X 6 y y p y y p p p p y y 8 X . X         3 u u u y y p p y p y y y y y p p p . 5 y p y p p 8 p p p y p 5 5 p y p p p p p p p p y p p 6 . . . : 7 p p y p p i .   . i y y p y 4   . .            ",
" .   .   .   .     . 6 3 p u y s u y y y y y y u u u u y u u y u y 9 p y p y 3 :   : 9 a 0 a y p y p p p p p p y 5 4 4 4 4 4 3 4 i y p y p y y p 5 4 3 3 4 9     : 6 p y y p y p p y y a p y p y 6 X .     .     9 y p y p p y p p y p y 9 X . . . .   X 6 y p p p y p p y p a y p p p p y y . 5 u p y p p 8 p p y y a . . a y y y y p y y y y p y y u . . X 7 i y p y a y p 7 o 7 p y p p y 3 X . .            ",
"   .   .   .   .   . y p u 6 o o 7 7 7 7 o 7 8 7 o 7 o 7 7 7 o o . 7 a y p y 5 6 9 6 7 .   9 u p p p p p p p p p y y y u y u u u p y p y p y p y y y y y u 5 X .   6 y p p y y p p p p p p p p p 9 . X . . . o   4 p y p p p y y y p y p 9 . . .         4 y y y p p p p p p p p p y p p p a 8 5 y y p y p 8 p y p y a 7 X . i p p a y p a y p p p p i .   o 0 p p p p p p p p p y p p u a y 4 X . .       .    ",
"   .   .   .   . X   p y p o 9 3 o   8 5 3 o . 6 4 3 6 3 4 4 4 3 4 3 p y a y y p y y p y 5 4 y u u u u u y y y y y y p p p p p p p y p y p y p y 3 .     3 0 X . X 6 u y y y p p p p p p p p p p y i 6 3 a a p a i y y p y p p p y p p u a i a p 9 3 p p p y a p p p p p p p p p p y p y y u i y y y p y a 8 a p p p y i 4 X . .   o p y 4 : . . . . 7       o o o o o o o o o o . . 6 y y u 3   . .       .    ",
"   .   .   .   .   . i y p o 5 i o   i s y i i y u u y u u y u u u y y p p y y y p y p p 8   7 9 3 3 4 4 4 3 3 4 0 p p p p y p y p y p y p y p y 3 . .   4 0 . o . 6 p p p p p p p p p p p p p p p u p y u p p u y y p p y y p p y p p y p y y y y p y p p y p y p p p p p p p p y y p p p p y y p p p y p 3 p p y a y y i o . . . o i p 6   o . . . . . . .   X X X X X X X X X X : 8 y y y 4   . .       .    ",
"   .   .   .   .   . i y y 7 3 3 X : i y y y p p p p p p p p y p y p p p y y y p p p p y 3 6 3 3 4 4 3 3 3 4 9 o 5 p p y p p p p p y p y p y p y p a p p y y a p a p u p y y y p p p p p p p p p p p p y p p y p y p p y y p p y p p p p p p p p y a p y y y p p p p p p p p p p y p y p p p u p y p p p y a u y y p p p y a p p y i 7     0 p y a p p p p p 0 5 5 5 5 5 5 5 5 5 5 3 0 y a y 3 X . .       .    ",
"   .   .   .   . X . a p y o 3 i 9 4 i 4 i y a y p p p p p p y p p y p y y p p p y y p p y u u y y y y y u u u y p y y y p y p y p y p y p y p y p p p p p p y y y p p p p y y p p p p p p p p p u p p p p y u p p p y y p p p p p y y y y y p p y p y y p p y y p p p p p p p p y p y p y p y p y p p p y y y p p y y p p p y p p y 6   7 u p p y y p y p u y u y y y y y y y y y y y y p u 3 X . .       .    ",
"   .   .   .   .   . a p y o 5 u y u p 0 a y p y p p p p y y p y p p p p y y y y y y a 4 i y p a p p p p p p p p y p a p p p p p p y p y p y p y y y y y p y p a y p y p y y y p p p p p p p p p p y y y p p p p y y y p p y y p y p p p y y y p y p y p p p y p p p p p p p p p y p y p y p p y p y p y p y p p p p p y y p p p y u y 4 0 p p p y p a y p p a p p p p p p p p p p y y p p u 4 X . .       .    ",
"   .   .   .   .   . a y y . 3 0 o . 7 p y p p y p y y a y y p y y p p p y y y p p 0 a 0 p y u u y y y y y y y u p y p y y y p p p y p y p y p y y p y p p y y y y y y p p p y p p p p p p p p p p y p p y y p y y p p p p y p y y p p p y p p p p y y y p p y y p p p p p p p p y p y p y y p y p y p y p y p y y y p y p p p u p p u p u y y y p p a y p y p y p p p p p p p p p p p p p y 4 X . .       .    ",
"   .   .   .   .   . a y y o 5 4 l X X a y p y p a y p 3 i y p p p p y y p y p p y 7 i u p 7 7 7 7 o 8 4 3 3 3 3 i y y p p y p y p y p y p y p y p y p y p p y p p p p p p p p p p p p p p p p p y p y y y p p y y p y p p p a y y p y y y p y p y p a p y y p p p p p p p p p p p y p y p p p p y y p y p y p y p y p p p y p p p y p p p p p y p y y y p y p p p p p p p p p p y p y y p y 3 X . .       .    ",
"   .   .   .   .   . a y y o 5 p 4 3 0 p y y y y p y y 9 p y y y y y y a p y p p y 0 4 a 9 4 6 4 4 4 4 4 4 4 4 6 0 y p p y p y y y p y y p p y y p p p y y p p p y y p y p y p p y y y y y y p p p p y p p y y p y p y y y y y p p p p p p p p p p p p p p p p p p p p p p p p p p y p u y y p p p p p p p p p p p p p y p p y p y p p y y p y p p y p p p y u p y u a y a y p y p p p p p y 4 X . .       .    ",
"   .   .   .   .   . p y y o . o 8 7 7 7 7 o o 7 7 7 7 X o 7 o 7 o 8 p y p p y u u y o o : 6 s y u u u u u u u u y p p y p p y p p y p p y y y p p p p p p p p p i 4 0 y p y p y y y y y y y p p y y p p y y p p y p p p p 5 0 u p p p p y p p p p p p p p p p p p p p p p p p p y p a y 5 3 a y p p p p y p p p p y y y p p y p y y p y p p y p p y y p y p p y 5 5 y p y y p u p p p p p y 4 X . .       .    ",
"   .   .   .   .   . a p y 5 4 3 3 4 4 4 4 4 4 3 3 4 4 3 3 3 4 3 4 7 a y p y 0 8 6 0 .   : 9 u a p p p p p p p p y p y y a p p p y y p p y y y p y p p p p p p y 8 : 8 y p y p y p y y y p p p y p p p p y p p p p p p p y 8 8 p p p p p y p p p p p p p p p p p p p p p p p p p p p y p o : 4 y p p p p y p p p p p y p p y p y p y p y p p p p p y y p y p p y   X y y 5 p p a p p p p p y 4 X . .       .    ",
"   .   .   .   .     a y p y u u y u u u u u y y y y y u y y u u y 9 p y p y 3 X     . o o 4 p y y y y y y y y y p p p p y u y p y p y u y a p y y p p p p p p y 3 X 7 u y y p y p p y p p p y y p y u y p p y y y y y y y o . 0 p p p p y p p p p p p p p p p p p p p p p p p p y p y p 9 X 6 u p p p p y p p p p p p p y y p y p y p p y p p p p p p y p p y i 7   i p 8 0 y y p p p p p y 4 X . .       .    ",
"   .   .   .   . . o i y p p y p p y y p p y y p p y y a y p y p a 8 p y p y 3   . X 4 p a 5 a p p p p p p p p p p p a y a 5 a y y p p a y p y y p p p y y p p p y 6 8 u p p y p p p y p p p y y p p i 3 a y y p p p p p u 8 9 y p p p p y p p p p p p p p p p p p p p p p p p p y p p y p 8 4 u p p p p y p p p y p p y y p p y p p p p p y y y y p p y a p y 9 X . 8 0 a y p y p p p p p y 4 X . .       .    ",
"   .   .   .   .     7 7 7 7 7 o 7 7 7 o o 7 7 o 7 o 7 7 p p y p p 8 p p y y 3 X .   6 s 0 X 3 y p p p p p y y y p y y u 9 : 4 y p y 4 7 i y p y p p p y y p p p y 3 7 y p p y p p p y p p p y y 6 7   X 5 y p p p y y p y 8 4 u p p p p y p p p p p p p p p p p p p p p p p p p p y p y u 8 9 u p p p p y p p p y y p y p p y y y y y y p p p p p p p y p y y 8   o X . y u y a p p p p p y 4 X . .       .    ",
"   .   .   .   . .     : : : X X : X X X X X X X X : X . a y y p p 8 p y y y 3       4.v a 7 5 y p p p p y y y y p p p y 3 7 0 u p y 8 : 5 y p y p p p p p p p p y 4 7 u p y y y p p y p p p y y 6 X o 8 i y p y p p y p y 7 6 u p p p p y p p p p p p p p p p p p p p p p p p p y y p p u 8 6 u p p p p y p p p p y p y p p y 0 0 0 y u y y u u u u y u y y i 8 X . . . 5 0 5 8 p p p p p y 4 X . .       .    ",
"   .   .   .   .   . 4 4 4 3 3 4 3 3 3 3 3 3 3 3 4 3 3 4 p y y y y 8 p y y y 3 X . : 7 9 5 u y p p p p p p y y y p y p p y y y p p y 9 X 0 y p y y p p p p p p y u 4 7 y p y p y p p y p p p y y 4 : 0 u p p y p y p p p u 7 6 u p p p p y p p p p p p p p p p p p p p p p p p p y p y p y 7 6 u p p p p y p p p p y p y p y p 8 : X 9 3 6 6 4 4 4 6 4 6 3 6 . X         : X X . p p p p p y 4 X . .       .    ",
"                   . p u s 6 6 9 9 8 9 9 8 6 6 9 6 9 9 9 9 8 8 9 8 7 p y a y a 0 0 6 9 7 o p y p p p p a a p p p y y p p y p p p p u 9 : 0 y p p y p p p y y y p u 4 7 y p p p y p y p y p y y y 6 X 3 y p p p y p p p p y 7 4 y p p p p 0 3 a p p p y p y p y y p y p p y y p y y p p p u 8 6 u p y p p y p y p p y y p p p y 3 9 9 . : X X : X : : X X : : o 9 9 9 9 9 9 9 9 9 p p p p p u 3 X . .            ",
"                   . a p p 7 4 i i . X 0 y 0 i a a o : 4 p i 0 i a i y p y y p y y y u p 6 p y u y y y u s u y y p y y y y p p p p y 8 X i u y y p y y y p p p p u 4 7 y p p p y y y p y p p p u 6 X 5 y p p p p y y y p y 7 4 u p y p y 8 : 5 u p p y p y p y y p y y p y p p p y p y p u 8 4 y p y p p p p y y p p p p y p y a u y i 4 3 3 3 3 3 3 3 3 3 5 i y y u y u y u y u y y y p p u 4   . .            ",
"                     a y y 7 5 u y . 4 y p u u p y a 5 p u y u y y y p p y a p p p p y p . 7 o 7 o o 7 6 4 4 4 4 0 p p p p p p p y y 9   6 3 3 0 y p p p p y y p u 4 7 y p p p p a y p y y y p y 6 X 5 y p y y p p p p p y 8 4 u y p a y 3 8 a y p p y p y p y p y p p y y p p y p p y p y 7 6 y p p y y y p p p y y p p y p y y p y y y y u u u u u u u y y y y p p p p p p p p y p p p p u 4   . .            ",
"                     a u y o 3 y a 5 a u y a p y p y y y p a p p a p y y y p u p p p p p 3 3 3 3 3 3 3 4 4 4 4 4 i p y p y y y y p y 9 X   X : o y p p y y y y p u 4 7 y p p p p p y p y p y p y 6 : 5 y p y y p p p y p y 7 4 y p y y y y y y p y p y p y p p p p y y p p p p y y y y p y 7 6 u p p p y p y y y p y y p p y p p p p y y y p p p p p p p p p p p p y p y p y p y y y y u p s 4 X . .            ",
"                   . a y p . 3 u y y y p p y y p y p p p y y a p p y y a y p p y y p y y u y u y y y y y y y u u p y y p y y p y p y 8 X 9 4 9 3 y p p y y p p p u 4 7 y p p p p y p y y p p y s 6 X 5 u p p p p y y y p y 7 4 u p p p p p y p p y p y p y p p p p y p p y u y p y p p p u 7 6 u p p y p p p p p p p y p p y y p y p p p p p y y y y y y y p y y p p p y p y p y a u 5 4 3 y 3 X . .            ",
"                   . a y y 7 5 p a 6 i y p p p y p y y p p y p y y a y p y p p y y p y p u y p p p p p y p p p p p p p p y p p y p u 8 X 0 s y u u y p p p p p p u 4 7 y p p p p p p p p p u a 5 8 X 5 y p p y y p p p p y 7 6 y p y p y p p y a y p y p y p y p u a p y a 3 0 y u p p a y 7 6 u p p y y y y p y y p p y p p y y p p p y y y y y p p p y p p p y p y p y p y p y p u 8 : . p 3   . .            ",
"                   . a y u o 3 0 5 a a y y p y p y p p y y y y a 0 5 a y p p y p p p y y i a i p y y y y y y y y p y y y y p p p p u 8 : i y i a i p y p p y p p u 4 7 y p p p p p y y p p p 9   . X 3 y p p y p y y y y u 8 4 u y y p y p p u p y p y p y p y p y p y y 9 : . 5 i p y y y 7 6 y p y y p y y i a p y p y y p p y p y p p p p p p y y y p p p y y p y p y p y p y y i 7   . y 3 X . .            ",
"                   . p p y . 5 y p p y p p p p p y y p y p y p 7 5 p y p y p p y y y p p o .   8 8 9 8 7 9 3 5 3 0 p p p p y y y y u 9 X 0 4   .   5 y y p y p y u 4 7 y p p p p p y p y y 5   X .   5 y p p p i 5 5 5 5 i . 6 u p 0 5 5 a y a y p p p p y p y p p y y 0 8     .   6 p y u 7 6 y p p p p y 0 o X 0 y p y p p y y p y y p y y p p p p p p p p p p p y p y p y p y p o   .   y 3 X . .            ",
"   .   .   .   .   . a y y 7   4.b p y y y p 8 . a p y y y y y y a 4 a y y y y p y y y a 8 a a a a i 0 4 6 6 4 6 0 p p y a y a i i i 8   3 4 X .   4 p y p p y i a 6 8 p 0 p y p p y y p p 0 o 7 o   5 y p p y 9 :     X X X 3 y y.n.m X 5 y p p p p u y p p p y y y 0 7       .     5 i a 7 4 u p p.i p.i i 8.n a p y y p p y y y y y y y y y y y y y y y y y y p p p p p p p p p . .   o i 4 X                ",
"   .   .   .   .   . a y p 8   o 9 8 8 8 8 9 . . 7 8 9 8 8 8 8 8 8 . 8 8 8 8 8 8 9 8 8 9 8 p y u y y u y y u u u y y a y y y 6 : .   X   o           3 y p y p 8 X X 7 3 : 4 u p y y p p y u a u 9 X 5 y p p y 5 7     . .   3 y p o    .p y p.O u a 4 a u a p p y i 7 X   . .   . X . X . X 4 u.i p y p y.b.O.i a p y p p p p p p p p p p p p p p p p p p p p p p p p p p p p p y o     X . .                  ",
"   .   .   .   .     a p y a a a.M.M i i i a.M p i a a i i i a a a i a i a a i a i i i a a y p y p p p p p p p p p y y y p y 6   o   . .   X 6 5 8 : 6 u p y y 3 3 8 9 i 6 i y p p p p p y p 5 a 4 : 5 y p y p y 5     . . : 4 y p 5 7 : 3.i.O y 5 o : 3 u p y a u p .   .   . X .   . X . X 4 y p p y p p.i.O y p y y p p p y y y y y y y y y y y y y y y y y y y y y y y y y y a o X . .     .                ",
"   .   .   .   . . . p y p p y p y y p y y y y y y y y y y y y y y y y y y y y y y y y y y p p y y p p p p p p p p p y p p y 6 X   .   X 9 4 a u i 9 5 y p p y u s 6 7 y u y p p p p y p p p 5 i 6 : 5 u y y p u 3 :   . . X 3 u p u 0 8 i y p y 7 : 8 a p y p p p a . . .   .     . .   . X 4 u p p y p y y p y y y p p p p p p p p p p p p p p p p p p p p p p p p p p p p p p p 4 .   . . .                  ",
"   .   .   .   .   . i y p y y y y y p y p y y p y y y y y p y y p y p y p p y p y y p p y p y y p p p y y y y y u y y p y u 6     .     0 y p y y y u y p y p p y 6 9 y p p p y y y y y y u y u 9 . 5 p p p p y 3   .   .   3 y y p y y u y y y 7 o i u p y p y u p o   X     .         .   3 y y y p p p p p p p p p p p p p p p p p p p p p p p p p p p p p p p p p p p p p p u p 9       .                  ",
"   .   .   .   .   X 7 7 7 o o 7 7 7.N.B o 7 7 7 7 7 7 7 7 7 o 7 7 7 o 7 o o 7 7 7 7 7 7 7 o 7 o 7 o 7 7 7 o o o o o 7 o o 7 .   o   .   7 8 o o o 7 7 o 7 7 7 o 7 o   7 o 7 o 7 7 7 o 7 o 7 o 7 . X o 7 o o 7 7 o X .   . X . 7 7 o.N 8.N o 7 7 .   o 7 7 7 o 7 o 7     . o     . . .   .   . 7.N 7 7 7 7 7 7 7 7 o o 7 7 7 7 7 7 7 7 7 7 7 7 7 7 7 7 7 7 7 7 7 7 7 7 7 7 7 7 7 7 8 .   .     .                ",
"   .   .   .   . .                     = X                               X       X       X                       X X           .     . . X X X       X     X   . X .       X X           X   X       .                   . .       .   X.V =.V     .       X   .     . .   .   . . . .   . .            .V.V   =                                                                 X       .                      ",
"   .   .   .   .   .     . . .   . = = .  .C . . .     . . . . .   . .     o   . . . .   . .   . . . . . . . . . . .   . .     . X o X . . . . .   .   . .   .   .     .   . .   . . . .   .       . .   . .   . . .   .   . . . . = = .   . . .     . .   . .   .   . . .     .     . . . .   . . . = . . . . . .     . .     . . . . . . . . . . . . . . . . . . . . . . . . . . . .     .   .                ",
"                                                                                                                                                                                                                                                                                                                                                                                                                ",
"                                                                                                                                                                                                                                                                                                                                                                                                                ",
"                                                                                                                                                                                                                                                                                                                                                                                                                ",
"                                                                                                                                                                                                                                                                                                                                                                                                                ",
"                                                                                                                                                                                                                                                                                                                                                                                                                ",
"                                                                                                                                                                                                                                                                                                                                                                                                                ",
"                                                                                                                                                                                                                                                                                                                                                                                                                ",
"                                                                                                                                                                                                                                                                                                                                                                                                                "
};
