/* XPM */
static char *freeimage[] = {
/* width height num_colors chars_per_pixel */
"200 200 127 2",
/* colors */
"   c #a9a9a9",
" . c #a5a5a5",
" X c #9c9c9c",
" o c #b5abac",
" O c #b4a7b0",
" + c #afa9b7",
" @ c #ada9b8",
" # c #a7afb2",
" $ c #abb2ad",
" % c #646464",
" & c #353535",
" * c #424242",
" = c #3d3d3d",
" - c #4b4b4b",
" ; c #5c5c5c",
" : c #b2b2b2",
" > c #949494",
" , c #989896",
" < c #8a9b94",
" 1 c #9d948f",
" 2 c #909d8b",
" 3 c #a79486",
" 4 c #b38d8a",
" 5 c #8f9d8e",
" 6 c #aa8c94",
" 7 c #8c8c8c",
" 8 c #7c7c7c",
" 9 c #535353",
" 0 c #747474",
" q c #3e3f41",
" w c #4e373f",
" e c #533a35",
" r c #882a22",
" t c #ef000f",
" y c #e30213",
" u c #723526",
" i c #433e3a",
" p c #6b6b6b",
" a c #493c43",
" s c #3d4445",
" d c #6d3536",
" f c #f30018",
" g c #fe0201",
" h c #d9051e",
" j c #314b3e",
" k c #bababa",
" l c #423d45",
" z c #344442",
" x c #603433",
" c c #ee0400",
" v c #cc051a",
" b c #244b39",
" n c #848484",
" m c #41403e",
" M c #d80c15",
" N c #cd1017",
" B c #603c2c",
" V c #2d2d2d",
" C c #35423f",
" Z c #3a413a",
" A c #264e36",
" S c #3a4632",
" D c #483e35",
" F c #2a4b3a",
" G c #503845",
" H c #3a434c",
" J c #3a4251",
" K c #c2c2c2",
" L c #676769",
" P c #a0a09e",
" I c #a8a8a6",
" U c #80807e",
" Y c #363638",
" T c #575759",
" R c #464648",
" E c #878789",
" W c #7f7f81",
" Q c #9ea3a2",
" ! c #a6a8a7",
" ~ c #3c3f36",
" ^ c #3a483b",
" / c #323a2f",
" ( c #736b66",
" ) c #9baaa6",
" _ c #a7aaaa",
" ` c #513645",
" ' c #523e49",
" ] c #2e3d3a",
" [ c #6b716f",
" { c #bfacb3",
" } c #b39ea5",
" | c #50504e",
".  c #5e6261",
".. c #34424b",
".X c #49414e",
".o c #3c363c",
".O c #5e7572",
".+ c #ba99a2",
".@ c #b2a59f",
".# c #4f403d",
".$ c #9fb8b5",
".% c #6c361e",
".& c #b2121a",
".* c #a32324",
".= c #473622",
".- c #aeb1b9",
".; c #a5ab9c",
".: c #a9a5a6",
".> c #3a3637",
"., c #df0e0a",
".< c #ff020a",
".1 c #ff0413",
".2 c #991417",
".3 c #aba6a8",
".4 c #9caf9c",
".5 c #918d8e",
".6 c #b70513",
".7 c #a5b6bd",
".8 c #b3a3aa",
".9 c #9e9ea0",
".0 c #af2002",
".q c #f5040a",
".w c #751f10",
".e c #99888e",
".r c #96868b",
".t c #988d91",
".y c #a09a9c",
/* pixels */
"                                                                                                                 . . .                                                                                                                                                                           . .         . . .       . . .   .   .   .   .   . . . . . . . .                 . . . . . . . .                ",
"                                                                                 . . . . . . . .                 . . .                                                           . . . . . . . . . . . . . . . . . . . . . . . . . . . . . . . . . . . . . . . . . . . . . . . . . . . . . . . . .             . .       . . .   .   .   .   .                                                                  ",
"                                                                                                                 . . .                                           . . . . . . . .                                                                                                                                                     .   .   .                                   . . . . . . . .                ",
"                                                                                 . . . . . . . .                 . . .                                                           . . . . . . . .                 . . . . . . . . . . . . . . . .                 . . . . . . . . . . . . . . . . . . . . . . . . . . . . . . . . .   .   .   .   . . . . . . . . . . . . . . . .                                ",
"                                                                                                                 . . .                                                                                                                                                                                                                                                                                          ",
"                                                                                 . . . . . . . .                 . . .                                           . . . . . . . . . . . . . . . . . . . . . . . . . . . . . . . . . . . . . . . . . . . . . . . . . . . . . . . . . . . . . . . .   . . . . . .   . . . . . . . . . . . . . . . . . . . . . . . . . . . . . . . . . . . . . . . .                ",
"                                                 . . . . . . . . . . . . . . . .                                 . . .                                                                                                                                                                                                                                                                                          ",
"                                                 . . . . . . . . . . . . . . . . . . . . . . . .                 . . .                                           X X X X X X X X X X X X X X X X X X X X X X X X X X X X X X X X X X X X X X X X X X X X X X X X X X X X X X X X X X X X X X X X X X X X X X X X X X X X X X X X X X X X X X X X X X X X X X X X X X X X X X X X X X X X X X X X                ",
"                 .   . . .                                                                                           o O + @ # $           .   .     . .         % & * = = - = * * * * * * * * * * = * * * * * * * * * * * * * * * * * * * * * * * * * * * * * * * * * * * * * * * * * * * * * * * = = % % = = * * * * * * ; - = * * * * * * * = * * * * * * * * * * * * * * * * * = * * = * * = X     .        ",
"                 . . .   : . > > > > > > > > > > , , , , , , , , , , , , , , , , > > > > > > > > > > > > > > > > < < 1 2 3 4 5 6 > > > X > 7         . .     .   8 - - 9 & = = - * * * * * * * * * * * * * * * * * * * * * * * * * * * * * * * * * * * * * * * * * * * * * * * * * * * * * * * * & * 0     ; * = * * = * - : * - = = * * = * * = * * * * * * * * * * * * * * * * * * * * = = = * X     .        ",
"                   . .   . 0 = * = = = = = = = = = = = = = = = = = = = = = = = = = = = = = = = = = = = = = = = = q w e r t y u i * * = = * * 7       .     . .     . . X - * = * * * * * * * * * * = * * = * * * * * * * * * * * * * * * * * * * = = = = = = = = * * * * * * * * * * * * * * * * ; p X   : - = = * * * = = 0 0   p = = * = * * = * * * * * * * * * * * * * * * * = * = * * * * * X     .        ",
"                   .     : 8 & * * * * * * * * * * * * * * * * * * * * * * * * * * * * * * * * * * * * * * * * * a s d f g g h j = * = * = = 7   .   .     . .     : : X * = * * * * * * * * * * * = * * = * * = * * * * * * * * * * * * * * * * * * * * * * * * * * * * * * * * * * * * * * * *   : k . 7 - * * & * * = % ; .   X - = * * * = * * * * * * * * * * * * * * * * * * * = * * * * * X     .        ",
"                   . . . : 8 & * = = = = = = = = = = = = = = = = = = = = = = = = = = = = = = = = = = = = = = = = l z x y g c v b = * = * * = 7   .         . .   X 8 n 0 * = - = * * * * * * * * * * * * * * * * * * * * * * * * * * * * * * * * * * * * * * * * * * * * * * * * * * * * * * * * 0 8 8 0 - = = = * - * * 0 8 n : 8 = = - = = = * * * * * * * * * * * * * * * * * * * * = = * * = X     .        ",
"                       .   n & * * * * * * * * * * * * * * * * * * * * * * * * * * * * * * * * * * * * * * * * * z l m u M N B z * * = * * = >   .         . .   p & = = = * - = = = = = = = = = = * = = * = = * = = = = = = = = = = = = = = = = = = = = = = = = = = = = = = = = = = = = = = = = & & & * V = * * * = & = & = * 7 * & = * = * = = = = = = = = = = = = = = = = = = = = * * = * = * X     .        ",
"                 . . . .   8 = * * * * * * * * * * * * * * * * * * * * * * * * * = = = = = = = = = = = = = = = = z C Z A S D F a * = = = * = >   .   .     .   : p & * - & * & - - - - - - - - - - - - - - - - - - - - - - - - - - - - - - - - - - - - - - - - - - - - - - - - - - - - - - - - - - - - 9 - - - - - * - 9 - * 9 * - - - - - 9 - - - - - - - - - - - - - - - - - - 9 & * * = * = * X     .        ",
"                 .   .   : 8 = * * * * * * * * * * * * * * * * * * * * * * * * * * * * * * * * * * * * * * * * * G a a l H J H s * * * * * = >   .   .     .   : % = 0 X % ; - X . . . . . . . . . . . . . . . . . . . . . . . . . . . . . . . . . . . . . . . . . . . . . . . . . . . . . . . . . .   X   . . . . . . .   . X   .   . .   . X . . . . . . . . . . . . . . . . . 8 * * * = * = * X     .        ",
"                 .   .   : n = = * & = = = = = & = = = = = = = = = = = = = = = = = = = = = = = = = = = = = = = = = = = = = = = = = = = = = = 7   .   .   .   . : 0 * : .   7 * . .     .                                                                                                           . .                                                             .       .   : n = * = * * * = X     .       .",
"                 .   . . : 8 & * = 9 0 % % % % % % % % % % % % % % % % % % % % % % % % % % % % % % % % % % % % % % % % % % % % % % ; % % % % X . .   .   .   . : % * n k > ; * .   . .       .   . . . . . .     . . . . . . . . .     . .     .         . . . . . . . . . . . .   . . .     . .   . .   . . .   . . . . . . . .                 . . . . . . . .   .   .   . .   n = * = * * * = X     .       .",
"                 .   . . : 8 & - = 8 :     : : :                 : : : : : : : : : : : : : : : :                 : : : : : : : : :   :   : . :   .   .   .   . : p = 9 . . X * .           . .                                           .                                                                                       . . . . . . . .                   .   . .       n = * = * * * = X     .       .",
"                     . . : 8 = * & 0   .   . . . . . . . . . . . . . . . . . . . . . . . . . . . . . . . . . . . . . . . . . . . . X   .   .   . .   .   .   . : p V p X % > - X .     .   .   . . . . . . . . . . . . . . . . .     . . . . . . . . . . . . . . . . . . . . . . . . . . . . . . . . . . . .     . . . . . . . .                 . . . . . . . . . .     .   . : n = * = * * * = X     .       .",
"                   .       n = = = 0 : .                                                                                           .   . . .     .   .   .   . : % & ; n = * - X     . . :                                                                                                                                       . . . . . . . .                     . : .   . : n = * = * * * = X     .       .",
"                   .   .   8 & * & 0 k . . .   . . . . . . . . . . . . . . . . . . . . . . . . . . . . . . . . . . . . . . . . .   .   .       . .   .   .   . : % * = * - = * . . . .   X 9 - % ; ; ; ; ; ; ; ; ; ; ; ; ; ; ; ; ; ; ; ; ; ; ; ; ; ; ; ; ; ; ; ; ; ; ; ; ; ; ; ; ; ; ; ; ; ; ; ; ; ; ; ; ; ; ; ; ; ; ; ; ; ; ; ; ; ; ; ; ; ; ; ; ; ; ; ; ; ; ; ; 9 % % . . : . : n = * = * * * = X     .       .",
"                       . : 8 & ; - p : .       .                                                                                 .               .   .   .   . : p & * * = = - X         > = 9 . X X . . . . . X . . . . . . . . . . . . . . .   . . . . . . . . . . . . . . . . . . . . . . . . . . . . . . . . . . . . . . . . . . . . . . . . . . . . . . . . . > p   .   .   n = * = * * * = X     .       .",
"                 .   . . : 8 & 8 7 8   .   .   . X X X X X X X X X X X X X X X X X X X X X X X X X X X X X X X X X X X X X X X X X . X X > > .   .   .   .   . : p = = * * * * .   . . : X & 9   . . . . . . X X X X X X X X X X . X X X X X . . . . X X X X X X X X X X X X X X X X X X X X X X X X X X X . . . X X X X X X X X X X X X X X X X X X X X X X X X : X ; . .     : n = * = * * * = X     .       .",
"                       . : n V 0 : .   . .     7 = * * = * * * * * * * * * * * * * * * * * = * * * * - 9 = * = * * * * - = = = * * - * * % % X   .   .   .   . : % = * = * = * X     .   X = 9 : > * . : 7 = * * = * = = * * * * = * % * * * * X . * * * * - = = * = * * * * = = * * = = = % * * * = * * & 0 : p = = = * * * = = = = * * = * * = = = * = * * & % : X ;   .       n = * * = * * * X     .       .",
"                   .   .   8 V 0 : .   .       7 = * * = * * * * = = = = = = = = * * = = * = * = = = p 0 = * * * * * = = = * * = = = & 9       . .   .   .   . : % = * = * = * X     .   X = 9 : 7 * .   n = * = = * 9 9 9 = = * = p 8 = = * * X . - & = * * * = = * = = = & 9 - * ; ; * % . 9 = * = * - = 0 : 0 & * * & = = 9 - 9 ; = - * = * 9 ; - = = * * & % : X ;   .       n = * * = * * * X     .       .",
"                 . .   .   n = 0 :         .   7 = * * = * * * * * * * * * * * * * * = * * * * = * & p 0 & = * & = * * * 9 9 = = * - = - . . .   .   .   .   . : % = * = * = * X     .   X = 9 : > * . : 7 = * - = ;   : X = = = ;   X * * * * X . - ; 7 X * = * * = - * - 8   > - p n :   7 - = = * = * & 0 : 0 & * * * % % X :   0 - & = - = 8 . . p = = - = % : X ;   .       n = * * = * * * X     .       .",
"                 .     . : n = % X         .   7 = * * = * * * * * * * * * * * * * * = * = * * * * & p 0 & * ; 9 9 = = = n 7 = * = * = 9   . . . .   .   .   . : % = * = * = * X     .   X = 9 : 7 * > X n = = = = ; .   . * * = ; > 8 = * = * . X % X : X ; = * = * = & ; X : X = 9 9 > 8 * = = * * = * & 0 k 0 * - & * 7 X X . > - ; ; - = = & n : X % * * = ; : X ;   .       n = * * = * * * X     .       .",
"                       . : 8 & * % >   .   . : > = * * = * * = * * * * * * * * * = * * * = * * - - & % 0 & 9 . : 0 & - * 8 n & * * = * 9 . X     .   .   .   . : % = * = * = * X     .   X = 9 : > = - = * = - * & ;     > = * = & - * = * = * X . * * X : . 9 = = - * 9 * 9 . X * X X 9 & * * * * * = = & 0 k p & = = - & * - . . . : .   ; - = n     X ; & = % : X ;   .       n = * * = * * * X     .       .",
"                 . . . . : 8 & = = 8     .     7 = * * = * * = * * * * * * * * * * * = * = 0 7 X 7 * % 0 & 9   X 8 = p p 7 7 - * * = = & - - 7   .   .   .   . : % = * = * = * X     .   X = 9 : X = & = * * * = = = * * - & * * = = * * * = - X . - = %   : X = * = 9 7 7 . > - & - = = - = * = = = = * * 0   0 = * = = -   8 - - - n   k X . 9 * . . 0 9 * * 9 : X ;   .       n = * * = * * * X     .       .",
"                 .   . . : 8 * * & 0     .     7 = * * = * * = * = = = = = = = = = * * * = p p p X & % 8 = 9 p - 8 = * p : k > = * * * * * & 7   .   .   .   . : % = * = * = * X     .   X = 9 : 7 - - ; = = = - 9 - = = * = * * * = * * * = - . . = = ; . > > = * * = & p   = = * * = * * & 9 = * * = = & - % * = = = = - 7 ; V & = = n X   . - * > X   X - V p : X ;   .       n = * * = * * * X     .       .",
"                       .   0 = = = 0     .     > = * * = * * = * * * * * * * * * = * = * & p % ; n V p 0 & * - * * * & 9 > 7 X - = * = * * & >   .   .   .   . : % = * = * = * X     .   X = 9 :   .   > * * * 9   n * * = - = = * = = = * = * X . - = * = % ; = = = * = - 7 = * * = * = * * = * = * * * * = * * ; ; - = * - * % ; * * - * 7 - = * - ; .   % * ; : X ;   .       n = * * = * * * X     .       .",
"                       . : 8 & * & 0   .   .   7 = * * = * * * = * = = = * = * = * * * * * = = = = & p 8 = = - = * * * * V % k n & - * * * = >   .         . .   p = * * * = * .         X = 9     > . > * * * 9 K > * = * * - = * = * * = = * . . * * = 9 k . = * = * * = - - = = * * = = * * & * * = * = * = - . . % 9 * = 9 k . * = * * 0 - * * 9 >     X 9 ; : X ;   .       n = * = * * * * X     .        ",
"                     . . : 8 & * & 0   .   .   7 = = = * * * = * = = - * * = * * = = = * * * = * * = 9 ; * = = * = * = * = % > p & = = * = = 7   .         . .   p = * * * = * .         X = 9   7 * = * = = * * 7 0 * = * = * * * * = * % ; = . . * * = * 8 0 * = = * & % :   9 * = * = * * = p * = 9 * * = - = * X   . - * * 7 8 * * * = 9 = * = = 8 . X - & ; : X ;   .       n = * = * * * * X     .        ",
"                     . . : 8 & * = 0   .       7 * ; 9 9 = * = * * 9 > X X X X X - * = & & * = * * * * * * * & * = * * * = = = = ; = = * * = 7   .         . .   p = * * * = * .         X = 9   > = * * * = * = & = = * * = = * = * = 9   > * .   * = ; - - - - * * * = ; X 7 * * = * * = = 9 . 9 % 7 9 & 0   p *     : p = = & * & = * = * & - * - 7 :   * * ; : X ;   .     : n = * = * * * * X     .        ",
"                     . . : 8 & * = 0   .       7 p   : n = * * - = -   :       : 9 = 9 % p ; = = * * = = = * = = * & = * * * = 0 7 * = * * * 7   .         . .   p = * * * = * .         X = 9   7 = = = = * * = = * * * * = = = * - = -   . * . . * - X   . .   - = * * = * * * = * * * = = 0     . k X = 0 : 0 = 8 X 7 > * - * = = = * * * = * = = 9 8 n = = ; : X ;   .     : n = * = * * * * X     .        ",
"                     . . : 8 & * = 0   .       7 % X X 0 = * * * = - . . . . .   9 = 8 k K n * * * = * * = * = * 9 9 - = = * & 0 X * = * * = 7   .         . .   p = * * * = * .         X = 9   > ; 9 ; = * = * * * * = * * * * = = = 9 7 n - . . * - . k   :   - = = * = = = * = = = * * - 8     X . 7 * p   0 = & 7 - 8 9 = * * - = * = = * = = * = & = * * ; : X ;   .     : n = * = * * * * X     .        ",
"                     . . : 8 & * = 0   .       7 = * = * = - = = * -         . . 9 & ; n n % = * * * = * * = = ; k k n * = - & 0 > = = * * = 7 : .         . .   p = * * * = * .         X = 9       k X * * = * = * * = * * = = * = = = * * = X . * * 8 8 8 n 8 * * * = = * * = - = * = = = 9     : X * & p k p = = 8 = = = & * & = = = = = = * * = = * = = V % : X ;   .       n = * = * * * * X     .        ",
"                     . . : 8 & * & 0   .   .   7 = * * * * * * - = - . . . . .   9 = = & V = = * * * * * * * = 9 7 > % = = - & 0 > = * * * = > : .         . .   p = * * * = * .         X = 9   . 7 X 8 * * * * * * = = = = * * * * * * * = * . . * = * = = = = = = * * * * = * = = * = = = - 7 > > 8 = * p k 0 = - = % 8 n 7 8 n n n n n ; = * = 9 n n 8 n 8 7   X ;       .   n = * = * * * * X     .        ",
"                     . . : 8 & * & 0   .   .   7 = * * & = * = = = 9   .         - = * * * * * * * * - * = * * * = * = * * * = 0 > * = = = = 7   .         . .   p = * * * = * .         X = 9   7 & V = * = = * = = & = * = = = = = = = = = * > . * = = & * & = = & = = * = = * * * * * * * * = & & & = V p : p V * V 7 k   : k : : : : k n = = = 9   : k : k     X ;       .   n = * = * * * * X     .        ",
"                   .   . : 8 = * = 0 : . .     7 = = - % % % ; % - *   .   .     9 = * = * * = * & 0 k 0 = * = * * = = * * = & 0 > = = * * = >   .         . .   L = * = * = * P     .   X = 9   X 7 7 > 0 & * = * p ; ; % ; ; % % n 7 n n n 7 . . > n n n n n p ; % ; = * * * = = * & * * = & ; 7 n n n n > . X n n n >   > ; % ; ; % % ; 9 * = = 9 .   p ; ; 8 : X ;   .       n = * = * * * = X     .        ",
"                   .   . : 8 = * = 0 :   .     7 = = 8 k :     : ; -   .   .   : - * * = * = = * = p . p = * * * & - - = * - & 0 > = = * * = >   .         . .   L = * = * = * X     .   X = 9   :   k k 7 * * = 0         : :   : k : : : : :       : k :     : : : 7 * - * & 9 - 9 9 - - 9 ; p k : : : : : :   : : : : : n = & & * & & * = = * = 9   . - & & ; : X ;   .       n = * = * * * = X     .        ",
"                   .   . : 8 = * = 0 :         7 = = 0   X X .   ; -         . . - = = * = - = * * = - = = * * * * % p * = * = 0 > = = * * = >   .         . .   L = * = * = * X     .   X = 9   > ; ; ; ; = * = 0 .   X X . . . 7 ; 9 X . % 9 ; ; ; ; ; ; ; p > .   7 = = * * >   X   . : . > % ; ; ; ; % ; ; ; ; ; ; ; % ; = = * * * * * * * * = 9     ; * = ; : X ;   .       n = * = * * * = X     .        ",
"                   .   . : 8 = * = 0 : .       7 = * - 9 - - - - - * . . .   .   9 * - = - . p = - = = = * = * * 7   8 = = * & 0 > = = * * = >   .         . .   L = * = * = * X     .   X = 9   > = = & = = * = * 9 - - - - - - - = = X   - & = = = & & = & = 9 * - - = * * = 9 * % :   X - * & = = & & = & & = = & = & = * = * * * X X - = * = = ;     9 & * p : X ;   .       n = * = * * * = X     .        ",
"                   .   . : 8 = * & 0 : . .     7 = - = = = * = = = -     .       9 & - 9 ;   0 = = * - = = = 9 * 8 k 8 & - * & 0 > = = * * = >   .         . .   L = * = * = * X     .   X = 9   7 = * * * * = * = = = = * = = = = * = >   9 = = * * * * - * = = * = = * * * * = = ;     X * * * * * * * * * = * = * * * * * = = * * X X - = * * = 9 X . 9 = = ; : X ;   .       n = * = * * * = X     .        ",
"                   .   . : 8 = * & 0 : . .     > = * = * = * = = = 9 .   .       - = % 7 7 : X 0 = & * = * 9 n X > X p * = = = 0 > = = * * = >   .         . .   L = * = * = * X     .   X = 9   > = * = * * = * * * * = * * * * * * = X   - = - * = = = = * * * = * = - = = * * = ; > > 7 * = = = = = = * * = * * * * = = * * * = * * * * = * = * = - 9 = * = ; : X ;   .       n = * = * * * = X     .        ",
"                   .   . : 8 = * & 0 : . . .   X > > 7 > 7 > > X > >     .   .   9 * = = 9   k > % * * * = = 0 k 8 = = * = * = p > = = * * = >   .         . .   L = * = * = * X     .   X = 9   7 = * = = = = * * * * = * = * * = = * X > = * = = = * * * * * = * * = = * * = = * = * & * = * * * * * * * * * = = * = = = = * * & - & = - * = * * = = = = * = % : X ;   .       n = * = * * * = X     .        ",
"                   .   . : 8 = * = 0   .   .   . . : .           :   . .     .   9 = - = - 7 7 > 8 * * * * = 9 > 0 & - * = * V 8 > = = * * = >   .         . .   L = * = * = * X     .   X = 9   > = * = * * * = * = = * * = * = * = ; : n V - = * * = = = * * * = = * * = * = * * * * * = * * = = * * = = * * = = * = = * = = = * = * = = * = * * * * = * * & % : X ;   .       n = * = * * * = X     .        ",
"                       . : 8 & * = 0   X :   : :                       :       . - & & = & & & & & = = = = = * & = * * * = * & 0 > = * = * = >   .         . .   p = * = * = * .   . .   X = 9   X & * = * * = * = = = * * = = * * = 9 : n = * * * & - - - * * = * = = * * * * = = = = * * * * * = * * * = * * * * * * * * * * * * * * * * * * * = * = * * * = ; : X ;     . .   n = * = * * * * X     .        ",
"                       . : 8 & * & 0 :     7 7 7 n n n 7 7 7 7 7 7 7 7 7 n >   : p p p % % % % % % % % p ; = * * * & = * = * = 0 X = * = * = >   .         . .   p = * = * = * .   . .   X = 9   > = * * * * * = * * * * * = * * * = 9 : 7 = * = & 8 . . X - = * * * * * * * * * * * * = = = = = = * = = = = * = * * * * * * * * * * * * * * * * = * = * * * = ; : X ;     . .   n = * = * * * * X     .        ",
"                       . : 8 & * = 0 :   > - & = = = = = = = = = = & = = * 9 % 0 7 X . X . . . . . . X X 8 - = = * * = = * = & p X = * * * = 7   .         . .   p = * = * = * .   . .   X = 9   > = = * * = * = = * * = * * * = - * 9 : 7 = * = 9 X : . . = & - = = = * * = = = = = * * * * * = * * - ; ; * = * * * * * * * * * * * * * * * * * = * = * * * = ; : X ;     . .   n = * = * * * * X     .        ",
"                       . : 8 & * = 0 :   . - = * * * * * * = = = * * * * = = = = & * * = = = = = = * = * * = = * = * = = - 9 % n 7 = * = = * X   .         . .   p = * = * = * .   . .   X = 9   > = = * = = = * * = * * * = = = = = ; k 7 = = = * n : : . = = * = * * * * * * * = = = = = = = * = - 0 7 n 9 * * * * * * * * * * * * * * * * * * = * = * * * = ; : X ;     . .   n = * = * * * * X     .        ",
"                       . : 8 & * = 0 :   . - = * * * * * * * * * * = * * * * * = * * * = = * * * * * = = = * * * * = * * & % : : 7 = * = = 9 :   .         . .   p = * = * = * .   . .   X = 9   7 & * = * % - = * = = * * = * ; * * 9 > 0 = * * & 9 > > 7 - - * * * * = = * * * = = * * * * * * = * * = & & = * * * * * * * * * * * * * * * * * = * = * * * = ; : X ;     . .   n = * = * * * * X     .        ",
"                       . : 8 & * = 8 :   . - = = * * * * * * * * = = * * = * * * * = = * * * * = = = * * * * * * * = * * * % :   > * = * * 9 : . .         . .   p = * = * = * .   . .   X = 9   > * * = p : n = * = = = = = ; X * = = - * & * = * & * & * = = = = = * = * * * * * * * * * * * = * = = * * 9 = * * * * * * * * * * * * * * * * * = * = * * * = ; : X ;     . .   n = * = * * * * X     .        ",
"                       . : 8 & * & 0 : . . * = = * * = = = = = * = = * * = = = = * = = = * * * * * * * * * * * * * - = % X n > 7 0 * * * = 9   . .         . .   p = * = * = * .   . .   X = 9   7 = = = ; X 0 = * * * = * = 9   - * * = * * * * * * * = * * = * * * = = = = = & = & & & = = = = * = ; . . > * * * * * * * * * * * * * * * * * * = * = * * * = ; : X ;     . .   n = * = * * * * X     .        ",
"                       . : 8 & * & 0 :   . * * * * = = * * * - - - - - - - - 9 - * 9 - - - * & = = = = & = = = & = = & % n = * - * = - = = 9     .         . .   p = * = * = * .   . .   X = 9   7 * * * & = = * = = * = * = - X * = * = * * = * = * * * = * = = * * = * 9 p 0 8 0 0 0 8 0 % - = * = ;     X * = * * * * * * * * * * * * * * * * = * = * * * = ; : X ;     . .   n = * = * * * * X     .        ",
"                     .   : 8 = * = 0     X * = * * = = * = 7     . . . . . . . . . .     . > 7 n n n n n n n n n n n 7 > . . . X * = * = = 9 .   .   .   .   . : % = * * * = * X         X = 9   > = * * = * = * = = = * * * & * * * - = * * * = * * * * * * * * * = % = % > > X > > > > > : - = * = 9     > * = = * = * = = * = * * = * * = * = = * = = * = = % : X ;           n = * = * * * = X     .        ",
"                 .   . . : 8 = * = 0 :   . - = = = * * * = > : . . . . . . . . . . .                                     :     . * = * = = 9 .   .   .   .   . : % = * * * = * X     .   X = 9   > = = * * * = - n - = % 7 * * * = & = - - & = * * * * = * * * * = 9 . ; = = & & V & & = - X - = - = = 9 - 9 = * - = = * * * = * = = * = = * * * * = * * * * = ; : X ;   .       n = * = * * * = X     .        ",
"                 .   . . : 8 = * = 0 : . . * = = * = * = = > :                                                                 . * = * * = 9 .   .   .   .   . : % = * = * = * X     .   > = 9   > = = * * * = 9 k n - . . = * * * * %   7 * = = * * * = * * * * = * . 9 & * % ; % % = = -   9 & = * * = & * = * * = * = = * * * * = * = * * = * * = * * = * & ; : X ;   .     : n = * = * * * = X     .        ",
"                 .   . . : 8 = * = 0 : .   * = * * = * * * n X > > > > > > > > > > > > > > > > > > > > > > > > > X X X X X X X > * = * * = 9     .   .   .   . : % = * = * = * X     .   X = 9   > = = * * = = 9 . > ; . > = = * * = 9 : n = * = * * * = * * * * * * . 9 = ;   : k X - * * . 9 = = = * * * * * * = * * & = = = & = & = = * = = = = = = = * * = ; : X ;   .       n = * = * * * = X     .        ",
"                 .   . . : 8 = * = 0 : . . * & * * = * = & * = = = = = = = = = = = = = * * * * * = = = = = = = = = = = = = = = = * = * * = 9     .   .   .   . : % = * = * = * .         X = 9   > = = * * * = 9 : :     . * * = * = 9 : n = - = * * * = * * * * = *   9 = - n n n 0 = * - . 9 * * = = = * * = = * * = p > 7 > > 7 7 7 7 > 7 7 n * * = ; 7 7 n X : X ;           n = * = * * * = X     .        ",
"                 .   . . : 8 = * = 0 : . X - = = & & * * = * = * * * * * * * * * * * * = = * * * * * * * * * * * * * * * * * * * * = * * = 9     .   .   .   . : p = * = * = * .         X = 9   > = = * * * = - > > X > n * & * = = ; : n & * = * * * = * * * * = * . 9 = = * & & * = * - . - & * * * = * * * = * * & 7 k : : : : : k   : : k . = * & % : k : :   X ;           n = * = * * * = X     .        ",
"                 .   . . : 8 = * = 0 : . X 0 p p p * * * = = * * = = = = = = = = = = = = = * * * * * * * * * * * * * * * = = = = = = = * = 9     .   .   .   . : p = * = * = * .         X = 9   7 = = = = * = * * = = - = * * - - & 9   X * = * * * * = * * * * = *   9 = = * * = * * & * . 9 * = * = = = * * * * * = 7 n 0 0 7 7 p 8 0 8 8 8 0 * * = - n 8 8 n : X ;           n = * = * * * = X     .        ",
"                 .   . . : 8 = * = 0         : : . - = * * = * = * * * * * * * * * * * * * * = = * * * * * * * * = * * * = = = * = = = * = 9     .   .   .   . : p = * = * = * .     .   X = 9   > * * = = * = = = * * = * ;   . 7 = * X   9 = * * * * = * * * * * *   ; = * = * = = * = 9   - = * * = - * * = * = = - X ; V - > n = 9 - 9 * V = = = * & * & & ; : X ;   .       n = * = * * * = X     .        ",
"                   .   . : n = * & 0 : .     .   X * * * = * * * * * * * * * * * = * = * = * = = * * * * * * * * * * = * * * = * = * * * * - .     .   .     . : % = * = * = * .     .   X = 9   7 = * * * * - * * * * * & % k : X = * >   - * = = * = * = * = * = * > 9 & - & - = * * = - X 9 = * * * * * * * * * = * . 9 & %   > ;   k k 9 * - - * - = * * = p : X ;   .       n = * = * * * = X     .        ",
"                 .     X   8 = * = 0   .   . . . X = = * = = = = * * * * * * * * = = = = = * * * * * * * * * * * = = = = = = = = * = = = * 9       .   .     . : % = * = * = * X     .   X = 9   7 & & = = & & = & & = = & - 7 n 0 & = X k - = * = * = * = * = * & - * * = = - & = & * = * - = = * * * * * * * * * = * : 9 * n . . 8 7 n n - & X . - & * = * & ; : X ;   .       n = * = * * * = X     .        ",
"                 . .   . : 8 & * = 0   .   .     . * = - * * * * * * * * * * * * * - * * * * * * * * * * * * * * * * * * = * * * * = * = = 9 .     .   .     . : % = * = * = * X     .   X = 9   . 0 0 0 0 0 0 0 0 0 0 0 p p 0 p 0 0 0 X   - = * = * = * = * = * * = - = * ; - 9 9 = * = * = - = * * * * * * * * * * -   9 & 9 : > = * - - = = . : 9 - ; & * = ; : X ;   .       n = * = * * * = X     .        ",
"                   .       8 * * & 8 : .   .     > * = = = & & = & & & & & & & & = = & = = = = & = * * = = * * = = = = * * * * = = = * = = 9     . .   .     . : % = * = * = * X     .   X = 9   :   k k : k k k : : k : k k   :   k : : . 9 = * = * = * = * = * - = = = ; X     > ; = = * = = = * * * * * * * * = - *   - - X : > - X .   9 - X : X : . ; = = % : X ;   .       n = * = * * * = X     .        ",
"                 . .   .     X 8 V 0 : .   . .   . 8 8 8 8 0 8 8 8 8 8 8 8 8 8 8 0 8 0 8 8 0 8 % = * * = = * * = * * = * * = * = * * * = = ;     . .   .     . : % = * = * = * X     .   X = 9   X p % p p 0 p 0 p p p p 0 p 0 . . . 0 X   - & * = * = * = * = * & - ; * * 0 : : : . n - & ; * * * * * * * * * * * & - X ; n > X 7 = . :   ; 7 X >   : . > - = ; : X ;   .       n = * = * * * = X     .        ",
"                   .   . .     n = 0   .     .     .     :   : :                   :   :     : n = * * = = * * = = * & = = & = = = = = = = 9   .   .   .     . : % = * = * = * X     .   X = 9   7 - & * & & & & = & = = & V -     . = 7 : - * * = * = * = * = * * - X ; - 8 8 8 n p * = 9 . - * * * * * * * * * * * - . ; & = * & 9 X   . - & * - > . . X * = ; : X ;   .       n = * = * * * = X     .        ",
"                   .       .   . 8 8   .   . . . . .   .   . . . . . . . . . . . . . . . .   : 8 = * * = = * * = * ; ; 9 ; 9 ; ; 9 9 9 % 9 -       .   .     . : % = * = * = * X     .   X = 9     X . X - = * * * * * * * = 9 > > > - X X = * = = * = * = * = * & -   9 & = = = = * * & -   9 = * * * * * * * * = & > : - = * = * = * * * * = = & - = ; 9 = * ; : X ;   .       n = * = * * * = X     .        ",
"                 .   . .   .       n   .       .             :                     :         : 8 = * * = = * * = 8       :   :         : n 9       .   .     . : % = * = * = * X     .   X = 9     X . > = = - = & = = = * * = * & = ; : n & * * = * = * = * = * * - X 9 - = = = = = * = 9 X 9 * * * * * * * * * * * 7 . 9 = * = * = * * = * * * * = - . 9 = = % : X ;   .       n = * = * * * = X     .        ",
"                 .   .   .   .   . 8     .   .   . % p % % % % % % % % % % % % % % % % % % % % ; = = * * = * * & p : .   . . . .   . . : n -         . .   . .   p = * = * = * .         X = 9   > = * * * = * = - % 9 0   n = * * = ;   7 = = = * ; 9 ; = * * * = - . - = * ; 9 9 ; & * -   9 = * = * * * = * * * * = * * * * = * = = * = 9 * * & 0 .   9 = = % : X ;       .   n = * * = = * * X     .        ",
"                 .   .       .   . n     .   .   > = = & = = = & = = = = = = = = = = = = = = = & * * * * = * * = p : .   .   . .   . . : n -         . .   . .   p = * = * = * .         X = 9   > = * * * = * = 0 : :   k n = = * = ; : n = * = - . k > * = * * * * . ; & 9 : k K > * = * . - = = = * = * * * = = = * * = = * = = * = - 9 7 = * 9 n . X 9 = & % : X ;       .   n = = = * * = = X     .        ",
"                           .   > 0 n :     . .   X * * * * = * * * * * * * * * * * * * * * * * * * * = * * = * & p : .   .         . . : n -         . .   . .   p = * = * = * .         X = 9   > = * * * = * = ; 7 > n 7 p * * * = 9 : n = * = * n 7 p = = = * = * . 9 = - n 7 7 0 * = - . 9 * * = * & = = * = * = = & * * * * * * * 8   X p * & - * * = * = ; : X ;       .   n = * = - * = * X     .        ",
"                   .     . . : 8 & p : .       : . * = = = * * = * * * * * * * * * * = = * * * * = * = * * * * & p : .   .         . . : n -         . .   . .   p = * = * = * .         X = 9   > = * * * = * = = = = = = = = = * = 9 : 7 = * * = = = * * * = = * *   - = = & & & = = = 9   9 & * * ; 9 9 = * * = = 9 9 * = = = = = = 9 7 . : - = * = = = * & ; : X ;       .   n = - = = = * = X     .        ",
"                   .       .   8 & 0 k .   n n 7 8 = = * * * * = * * * * * * * * * * * * * * * * * * = = = * * = p : .   .         . . : n -         . .   . .   p = * = * = * .         X = 9   > = * * * = * = - = * * = = * * * = 9 : n & * * = = * * = * * * = =   ; * 9 - - - - - & - > 9 = = - >   . 9 = = * * > : 9 = - = * * = = - . . 9 * * * - * * = % : X ;       .   n = - = * = * = X     .        ",
"                     . . . 8 9 * = 0   . X * = = * = * * = = = * = = = = = = = = = = = = = = = = * = * * = = = & p : .   .         . . : n -         . .   . .   p = * = * = * .         X = 9   > = * = = = * = = * * * * * = * * & % : 7 & * = * * - * = * * = = 9 > n 7 7 > 7 7 7 8 9 = ; = * * - X : . - = * * = 8 : 9 = - = * * = 9 8 > X > 9 * = * = * & ; : X ;       .   7 = = = ; * = * X     .        ",
"                 .   .   : 8 & * & 0 :     - * * = 9 - = * - - * * * * * * * * * * * * * * * * - 9 & = * = * * = p : .   .   . .   . . : n -         . .   . .   p = * = * = * .         X = 9   > = * = = = * * = * = = * * * * * = ; X > = - = * = = * - * = 9 * = = * - * = = * * * = = * = * = - .     9 = * * = - X 9 * * * * * = & * & * * = = * * * * = % : X ;       .   n & = 9 8 - = * X     .        ",
"                 .   .     8 & - & 8 : . . * * * 9 > . X . X X X . . . . . . . . . . . . . . .   n * = * = * = = p : .   . . . .   . . : n -         . .   . .   p = * = * = * .         X = 9   > = * = = = * * * = = * * = * = = * = ; n = * = = * * = * = 9 .   ; = * & * * * = * = * * = = * = * > > > - * = = = -   9 = = * * = 9 % = - = * * - 9 * = * = ; : X ;       .   7 = ; >   ; * = X     .        ",
"                       . : 8 & * = 0 : . . * * = -                                             : 7 = * * * = * & p : .   .         .     n -     .   .   .   . : p = * * * = * X         X = 9   > = = * = * = * * = * = * = = * = * = 9 7 = = * * = * = - = 9 > > % = = = = = = = - = * = * * * * = * = * = * = * = - . 9 = = * * 9   . * * = * & % . 9 * * & ; : X ;   .       n - :     . 9 = X   .   .      ",
"                       . : 8 & * = 0 : . . * = = -     .                                   . .   7 = * * * = * & p : .   .         .     n -     .   .   .   . : % = * = * = * X         X = 9   7 = * = * = * ; 8 = = * * * * = * * * 9 n * = * = = = * = = = - 9 = = * * * * * = * = * = * = = * = * = * = * = * = - . 9 & * * >   . % & = * = 9 7 : . 9 * = % : X ;   .       n ; . : X 9 & * X   .   .      ",
"                       . : 8 & * = 0 : . . * = = - .   .   . .   . . . . . . . .     . .   . .   7 = * * * = * & p : .   .         .     n -     .   .   .   . : % = * = * = * .         X = 9   > = * - X X > . 7 = = * * * = * = - & -   7 * & * = = 9 * ; = = = = * * = = * = * * = * = 9 - - - = * = * = * = - = * . - * n 7   . . - = - - = * 7 : . 9 = & % : X ;   .       . n X : . - * * X   .   .      ",
"                       . : 8 & * = 0 : . . * = = - .   .   . . .                                 7 = * * * = * & p : .   .         . .   n -     .   .   .   . : % = * = * = * .         X = 9   > = = - .     : 0 * * * * = = * = - = - . > * * = * 9   . X - = * * * * = * * = * = * * 9 X     - = * = * = * = * = -   9 & - - X . 9 - - 7 = = = % . : - * * 9 : X ;   .       n * - > X * = = X   .   .      ",
"                       . : 8 & * = 0 : . . * = = - .   .   . . . . . . . . . . .             .   7 = * * * = * & p : .   .         . .   n -     .   .   .   . : % = * = * = * X         X = 9   > = = = - - * - 9 * * = * * * = * & = * - 9 = = * = * . : . - = = = = = * * * * * * * & - .   X - = * = * = * = = = - > p * 9 7 7 ; n X X . ; 9 9 p 9   ; = & p : X ;           7 = = - - * - = X   .   .      ",
"                       . : 8 & * = 0 : . . * = = - .   .   . . .                 .   . .   . .   7 = * * * = * & p : .   .         .     n -     .   .   .   . : p = * * * = * X         X = 9   > & - - = = = * = = * = * * * & * = * = & = * = = * - >   X - = * = * * * = = = = * * = -   :   - = * = * = * = * * & n k 7 & * = = = 7   . .   9 = = > 9 = = ;   X ;           7 & * * = = = * X   .   .      ",
"                       . : 8 & * = 0 : . . * = = - .   .   . .   . . . . . . . .     . .   . .   7 = * * * = * & p : .   .         .     n -     .   .   .   . : % = * = * = * X         X = 9   > - X   8 * * = * = * = * = = ; 9 = * 9 ; = * * * = * - - - = * * * * * = * * * * * * * 9 7 > > * = * * * = * * = * & n : 7 - 9 ; - 9 % X     % ; - 9 ; ; ; - p   X ;           n = - = = - * = X   .   .      ",
"                       . : 8 & * = 0 : . . * = = - .   .   . .                                   7 = * * * = * & p : .   .         .     n -     .   .   .   . : % = * = * = * .         X = 9   > = .   n = * = * = * & - = 9 : X = = X : 9 = * * = * = = = * = = = = = = * * = = = = * = * & * * = * * * = * * * * = n       : : k   :   : .     k : k . :   :   X ;           7 * = * * * = * X   .   .      ",
"                       . : 8 & * = 0 : . . * * = - . .   .       . . . . . . . .     . .   . .   7 = * * * = * & p : .   .         .     n -   .   .   .     . : p = * * * = * .         X = 9 : > = * * * * = = * = = = - = 9   X = = > : - = * * * * * * * * * * = ; % ; = * * * * * * * * * * = * * * = = * = * = = 0 > 7 7 7 n X 7 7 > 7 > n 7 7 7 7 .   X X   . ;   .   . : n = * = * * * * X     .       .",
"                     . . : 8 & * = 0 : . . * = = - . .   .                           . .   . .   7 = * * * = * & p : .   .         .     n -   .   .   .     . : p = * * * = * .         X = 9   > = = * * * = * * * = = * * 9 X n = * > : - = * * * * * * * * * & 9 > X 8 * = = * * * * * * * * * * = = * * * = * * = * * = * = = & = = & = = - * - = * 7   X %   . ;   .   . : n = * = * * * * X     .       .",
"                     . . : 8 & * = 0 : . . * = = - . .   .       . . . . . . . .     . .   . .   7 = * * * = * & p : .   .         .     n -   .   .   .     . : p = * * * = * .     .   X = 9   7 - = = = * * = = = = - * = & - - = - >   9 * * * * * * * * * * * = - * * & * * * * * * * * * * = * * = * * * * = * * = = = - * * = * = = * 9 >   7 * = X   X ;   . ;   .   . : n = * = * * * * X     .       .",
"                     . . : 8 & * = 0 : . . * = = - . .   .                           . .   . .   7 = * * * = * & p : .   .         .     n -   . . .   .     . : p = * * * = * .     .   X = 9     > . . X X 8 * * * - > X X X X > X >     - = = * * * * * * * * * = = = * * * = * * * * * * * * = * * * * * * * = * = * * = = = = - = * * - > :     n * X : 7 %   . ;   .   . : n = * = * * * * X     .       .",
"                     . . : 8 & * = 0 : . . * = = - . .   .       . . . . . . . .     . .   . .   7 = * * * = * & p : .   .         .     n -   . . .   .     . : p = * * * = * .     .   X = 9   : X . . . k n & * = -   : .       : X     - = * * * * * * * * * = * - * * = * * * * * * * * * * * = = * * * * = * * = * * = = * = * = - & 9 : . . :   * 7   ; 9   . ;   .   . : n = * = * * * * X     .       .",
"                     . . : 8 & * = 0 : . . * = = - . .   .                           . .   . .   7 = * * * = * & p : .   .         .     n -   .   .   .     . : p = * * * = * .     .   X = 9   > 9 - * %   n = * = *   > - - * - - - >   - = * * * * * * * * * * = = = = * * = * * * * * * * * = = % X . X > 9 = * * * = = * * * = = * = - n     . . - 8 : * %   . ;   .   . : n = * = * * * * X     .       .",
"                     . . : 8 & * = 0 : . . * = = - . .   .       . . . . . . . .     . .   . .   7 = * * * = * & p : .   .         .     n -   .   .   .     . : p = * * * = * .         X = 9   > = = = % k n = * * -   X = = * * = = X : - = = * * * * * * * * * * * * * * = = * * * * * * * * * = ;   :     - = * * * * * * = = * = = * = - > .   X * * . * ;   . ;   .   . : n = * = * * * * X     .       .",
"                     . . : 8 & * = 0 : . . * = = - . .   .                           . .   . .   7 = * * * = * & p : .   .         .     n -   .   .   .     . : p = * * * = * .         X = 9 : > = * = ; k 8 & * * - . . = * = * = * X   - * * * * * * * * * * = * * * * = = * * * * * * * * * * & ;       : - * = = = * * = * = * * = = = = * * - - * -   9 ;   . ;   .   . : n = * = * * * * X     .       .",
"                   .   . : 8 = * & 0 :   . - * * *   . . . . . . . . . . . . . . . . . . . .     7 = = * * = * & p   . .       .   . .   n -       .   .     . : p = * * * = * .     .   X = 9   > = - & ;   8 = * * - . X * * = = * = >   - = * = * = * * * 7 X 7 & * * = * * * = = * = * * * = * = ; X . X X 9 * * * * * * * * * * = * = * = * * = * = 9 > 9 ; : X ;     . .   n = * * = * * * X     .       .",
"                   .   . : 8 = * = 0 :   . - = * -                                               > * * = * = * & 0 :               .   : n -   .   .   .     . : p = * * * = * .     .   X = 9   > = = * * - * = * = -   X = = * * * = X   - = * = * = * = - X k > * * * = * = = = = = = = * * = * * = - * = - = * * * * * * * * * * = * = * = * = = * * = - & ; : X ;     . .   n = * * = * * * X     .       .",
"                   .   . : 8 = * = 0 :   . - = * 9 X X . X X . X X X X X X X X X X X X X X X X . 0 * * = * = * = p X X X X X X X X X X X 0 9   .   .   .     . : p = * * * = * .     .   X = 9   > * * - = = = = * = 9 > 7 - = = = = = >   - = * = * = * = * n X 8 * * = * * = = = * * * = = * * = - = = * = = * * * * * * * * * * * = * = * = * * = = * = = & p : X ;     . .   n = * * = * * * X     .       .",
"                   .   . : 8 = * = 0     . - = * V - * * * * * = * * * * * * * * * * * * * * * * - = * = * = * * & - = * * * * = * * * - = -     . .   .     . : p = * * * = * .     .   X = 9   > = & = = - * = = = = - * = = - * * - 7   - = * * * * - * & - - 9 = * = * * = * * * = * * * = = = = = = * * * = * * * * * * * * * * * * * * * * = - * = * * = ; : X ;     . .   n = * * = * * * X     .       .",
"                   .   . : 8 = * = 0     . - = * * - = * = = * = = = = = = = = = = = = = = = = * = = * * * = = = * - = * = * * = * * = * = 9   . . .   .     . : p = * * * = * .   . .   X = 9   7 - 9 ; - = = = * * = = = = 9 > X X >     - = * = = = * * = * = = = * = * = = * * * = * = = = * * * * * = = * * * * * * * * * * * * * * * * * * n . > * = * = % : X ;     . .   n = * * = * * * X     .       .",
"                   .   . : 8 = * = 0     . - = * = = = * = * * * * * * * * * * * * * * * * * * * = * = = * * = * = * = * = * * * = = * * = 9       .   .     . : p = * * * = * .   . .   X = 9       . : n = - * = = * * - * 9             - = * * * = * = * * * * * * = * = = = * = * = - * - = = * * = * = = * * * * * * * * * * = * = * = * * 7 :   * = * = ; : X ;     . .   n = * * = * * * X     .       .",
"                   .   . : 8 = * = 0     . * = * * = * * * = * * * * * * * * * * * * * * * * * * * * = = = * * * = * = * = = = = * = * * = 9 .     .   .     . : p = * * * = * .   . .   X = 9   . : .   n & - = * * * & * = 9             - = = = = = * = * * * * * * = * = * = * = * - > . 7 * * * = = * * = = * * * * * * * * * = * = * = * * n > X ; 9 = & ; : X ;     . .   n = * * = * * * X     .       .",
"                   .   . : 8 = * = 0     . * = * * = * * * * = * = = = = = = = = = * * * = = = = = * * * = * = * * * = * = * * * * = = * * ; .     .   .     . : p = * * * = * .   . .   X = 9   .   .   7 = = = * = * * * & -     .   .   - = * = = = * = * = = = * * = * = * = * = * = > : X = * * = * = = * = * * * * * * * * * = * = * = * * & ;     X - = % : X ;     . .   n = * * = * * * X     .       .",
"                       . : 8 & * = 0     . - = * * * * * * * * * * * * * * * * * * * * * * * * * * = = - = * = * * = - = = = * = * = = * * -   .   .   .     . : p = * * * = * X         X = 9       .   7 = = = = * * = * = -           . - = * = = = = = = = = * = * * * * = * * = = * X : > * * * * * * * * * = = = = = = = = = = = = = = = = = 9 : : . * = %   . ; .   . .   n = * = * * * = X     .        ",
"                       . : 8 & * = 0     . - = * * * * * * * * * * * * * * * * * * * * * * * * * * = ; n * * * * = 9 > > X X X > > > > > 0 9       .   .     . : p = * * * = * X     . . X = 9   .     : n = * * * * * = * & 9   . .       9 = * * * * * * * * * = * * = = = * = * * * & - ; ; & = = = = = = = = * * * * * * * * * * * * * * * * * 9 X X > - = ; k X ;   . .     n = * = * * * = X     .        ",
"                       . : 8 & * = 0     . - = * * * * * * * * * * * * * * * * * * * * * * * * * * & p . * = * * & % k :         .     : n -       .   .     . : p = * * * = * X   . .   X = -   .     . n = * * = = * * * = ; . . . . . X 9 * = * * * * * * * * = * * * * = * * = * = - = = * = = = = = = = = = = = = = = = = = = = = = = = = = * = * = * & = ; : X ; : . .   . n = * = * * * = X     .        ",
"                       . : 8 & * = 0     . - = * * * * * * * * * * * * * * * * * * * * * * * * * = = % . = = = * = ; X X   . .   .   . : n -     . .   .     . : p = * * * = * X       : X = 9             7 X X X X X X > > X :         : > > X X X X X X X X X X > > X 8 = = = * = - > > X X X X X X X X X X X X X X X X X X X X X X X X X X X X X X X . . X .   . ;   .       n = * = * * * = X     .        ",
"                       . : 8 & * = 0     . - = * * * * * * * * * * * * * * * * * * * * * * * * * * = ; X = * = * = = * %   . . .     .   n - :   . .   .     . : p = * * * = * X         X * ; . . . . . : . :             :       . . .   .   :                       : 7 * * = * = - X   :                                                             .   . . . X ;   .     : n = * = * * * = X     .        ",
"                       . : 8 & * = 0     . - = * * * * * * * * * * * * * * * * * * * * * * * * * * = % . = - * = - * & ; : . .   .   .   n - :     .   .     . : p = * * * = * X   .     > * = 9 - - - * - * * * - * * - - * * * - - * - * * * * - - - - - - - - * - - - - = - = * * = 9 - * * - - - - - - - - - - - - - - - - - - - - - - - - - * - * * * - - - 9 - -     .     n = * = * * * = X     .        ",
"                       . : 8 & * = 0     . - = * * * * * * * * * * * * * * * * * * * * * * * * * = = % . = * = = = * = p :             : n -   .   .   .     . : p = * * * = * X   .     > 9 * = * * - * - * * * * * * * * * * * * * * - * - * * * * * * * * * * - * * * - = - = * * = & - * * - * * * * * * * * * * * * * * * * * * * * * * * * * * * * * * * = * = ;           n = * = * * * = X     .        ",
"                       . : 8 & * = 0     . - = * * * * * * * * * * * * * * * * * * * * * * * * * * = % X * * = * - * = 9 > > > > > > 7 . n -       .   .     . : p = * * * = * X   .       > . . . X . X . X X . X . . X X . . X . X X . X . . X X X X X X X X X X > . . n = = * * = * ; . X . X X X X X X X X X X X X X X X X X X X X X X X X X . . X X . X . X . . X   . .     n = * = * * * = X     .        ",
"                       . : 8 & * = 0     . * = * * * * * * * * * * * * * * * * * * * * * * * * * * = % . = * = % n & * * = = = = = * = 9 n -   .     . .   .     p = = * * = * X                                                                                     . : > & * * = = = ; :                                                                               . .     n = * = * * = * X     . .      ",
"                       . : 8 & * = 0     . * = * * * * * * * * * * * * * * * * * * * * * * * * * * = % . = * = % n & * * * = * = = * = 9 n -   .     . .   . .   p & * * * = - .       . .                                       . . . . . . . . . . . . . . . .     . : 7 & * = * * = ;   . .                                                                           . .     n = * = - * = = X     . .      ",
"                       . : 8 & * = 0     . * = * * * * * * * * * * * * * * * * * * * * * * * * * * = % . = * = % n & * * * * * * = * = 9 n -         . .   . .   p & * * * = * X                 . . . . . . . . . . . . . . . .                                 . . . : 7 = * * = * = 9     . . . . . . . . . . . . . . . . . . . . . . . . . . . . . . . . . . . . . . . .     7 = * * p ; - * .     . .      ",
"                       . : 8 & * = 0     . * = * * * * * * * * * * * * * * * * * * * * * * * * * * = % . = * = % 8 & * * * * * * = * = 9 n -         . .   . .   p & * = * = * .                                                                                 .       7 = = = * * = ;   :                                                                                 : : n = = * X .   . .     . .      ",
"                       . : 8 & * = 0     . * = * * * * * * * * * * * * * * * * * * * * * * * * * * = % . = * = % 8 & * = * = * * * * = 9 n -     .   . .   . .   p = 9 - * = - > X X X X X X X X X X X X X X X X X X X X X X X X X X X X X X X X X X X X X X X X X X X X 8 * * * = * * ; > X > X X X X X X X X X X X X X X X X X X X X X X X X X X X X X X X X X > > > > > > X X 0 * = & >     . .       .     .",
"                       . : 8 & * = 0     . * = * * * * * * * * * * * * * * * * * * * * * * * * * * = % . = * = % 8 & * = * = * * * * = 9 n -     .   .     . .   % 9 > : 7 * = = * * * * * * * * * * * * * * * * * * * * * * * * * * * * * * * * * * * * * * * * * * = * - = = = * * = * - * = * * * * * * * * * * * * * * * * * * * * * * * * * * * * * * * * * * * * * * * * * * = * = >     .   .     .     .",
"                       . : 8 & * = 0     . * = * * * * * * * * * * * * * * * * * * * * * * * * * * = % . = * = % 8 & * * * = * * * * = 9 n -     .   .     . .   . >   : 8 & * = * * * * * * * * = = = = = = = = = = = = = = = = * * * * * * * * * * * * * * * * = * = = * * * * = = = * = = = * = = = = = = = = = = = = = = = = = = = = = = = = = = = = = = = = = = = = = = = = = * * = >   .     .     .     .",
"                       . : 8 & * = 0     . * = * * * * * * * * * * * * * * * * * * * * * * * * * * = % . = * = % n & * * * * * * * * = 9 n -     .   .     . .       .   7 = * = * = = = = = = * * * * * * * * * * * * * * * * * * * * * * * * * * * * * * * * * = * * = = * * * * * * * = * * * * * * * * * * * * * * * * * * * * * * * * * * * * * * * * * * * * * * * * * * * = * = = > : . .   .     .     .",
"                   .   . : 8 = * = 0     . * = * * * * * * * * * * * * * * * * * * * * * * * * * * = % X = * = ; n = * = * * * = * * = 9 n -     .     . . .     0 - . X - = * = * * * * * * * * = = = = = = = = = = = = = = = = = = = = = = = = * * * * * * * * * * = = = * = * = * = = = * = = * = = = = * = = = = = = = = = = = = = = = = = = = * = = = = * = * = * = = * = * = = * = 7     .                ",
"                   .   . : 8 = * = 0     . * = * * * * * * * * * * * * * * * * * * * * * * * * * * = % X = * = ; 8 & * = * * * = = * = 9 n -     .     . .       p & ; 9 = * * * = = = = = = = = * * * * * * * * * * * * * * * * * * * * * * * * = = = = = = = = = * * * * * * * = * = * * - * * = = * * * * = * m m m m m m m m * * * * * * * * * * * - * = * * * * * * * * * * - * * = > :   .                ",
"                   .   . : 8 = * = 0     . * = * * * * * * * * * * * * * * * * * * * * * * * * * * = % X = * = ; 8 & * * * * * = * * = 9 n -   .       . .       % = = & = * = * * * * * * * * * = = = = = = = = = = = = = = = = * * * * * * * * * * * * * * * * = = = = * = = * = = = * & * * = = = = = = = = = m m m m m m m m * * * * * * * * = = & = = = * = = = = = = = = = = = = * >   . .                ",
"                   .   . : 8 = * = 0     . * = * * * * * * * * * * * * * * * * * * * * * * * * * * = % X = * = ; 8 & * * * * * = = = = 9 n -   .                 . > X > X > > X > > > > > > > > X X X X X X X X X X X X X X X X > > > > > > > > > > > > > > > > X > > X > 9 = - * * = * * 0 > > X X X X X X X X , , , , , , , , X X X X X X X X X X X > > X X X X X > X X > X X > X X 7     .                  ",
"                   .   . : 8 = * = 0     . * = * * * * * * * * * * * * * * * * * * * * * * * * * * = % X = * = ; 8 & * = = = * = * * = 9 n -                             :     :                                                                                 :     :   9 & * * * = = = 7 :                                                             :           : :       :   : . . . .                  ",
"                   .   . : 8 = * = 0     . * = * * * * * * * * * * * * * * * * * * * * * * * * * * = % X = * = ; n = * * * * * * * * = 9 n -                       . . .   . . . . . . . . . . . . . . . . . . . . . . . . . . . . . . . . . . . . . . . . . . .   .   . . 9 = * = * * * = 7   . X . .   . . .   . . . . . . . . . . . . . . . . . . . . . . .     . . . . . .   . X .       . .                ",
"                   .   . : 8 = * = 0     . * = * * * * * * * * * * * * * * * * * * * * * * * * * * = % X = * = ; 0 & = = = = = = = = = 9 8 -                   . . .       .   .                                                                                 . .   .   9 = = = * = * = 7 :         : : : :                                     : k   .     :   . :     : .   : :   : :     :                ",
"                   .   . : 8 = * = 0     . * = * * * * * * * * * * * * * * * * * * * * * * * * * * = % X = * = ; > - ; 9 9 9 ; 9 9 9 9 % n -                   .   .   .   .   . . . . . . . . . . . . . . . . . . . . . . . . . . . . . . . . . . . . . . . . .       . : - = - = * = * = n     : X 0 p p p 0 p p p p p p p p p p p p p p p p p p p p p 7   7 % p 0 X     X 0 p % 0 p p p p 8 X                ",
"                 . :   .   8 = * = 0 : . X - = * * * * * * * * * * * * * * * * * * * * * * * * * * = % . = = = 9 . . . . . .   . . .   . n *           .       . .                                                                                 .     . .       .       9 = * * = = * = n : .   . * = = & & & & & = = & & & & = & = & = & = & = & = V % k 0 & = = X   . X = & = = & & = & * .                ",
"                 .   .   : 8 * * & 0   . . * = * * * * * * * * * * * * * * * * * * * * * * * * * * = % X = * * * * * - - - = * * * * * ; 8 - : .   .   .   . . . . . . . . . . . . . . . . . . . . . . . . . . . . . . . . . . .                       .     . .   .       9 = * * = = * = n : .   . * = * * * * * = * = * * * * - * * = * = * * * = - = p k 7 - = * . : : . - = * * * * * = -                  ",
"                   . . .   8 p 8 & 0 :     - * * * * * * * * * * * * * * * * * * * * * * * * * * = = % > & = = & = & = & = = = = = = = 9 8 -   . . .   . . .   .                                                                                       .     .     .       9 = * * = = * = n : .   . - = * * * * = = * * * * = * = = = = * = * * = = * = p : X * * * 0 8 8 0 * * * * = * * = - .                ",
"                   .       8 n n = 0   . X * = = * * * * * * * * * * * * * * * * * * * * * * * * * = p . % ; % ; ; ; ; ; ; * * * * * = 9 n -     . .     .     X 7 7 7 > 7 7 7 7 7 7 7 7 7 7 7 7 7 7 7 7 7 7 7 7 7 7 7 7 7 7 7 7 7 7 7 7 7 7 7 7 7 .     7 X   :   .       9 = * * = = * = n : .   . - = * = = = = = * = * = = * * * * * - * * = * = * & p   X = * & = = = = = * * * * * * = - .                ",
"                   . . .   X   . p 0 :   . - = * * * * * * * * * * * * * * * * * * * * * * * * * * V ; : .   :   :     : > = = * * = & 9 7 9   .   . .   .   . n & & = = = = = = = = = = = = = = = = = = = = = = = = = = = = = = = = = = = = = = * X     - 8   .   .       9 = * * = = * = n : .   . * = * = * * * = = = * = = = = = & = = = * * * = * = p : . - * * * * * * = * * * * * * * -                  ",
"                 . .   .   .     7 p   . . * & * * * * * * * * * * * * * * * * * * * * * * * * * * = %                 : > - * * * * - % 8 -   :   . . : . : : n * * * * * * * * * * * * * * * * * * * * * * * * * * * * * * * * * * * * * * * * * .     - n :     .       9 = * * = = * = n : .   . * = * * * * * = = = * = ; % % % ; % - = * = = = * = 0 : 7 = * * = = * * = * = = = * * = - .                ",
"                     . .       k 8 0 :   . - = * * * * * * * * * * * * * * * * * * * * * * * * * = = % > X > X > > > > > X 7 7 n 7 > > 7 0 - .       . . 0 p 8 ; = = = = = = = = = = = = = = = = = = = = = = = = = = = = = = = = * * * * * * * * - . X 0 * n   .   .       9 = * * = = * = n : .   . - = * = * * * * * * * - X : : :     0 * * = * * * & p : 0 & = = = & = * = * * * * * * = -                  ",
"                 .   .   . 7 ; ; - 0 : . . * * = * * * * * * * * * * * * * * * * * * * * * * * * * = = * = = * = = = * & = * * * * * = * * -   . .     X - V * & * * * * * * * * * * * * * * * * * * * * * * * * * * * * * * * * * * * * * * * * *   . = & 7 : .   .       9 = * * = = * = n : .   . * = * = * * = * = * = = X   . .     % & * * * * * & p k n % % % p % % % * * * * * * * = - .                ",
"                     . .   8 & * = 0     . * = * * * * * * * * * * * * * * * * * * * * * * * * * * * * * * * * * * * * * * * * * * * = * = 9     .   .   9 * * * * * = * * = * * * = = = * * * * = * = * * = * = = * = * = = * = * * = * * * * = * % p - & n   .   .       - = * * * * * = n : .   . - = * * * * = * = = = * >       . : % = * * * * * & p : : :     : : k   - = * = * * * = -                  ",
"                       .   8 & * = 0     . * = * * * * * * * * * * * * * * * * * * * * * * * * * = = = = = = = = = = = = = = = = * = * * = 9         .   - = = = = = = = * * * = * * * * * * * * * * * * * = * = * * * = * * * * * * * * * * * * = = = = = 7   .   .       - = * * * * * = 7 : .   . - = * * * * * * = * * * X       . : % = * * * * * * p X X . . . > n 8 0 = * - * * * - * - .                ",
"                       . : 8 & * = 0     . * = * * * * * * * * * * * * * * * * * * * * * * * * * * * * * * * * * * * * * * * * * * * * * = 9 .   .       - = * * * = * = * = = = = = = = = = = = V = = & & = = & = = = & * = = * * * * * * * * * * = = * * 7       .       - = * = = = = = n : .   . - = * * * * * * * - = * X       . : % = * * * * = = * - * * * * = & = * & * = * = * * = -                  ",
"                       . : 8 & * = 0     . * = * = = = = = = = = * * * * * * * * * * * * * * * * = = = = = = = = = = = = = = = = * * * * * ; > X X . . X 9 * * * * * * & - - 9 p p p p p p p p 0 0 0 p p 0 0 0 p p p p p p - 9 * = * * * = = * * = * * * = n       .     . - = * * = = * = n       . - = * * * * * * = * & = X       . : % = * * * = = * * = = = = * = = = * = * = = = * = & - X                ",
"                       . : 8 & * = 0     . * = * = = = = = = = = * * * * * * * * * * * * * * * * * * * * * * * * * * * * * * * * * = * = = = 9 - * * = - = = = = = = = * n     K k k k : : k k k k : k k :   : k k k k k : . . % = * * * = = * * = = * = = 7   .   .     . - = * * * = * = n   .   . - = * * * * * = = * * * X       . : % = * * = = = * * = * * * * = * * * * = * = - n n n 7                  ",
"                       . : 8 & * = 0     . * = * * * * * * * * * * * * * * * * * * * * * * * * * = = = = = = = = = = = = = = = = * = * * * = * = = * & = * * = = * * * = n k > p 0 0 0 0 0 0 p p p 0 0 p 0 7 n p p 0 p 0 8   : - * * * * * * * * * * * * = 7   .   .       - = * = * = = = 7   .   . - = * * * * * * = * * = >       . : % = * * * * * * * * * = = * = * = = * * * = - . :     .                ",
"                       .   8 & * = 0     . * = * * * * * * * * * * * * * * * * * * * * * * * * * * * * * * * * * * * * * * * * * * = * = * * * * * * * * * = * * = * = = p k 8 & = = = = = = = & = & & V ;   > * = = & & - . . = * * * * * * * * = = * * = n       .       - = * * * * * * n       . - = * * * * * * = = * = > :     . : % = * * * * * = * * = * = * * * = * * * * * * X . .                    ",
"                   . . .   8 & * = 0     . * = * * * * * * * * * * * * * * * * * * * * * * * * * = = = = = = = = = = = = = = = = = = * = * * * * * * = * * * * = * * * = 9 : n * * * * * - - - * * = * * ; X X ; - * * * -   > = * * = = * * * = * * * * = n   .   .       - = * = = = - & % 7     . - = * * * * = * * % 8 0 . .     . : % = * * = = * = * * = * = * = * = * = = = * * .   . . .                ",
"                       . : 8 & * & 8     . * = * = * * * * * * * = * * = * = * = * * * * = ; > 7 > > > > > > > > > > > > > > > > > 7 = = & = & = & = = * = = * * * = * & % k 8 = * * = % k : 0 & * * = = * = =     = = & 9   > = * = = = * * = * = * * = = n   . . . X     p & * = * = * = ; X     . - = * = * * * = & 7 :   : .     .   p = * = = * * * * * * * * * = * * * = * * = * X     .                  ",
"                       . : 8 & * & 8   . X - = = = = = = = = = = * = = = - = * * = * * = = p :                                     . n 8 n 8 8 8 % % - = = * * = * = = & % : 8 = * * = 9 > > p = * * * * = * - n > * * = -   X * = * - * = * = = * * = * * n : :       :   0 * = = * = * = 0   .   . - = * = * = = * & n   X . : .   . : p = * * * * * = = * = * = = * * = * * = = = * .   .                    ",
"                       . : 8 & * = 0 : . : > > > X > > > > > > > > > > > 7 - = = = * = = = % : .                 . . . . . . . . . . : : k : : k k : 0 * = * = * = = * = % : n & = * = = * = * * = = = = & * = = * = * * - . X * - = * * * * = * = * = * & - 9 9 9 ; 9 9 ; - = = = * = * = n k > - ; * * * = * * * * = n k :     .   .   % = * = = = * * % > > X > > > 7 7 X 8 = * * * .   .                    ",
"                       . : 8 & * & 0 : .   .                             . - = * = * = * * % : .                                   . 7 7 7 7 7 7 7 7 p * = * = * * = = & ; : 7 & * * * * = = * * * * = * - * = * = = * * -   > & = & = = * * = * = * = * = * = = & = = & = * * * * = = = & n : 8 & * & = = * * * = * = p n n X     . .   p = - * - = * = p k   .       :   k n * = = * 7 > 7 7 .                ",
"                       . : 8 & * = 0 k :                 . .     .       . * & - * * = * = %   .                                 : > * & & = = = & * * = = * * * * = * - 0 : 7 = * = * * = * * = * * = p X n * * * = = = - : . 0 0 8 0 9 = * * * = * = = = * = * * * * * * * = = * * * * = 7 k 7 = = = * * * * * - = - 0 p p X   .       ; & = = * = * = p k 8 - 9 9 ; . . . 9 = * = & = = = - .                ",
"                       . : 8 & * * % 7 n n 7 7 7 n > X . . . .   . . . .   ; & = = = * * = p   . . . . . . . . . . . . . . . . . . X - - = * = * * * * * = * * * = * % 8 7 > p = * * * * = * * * = = & 0 : X * = = = - * - 7 > 7 > > n 9 = = * * = * * = * * = = = = = = * * * * = * * * = p 7 p = * - * & = & & = & % : :   : . .       0 ; % ; * * * & p k 0 & * = 9 : : . * = * * * = = = *                  ",
"                       . : 8 & * * * = & = = = = = * - 9 9 - - - 9 - * ;   > 8 8 p * = = & * 9 - - - - - - - - - - - - - - - - - - 9 = * * = = * * = * * = * * = * = = = & & = * * = = = * - = * 9 9 9 - - - & * = = = = & * = & = & = = * * = * * * * = = * * * = = = * * = = = = * = * = * * & * = = & - 8 0 8 8 0 n   . .     . . . :     : . = = * = p : 0 & = = 9 0 p p * * * = * * * * - .                ",
"                       . : 8 & * = * = * * * * - * * = = = = = = = = * -       : . - = * * * = & = = = = = = = = = = = = = = = = = = * = * = * = = * * = = * * = * = * * * * = = = * * * = = = %       8 & * * = * * * * * = * * * * * = = * * * = = = = * * * * * * * = * * * * * * = * * * = * = - ; ; 8 : : : : k :     :         .   . .   > = * * = p : n ; % = * = & = = * = = = * * = - .                ",
"                 .     . : 8 & * * * * * * * * * = * * * * = * * * * = 9 : : .   . * = * = * = * * * = * * * * = * * * * * * * * * = = * = * * = * * * * * * * * * * = * * = * = * * = * * = * % :     0 9 X = * * * * = * = * * * * * * * = * * * * = * = * = * = = = = = = = = = * * * & * * * * V 7 K :   > 7 > > 7 > > 7 . . .   .       : . * * * & p : . K . = * * = * * = = * * * * = - .                ",
"                 .     . . n = * * * * * * * * * * = = * * * * = * * * - n 8 8 n 0 * * * = * * * = = = * * = * * * * * * * * * * * = * * * = * * * * * * * * * * & * * * * * * * * & * * & ; 7 8 - - 8 8 p > - = * = = * * * * = - = = = = = = * = * = * & - - * - - * * * * * * 9 * = * = * = = * * % n n   n 9 & = = & & * >   .       > 8 n 8 = - - & p : 7 0 % = * * = = = * = * * * * = - .                ",
"                     .   :   ; = * * * * = = = = * * = = = = = = * = * = = & = = = & * * = * = = * = * * = = = = * * * * * * * * * = * = * = * * * * * * * * * * = * * = = = = = * = * * & * 9 = * V ;   . : n V * * = * * = & = & & * = = * = = = * * * * n . . . . . . . . . . . p * * = * = * * = V = % : : p & * - * = * X         . % & & V & = & V p : 8 9 ; 9 = = * * = * = * * * * = - .                ",
"                 .   .   . : p = * * * * * * * * * * * * = = * * * = * * = = - * = * * * * = * * * = * = = * * * * * * * * * * * - = * = * = = = * * * * * * * * - & = 9 * 9 - = = * = = * = & * * * = 8   . . 7 * - * = = - 9 0 0 0 0 - = * = * = * * = = n :                   : p = * * * = * * * - = 9 0 : 0 = = * * = = X .   .     n p p 0 p p 0 p n : . : : . 9 = * * = = = * * * * = - .                ",
"                 .       X   p V * * * * = = = = = * * * * * * * * = * * * * * = = * * * * = * * = = = = = * * = * * * * * * * * * = = = * = * = * * * * * * * * = = p X .   8 & * * * * = * * * = - & 0 : . : > & = = = ; X . > > > 7 9 = * = * = * * * = n   .       . . . . .   p & * * * = = = = * * = & 8 p = = = * * = X : . . .   :   : :     : :     > 7 7 7 - = = = * * = * * * * = - .                ",
"                 . . .   . : n 9 - - - - - - - - - * = = = = = = = = = = = = = = * = = = * * = = * * = * * = = & = = = = = = = = = & = * = = * = * * * * * * * * * = * - 0 : n * = = * * = = * = * = = - * ; . > * * * = 9 : X & = = * = = * = * * * = * = n :                   : p = * = * * * = * & - * = = * 9 9 - = * = >       . .   . . . . . . .   : 0 & = * & * * = = = = * * * * = - .                ",
"                       . .     . . . . . . . . . . X 7 n 7 7 7 7 7 7 7 7 7 n n 7 n ; = = = * * = * * = p 7 n 7 7 7 7 7 7 7 7 7 7 7 7 7 8 * * * = * * * * * * * * = * = & % : n = * * = = * = = * * * = = ; 7   X & * - * *   X = * = = * * * = * = * = * = n   .           . . .   p = * * * * = = - = * = * = % 7 X n & * * X : .                     . . : 8 & * * * * * * * * = * * * * = - .                ",
"                 . .   .     .                                   :     : :     : k % = = * * = * * = & 8 k : : : : : : : : : : :   : : X * = * = * * * * * * * * * = * = ; : n & = = = * = * * = * * * & % : : > = * = = - : 7 * * * * * = = * * = * = * = 7             . . . . : p = * * * * = * = * = * * = - - 7 > = = * >     .     . .       . .       0 & = = * & = = = * = * * * * = - .                ",
"   .   . .   . . .   . . . . . . . .   I . .   . .   .   X   . . . . . . . . . .   ; = * * = * * * = * - 9 ; - 9 9 ; ; ; ; 9 ; ; 9 ;   X = * = * * * = * = = = * * * = = % : X 7 > 7 X 8 = * * * * * = * - 9 ; ; = = - & - : X = * * * * * * * * * = * * & 7   . .             . : p & = = * = * = * * = * = * % > n p = * * X   .   .   .   .   .     . . . X > 7 7 > 7 7 > 8 & * * = * * = - .                ",
"   .   . .   .   :     : : : : :                         :   :                   k p = = * * * = * * = = = & - ; 9 = & = = = = = = - . > = * = * = * * * = * * * = * * = %   . :     : 7 * = = = * = = & = = = & * = = * ; . > = * * * * * * * * * * * * = 7   . . .         . .   p = * * * = = * = = = * * = = & = * = * * X . .   .   .   .         .           : :     : 7 * * * = * * = - .                ",
"   .   . .   .   > 8 0 8 8 8 8 0 8 8 8 8 U 8 8 8 8 8 8 n n 8 8 8 8 8 8 8 8 8 8 8 8 9 = = * * * * = * = * * * 7 : > - * * = * * * = - . X * * = = = = = * * * = = = * * = 0   . . . .   . 7 > > > > > > > > > > > > X > > 7 . X - * * * * * * * * = * = * = 7                       p = * = = * * = * - 9 * & * * * * * = * = X   .   .   .   .         . .       . .   . .   n & * * = * * = - .                ",
" . .   .     . : p = = = = & = = = = = & = = & & & & = = & = & = & & & = = = = = = = * * * = = * = * * * = & > : . * = * = * = * * 9   X * = = * * = = - * = = * * = * * 7 k : .   . . .   : :                   : :     . k : ; * * * * * * * * = * * * = 7   . . . . . . . . . : p = * * * * * = ; 7 > 0 - * = * * = = * = X   . . .   .       . .   . . . . . . . . .   : 7 = * * = * * = - .                ",
" . .   .     . : 8 = = * * = * * * * * = = * * * * = * = * % - = * * * * * * * * = * * = * * = = = * * * * = X : X * * - = * = * = - . X = = = * * * = * = = * = * = * & % 0 % ; 9 9 9 9 9 9 - - 9 9 9 9 - - - 9 9 - 9 9 ; 0 8 - * * * * * * * * * * * = & n   .                 : % & * * * * * * = * = = = * * * * * * * * X   . .   .         . .                 . . .   7 = * * = * * = - .                ",
" . .   .     . : 0 & * * * * * * Y = * q = * * q = % = % * 7 - * = q q q q q q q * * * = * * * * * * = = * * 8 7 n * * * = * = * = - . X * * = * = * = % 9 = * = * = - & - 9 & & & = = = = & = = = = = = = = = = * & * = & & = = * * * * * * * * * * * * * n   . . . . . . . . .   p * * * * = * * & = & = & & & = & = & & = >   . .   .   .                           .     7 = * * = * * = - .                ",
"       .     . : 0 & * * * * = * ; 9 T ; R q * = 9   % . ; 7 * * * * * * * * * * = = * = * = = * * * * * * = * = * = = * * * = = = -   X * * = = * * = 7 8 = * * * = - = p 0 = * * = * * * * * * * * * * * = = * * = * * - * * * * * * * * * * * = = * * = 9 9 - - - - - - - - - 9 * & * = * = = = * 0 0 0 0 8 8 8 0 8 0 0 0 .     .   .   .             . . .   . .       : 7 = * * = * * = - .                ",
"     . .     . : 0 & * = * * * - . E W 0 9 = * * - X ; n . . p = * * * * * * q q * = = * * = = & = = & & & = & = & * * = * * * * = - . X * * = = = * = 7 8 & * = * = = & p 8 & * * = * * * = * = = = = * * * * * = * * = * = * = * * * * * * * * * * = * = * & * = = = = = = = = & * * * = * = * = - . : : : :   :   : : :   : .   .   .   .                 .         . .   7 = * * = * * = - .                ",
"   .   .     . : 0 & * * * * = 9   n 8 0 - = * = 9 X - =     : 9 = * * * * = * = = * * * = 9 8 0 8 8 8 0 0 0 8 0 n p & * * * = * * -   X = * * * = = = > 0 = * * * = * = p 8 = * * * * * * * * * * * * * * * * * * * * * * * * * * * * * * * * * = * * = = * * = * * * = = * * * * = * * = * = * = - X     . . .     . . . .     . .     . .   . . . . . . . . . . .   . .   7 = * * = * * = - .                ",
"   .   .     . : 0 & * = = * = - 7 n 7 n 9 = * = -   - * 8 n . 9 = = = * = = = * * = * * & 0 k :     : : K k : k k 7 * * = * = * = -   X = * * * * * & > 0 & * = = = * & % 8 = = = = = = = = = = = = = = = = = = = = = = = = = = = = = = = = = = = * * * * * * * * * * * * = = = = = = = = * = * = - .   . . .   . . . . . . . . :         : : : : : : : : : : : :   : : : k 7 * * * = * * = - .                ",
"   .   .     . : 0 & * * = - * * & & * - = = - = - : 9 & = * p 8 8 9 * * * = * = * * * * = - 0 0 . : X p % % p % p % = * * * * * = -   X * * * * = * & > 0 = * = * * * & % 8 & * = = = = = = = = = = = = = = = = = = = = = = = = = = = = = = = = * * * = = = = = = = = = * = = * * * * * = * = * = - X . .   . .                 8 p % p p p p % p p p p p p p p % % p p p 0 ; = * * = * * = - .                ",
" . .   .     . : 8 & * * = = & * * = & & & = = V * 0 - * = = * X   ; & = * * * = = * = * * * & = 9 ; 9 = = & = = & * = * = = * * = -   X * * * * * - * > 0 = - = * = * = p 8 & * * * * * * * * * * * * * * * * * * * * * * * * * * * * * * * * * * * * * * * * * * * * * * * * * = = * - = * * * * - .     . 0 9 9 9 9 9 9 9 9 9 - = & = = = = = = = = = = = = = = = = = & = = = * = = * * = - .                ",
" . .   .     . : 0 = * * * = * 0 n n n n n 8 n n n - & * * * * 7   - = * = = = * = * = * = * = * * & = * * * - = * - = = = * = * = -   X * * = = 0 . >   0 = * = * = * & % 0 & & & & & & & & & & & & & & & & & & & & & & & & & & & & & & & & & & & & & = = & & & & = = & & = = = = - = * * * * * = * X       ; & = = = = = = = = * = = * * = * * * * * * * * * * * * * * * * * - * = = * * = - .                ",
"   .   .     . : 0 = * = * = 9 > k : : k k : : : k 7 * = * = * >   - * - = = = * = = = * * = * n X 9 & 9 n > 8 * = * = * * * * * = -   X = * = = ; : :   0 = = * = = * = p > 0 8 8 8 8 8 8 8 8 8 8 8 8 8 8 8 8 8 8 8 8 8 8 8 8 8 8 8 8 8 8 8 8 8 8 0 0 0 0 0 8 8 8 8 0 % ; 9 9 - 7 > 9 = * * = * * - .   .   % = * * * * * * * * * = * * * = = * * * * * * * * * = = = = * = = * * * = * * = - .                ",
"   .   .     . : 0 = * = = = = % ; ; 9 ; ; ; ; 9 p . - = * = & >   - = * = * = * * * = * * * = >   ; = * - = * * = * * * = = = * = -   X = * * * = 8 . : 0 = * * * * * = - p % % % % % % % % % % % % % % % % % % % % % % % % % % % % % % % % % % p % % % % p 8 n 7 > > 7 n n n 7 X . ; = * = = * = * .   .   % = * * = = = = * * * = * * * * * * * * * * * * * * * * * = = = = * * * = * * = - .                ",
"   .   .     . : 0 & * * - 9 = = = - 9 9 * & = = - . 9 = = - = X   9 * * = * = * = = * * & * = - - * * = = = * = = = = = * * = * = - . X = * * * * * 8 k p & * = * = * * = = = = = = = = = = = = = = = = = = = = = = = = = = = = = = = = = = = = = = = = & & & = = & = = = & = = = 9 = * = = - = = *     . : % = * * * * * * * * * * * = = = = = * * * * * * * * * * * = * * * = * * = * * = - .                ",
"   .   .     . : 0 = = *     * = * X n 8 9 * * = - . - = * * * >   - = * = * = * = * = * = * * = = - * = * * = * * * = * = * * * = -   X = * * * * = * X 0 & * * = * * * * * * * * * * * * * * * * * * * * * * * * * * * * * * * * * * * * * * * * * * * * * * * * * * * * * * * * * = = * = * * = * .   .   % = * * * = = = & = = ; > 7 n > 7 n 7 0 - = = * * = = = = = * * * * * * * * - = - .                ",
"   .   .     . : 8 = * - 7 7 - * - n % ; * = * = - . - * = * = X   - = - * * = * = * = * = = = * * = & ; . . ; & = = * * = = = * = -   X = * * * = = = > 0 & * = * * = = = * = & = = = = = = = = = = = = = = = = = = = = = = = = = = = = = = = = = = = = = = = = = = = = = = = = * V = * = = = - = * .   .   % = * = = = ; n 8 8 X   : n 9 * - 9 9 - = = * = * = = = = * * * * * * = = = * = - .                ",
"   .   .     . : 0 & * = = * = * * 8 n n 9 * = * -   9 & * - = >   - & * = = = = * * = * * * = * * * = * ; ; - 9 9 = = * = - = * = -   X = * * * * - = 7 8 * - * * * * - % n > > 7 7 7 7 7 7 7 7 7 7 7 7 7 7 7 7 > > > > > > > > 7 7 7 7 7 7 7 7 7 7 7 7 7 7 7 7 > > > > > > > > n ; * = * * = * = * .   .   % = - * * = 0 : :     X % * = = = = = = = * * = * * = = = * * * * * * = - * * * ; X                ",
" . .   .     . : 0 & * * * * = = & = V & & = = & - 7 9 = = = 9 X : 9 = * = * * * * * * * * * = = & = * * & * p > 8 9 = = = * = * = -   X = * * * = * & 7   X . . X . . X .   :                                                                                   : : : : : : : : : . ; = * = * * = * X   .   % = * = * & p :   . : X - & * * * = * * * * * * * * = = * * * * * * = ; . . . . X                  ",
" . .   .     . : 0 & * * * * = % p p p p % p p p 0 * & - * * X   > 9 * * = * * = * = * = = * - - 9 * - 9 - - - * 9 * & * * = * * = -   X = * * * * * & 7 :                 . . .                                 . . . . . . . .                                 . . . . . . . .   X 9 = * = * * = * X   .   % = = = - & p   . . . . - = * = = = * = * * * * = = * * * * * * * * & 9   .                        ",
"   .   .     . : 0 & * = = = - . k k k k : k k : k 0 * * * *   X - = = * = * * * = * * * * p         .   :   . .   n * * = = * * = -   X = * * * = * = 7 : . .     . . .   .                                                                                     . . . . . . . . . 9 = * * * = * = * .   .   % = * * - = p : .       - = - * * = = = * = = = = * * * * * * * * * * 9       . . .                ",
"   .   .     . : 8 = * - * * = % 0 0 0 0 0 0 0 0 8 . 9 & * - 7 X * * * * * * = * = * = * & % k X > X X > > X X . . n * = * * * * = -   X = * * * = * = 7   . .               . . . . . . . . . . . . . . . . . . . . . . . . . . . . . . . . . . . . . . . . . .                 X = = * = = = - = - .   .   % = * = = & p   . .   . * = * = * * * * * = = * = * * * * * * * * * = -   .   .                    ",
"   .   .     . : 0 = = * = * * = & & & & = & = & *   - & * = * * * = = = * * = * = * = * & - X ; = = * * * * * = * * = * * * & * = -   X = * * * * * & n     .   .     . .                                                                                                       . 9 & = * * * = = - .       % = * * * = 0   . .   . - = * * * * * = * = * * * * * * * * * * * * = 9 : .       .                ",
" . .         .   0 = * * * * = = * ; - ; * * * = - I - * * = * = * * * * * * * * = = * 9 - * . 9 = * * - X X X X 9 = * * = * * * = * . X * & 7   0 & = n     .     .   .   .   .   .   .   .   .   .   .   .   .   .   .   .   .   .   .   .   .   .   .   .   .   .   .   .     . * = - = * = * = * Q !     7 = m ~ ^ / ( $ ) _   . * * * = * = * * * * * * * * * = * * X X . 7 = -     . . .                  ",
" . .   .     . : 0 = = = = * * * * X . X ; & = * * I - & * * * * = = = = = = = = * = 9 .   % . 9 = * = -     .   9 = * * = * = q = -   X * = > : n * = 7 : .   .   .   .   .   .   .   .   .   .   .   .   .   .   .   .   .   .   .   .   .   .   .   .   .   .   .   .   .     . - = = = = * - - = Q _ .   7 = H ` ' ] [ { } _   . - * * = = = * * * * * * * * = = = * .     X * ; . .     . .                ",
"   .   .     . : 0 = * * = * * * - n p ; * * - = |   9 = * * q * * * * * * * * * * & -   : 9 > % * = & 9   :     9 * R * q * q * = * . X * = 7   . ; = 7   X   .   .   .   .   .   .   .   .   .   .   .   .   .   .   .   .   .   .   .   .   .   .   .   .   .   .   .   .     . * * * - = p  .  s . : .   n & J...X.o.O :.+.@ . X - = * * * * = = = = = = = = * * * - .     . X X : . . .                    ",
"       . . . . : 0 & * * = = = = = X   > 9 & * * | X - * = = = = = = = = = = = = - = 9 . X % . 9 = - 9 = 9 - 9 9 R = * * q * * * * -   X = = 7 : : % & n : . : .   .   .   .   .   .   .   .   .   .   .   .   .   .   .   .   .   .   .   .   .   .   .   .   .   .   .   .     . * = * = = 8 k p 9 X   .   7 = C i.# &.O.$ ..@   X - & * * = * * * * * * * * * = * = * X   . .       . . .   .                ",
"       . . . . : 0 & = * * * * * * * * = & * * = - . - * * q R * * * * * * * * * = * >   9 * . 9 * > X - = = * = * = * * * * * R = * . X = * >     % = n     . .   .   .   .   .   .   .   .   .   .   .   .   .   .   .   .   .   .   .   .   .   .   .   .   .   .   .   .     . - = * * 8     ! X   : .   7 =.%.&.*.= p.- ).;   X 9 = * * = = * * * * * * * * * * = - X   .   .     .                        ",
"   .   .     . : 8 = = * * = = * * = * * = * * = |   | = * * q * = = = = = = = = * = .   & *   9 V .   - = * * = q q q * q q q * = -   X * = 9 9 9 * = 7     .     .   .   .   .   .   .   .   .   .   .   .   .   .   .   .   .   .   .   .   .   .   .   .   .   .   .   .     . - = = & 7 : .     .   ..: 7.>.,.<.1.2 (.-.3.4     > > X > X X > > > > > > > > > > 7 7     .   .   . . . .                    ",
" . .   .     . : p * * * * * = * * = = * * * * * 9 > | = * R = q * * * * * * * * = * X . - - > ; * X . 9 * * = * * * * * * * * * = 9 . > - = = = = - = 7 : . . .   .   .   .   .   .   .   .   .   .   .   .   .   .   .   .   .   .   .   .   .   .   .   .   .   .   .   .     . - = * - 8 .   .   .  .3 :.5 = g g.<.6 (.7.8.; .     : :                         : :     . .             .   .                ",
" . .         .   . 7 X > X X X X > X X X X X X X , : > X > . >.9 X X X X X X X X X >     X > : > X . : X X X X X X X X X X X X X X > : . > . X X . X - 8   .   .   .   .   .   .   .   .   .   .   .   .   .   .   .   .   .   .   .   .   .   .   .   .   .   .   .   .   .     . * = 9 > .   .     .   . o n.o.0 g.q.w (.- _.@   .     . .   . . . . . . . . .   . .   . .     . . .   . .   .                ",
"                                                                                                                                                   . X X .                                                                                                                       . > 7 > .     .           . X >.e.r.r.t.y.:                                                                                    ",
"                                                                                                                                                 .   . .     .                                                                                                                       .           . . . .         { o.8.3       .                                                                                ",
"                 . . . . . . . . . . . . . . . .                 . . . . . . . .                                 . . . . . . . .                 .         . .                                                                                                                           . . .         . .      .3.:.:.:     _ _                                                                                ",
"                                                 . . . . . . . .                                 . . . . . . . .                 . . . . . . . .                                                                                                                                 .     . .                   . ..: . . ! . . Q Q                                                                                ",
"                                                                                                                                                   . . .       .                                                                                                                               . . . .       .   . _       _ _ _                                                                                ",
"                                                                                                                                                 . . .   .     .                                                                                                                 .     . . .   .           . .   _ _     ! . . .                                                                                ",
"                 . . . . . . . . . . . . . . . .                 . . . . . . . .                                 . . . . . . . .                   .     . .   .                                                                                                                 .       .         . .           _      .3.:.:.:                                                                                ",
"                                                                                                                                                         . .   .                                                                                                                     . .     . .   . .     . . .   ..:.3    .3.3                                                                                "
};
