/* XPM */
static char *freeimage[] = {
/* width height num_colors chars_per_pixel */
"200 200 18 1",
/* colors */
"  c #b1b1b1",
". c #aaaaaa",
"X c #a6a6a6",
"o c #9d9d9d",
"O c #636363",
"+ c #848484",
"@ c #939393",
"# c #3d3d3d",
"$ c #363636",
"% c #6c6c6c",
"& c #424242",
"* c #535353",
"= c #8c8c8c",
"- c #b8b8b8",
"; c #4b4b4b",
": c #5c5c5c",
"> c #7b7b7b",
", c #737373",
/* pixels */
"  .  ..                                                                                                                                                                                          ..  .  ",
" ...................................................................................................................................................................................................... ",
"........................................................................................................................................................................................................",
" ...................................................................................................................................................................................................... ",
" ...................................................................................................................................................................................................... ",
"........................................................................................................................................................................................................",
"........................................................................................................................................................................................................",
" ...................................................................................................................................................................................................... ",
" ...................................................................................................................................................................................................... ",
"........................................................................................................................................................................................................",
"........................................................................................................................................................................................................",
"........................................................................................................................................................................................................",
"........................................................................................................................................................................................................",
"........................................................................................................................................................................................................",
"........................................................................................................................................................................................................",
"........................................................................................................................................................................................................",
" ...................................................................................................................................................................................................... ",
"........................................................................................................................................................................................................",
"........................................................................................................................................................................................................",
"........................................................................................................................................................................................................",
"........................................................................................................................................................................................................",
"........................................................................................................................................................................................................",
"........................................................................................................................................................................................................",
"........................................................................................................................................................................................................",
" ...................................................................................................................................................................................................... ",
"........................................................................................................................................................................................................",
"........................................................................................................................................................................................................",
"........................................................................................................................................................................................................",
"........................................................................................................................................................................................................",
"........................................................................................................................................................................................................",
"........................................................................................................................................................................................................",
"........................................................................................................................................................................................................",
" ...................................................................................................................................................................................................... ",
"........................................................................................................................................................................................................",
"........................................................................................................................................................................................................",
"........................................................................................................................................................................................................",
"........................................................................................................................................................................................................",
"........................................................................................................................................................................................................",
"........................................................................................................................................................................................................",
"........................................................................................................................................................................................................",
" ..........................................................................................X...............X........................................................................................... ",
".............................................................................................................XXX........................................................................................",
".........................................................................................................X..............................................................................................",
".........................................................................................X..............................................................................................................",
"...............................................................................................X       .X ..............................................................................................",
"...............................................................................................oOOOOOOOO+...............................................................................................",
"...............................................................................................@#######$%...............................................................................................",
"...............................................................................................@&&&&&&##%  ...X.........................................................................................",
" ..................................................................................X......X....@&&&&&&&&*X.X ........X................................................................................. ",
".......................................................................................X..X.X. =&&&&&&&&#+ .X........X..................................................................................",
".......................................................................................X...XX .%&&&&&&&&#OX-... .X.....X................................................................................",
"........................................................................................X...  @;&&&&&&&&&#%o  XX.X......................................................................................",
"..................................................................................X....X. ..X+:#&&&&&&&&&#&:=X.-. ......................................................................................",
".......................................................................................=*:**;&#&&&&&&&&&#;#$&*O>+.......................................................................................",
"................................................................................X......+$###&&&&&&&&&&&&#;&&&###*X....XX................................................................................",
"................................................................................. .....+&&&&&&&&&&&&&&&&&#&&&&&#;.......................................................................................",
" ......................................................................................o&&&&&&&&&&&&&&&&&&&&&&&&*...................................................................................... ",
".......................................................................................o&&&&&&&&&&&&&&&&&&&&&&&&*.......................................................................................",
".......................................................................................o&&&&&&&&&&&&&&&&&&&&&&&&*.......................................................................................",
".......................................................................................o&&&&&&&&&&&&&&&&&&&&&&&#*...X...................................................................................",
".......................................................................................o&&&&&&&&&&&&&&&&&&&&&&&#*...X...................................................................................",
".......................................................................................o&&&&&&&&&&&&&&&&&&&&&&&&*.......................................................................................",
".......................................................................................o&&&&&&&&&&&&&&&&&&&&&&&&*.......................................................................................",
".......................................................................................o&&&&&&&&&&&&&&&&&&&&&&&&*.......................................................................................",
" ......................................................................................X&$&##&&&&&&&&&&&&&&&#&&#,. .................................................................................... ",
"........................................................................................>%%*;##;&&&&&&&&##&&###;@ ...X.X................................................................................",
"........................................................................................   X@O##&&&&&&&&;##;O,=.. X.....................................................................................",
"............................................................................................ @O#&&&&&&&&#&%@. ....X..X..................................................................................",
"...........................................................................................X .@;&&&&&&&&&>X..X..X....X.X................................................................................",
"........................................................................................X..XX.X;&&&&&&&&*X-..X..........................................................................................",
".......................................................................................... ...X*&&&&&&&&:..X ..X........................................................................................",
"..........................................................................................X...X;#&&&&&&#*... X........X.................................................................................",
" ........................................................................................X ...X;#&&&&&&#*....X......................................................................................... ",
"...........................................................................................X..X;#&&&&&&#:...............................................................................................",
"..............................................................................................X;#&&&&&&#:...............................................................................................",
".........................................................................................XX...X&#&&&&&&#*X..............................................................................................",
"..............................................................................................X&#&&&&&&#:X.....X........................................................................................",
"............................................................................................X X;#&&&&&&#:X .............................................................................................",
"........................................................................................X.....=;#&&&&&&#;o..............................................................................................",
"...........................................................................................  oO$#&&&&&&##=..............................................................................................",
" .....................................................X.............X........... o:OO::OO:O,%;#&&&&&&&&&&;= .......X. ................................................................................. ",
".......................................................................X........X+#########&&##&&&&&&&&&&#O=oXXXX...XXX ................................................................................",
"...................................................X...X.........XXX............ @&&&&&&&&&&&&&&&&&&&&&&&##&;*;;;;;;;;Oo................................................................................",
".................................................................................=##&&&&#&&&&&&#&&&&&&&&&&&####&&&###$;o................................................................................",
"................................................X...............XX.............. =&&&&&&&&&&&&&&&&&&&&&&&&&&&&&##&&&&#;o................................................................................",
"....................................................... ........ ..XX........... @&&#&&&&&#&&###&&&&&&&&&&#&&&;#&&&&&&&o................................................................................",
"..................................................X. XoXooooooooo. .X............=##&&&&&&&&;&&&&&&&&&&&&&&&&&;&#&#&#&&o................................................................................",
"................................................X.X..+;&;;;;;;;;;>X............. =#&&&&&&&&&&&&&&&&&&&&&&&#&&#&&&&&;&&&o................................................................................",
" .............................................X. X X ,$&&&&&&&&&&#> X..........X.@#&&&&#&&&&&&&&&&&&&&&&&&&&&&&&&&&&##;o.....X...... %:OOOOOOOOOO:= X.XX............................................... ",
".........................................XXX..X.XX X >#&&&&&&&&&&#%...X......... =#&&&&&&&&&&&&&&&&&&&&&&&&&&&&&&&&&&&;o.......X....X*##########$#, ....................................................",
".....................................................%##&&&&&&&&&&:...X......... =&&&&&&&&&&&&&&&&&&&&&&&&&&&&&&&&&&&&*...XX........o&#&&&&&&&&&&#O. X..................................................",
"........................................X.X.X....XX X:&;&&&&&&&&&#* ............ =&#&&&&&&&&&&&&&&&&&&&&&&&&&&&&&&&&&&: X.. .....X. @&&;&&&&&&&&;#;@ .X.................................................",
"............................................X...... +&##&&&&&&&&#&* .XXX........ +&#&&&&&&&&&&&&&&&&&&&&&&&&&&&&&&&&&#;@..XXX..X... +##&&&&&&&&&###%. .X................................................",
"........................................X.X..-X.X--@:#;&&&&&&&&&&&&@. ..X..XX....O#&&&&#&&&&&&&&&&&&&&&&&&&&&&&&&&&&&##:o. ..  ..-.=*$&&&&&&&&&&&;&&+  .................................................",
"..........................................X...,O%>,:##&&&&&&&&&&&&#O=. ..  . - X,;#&&&&&&&&&&&&&&&&&&&&&&&&&&&&&&&&&#&#&&%o  .. .o>*#&&&&&&&&&&&&&&$*+X X...............................................",
"............................................ X;$&###&;&&&&&&&&&&#&&#&%++>>>>==,*##&&&&&&&&&&&&&&&&&&&&&&&&&&&&&&#&&&#&&&&#;%>>>+>;$&&&#&&&&&&&&&&#&&##O+X...............................................",
" .............................................*#&&&&&&&&&&&&&&&&&&&&&###########&&&&&&&&&&&&&&&&&&&&&&&&&&&&&&&&&&&&&&&&&&########&&&&&&&&&&&&&&&&&#&&##&*+............................................ ",
"..............................................*#&&&&&&&&&&&&&&&&&&&&&&#&&&&&&&&&&&&&&&&&&&&&&&&&&&&&&&&&&&&&&&&&&&&&&&&&&&&&&&&&#&&&&&&&&&&&&&&&#&&&&&&&$#,...X.........................................",
"..............................................*#&&&&&&&&&&&&&&&&&&&&&&&&&&&&&&&&&&&&&&&&&&&&&&&&&&&&&&&&&&&&&&&&&&&&&&&&&&&&&&&&&&&&&&&&&&&&&&&&&&&&#&&&&#, ............................................",
"..............................................*#&&&&&&&&&&&&&&&&&&&&&&&&&&&&&&&&&&&&&&&&&&&&&&&&&&&&&&&&&&&&&&&&&&&&&&&&&&&&&&&&&&&&&&&&&&&&&&&&&&&&&&&&#$,.X...........................................",
"..............................................*#&&&&&&&&&&&&&&&&&&&&&&&&&&&&&&&&&&&&&&&&&&&&&&&&&&&&&&&&&&&&&&&&&&&&&&&&&&&&&&&&&&&&&&&&&&&&&&&&&&&&&&&&&#,.X..X........................................",
".............................................X*###&&&&&&&&&&&&&&&&&&&&&&&&&&&&&&&&&&&&&&&&&&&&&&&&&&&&&&&&&&&&&&&&&&&&&&&&&&&&&&&&&&&&&&&&&&&&&&&&&&&&&#&#, ............................................",
"..............................................:&&&&&&&&&&&&&&&&&&&&&&&&&&&&&&&&&&&&&&&&&&&&&&&&&&&&&&&&&&&&&&&&&&&&&&&&&&&&&&&&&#&&&&&&&&&&&&&&&&&&&&#&&##,.............................................",
"..............................................:;*;&&##&&&&&&&&&&&&&&&&&&&&&&&&&&&&&&&&&&&&&&&&&&&&&&&&&&&&&&&&&&&&&&&&&&&&########&&&&&&&&&&&&&&#&&&##&*=+o X...........................................",
" ...............................................X @%;#&&&&&&&&&&&&$*>oX@@@o@@o@>#&&&&&&&&&&&&&&&&&&&&&&&&&&&&&&&&#&&&&&&$*,,%%%%,%:&$&&&&&&&&&&&&&&&$:=................................................ ",
"................................................... @:#&&&&&&&&&&#:o....   ..  X%;#&&&&&&&&&&&&&&&&&&&&&&&&&&&&&&#&&&&#&+o. .     X+O&#&&&&&&&&&&&&#%o .................................................",
".................................................XX .>#&&&&&&&&&&#,..X..X..XX...X:#&&&&&&&&&&&&&&&&&&&&&&&&&&&&&&&&&&#&%........X.. o:#&&&&&&&&&&&#;o...................................................",
".................................................... o;#&&&&&&&&&#+ .. X........ ,#&&&&&&&&&&&&&&&&&&&&&&&&&&&&&&&##&#:X ......X..X  ,#&&&&&&&&&##&,-.X ................................................",
"................................................X..X.X;#&&&&&&&&&#+ X..X........ @&#&&&&&&&&&&&&&&&&&&&&&&&&&&&&&&&&&#: ............ +&&&&&&&&&&&&&=...X................................................",
".....................................................X;#&&&&&&&&##+ .X. ..XX.....o;&&&&&&&&&&&&&&&&&&&&&&&&&&&&&&&&&&#: .....XX....X.=&&&&&&&&&&;#&o....................................................",
"................................................X.X..X:##########*@X..X....X.....@&&&&&&&&&&&&&&&&&&&&&&&&&&&&&&&&##&#:.X............>#$########&$*X.X..................................................",
"..................................................X.X.@+,,,,,,,,>o .....X....... +#&&&&&&&&&&&&&&&&&&&&&&&&&&&&&&&&&&#:....X...X.... @>@==========X... X................................................",
" .......................................................        ................ =#&&&&&&&&&&#&&&&&&&&&&#&&&#&&&##&&&#O ............................................................................... ",
".................................................................................+#&&&&&&&&&&&&&&&&&&&&&#&&&&&&#&&&&&#O.................................................................................",
"................................................................................ =#&&&&&&&####&&&&&&&&&&&&&&&&&&&&#&&#:.................................................................................",
"................................................................................ +#&;&&&&&&&&&&&&&&&&&&&&&#&&&&#&&&&&#: ................................................................................",
"................................................................................ +&##&&&#&&&&&&&&&&&&&&&&&&&&&&&&;&&##O ................................................................................",
".................................................................................X>:&#&&&#&&&$#&&&&&&&&&&#####&&$#####,.................................................................................",
"................................................................................X  X@=@@@@@@+O;#&&&&&&&&##;O>=====+=++X ................................................................................",
"..................................................................................X. .. .  .  +;&&&&&&&&#O@  ..  .. .. X................................................................................",
" ..............................................................................................,##&&&&&#&o............................................................................................. ",
"..........................................................................................X....=&#&&&&&#*X .............................................................................................",
"..........................................................................................X..X .*&&#&#&#:X....  ........................................................................................",
".............................................................................................X..:&&&&#&#:X..............................................................................................",
"................................................................................................:#&&&&&#:X..............................................................................................",
"...........................................................................................X....:#&&&&&#O...............................................................................................",
"................................................................................................:#&&&&&#%...............................................................................................",
".........................................................................................X...X..:#&&#&&#O...............................................................................................",
" .....................................................................................X.........:&#&&#&&:X...X.X...X..X................................................................................ ",
".........................................................................................X...X..*&#&&&&&;X X.. X......X.................................................................................",
"........................................................................................X....  o;#&&&&&&&= .XX.......X..................................................................................",
".........................................................................................  ...=O&#&&&&&&#*+. ........X..................................................................................",
"........................................................................................o>,>>O&$&&&&#&&&&$;+X  ...X.....................................................................................",
".......................................................................................X;#$#&##&&&&&#&&&;#$&:+@Xo......X................................................................................",
".......................................................................................o&&&&#&;&&&&&&&&&#&;##&&&=.......................................................................................",
".......................................................................................o&&&&#&&&&&&&&&&&&&&&&&&$,....X..................................................................................",
" ......................................................................................o&&&&&&&&&&&&&&&&&&&&&&&#> ..................................................................................... ",
".......................................................................................o&&&&&&&&&&&&&&&&&&&&&&&#> ......................................................................................",
".......................................................................................o&&&&&&&&&&&&&&&&&&&&&&&#> ......................................................................................",
".......................................................................................o&&&&&&&&&&&&&&&&&&&&&&&#> ......................................................................................",
".......................................................................................o&&&&&&&&&&&&&&&&&&&&&&&#> ......................................................................................",
".......................................................................................o&&&&&&&&&&&&&&&&&&&&&&&#> ......................................................................................",
".......................................................................................o&&&&&&&&&&&&&&&&&&&&&&&#> ......................................................................................",
".......................................................................................o&&&&&&&&&&&&&&&&&&&&&&&#> ......................................................................................",
" ......................................................................................X&####&&&&&&&&&&&&&&##&&#>..X................................................................................... ",
".......................................................................................XOO,,*$$&&&&&&&&&##&&###&=.......................................................................................",
".......................................................................................X    o,;#&&&&&&&&&##*O>o.X.X.....................................................................................",
"..........................................................................................X. .>#&&&&&&&&$*>X.  X..X.....................................................................................",
"...........................................................................................XX XO&&&&&&&&#>. .X..........................................................................................",
"............................................................................................X. =&&&&&&&&:X .....X.......................................................................................",
"..........................................................................................X ...@&&&&&&&&+ .X. ..........................................................................................",
".................................................................................XX.......X... @#&&&&&&#@....X.X......X.................................................................................",
" ..............................................................................................X*######;............................................................................................... ",
"................................................................................................+,>>>>,+................................................................................................",
"................................................................................................ . .  . ................................................................................................",
".................................................................................................X....X.................................................................................................",
"........................................................................................................................................................................................................",
"........................................................................................................................................................................................................",
"........................................................................................................................................................................................................",
"........................................................................................................................................................................................................",
" ...................................................................................................................................................................................................... ",
"........................................................................................................................................................................................................",
"........................................................................................................................................................................................................",
"........................................................................................................................................................................................................",
"........................................................................................................................................................................................................",
"........................................................................................................................................................................................................",
"........................................................................................................................................................................................................",
"........................................................................................................................................................................................................",
" ...................................................................................................................................................................................................... ",
"........................................................................................................................................................................................................",
"........................................................................................................................................................................................................",
"........................................................................................................................................................................................................",
"........................................................................................................................................................................................................",
"........................................................................................................................................................................................................",
"........................................................................................................................................................................................................",
"........................................................................................................................................................................................................",
" ...................................................................................................................................................................................................... ",
"........................................................................................................................................................................................................",
"........................................................................................................................................................................................................",
"........................................................................................................................................................................................................",
"........................................................................................................................................................................................................",
"........................................................................................................................................................................................................",
"........................................................................................................................................................................................................",
"........................................................................................................................................................................................................",
" ...................................................................................................................................................................................................... ",
"........................................................................................................................................................................................................",
"........................................................................................................................................................................................................",
"........................................................................................................................................................................................................",
"........................................................................................................................................................................................................",
"........................................................................................................................................................................................................",
"........................................................................................................................................................................................................",
"........................................................................................................................................................................................................",
" ...................................................................................................................................................................................................... ",
"........................................................................................................................................................................................................",
"........................................................................................................................................................................................................",
" ...................................................................................................................................................................................................... ",
" ...................................................................................................................................................................................................... ",
"........................................................................................................................................................................................................",
" ...................................................................................................................................................................................................... ",
"  .  .. ........................................................................................................................................................................................ ..  .  "
};
