/* XPM */
static char *freeimage[] = {
/* width height num_colors chars_per_pixel */
"200 200 18 1",
/* colors */
"  c #b0b0b0",
". c #aaaaaa",
"X c #a5a5a5",
"o c #929292",
"O c #8b8b8b",
"+ c #4b4b4b",
"@ c #424242",
"# c #535353",
"$ c #3e3e3e",
"% c #9c9c9c",
"& c #5c5c5c",
"* c #626262",
"= c #7c7c7c",
"- c #828282",
"; c #717171",
": c #6a6a6a",
"> c #b8b8b8",
", c #363636",
/* pixels */
"  .  ..                                                                                                                                                                                          ..  .  ",
" ...................................................................................................................................................................................................... ",
"........................................................................................................................................................................................................",
" ...................................................................................................................................................................................................... ",
" ...................................................................................................................................................................................................... ",
"........................................................................................................................................................................................................",
"........................................................................................................................................................................................................",
" ...................................................................................................................................................................................................... ",
" ...................................................................................................................................................................................................... ",
"........................................................................................................................................................................................................",
"........................................................................................................................................................................................................",
"........................................................................................................................................................................................................",
"........................................................................................................................................................................................................",
"........................................................................................................................................................................................................",
"........................................................................................................................................................................................................",
"........................................................................................................................................................................................................",
" ...................................................................................................................................................................................................... ",
"........................................................................................................................................................................................................",
"........................................................................................................................................................................................................",
"........................................................................................................................................................................................................",
"........................................................................................................................................................................................................",
"........................................................................................................................................................................................................",
"........................................................................................................................................................................................................",
"........................................................................................................................................................................................................",
" ...................................................................................................................................................................................................... ",
"........................................................................................................................................................................................................",
"........................................................................................................................................................................................................",
"........................................................................................................................................................................................................",
"........................................................................................................................................................................................................",
"........................................................................................................................................................................................................",
"........................................................................................................................................................................................................",
"........................................................................................................................................................................................................",
" ...................................................................................................................................................................................................... ",
"........................................................................................................................................................................................................",
"........................................................................................................................................................................................................",
"........................................................................................................................................................................................................",
"........................................................................................................................................................................................................",
"........................................................................................................................................................................................................",
"........................................................................................................................................................................................................",
"........................................................................................................................................................................................................",
" ...................................................................................................................................................................................................... ",
"........................................................................................................................................................................................................",
"........................................................................................................................................................................................................",
"........................................................................................................................................................................................................",
"........................................................................................................................................................................................................",
"........................................................................................................................................................................................................",
"........................................................................................................................................................................................................",
"........................................................................................................................................................................................................",
" ...................................................................................................................................................................................................... ",
"........................................................................................................................................................................................................",
"........................................................................................................................................................................................................",
"........................................................................................................................................................................................................",
"........................................................................................................................................................................................................",
"........................................................................................................................................................................................................",
"........................................................................................................................................................................................................",
"........................................................................................................................................................................................................",
" ..............................................................................................X........X......X....................................................................................... ",
"........................................................................................................................................................................................................",
"..........................................................................................XXX.X............XX...........................................................................................",
"..............................................................................................oooooooooooo..............................................................................................",
"........................................................................................X...XO+@@@@@@@@@@#o.............................................................................................",
"............................................................................................ o@$$$$$$$$$$+X ............................................................................................",
".............................................................................................%@@@@@@@@@@@+X.XXX.........................................................................................",
"........................................................................................X....%$@@@@@@@@@@+X.............................................................................................",
" ..........................................................................................X.o@@@@@@@@@@@+X............................................................................................ ",
"............................................................................................ o@@@@@@@@@@$+X.............................................................................................",
"........................................................................................XX.. %+@@@@@@@@@$#X..XXX........................................................................................",
".............................................................................................o@$@@@@@@@@$+X.............................................................................................",
"............................................................................................ o@@@@@@@@@@@#X.............................................................................................",
"........................................................................................XX...o@$@@@@@@@@$+X....X........................................................................................",
".............................................................................................o@@$$@@@@$$$+%.............................................................................................",
".............................................................................................%&&*#+$$+#*&*..............................................................................................",
" .........................................................................X..................... o@@$+X .....................X......................................................................... ",
"..........................................................................X..X...................o@@@+X...................X..X..........................................................................",
"........................................................................X........................o$@@+X........................X........................................................................",
"..........................................................................X......................o$$@+X......................X..........................................................................",
"..........................................................................XX....                 %@$@#X                 ....XX..........................................................................",
"...........................................................................X.X=------------------;@$@+=------------------=X.X...........................................................................",
".........................................................................X.X.O$$$$$$$$$$$$$$$$$$$@$@@$@$$$$$$$$$$$$$$$$$$$O.X.X.........................................................................",
".........................................................................X.X o$@@@@@@@@@@@@@@@@@@@@@@@$@@@@@@@@@@@@@@@@@@$o X.X.........................................................................",
" ..........................................................................X.o@@@@@@@@@@@@@@@@@@@@@@@@@@@@@@@@@@@@@@@@@@@@o.X.......................................................................... ",
"...........................................................................X.o@@@@@@@@@@@@@@@@@@@@@@@@@@@@@@@@@@@@@@@@@@@@o.X...........................................................................",
"...........................................................................X.o@@@@@@@@@@@@@@@@@@@@@@@@@@@@@@@@@@@@@@@@@@@@o.X...........................................................................",
"...........................................................................X.o@@@@@@@@@@@@@@@@@@@@@@@@@@@@@@@@@@@@@@@@@@@@o.X...........................................................................",
"...........................................................................X.o@@@@@@@@@@@@@@@@@@@@@@@@@@@@@@@@@@@@@@@@@@@@o.X...........................................................................",
"...........................................................................X.o@@@@@@@@@@@@@@@@@@@@@@@@@@@@@@@@@@@@@@@@@@@@o.X...........................................................................",
"...........................................................................X.o@@@@@@@@@@@@@@@@@@@@@@@@@@@@@@@@@@@@@@@@@@@@o.X...........................................................................",
"...........................................................................X.o@@@@@@@@@@@@@@@@@@@@@@@@@@@@@@@@@@@@@@@@@@@@o.X...........................................................................",
" ...........................................................X.....X..X.....X.o@@@@@@@@@@@@@@@@@@@@@@@@@@@@@@@@@@@@@@@@@@@$o XX.....X...X.......X....................................................... ",
"..................................................................X........X.o@@@@@@@@@@@@@@@@@@@@@@@@@@@@@@@@@@@@@@@@@@@$o.XX..........................................................................",
"........................................................X.........X........X.o@@@@@@@@@@@@@@@@@@@@@@@@@@@@@@@@@@@@@@@@@@@$o.X...X........XX...X.........................................................",
"..........................................................X...X............X.o@@@@@@@@@@@@@@@@@@@@@@@@@@@@@@@@@@@@@@@@@@@$o.X............X....X.........................................................",
"..........................................................X.X..............X.o@@@@@@@@@@@@@@@@@@@@@@@@@@@@@@@@@@@@@@@@@@@@o.X............. .............................................................",
"........................................................X...%XXXXXXXXX%....X.o@@@@@@@@@@@@@@@@@@@@@@@@@@@@@@@@@@@@@@@@@@@@o.X..X%%%%%%%%%%%o%...........................................................",
"...........................................................o###+######+*...X.o@@@@@@@@@@@@@@@@@@@@@@@@@@@@@@@@@@@@@@@@@@@@o.X..X++@@+@@@@@++:X..........................................................",
"........................................................X..o@$@$$@$$@$$&...X.o@@@@@@@@@@@@@@@@@@@@@@@@@@@@@@@@@@@@@@@@@@@@o.X..%+@$$@@$$@$@$*X X........................................................",
" ..........................................................o@$@@@$@@@@$*...X o$@@@@@@@@@@@@@@@@@@@@@@@@@@@@@@@@@@@@@@@@@@$o X..X+@$@@@@@@@@$:.......................................................... ",
"...........................................................o@$@@@@@@@@@&XX.X.O@@@@@@@@@@@@@@@@@@@@@@@@@@@@@@@@@@@@@@@@@@@@O.X..X+@@@@@@@@@@$:...........................................................",
"...........................................................o@$@@@@@@@@@+######@@@@@@@@@@@@@@@@@@@@@@@@@@@@@@@@@@@@@@@@@@@$######@@@@@@@@@@@$:...........................................................",
"...........................................................o@$@@@@@@@@@@@$@@@$@$@@@@@@@@@@@@@@@@@@@@@@@@@@@@@@@@@@@@@@@@@@@$@$@$@@@@$@@@@@@$:...........................................................",
"...........................................................o@$@@@@@@@@@@@$$@$$@@@@@@@@@@@@@@@@@@@@@@@@@@@@@@@@@@@@@@@@@@@@@$@$@$@@@@$@@@@@@$:...........................................................",
"...........................................................o@$@@@@@@@@@+++@@++$@@@@@@@@@@@@@@@@@@@@@@@@@@@@@@@@@@@@@@@@@@$++@@++@@@@@@@@@@@$:...........................................................",
"...........................................................o@$@@@@@@@@@&%%%%X-@@@@@@@@@@@@@@@@@@@@@@@@@@@@@@@@@@@@@@@@@@@@-%%%%o+@@@@@@@@@@$:...........................................................",
"...........................................................o@$@@@$@@@@$* ..X o$@@@@@@@@@@@@@@@@@@@@@@@@@@@@@@@@@@@@@@@@@@$o X..X+@$@@@@@@@@$:...........................................................",
" .......................................................X..o@$@$@@@$@@$*...X.o@@@@@@@@@@@@@@@@@@@@@@@@@@@@@@@@@@@@@@@@@@@@o.X..%+@$$@@$$@$@$*X X....................................................... ",
"..........................................................Xo#+++@++@+@@&...X.o@@@@@@@@@@@@@@@@@@@@@@@@@@@@@@@@@@@@@@@@@@@@o.X..X#+@@++@+@@++:X.X........................................................",
"............................................................o%%%%%X%%%%X...X.o@@@@@@@@@@@@@@@@@@@@@@@@@@@@@@@@@@@@@@@@@@@@o.X..XX%%%%%%%X%X%%...........................................................",
"..........................................................X.X.....  .......X.o@@@@@@@@@@@@@@@@@@@@@@@@@@@@@@@@@@@@@@@@@@@@o.X...........................................................................",
"..........................................................X...X............X.o@@@@@@@@@@@@@@@@@@@@@@@@@@@@@@@@@@@@@@@@@@@$o.X............X....X.........................................................",
"........................................................X.........X........X.o@@@@@@@@@@@@@@@@@@@@@@@@@@@@@@@@@@@@@@@@@@@$o.X...X.......................................................................",
"...........................................................................X.o@@@@@@@@@@@@@@@@@@@@@@@@@@@@@@@@@@@@@@@@@@@$o.XX..........................................................................",
"........................................................X...X...X.X..X.....X.o@@@@@@@@@@@@@@@@@@@@@@@@@@@@@@@@@@@@@@@@@@@$o XX.....X...XX...............................................................",
" ..........................................................................X.o@@@@@@@@@@@@@@@@@@@@@@@@@@@@@@@@@@@@@@@@@@@@o.X.......................................................................... ",
"...........................................................................X.o@@@@@@@@@@@@@@@@@@@@@@@@@@@@@@@@@@@@@@@@@@@@o.X...........................................................................",
"...........................................................................X.o@@@@@@@@@@@@@@@@@@@@@@@@@@@@@@@@@@@@@@@@@@@@o.X...........................................................................",
"...........................................................................X.o@@@@@@@@@@@@@@@@@@@@@@@@@@@@@@@@@@@@@@@@@@@@o.X...........................................................................",
"...........................................................................X.o@@@@@@@@@@@@@@@@@@@@@@@@@@@@@@@@@@@@@@@@@@@@o.X...........................................................................",
"...........................................................................X.o@@@@@@@@@@@@@@@@@@@@@@@@@@@@@@@@@@@@@@@@@@@@o.X...........................................................................",
"...........................................................................X.o@@@@@@@@@@@@@@@@@@@@@@@@@@@@@@@@@@@@@@@@@@@@o.X...........................................................................",
"...........................................................................X.o@@@@@@@@@@@@@@@@@@@@@@@@@@@@@@@@@@@@@@@@@@@@o.X...........................................................................",
" ........................................................................X.X o$@@@@@@@@@@@@@@@@@@@@@@@@@@@@@@@@@@@@@@@@@@$o X.X........................................................................ ",
"...........................................................................X.O$$$$$$$$$$$$$$$$$$@@$@@$@@$$$$$$$$$$$$$$$$$$O.X...........................................................................",
"...........................................................................X X------------------O:@$$@:-------------------X X...........................................................................",
"..........................................................................XX....................>o@@$@O ....................XX..........................................................................",
"........................................................................X.XXXX.................. o@@@@O...................XXXX.X........................................................................",
"........................................................................X..... ................. o@@@$O.................. .....X........................................................................",
".................................................................................................o@@@@o.................................................................................................",
"..........................................................................X......................o@@@@o......................X..........................................................................",
" ............................................................................................X::;*+$$+*;:= ....X....................................................................................... ",
"........................................................................................X....O@$$$@@@@$$$&..............................................................................................",
"........................................................................................X....O@$$$@@@@$$$& ..X..........................................................................................",
"...........................................................................................X.o+@@@@@@@@@@*..............................................................................................",
".............................................................................................o@$$@@@@@@$$&XX...X........................................................................................",
".............................................................................................o@@@@@@@@@@$*..............................................................................................",
"...........................................................................................X.O@$@@@@@@@@$&..X...........................................................................................",
".............................................................................................o@@@@@@@@@@$*.....X........................................................................................",
" ............................................................................................o$@@@@@@@@@$&............................................................................................. ",
"........................................................................................ ....o@@@@@@@@@@@* .X...........................................................................................",
"........................................................................................XXX..o@$@@@@@@@@,&....X.........................................................................................",
"........................................................................................... .O+@$$$$$$$$@*X.............................................................................................",
".............................................................................................%=---------=O..............................................................................................",
"..............................................................................................X.........................................................................................................",
"........................................................................................................................................................................................................",
".............................................................................................X............X.............................................................................................",
" ...................................................................................................................................................................................................... ",
"........................................................................................................................................................................................................",
"........................................................................................................................................................................................................",
"........................................................................................................................................................................................................",
"........................................................................................................................................................................................................",
"........................................................................................................................................................................................................",
"........................................................................................................................................................................................................",
"........................................................................................................................................................................................................",
" ...................................................................................................................................................................................................... ",
"........................................................................................................................................................................................................",
"........................................................................................................................................................................................................",
"........................................................................................................................................................................................................",
"........................................................................................................................................................................................................",
"........................................................................................................................................................................................................",
"........................................................................................................................................................................................................",
"........................................................................................................................................................................................................",
" ...................................................................................................................................................................................................... ",
"........................................................................................................................................................................................................",
"........................................................................................................................................................................................................",
"........................................................................................................................................................................................................",
"........................................................................................................................................................................................................",
"........................................................................................................................................................................................................",
"........................................................................................................................................................................................................",
"........................................................................................................................................................................................................",
" ...................................................................................................................................................................................................... ",
"........................................................................................................................................................................................................",
"........................................................................................................................................................................................................",
"........................................................................................................................................................................................................",
"........................................................................................................................................................................................................",
"........................................................................................................................................................................................................",
"........................................................................................................................................................................................................",
"........................................................................................................................................................................................................",
" ...................................................................................................................................................................................................... ",
"........................................................................................................................................................................................................",
"........................................................................................................................................................................................................",
"........................................................................................................................................................................................................",
"........................................................................................................................................................................................................",
"........................................................................................................................................................................................................",
"........................................................................................................................................................................................................",
"........................................................................................................................................................................................................",
" ...................................................................................................................................................................................................... ",
"........................................................................................................................................................................................................",
"........................................................................................................................................................................................................",
"........................................................................................................................................................................................................",
"........................................................................................................................................................................................................",
"........................................................................................................................................................................................................",
"........................................................................................................................................................................................................",
"........................................................................................................................................................................................................",
" ...................................................................................................................................................................................................... ",
"........................................................................................................................................................................................................",
"........................................................................................................................................................................................................",
" ...................................................................................................................................................................................................... ",
" ...................................................................................................................................................................................................... ",
"........................................................................................................................................................................................................",
" ...................................................................................................................................................................................................... ",
"  .  .. ........................................................................................................................................................................................ ..  .  "
};
