/* XPM */
static char *freeimage[] = {
/* width height num_colors chars_per_pixel */
"200 200 256 2",
/* colors */
"   c #05020a",
" . c #030101",
" X c #0a0201",
" o c #0a040a",
" O c #0b0a05",
" + c #14110c",
" @ c #5e5343",
" # c #6b5c45",
" $ c #735b3b",
" % c #6d5433",
" & c #645334",
" * c #725533",
" = c #65563b",
" - c #4a3d2b",
" ; c #443b24",
" : c #645c48",
" > c #534d44",
" , c #453f33",
" < c #4c473b",
" 1 c #443c2b",
" 2 c #322c22",
" 3 c #1d1913",
" 4 c #4c4433",
" 5 c #6b593c",
" 6 c #5b4f3b",
" 7 c #2d2a1b",
" 8 c #33312c",
" 9 c #6f644f",
" 0 c #7b715d",
" q c #3c372c",
" w c #2b241b",
" e c #130e03",
" r c #1c170c",
" t c #25221a",
" y c #231d13",
" u c #3c3323",
" i c #42352a",
" p c #4a3e32",
" a c #634d32",
" s c #342c1c",
" d c #6c5a34",
" f c #726241",
" g c #4c4b2c",
" h c #453b3e",
" j c #7a5733",
" k c #6c532d",
" l c #7b5b3b",
" z c #5d4a2c",
" x c #53432c",
" c c #847a64",
" v c #534b3b",
" b c #1b1304",
" n c #231a0c",
" m c #6b4e32",
" M c #71542c",
" N c #735935",
" B c #5b4c33",
" V c #3b301c",
" C c #634d2d",
" Z c #7c6e50",
" A c #746a51",
" S c #2b2314",
" D c #3b2d13",
" F c #44331c",
" G c #4b3c24",
" H c #6d5a2c",
" J c #634c25",
" K c #242114",
" L c #342c15",
" P c #544a2b",
" I c #473b1b",
" U c #46412c",
" Y c #433423",
" T c #564019",
" R c #5b452a",
" E c #544024",
" W c #534a35",
" Q c #736025",
" ! c #332511",
" ~ c #6a4d2b",
" ^ c #7e6441",
" / c #837351",
" ( c #5c4425",
" ) c #4b422d",
" _ c #534534",
" ` c #3e3a24",
" ' c #4e4934",
" ] c #353324",
" [ c #2b2d15",
" { c #231d19",
" } c #2b220c",
" | c #33251c",
".  c #453113",
".. c #2b1e15",
".X c #2c1c0a",
".o c #4c4425",
".O c #561d0d",
".+ c #3c3c18",
".@ c #84775b",
".# c #8e8367",
".$ c #302e0a",
".% c #8d7b5b",
".& c #595628",
".* c #cabb76",
".= c #817138",
".- c #5c4f18",
".; c #474519",
".: c #71703b",
".> c #a9291a",
"., c #90754b",
".< c #90874e",
".1 c #e7d483",
".2 c #e4cc82",
".3 c #d4c786",
".4 c #a1885d",
".5 c #a18c51",
".6 c #98964d",
".7 c #d1bc87",
".8 c #a8955e",
".9 c #8e7853",
".0 c #8b7d64",
".q c #f4090c",
".w c #cfb477",
".e c #dcc68b",
".r c #ebd493",
".t c #e5cb8b",
".y c #ceb16c",
".u c #d4c678",
".i c #c0ab69",
".p c #c0b367",
".a c #cbc576",
".s c #a28b70",
".d c #c6a168",
".f c #dcbb80",
".g c #e3c480",
".h c #ebd48c",
".j c #dbc47f",
".k c #b49660",
".l c #907740",
".z c #817044",
".x c #9d7a4f",
".c c #c0a275",
".v c #ddc173",
".b c #c0bd59",
".n c #94963e",
".m c #707123",
".M c #c1bd68",
".N c #e4d494",
".B c #7e632f",
".V c #ae9752",
".C c #ada740",
".Z c #afa750",
".A c #cec161",
".S c #dbcc79",
".D c #ebdb9c",
".F c #e8d49b",
".G c #f4e2aa",
".H c #e9d4a5",
".J c #ceb38b",
".K c #f3dba4",
".L c #f4de92",
".P c #a08441",
".I c #d4bc78",
".U c #a3984f",
".Y c #81893a",
".T c #b2b460",
".R c #945b33",
".E c #a08451",
".W c #9f913e",
".Q c #bdaf59",
".! c #cfbf6c",
".~ c #e5cc96",
".^ c #fae4b4",
"./ c #f5e2b4",
".( c #feebc3",
".) c #ecdcab",
"._ c #fbe5ab",
".` c #ccaa75",
".' c #bf9f59",
".] c #afa75d",
".[ c #f4dd9c",
".{ c #f3ddac",
".} c #feeabc",
".| c #fbe5bb",
"X  c #fae5c4",
"X. c #f2ddb4",
"XX c #e3caa4",
"Xo c #9d7943",
"XO c #feeccb",
"X+ c #fff3c8",
"X@ c #f5e4bb",
"X# c #8e6c42",
"X$ c #8f653f",
"X% c #bb9a67",
"X& c #907433",
"X* c #ecdca4",
"X= c #fdeab5",
"X- c #dcc695",
"X; c #ecda91",
"X: c #af8c5e",
"X> c #dbb06f",
"X, c #bd9258",
"X< c #ad8952",
"X1 c #dccc84",
"X2 c #c2ad75",
"X3 c #a09f40",
"X4 c #e3d38c",
"X5 c #b1976f",
"X6 c #8c893c",
"X7 c #7e7526",
"X8 c #a0a64f",
"X9 c #bca368",
"X0 c #d3c097",
"Xq c #5e6211",
"Xw c #646129",
"Xe c #b4ab72",
"Xr c #fff2bc",
"Xt c #c2ad89",
"Xy c #94873f",
"Xu c #b0b451",
"Xi c #8d8a16",
"Xp c #88872a",
"Xa c #37324f",
"Xs c #373268",
"Xd c #282650",
"Xf c #383240",
"Xg c #6b5d15",
"Xh c #ceaf62",
"Xj c #171744",
"Xk c #1c1975",
"Xl c #090b53",
"Xz c #262331",
"Xx c #161964",
"Xc c #14166a",
"Xv c #13165b",
"Xb c #1d1a59",
"Xn c #131563",
"Xm c #030354",
"XM c #201a2c",
"XN c #1c1a6a",
"XB c #252672",
"XV c #04055c",
"XC c #0f0f2b",
"XZ c #0e1262",
"XA c #0d0c65",
"XS c #0b0b5c",
"XD c #03034c",
"XF c #060641",
"XG c #28263f",
"XH c #0d125c",
"XJ c #060429",
"XK c #242461",
"XL c #8d791c",
"XP c #463f57",
"XI c #a75a3e",
"XU c #a09319",
/* pixels */
"   . X . X . . . . . . . . . . . . . . . . . . . . . o . . X . . . . . . . . . . . . . . . . . . . . . . . . . . . . . . . . . . . . . . X X . X . . . . . . . . . . . . . . . . . . . . . . . . . . . . . . . . . . . . . . . . . . . . . . . . . . . . . . . . o . . . . . . . . . . . . . . . . . . . . . . . . . . . . . . . . . . . . . . . . . . . O . . . . . . . . . . . . X X . . . . . . . . . . . . .",
" . . . . . . . . X X . . . . . . . . . . . . . . O . . . . . . . . . . . . . . . . . . . . . . . . . . . . . . . . . . . . . . . . . . . . . . . . . . . . . . . . . . . . . . . . . . . . . . . . . . . . . . . . . . . . . . . . . . . . . . . . . . . . . . . . . . . . . . . . . . . . . . . . . . . . . . . X . . . . . . . . . . . . X . . . . O . . . . . . . . . . . . . . . . . . . . . . . . . . . . .",
" . . . . . . . . X X X . . X X X . . . . . . . . . . . . . . . . . . . . . . . . . . . . . . . . . . . . . . . . . . . . . . . . . . . . . . . . . . . . . . . . . . . . . . . . . . . . . . . . . . . . . . . . . . . . . . . . . . . . . . . . . . . . . . . . . . . . . . . . . . . . . . . . . . . . . . . . . . . . . . . . . . . . . . . . . . O . . . . . . . X . . . . . O . . O . . . . . . . . . . . .",
" . . . . . . . . . . . . . . . . . . . . . . . . . . . . . . . X . . X . . . . . . . . . . X . o . . . . . . . . . . . . . . . . X . . . . . . . . . X . . . X . . . . . X . . . . . . . . . . . . . . . . . . . . . . . . . . . . . . . . . . . . . . . . . . . . . . . . . . . . . . . . . . . O . . . . O X . . . . . . . . X     o . . .     . . . . . O . . . . X . . . . . . . . . . . . . . . X . . . . .",
" O . . . . + X X . . . . . . . . X . . X X . . X . X . . X O . . . . . . . . . . . . X X X X X X . . . . . . . . X X X . . . . . X X X X X . X . O . X . . . X . . O . . X . . . . . . X X X X X X X X X X X X X X X . . . . . . X X X X X X X X X X X X X X X X . . . . . . . . X X X X X X X X . . X X . . . . . X . . . . . . X X X X . . . . . X . . X X . X X X . . X . . X . . . . . . . . X . X . . . . .",
" . . . . + @ # $ % % & % % % % % % % % * * * * * = @ - ; @ : > , < 1 2 + X O . . . 3 4 # $ $ = @ 5 5 5 5 5 5 5 5 = @ 6 4 1 2 7 8 = # # # 9 9 0 0 > 2 , q q 2 q w w , 2 e r w t y u i p 6 = = = a # 5 5 = 5 = = & # # 5 5 = = 5 5 5 5 5 5 5 = = = 5 5 5 5 5 5 5 5 5 5 5 5 5 5 5 5 5 5 5 5 5 5 5 = @ : : < w t w t s q + X . + r 2 & d d d f f 6 g @ : @ > p q q h < , 1 q 1 2 u , < < , q q q q q < q 2 X X . . .",
" X . . . X @ $ j $ % % % % * % % k * * % * l l * $ $ z x # 0 0 c 9 v 1 b X O O O O n x m M N k d N N N N N N N N 5 5 = B - V s 4 C $ 5 5 Z A 9 A : 2 1 u u 2 2 S w < q e b s s S D F G B $ $ $ * k k k k k H k k N N N N N N N N k d N N H k J J k k k H d H k k N N N N N M k k N N N d H H k k : : v V r K 7 y L 1 e O + e e L C k d d d & P I B 6 6 : - u p v : U 4 4 U s 1 4 v 1 1 v 1 u 1 4 > q 2 . . . . .",
" X X X . . $ j j # = x x x G Y Y F G G ; G x x G T C C R E G B 6 W ; s e X e . O X n R * j j M Q j j j j j j j j * $ a R G ! S 1 ~ ^ N $ / Z 9 A : s u u u s s S n 4 u e b s 7 S F F E C * j M M J J J ~ % * * * * * * j j j * * k * * N * ~ ( ( J ~ k * * * * k * j j l j * M ~ * * * * * * * * ; : A 6 s S w r D ) e . X O e V m $ ^ $ 5 B _ - B B W 9 - V _ v : ` ) v U s ) ' # ; ) @ - s - W > q 2 . . . . .",
" . . . . X 9 5 * a 5 # G V u 4 i Y - - Y V 1 6 _ G z W ) 6 _ ) 6 - W ] e X O X . O n x m N N N % $ N N N N % $ $ 5 B - q q K L L m $ $ 5 9 9 9 Z 6 s V u u u s S ! V [ r 3 y s n u Y E C k N % C V ) ) ) z C k M N N $ % % $ % $ * % $ $ # B ) ` Y x z z C d $ $ $ $ % $ $ $ $ % $ $ $ $ % $ $ & x 6 A 4 ] S w n u u X X O e e q & 5 5 f B W W W - - v - u 1 Y 4 6 u 1 1 u 1 1 1 @ ` 1 u V 1 ; G v s { . . . . .",
"   . . . X # & C B # 6 ; 4 u s , 4 _ 4 1 Y Y Y - B = = : A 6 ) 6 _ 6 s O . . O . X n x m * N N % % k k k k N 5 a a x _ , q w s V C $ $ $ ^ Z 9 Z @ u ; Y Y u s S } 1 u + t w K S s Y F R % % $ E _ Y u - x z % * ~ k N k % * % $ l ~ $ 5 & W v ; ! F E z C N $ $ $ $ N N N N * * ~ * % % % N $ % = W v s y n w n V 1 e . O O e 2 C % = = W @ : U u - v ) - ) Y 4 4 u 1 1 1 ) 1 4 4 4 1 1 W ; ! W W s { . . . . .",
" . . . . X # B T W _ 6 v v u u u v @ 4 1 v 1 s 4 @ 9 W ) : v 1 u B 6 s O . . X . O n x % * * * % $ % * N d 5 & E = x _ 2 7 7 [ V C N $ d $ f f f 6 L u V u V s s ! ) u e r t y w G F a a 5 & R x v u s V V G C C * l ^ N * * * l $ % $ & G - 4 V y S V F ( % $ * * * * * N l l l M l N * * N $ $ = G 4 ] w w u n V - e e + O + | z 9 & x B 6 ) ; Y ; Y V Y ; L V s s s L V u s u L s s s V V ! G F n r . . . . .",
" . . . . . v G.  ' v 6 6 : 4 u 4 4 : 4 1 @ , u v v A W 1 6 6 _ Y & = s O . . . . X n B % * * N % * N N N $ & R G # B 4 w S w s u k N $ d N $ d $ B ! V V V V s S ! 1 u r + 3 w s I x R & = G # 6 1 Y s y S Y x a ( k * k % * k * & $ & x ) ) 1 S 3 y y ! G C % ~ * * M k k k k ~ * j * k k % N % x ; v q y K s b D ; X r + X +.. G E x B Y ) W u 4 ) 1 u ; 1 V ; u u ; u u 1 u u u ` 1 ; ; - ) ) Y n r . . . . .",
" X . . . . v 6 = U 4 4 1 1 s u 1 V : 1 u ' u 1 ) ) : v ) ) ; x B $ & ! X . . O O . n x % N N $ $ * $ N % & x G ) : 6 - S.. r s u C % N N N N k k B ! V V V V s S S 1 s 3 r r 7 s.  E # G Y _ @ @ ; u s n r | Y _ ( C C % N $ $ $ f $ B B 6 _ s e + 3 3 w F G R ( * N N N * * % k N N % * N $ $ % ) W : , K w u n ! 1 X . X O + w L _ W 6 W W ) ) s s 1 ) ; 1 ; ; ; ; 1 ; u 1 1 u V 1 u u 1 V V - x S n . . . . .",
" . . . X . @ @ # W 1 6 v u Y 6 ; L @ ; Y ) Y _ - ; = B P E E & f N & ! X . . O O X n x % N N N d * $ % C C x ) v 4 U.X n s | , < % % % % % * N l B ! D V V V V ! i @ w + t w S 7 T 5 B 6 _ - 6 Y Y } S w r y | V E R R z % 5 $ d = B x : @ 1 | e O 3 3 w S ! E z C C % % % % % % % % % $ 5 % 5 C B 6 : q K w w n i @ y . . + e 2 Y ) : 9 _ W W L S n s 1 1 4 v 4 4 4 _ 4 4 4 _ 4 4 ' 4 4 ; _ : 6 x S r . . . . X",
" . X . . . v v x V V - G ) F F F D G V F F F G Y V x E z C f $ N k C ! e o   O . X n x a * * * % % % k C & = 6 4 q u.X.. p i i > $ 5 5 $ N * l ^ B ! V D D L V s i @ , r y ] S u R x _ : v v ; I D n S S r w | | Y - - x = = 5 5 P B W @ W 1 s e O 3 3 y y.. ; x a 5 5 5 & a & 5 5 % 5 $ = = f 5 # @ ' s K K w u , < h t . r b S s 4 _ @ _ ; L ! w r r w 2 , < < _ v 4 4 4 4 4 4 4 4 ) ) ; # c B B L n . . . . .",
" . X . . . 0 0 9 6 ; B f # B 5 & 5 B & 5 = = = = # & & f $ ^ ^ ^ Q C ! X   . O O . b G C * N $ N $ % % & B : v S e K V Y v | r , $ 5 $ $ m T T T x ! F V V V ; - X i @ t O t n ` R B Y v , v ) I P I u n r t w 2 | Y u ; G G x E.o : ) 4 v @ i r e r + { {.. u ` I G E G I F G x G I G x F G = 6 Y V S y w K S v r X < > O w s L u 1 1 6 - ! } L w.. y y y y q < 4 v 4 1 4 1 1 4 4 ' ` 4 9 c c W & L n . . . . .",
" . . . . X : 9 f = B B x G - ) _ 1 1 1 - 1 ; ; ) - 1 1 - G G G.o u 1 S r O . O o e e S _ = m * M % % N N a G L K w.. y K 4 u X V : l *.o [ s | s.. [.O [ [ Y 7 l X.X = - e K 7 S 7 7 i _ _ G G x s g.+ g V |.... s V s L u ) ) _ 6 6 ' W x & C.  S b n y y r 7 q u u s 4 ) s 1 v , s s 4 1 u 4 ; 2 w w S 2 | w v 1 e i @.. b S u - _ 1 1 V.X V V w n S n y y y r 1 < > < 4 v v 4 > U ; A c.@.@ B z ! 3 . . . . .",
" . . . . . @ W g G G D } V ) ; u < 4 1 U U U ; ) ; - ) ; Y G ; V _ 6 s [ O O O O . . e | x a % N k % N $ 5 & _ ; u w y r s 1 v 9 q a ( D } Y Y s V u F s 7 V s x 9 9 $ - r K t n 3 K , 1 Y - V ; ; s L s S n u y u u u u p 1 i i 6 : 6 u ) = P = s e e r 7 2 ] ` ` u ; u ` 4 ) 4 q u s u 1 v @ s 2 2 7 r.. s n.. 9 6 # @ Y Y Y V v - ! ! ! ! V V s y w y K t t t K 2 , v > v 4 < q v :.#.# Z / B z S 3 . . . . .",
" . . . X . 1 ) W W V s S S 1 v , v 4 4 4 W ' ' ) < 4 < ' ) 1 6 0 A 9 ; 4 S r + 3 O . . X S Y z C N $ N * N 5 & x i s s s n b 1 _ u & ~ T.  F.. [ 7 V V F Y s V.X } Y Y | r O r r + 2 s , ; [ ; `.$ V L U y 7 S y | u 4 p u Y u n i @ _ u.+ L.+ ; Y r y 3 t K S 1 4 1 1 L u @ 4 u 1 4 u s 1 : : s r S | n.X V.X b.X F = B E B x _ Y V L s V V V ! s y S y y K t t y { w 2 , < > < < A 0.#.@ Z.@ & z S 3 . . . . .",
" . . . . . , v 6 1 S ] 2 r 7 < > < 4 4 4 4 4 4 4 , 4 1 u 4 9 0 A 0 9 D = V } e + t 3 + X y L I P C % k k * $ $ 5 # _ 1 4 u b 4 @ E 5 ^ % a - F ; 1 s s V Y V Y.$ L Y Y ! r + 3 3 t r ] 1 ` L.$ g J d I n 1 w y K ` s 4 v s } u ; > p 4 V ;.+.$.$ Y S S 3 t w s Y @ 6 1 Y 4 @ @ u v 4 1 u 1 # A - - V V D Y B x F.  ( & k f 5 R x ! ! V V V V ! V s y S y y y y y 2 t 3 3 { 8 , < 0 c 0.@ / /.% B z S 3 . . . . .",
" . . . . . 9 0 U n K 2 t y y t < v < < 4 4 4 4 4 < 1 4 9 0 c A A c 9 D # x Y S b 3 + 3 + y r K V x z k % k % % 5 & x - @ : S - 6 B d d d # : & * R L s 7 s F Y s L V _ u K K r y 3 r U ; V I.$.&.*.*.= E ! 2 K , 7 ] ] K e S ] ] q S D.  C.-.;.: E G L b S s u Y 1 1 V u 1 _ v V ' 1 1 1 1 : A _ = E G z 5 f $ 5 $ * % N d z D ! V L L s V V V V 2 y w y t y K y t { t 2 { r w > 0 c Z.%.#.@ / E z S 3 . . . . .",
" . . . X X 9 : s S S 2 S 3 t y w 4 < < < < < < 4 1 9 c c 0.@.@ Z 0 A ! % C P ) [ K e y + 3 X O r V G C % * * $ $ $ $ B _ : s ; B R & % % = = j.>.>.O.  7 s | L L L D 6 U [ 7 L | K V ;.  T f.,.<.1.2.3.< E ! V ! 8 2 3 3 w { 3 8 L I d.4.5.=.6.7.8.9 C D L.X | 1 Y u - Y Y v _ Y 1 u u ; Y W @ Y x E C 5 $ $ * * C % $ % E D ! V s s s V V V V V w n K y K y y y { { t w K y 2 v 0.0 0.@.@ Z / z z S 3 . . . . .",
" . . . X . < 2 n u n u s b t w 3 s q < < < , < < 0 c.#.#.@ Z Z /.@ Z.  % $ & = ; ; [ ] r + . X + S u x a % $ l l N $ # p @ V G B x z j * & k.>.q.q.>.  L s s F V u Y W U [ [.$ n.+.$ I T.=.w.e.r.2.2.1.t.5.< %.  b n n b n | Y - & ^.w.t.y.u.i.p.a.*.8 k E Y S ` V s 1 u s 1 Y V u V u u V Y - G C d $ N % ~ k * N l 5 G D D V V V V s V V ! V Y w r y y K y y y K t y r w 1 < 4 : c.@ / Z Z.@ & z S 3 . . . . .",
" . . . . X > q u s n u 2 y y y 2 e 2 < < , > 0.#.0.0.0.@.@.% / ^.@ 9 D * N T P.+ P V 1 y 3 O O O r S V F T C % C ~ C 9 v @ V ; P : a j l $ M.>.q.q.q.O.  V ].O [ V ; 1.+ [ W.#.s.# & I.=.d.f.t.g.2.h.1.2.2.j.k.l.z ^.%.x k M.,., M.c.t.2.v.1.b.n.m.M.N.B.  R s [ s s s Y s S u s V s V u V ! F @ $ N k * l j * j % $ R Y Y 1 Y s V V ! V u ! V V 2 y S y K y y t K K n K q v v , 4 c.0.@ / /.% ( z S 3 . . . . .",
" . . . X . 8 ] ] w S u w n y y y t 3 K ' : c.# Z.@.@.0.0.@.@.% /.# 9 ! $ $ z.;.+.$.& V n n y + + } n s L s W Y - ) # ) ) : S ) 9 U m j C 6 %.>.q.q.>.  7 7.X F V.X x F F.  J.5.V.C.Z.Z.A.u.S.1.h.t.D.N.F.G.H.H.J.K.r.L.h.1.y.P.P.f.f.w.v.I.p.p.U.Y.T.5 I n 2 4 V ` u ` ; ; ; ; V V u ; L Y F F ( z 5 f 5 a a & % # f = G V u ; u V L 2 2 | u F D w K S y y { { w t 3 y q < 4 < < v v c.0 Z.%.% z B ! y . . . . .",
" . . . . . 2 7 S.. y s w y w K w t t r , 0.0 0.0.@.# c 0 c.0 / Z.# = ! E a G B.;.$ P ) s K r y 8 S 7 s 1 u u u 1 B 6 ) : 9 S u 6 ) a * C & %.R.>.>.O Y u Y F L 7 6 _ x = C.E.k.w.W.Q.A.!.1.1.2.2.~.D.F.H.^./.(.).^.^._.t.I.`.k.k.J.w.w.y.y.'.U.y.M.].= E.. 3 2 ) < 4 4 ' 4 W W 4 W ; 1 6.@ # E R F G x G F F I I z B B ; L L s s L L S.. | S } D w y y y y t y w r 7 q < v 4 4 4 , 1 #.@ Z /.% B = ! y . . . . .",
" . . . . . 2 w K | S 2 w n y 3 y t 3 7 4 @ 0 c.@.@.#.0.@.@ / Z Z.0 9 F a E I I I P.o ; ` s 7 S s 7 y 2 < s S u 4 @ 6 4 1 ; S - _ = % j l l $ 5 J T } V u F F V q > @ # a $.4.[.g.A.1.1.S.2.h.h.t.H.{./.^.}.|.(.|X .(.(X..HXX.J.J.{.}._.K.r.h.[.j.U.V.l E.. 3 t } , < v v , 1 4 4 U ; W 9.0 # ! D S V 1 ; V V ; F V Y Y Y ; ; ` u 1 u 1 i u Y - L w r n y w t y y y q < > < 4 < 4 v ) W.@.@ Z.% z = ! n . . . . .",
" . . . . . w w K w S 2 w y y y K 3 y , v u @ 0 c.@ Z.@ c Z Z.%.% Z Z D = B a I = 5 P ; [ 7 s S | t w q q q q 2 : @ ) ) ) s n v @ R N j M ( F D.+.$ [ S s L ! Y x . | 6 $ MXo.t.g.1.2.2.2.j.2.r.h.H.{.}.(.(.|X .|XOX X X X+XOX.X.X@X..}.{.~.[.`X#.=.lX$ E.. 3 { y t 2 , < < 4 4 < ; : 0 Z.@ # D V y S u 4 1 4 W U ) - - 4 W v 4 - 4 1 4 1 1 # 9 } t 3 y K K y r K q < < < 4 4 < 4 4 ) 1 9.@ Z / E B S r . . . . .",
" . . . . . 8 ] 2 S y s w y S y w y q < v 4 4 v c.@ 0.@.@ Z /.% /.# Z !.X E G.  E C E.;.$ ` U V.X 2 w , 4 s u s u x G W ) S n _ 6.,X%.x j C B R R E a B B.&.o G B X 2 @ CX#.d.g.1.1.j.2.r.t.~.r.rX.X..(.|.|X@.|.(.}.|.}.}.(.(.|.}X+X@.}.^.K.`X#.RX#X#X$ E w 3 { S 3 y 2 , > > v < @ 0.# Z.@ 9 ! ! t r y 2 q , < , 4 4 4 4 4 1 1 ) 1 - ; V @ c 0 ! t y t K r r K u < < 4 , 4 4 4 4 4 W 4 6 Z.@ / z B ! y . . . . .",
" . . . . . 8 2 7 | S 2 w y y r K K 4 < < v v 1 @ 9 c.# / Z / / Z.% Z ! F G 5 5 % C z z.  B = B F 1 V u 4 L Y B V F x ) L n L B B.x.f.dX&.=.9.9X$ ^X$.xX$., / G - > # =. .k.g.1.2.t.r.F.~.FX*X*./.(.|.(.|.|X..|.|.GX=.}.|.|.}.}./X.XO.(.}X-.EXoX$X$X#.x E.. t t n w t y t ] , > :.0.0.0 /.# f n | t 3 3 y y 7 , < 4 4 4 4 p - ) 4 4 1 4 =.@ c A ! t y t y r S u ' 4 4 4 4 4 4 1 ) ; ) ) ; = Z Z T B V w .   . . .",
" . . . . . t K n w y s w y y y w q < < < 4 v 4 q _ 9.0.@ Z Z.@.@ Z Z D 5 E $ $ N $ $ ^ C a ( $ $ x W ! ! D D.$.  D I.$ V ; L ; x.x.[.L.QXoX#X$X#X$.RX#X$XoX$ !.. q - !X#.`.2.2X;.~.FX*.F.H.^.|.(.|.}.(.|.(.|.}.^._.^./.|.(.(.}./X+.(.|.J.4.k.kX:X#X$., T S 3 t s t t K 3 y 2 :.#.0 0 / /.@ : n | t { t K r 3 2 , < < < < v v W _ 4 W A.@.@.@ 0 n { y y y S u U ' 4 4 v 4 4 4 1 ) ; ; ) ; _ Z.% z E V w . . . . .",
" . . . X X q q q w y s w y y 3 w > > , < 4 4 v < 4 W Z.# / Z.%.@.9 f D 5 & C $ N k ( * m ~.  a R = I 5.% /.#.% / & A B B A B I F.x.2.1.1.vX>.`.*.`.d.U.VX,X< l $ !.X ^.w.g.t.2X1.K.H.}X+.(X+.(X..(.(.}.^.}.^.}./.^.^.^XOXOX .|.|XOX..c.8X%X%X%X%X:.x.x I K K y n 3 K t K K s v 0.0.@.@ Z Z 9 n w t y 3 t w y y K 8 , < < 4 - 4 _ u 0.# A Z.@ 0 ! w y y K u 4 4 U 4 4 v ) 1 4 ) W g 1 4 - Y =.9 T F ! w . . . . .",
" . . o . . : u L u S ] y y y y , v 4 _ v W 4 4 W W ) _ 0.0 f f.% / # L V u ) ; V V ; u V u 1 Y u L !.,.[X1.DX2.3.p.pX3.-X3.Q.UX#.d.g.h.S.2.1X;.L.gX<Xo.l.,.E.VX< Y.X.4.[.g.2.hX4X@XOXOX X@X .(.(.}.|.}.|.^.^./.}././.^.^.^.^.|.}.{X5.kX%X:.kX%X%X5X%X: E { 3 7.. r 7 r r q < < :.# c.@ Z.% f.X S w w y y w K y t { { q < v v 4 < 9.#.0 Z.@.@ 0.X 2 r r ] , , , < 1 4 4 - 4 4 1 4 ) x W G ).o A P u K e X . . . .",
"   . . . . @ 1 } y n ] w y r s < v 4 4 4 ) 1 ) ) ) ) - B A / / Z.% Z ! S s 1 1 _ v ) U v v ; ; 6 A = ^.I.Z.].6X6X7.W.aX8X3.p.e.c.g.r.h.S.2.2.2.2.L.~.{.^XX.~.F.r.4.lX9.2.2.1.2X;X .(.(X X .(.(X .}.|.}.|.^.^./.}./.^.^.^.^.^.^.^.^.~.k.kX%X%.d.dX5.dX: E.. 3 K y 2 y K q v v < 4 9.0 / /.% 5 L S y y y y w K K w y t w 2 1 4 v 0.0.0.@.@.@.@ 0.X w y q 4 4 4 v v.&.o.o x ) ).o.o - ) G ; ; ; : ; 7 w 3 X . . . .",
" .   . X . > ' L S y 2 w n n 1 4 v v W 4 ) ) ) ) ) 4 - ; B Z / Z.9 d D s b w < v ) 4 4 1 ; - 6 A c B k.jX1.*.Y.T.S.W.6.p.Q.Q.*X0.2.h.1.2.1.hX4.~.e.F.}.(./.^.G.F._.r.h.2.1.h.t._.|X X X@.|.(X X@.}.|.|.|.^.^./.|.^.^.^.^.^.^.^.^.}.^.{.cX:X%X:X%.kX%.k x { 3 S.. 3 r ] < v 4 4 1 W 0.@ /.% # L S w S y y K y y K 7 r K y y 1 9.#.0.0.% / /.# Z !.X ! Y V L V Y V.  F Y p p i i i I I F - ; ; p w e y 3 . . . . .",
" . X . . . < v u S K u S n s v 4 1 4 4 4 ) 4 ) 1 ) 1 ) ; I x 5.%.z f D [ r y 2 h ' v 4 ; v 0.0.0 0 a ^.iX3.].:Xq.u.p.V.].Z.i.7.H.2.1.2.2.2.h.r.F.F.).(.(X@.|.}.^.^.F.t.2.2.~.HX..|.(.(.(.|.(.(.(.}.|.|.^.^.^.^.^.^.^.^.^.^.^.^.^.).}.}.KX2X:X5X%X%.k.k B y 3 7 y r q < < v 4 4 v ) =.@ /.% f.X s y y y y K K K w [ r w { 3 q A.# 0.#.#.: /.% f B ^ / C ^ ^.z ^ ^ $ ^ G V i i u Y.;.  D ; } r e X . r y . . . . .",
" . . . . X : : W ] r ] S n q 4 1 p 4 4 4 4 4 4 4 4 1 W W G I B.@ / f.$ S K t { 2 v 4 4 : c.#.@ Z Z 5 T.'.p.p.].a.2.wX&X7X9._.K.J.h.1.2.jX1.t.rX*./X@.(.(.(.(.(.(XO.H.e.t.h.r.DX*.}.(.(.(.}.}.(.(.|.|.|.^.^.^.^.^./.^.^.^.^.^.^.^.{.^.^.}X..JX5.k.c.k.k R.. K y b s v v 1 4 W 4 4 4 ) 9 Z.@ #.X s w y y K y y y K n S K t , , ' 0 c.0 /.: / / f Z.F.f.EX-.cX2X2.I.j.w N.& 5 f z I P I.+ ) b X X 3 b K t . . . . .",
" . . . . X : 9 : @ S s S s 4 p p 4 4 4 1 1 ) ) 4 4 - ) - ; G G E / # V 2 3 t t { 7 v 0.#.#.0.@.@.@ R ^.t.SX1.3.!.[.k.BXoX<.f.7.c.t.2.2.2.2.h.r.r.(.|X.X@.(X X .|.(.{.e.2.1.1.h.G.}.|.|.|.}.}.}.|.|.}.^.^.^.^.|.^.^.^.^.^.^.^.^.^.(.{.}.|.}.}.7.8.k.'.k R w 3 b w 1 4 4 ) U ) ) ) 4 ; x f.@ = L 2 y y y K y y K t y 3 K q > < 1 :.0.0.0 Z /.% f f.2X9X&.k.l.'.t.L.L.*Xw.;.; P z T D L ` U r X O 3 n K w . . . . .",
" . . O . . < @ ) : u u s 1 W 4 4 v 4 4 4 4 4 4 W < 4 ) ) ) x E.  R # V 7 t y r w b @.# c 0 0.@.@.@ RX#.t.1.L.j.2.LX,XoXoX&.k.7.H.t.t.h.2.2.hX4.t.|.(.|.|.|X..|.(.(.}.K.L.h.2.r.G.}.}.}.}.}.}.}.}.|.}.^.^.^.^.}./.^.^.^.^.^.^.^.^./.|./.}.|.(X+.7.c.k.k R.. 3 S p 4 4 ' v 4 ) W W 4 - G B / # ! 2 w y y w y y K K t y q < < < , < 9.0.#.@.@.0 f #.dX<.E.E.xX<.d.'.'.5.  S S 7 V D V u 1 s r + X + n K 2 . . . . .",
" . . . . . v : ; u 1 ) s s ! s S s s s u V s L s s s L Y V.$ F F D Y | u 3 K K r 1 4 @ 0.#.@ Z /.# zX#.L.v.g.r.g.h.dX#X#.`._.{XX.t.~.r.2.j.2X;.[.|.(./.|.(X .|X.X .(.|X=._.G.(X ./.|.}.}./././.}.|.(./.^.^.^.}./.}.^./.^.^.^.^./.|./.|.|.}.|./X+.~.k.k B y t , v 4 4 ) 4 4 ) ) ) 4 ) x I A 9 n 2.. y y w y y K t 3 , > , 4 < , < v c c Z.% / #.#.t.k.cX:.J.c.d.y.y.*Xw ; , U ; I 1 1 7 . . X . 3 K w q X . . . .",
" . . . . . < ).o 1 1 v B a z & & z C C.  % C k J T.&.;.; } } Y u D F V.. 2 n n u ' ' , > 0 c Z /.0 z.9.~.f.g.g.g.t.dX&.l.kX-.#Xe.J.t.1.1.2X4.r._XO.(X X .(.|X=X=X X .(.|.|.|XOX .^.G.G.^./.^.}.}.^.^.^.^.|.|.|.^.^.^.G.^.^.|.}.}.^X../.^.^.}.}.^XOX..s G } U < < < v 4 4 4 < < , ' , 4 h < v ;.+ t y K t r y K r q 4 < 4 4 4 < < ) 6.# Z.z.9 %.%X-.`.c.c.d.[.[X;.1.I.z ( ( a R x ` ` u e X + X + ! D ; .   . . X",
" X . . . . 4 ) B : _ 4 x B z f / z & a x $ 5 $ f & B ; g U V u Y I D V S S n w 4 ' U , 4 6 0.%.z.0 z %.4X#Xo.xXo.xX#.xX#.J $ 6.#.H.~X4X;.r.F.H.G.(.(.|X@.|.}.^X*Xr.^X=X=.}.^.|X.X=.^.^.^.^.^.^./.^.^.^.^.^.|.^.^.^.^.^.^.^.^.^.^.}.^.^.^.^.^.^X.X X+X. 5 b } } [ } ! ! ! D D D }.+.$ V Y ! V B G 3 w y y K r K , v v v v v v v < 4 v A.%.z.# d.9X0X=.{X-.~.8.N.u.!.*.B T E E F.X 7 s ] K y K 3 t V.  ) .   . . .",
" X . . . X @ W z # 6 6 B x F E z B G V F I. .  E G I.$.+ g ) I x F L V 2 r t q < ' ' v 4 1 6 Z Z.# C J.9X#X$.,., lX#.x l.J $...sX .H.tX;.F.HX@.|.}.}.|.|.}X=.{.NX;X4.N.DX=._._._.^.^.^X=.^.^.^./.}.}.|.^.^.^./X..^.^.^.^.^.^.^./.}.^.^.^.^.^.^./.}.(.(X2.#X5.4.4.4.s.s.s.s.4.0.9 T 5 & C C % $ E y y y y r y q v v 4 4 4 4 4 4 4 4 ) P Z Z.% %.9X=XrX@.|.H.3X6X6.b.p k ( R !.X w r r K K S S K s - E P X   . . .",
" X . . . O : = & W W 6 _ x G G F F V s V V I.o P ) ; ;.+.+ I.$.+ ; V u 2 b 2 , < ; ; 1 4 - ; P A.@ C J.4.4X#X$X#.x.RX#.l.4XtX5X X0.H.NX;.F.H.(X .^./.}.(.}.G.H.F.1.2X4.FX=._.G._.^./.^.^.^.^.^./.^.^.^.^.^.^.^.^.^.^.^.^.^.^.^./.^./.^.^.^.^.^./X=.G.{X=.}.|.|.|.}.}.}.(.(.(.(.(.J.8.4X%X%X:.s a y y y y n u < 4 4 U 1 ) 4 ) ) 4 4 ) x B /.% 5.%XrX@.(X+.|.3.W.W.m.6 H E Y.. y + w y y S ! s D ; B z B X   . . .",
" . . . . . 6 = f B x x _ : @ 6 - } u ; s L ) x.  ; V ) ; I.; I.; I V s s w < < 4 W _ - _ 6 ) I B.@ C H.xX&.=X&X7 ^X#Xo.l jX#.%X5.4.3X4.NX*./.}./.^./.}.(.}./.)X*.[.[.G.{.(.|.^.^.^.^.^.^.^.^././.}.|.^.^.^.^././.^.^.^.^.^.^.^.^.}.^.^.^./.^.^./X=X=X=X=._.{.^.}X=./././.^.^././X+.7X%.V.k.cX5 R n w y y q < 4 < W ' ' W 4 ) 4 4 4 1 4 ; 9.0 d.9.^.}.(X.X0X7.W.QX7X6 z G V e + 3 w w w S V I G E a C & X   . . .",
" . . . . . 6 & N 5 B x B # @ v p ; ; u L L F x E f.o B z.;.o P.& z I ! ! u 4 U U _ _ x ) x W x G 5 T.4.F.w.w.I.8.4.c.cX%.k.x $.0.iX4X;.G.}.}.^._./.}.}.|.(.(.|.{.{.^.|X..|.|.}.|.^.^././.^.^.^.^.^././.^.^.|.|.|.^.^.^.^.^.^.^.^.^./.^.^.^.^.^.^./.G.}.K.K.}.^.}.G.)./././././X@.}.(.[X<.EX%X5 ~ r n S u 4 4 4 4 4 4 4 4 4 ) 4 4 ) 1 1 - _.# %.z.J.J.7.7.k.V.P.!.uX2 f u y w t + { y S ! V G z z 5 k & X . . . .",
" . . . . X = C J = B P W @ v , q W Y Y Y x F G z f E 5 % z & & = f & E V G - G x - x x ) F G ) Y I. X5.(.}.^.~X5X:.B.l.E.xX< j.x.I.h.[.{X X..{._./.}.(X X .(.(.}X .(.(.|.|.^.}.^.G.^.G.GX=.}.^.}.}.^.^.^.^.^.^.^.^.^.^.^.^.^.^.^././.^.^.^.^.}.|.^.{.}.^./.}.G.}./.{.^.^.^.}.^.}.(./.}.KX2X:.8 J n r 2 4 , 1 4 4 1 ) ) ) ) ) ) ) 4 4 - _ G Z 5.9XO.(X=.N.a.M.p.!.d.B F s K 3 O + y y S u G R & % * k & X .   . .",
" . . . . X B z J z B B W # @ , w D F B 6 9 x E I I I d % C a & P ( % ^ 5 # = = = @ 6 B = : 6 6 @ & z.9X5.JX+XOX.._.t.v.g.L.g.y.i.j.[X=XOX X .|._./.|.(XOX X .(X+X X .|.G._._.}.^.^X=.^./X=.^./.^.|.^.^.^.^.|.^.^.^.^.^.^.^.^.^.^.|.^.^.|.^.^.^.^.(.}X..}.}./././.|.^.|.|.^.|.|.(.(.(.^.}X=X2.8 J y u p < v v 4 v v W W 4 W v W ) ) W _ i - x %.4XOX@./.a.Y.n.M.M.d ~ D w + r +.. w S ! Y G R % % $ M d X .   . .",
" . . . . X 6 B C 5 R a B - - ) 7 t r s Y 6 6 I L.$ U ` s ` 1 u 1 u u ; 1 1 ; ; 1 1 1 4 1 V V.o ) - Y ; D.sXOX .(.(.|.F.t.h.1.L.L.1.r.^X X..}X=.{XOX .(.}.}.|.|.(Xr.|.|.(X.X@.(X.._.{.^.|././.}.}.}.|.(X.X../.^X=././.^.^.{.^X=.^X=.^./.^X=.^.^.^.GX=.G._._.{.(.|./.}.)XrX*.}.|.|.(X@.}.|.(.^.7 T n D ! V Y V V V 2 2 2 2 s s s s ! Y | - ! D.X /.K.t.w H.&.:.: & W 1 S r y y + 3 L V G E ( C ~ k * N # X . . . .",
" . . . . X _ z C % a 5 = x Y 1 W t K u Y G G I.+ L ; V } s 4 4 p ' 4 4 ' 4 ) ' W 4 ) U 1 ) x x G u W A B.sXOX@.|.|.|.H.NX4.2.tX4.h.F./.(./.GX*.F.(././.|.}.}.|.|.}X=X..}.}./.|./._.^.}.|./.|.G.NX=X*.^.^.^.^.}.^.}.^.^.^./.G.^./.|.|.^.^.}.}.^.^.^.^.^._._.^.}.|./.}.^./.^.|.(X../.).}X../X..(.c.4.4.9.,.#.4.9.z.9.9.9 / / / / / / z & R Z / /XeX4.IX9.-.; g.; ! s s S y w w r.. L V G E R C % * * H # X . . . .",
" . . . . . _ z C C a a = = x ) 6 , 7 u _ W D V ) ` 1 V n n u < 4 ) U 1 1 1 1 U 4 ' ) ) 4 4 - ; ) 9 A.0 z.%XO.|.(X@.}./.{.K.F.HX*.F.HX@.|X*.F.N.N._.G._.^.}.}.|.|.}.^.^.^.^.^.^X=.}.^X@X .|.G.FX4.r.t.FX=.}.|.|X..}./.^X=.^./.^.^./.|./X../.|././.|.|.|.^./.|./.|.^././X..|X..^X.X=X=./.(X.X@XOX X+.}.).GX=X=._.D.{.{.K.K.K._._._.FXe.HXt.|X../.^.L.t.f H D L [ D n y y y w w S 2 G x x z C % % % * k 5 X . . . .",
" . . . . . _ z C ( C z z & & z z v - V Y ) ) ) L s u s K n S 1 v 4 4 ' W ' 4 4 ' ; g ' ) 1 - v 9.0 A.@ P.%XO.|.|.|.}.}.}.}.|X X .G.|.(.|X*.N.r.rX4.[X=X=./.|.|.|.(X@.}.}.GX=.}.}.^./X@XO.(X*.eX1.j.g.j.r._.G.^.(X=.^.^.^.^.^.^.^.|.|X@./.|.|.|.|X .|.|.|././X../.G.|X..}.|.}./X=.^.^.|.(X+.(.(.|X X X..|.|.^.^.G.{._._._._.^.^.^.D.eX=.{.^.^.^.{.1.g.` % F s y ! S S S S S | s Y E x z a % $ N * * k 5 X . . . .",
" . . . . . _ R J ( C C ( ( & & & = B ) _ : : 4 n } V s S n r w , 4 4 < < 4 4 4 4 ) W ' ; ) : 0 c 0 9.0 &.#XO.|.^.(.|.}.}.(.(X X .(X X .(.G.h.h.t.1.h._.^X..|.|.}X X+X..}.}X..}X..^.}X X .|.{.~X1.2.h.2X4X;.F.H.}.^X=.^./.^.|.|.|.}.|.|.|.(.|.|.|.}.|X..|.|X@.}.}.}.^X..^.^./.G.G.(./X+X-.F.DX=.DX XOX XO.|X..|.^X=X=.}.}.^.^.^./._X=.}.|.|.(.|X..vX>X% C ! r r.. 7 w S S s V Y - E R C C % % * % N k 5 X . . . .",
" . . . . X _ R J ( R C C z a % & B x G 6 9 ) | n.X u u y y y 3 t 4 < v < < 4 < < W 4 U 6 A.@.@.@ Z /.# z.9.(.|.^.|./.^.|.|.(X X .(X X .(._.t.t.r.L.2.F._.^.|./././X+.7.FX=X-.}X@.(.}.|.}X+.^.HX*.K.F.r.hX;X;.N.F.{.^.^./.|.}.(.|.(.|./.|./.|.(.|X=X*X*.}.}.^Xr.^.(X-.K.KXr.N.G.}.^X=Xr.3Xy.uX4X1.(XOX .|.|.^.^._././././././././.^.(.(X XOX .(.H.1.wX$.  w { 3 y t t y s Y G x x C m % % % * * % l k 5 X . . . .",
" . . . . X W R ( R R R C % 5 a C a 5 B ) v 1 |.... | | y y t t t ] q 4 < 4 , , , 4 , @ 0.#.0 / /.@.@.# &.#.}.|X..|X..^.^.|.(.(X .}.(.(.}._.h.t.f.v.f.[.^.|.|./.GX1X4.Q.!.1X4X=.}X ./.{X=X+.{.H.}.|.{.NX1.u.u.*X4X*.G./.^.}.}.|.(.^X..}.}./.}.}.H.a.T.3.G.^X=.^.F.JX5.e.*X1.pX*X=.t.[X;X1Xy.u.Q.M.).}.^.G.^.^.^.^.G.G._.^.^.^.^.|X@X@.(X.X ./.|.F.v.d ~.X y + 3 y 3 y K u ; G z z C % % % * $ l l l H 5 X . . . .",
" . . . . X v R ( B a R R a % a a m & P ) @ u n.. V S S w y 3 t t r 2 , < < < < , h #.#.#.@.@.@ / / /.% %.4.|.^.^.|X..}X=./.}X@X@./X X..H.[.h.w.x.V.w.^.(X..^.^X*.Q.C.A.b.b.L._./XO.}.F.3.eX-.HX+X .(X=X1.pX3X6.a.G.^X=.}.(./X.X.X0.~.}X+X=Xr./XtXu.n.M.DX*.K.e.dX5.J.[.QX3.M.GX*.L.S.S.Z.ZX3X7X3X-.}.}X@X@./X@.|.^.^.^.|.|.|.|.|X@./.(.(X@XrX=.F.2.w ~.X t + 3 e 3 y S V Y I z C ~ * * ~ ~ % % * l H 5 X . . . .",
" . . . . X x ( R R R z C a & & C B ; ; W 1 S y t r | 2.. y y K K { { 8 > > , v @.#.%.0.0.@ Z.@ c.9 /.@ z.,X=._X=._.}.|.^.)X*./X X..}.)XtX:.xX#.,.f.FX-./X X+.N.T.D.a.MXi.n.u.e.{X+./.(.KX:X%.t.NXX.~.w.'.U.Y.m.6.D.G.}X X..|.H.wX>.t.3X..^.{.7.6.<.Y.n.W.V.dX%X:X%.V.P.p.M.mXp.TX<.V.l Q.W.Q.WXu.N.D.^.|X .|.|.|.|.|.{.^X=X=X+./.|X XO.(.GX;.1.2.1.` a | 3 { e n y n.. ! F x E E 5 % * N * k % $ * N 5 X . . . .",
" . . . . X x ( R R z z R z a & 5 W ; u ` u 2 w y n w | y y y K t 3 t { 2 < v :.#.@ /.0.0.0 0.@ 0.z.@.# &X#.K.t.w.N.K.{.3.3.3.a.G.(X@X+.|.`X:.x.x.dX%.N.G.(./.3X8.n.Z.b.W.C.Q.pX;X@X+.}.~.dX%X2X*X .~.f.yX9XeXe.3X*.K./XO.(X+.HXe.dX2.H.H.e.d.U.Z.6.mXyX9.w.w.c.J.d.EXyX6.TXuX3.!.f.t.r.*.].M.u.1.e.D.~.{.^.{.(X.X..}X=._.G.{.^.(.{./X..H.e.1.2.y.uXe f S { 3 r e 7 K S S s Y Y x E R C * * * N $ * M 5 X . . . .",
" . . . . X x ( R z z z z & & x R W u s S w 2 w y S s w y y y K w w y r y , 0 c 0.0.@.@.@.@.@.@.@.9 Z c z k.`.w.~X;.[.rX4.MXp.nX4X..(X@X..`.d.kX5.d.w.I.j.[Xy.]Xp.-.6X2.].a.S.uX4.F.K.e.I.tX4.3.GX+.}.K.t.7.F.)._X=Xr.{.H.HXXX-X..cX5.DXr.e.y.a.].l.5.k.8.d.F.F.c.cX:.5.nXu.Z.b.1.7X2.*.a.Z.]X1.L.~.rX;X4X1._.GX=X+.)X=X=.F.H.H.~.tX=X+.{.r.h.2.j.M.].:.; [ + 3 t 7 t w w | V u 1 G x C % * N N % * N 5 . . . . .",
" . . . . . x z R z R a a = B F x 4 |.. S y y y S s s w y y y 3 t t 3 K K u : c 0.#.@.@.0.0.@ / /.9 9 c & kXo.E.w.p.p.j.]X6.Y.YX4XOX@X@.HX%.d.kX9X<.d.i.-.'X9.]X3.U.3.3.!.S.1.S.S.~.[X1.SX4.[X4.DX@.|._.K.H./.}.^X+.JX9.~.K.^.}.|.|.).GX1X;.M.!.Z.'.d.V.k.e.~.HX-.`Xo.].]XpXy.!.v.8.U.UX3.Z.M.2.[.K.*.W.b.!.1.NX*.).}X=.~.~.e.kX:.j.j.i.d.w.d.W.V.C.M.6.z.+ n + t y 3 y w 7 7 s 2 Y x z C % N N % * N 5 . . . . .",
" . . . . . x z R E R a B B ; Y @ ,.. y S S n n 7 s L 7 y y K 3 { 3 3 w ] U 4 v.#.# 0 0 c.% Z Z /.9.@.0 a.BX%X%.7.L.h.[.3X0X0.7.G.|X.X+.HX:X%X%.8.2X4._ Q.i._Xy H.& = & & d C d fX%.~.[X;.SX4.N.NX+.(.}.}.|.HX0.`XX.kX9.r.K.G.(.(.(.}.[.a.M.MX7.Z.!.I.iX%X-.{.f.k.d.k.=X6X8.W.VXo.4.8.VX7X7.Q.g.~.KX4.Z.C.W.bX1.DXrX*.F.J.w.~.f.d.'.y.y.d.d.'.PXy.A.A.Z.!Xy T.X y r r 3 t w w t K s Y E R ~ * N N * N 5 . . . . .",
" . . . . X W z C R z R B W ; ; v u n n S [ u s.+ s s s n y w y t t 3 ] < v 4 1 6 c c 0 c.@ Z Z.% / /.0 aX#.f.t.D.F.KX-.HX+.(.)X=X=XrXr.7.kX:.kX2X;.8Xe.5.E.z B : ` ; ;.o I I I I k.8.7.h.1X;X;.FX+./.}.(.(X .HX%.4.k.kX%X2X2X-.|./.F.I.u.Z.TX7.Q.!.'.h.~.K.}.`X<X%.lX2.*.8.<.lX# j j.V.Q.Z.Q.d.kX&.U.Q.nX7.T.3.G.K.7.k.8.J.fX%.w.f.j.[.K.~.t.u.Q.C.C.A.1.g.4 ^ F K K n y y K K y S s G R % N N $ * N 5 . . . . .",
" . . . . X W z C C a E B 6 W U s s n S S L ; ;.o V V V n y w y t { t < < , < 4 ) : A.@.#.0 / Z /.9 Z.0 &.l.t._X=.HX..^XXX X+.e.g.[.e.p.i.g.d.7.e.[.eX-., T _ >XaXsXdXaXf q > h , } %.E.w.2.h.~.F.(./.^.^.(X+X+.7.dX:X:.8X2.eX-XtXe.8.5.B.].Z.M.[.2.Q.L.e.e._.w.d.~.7.3.G.F.EX#X$X#X#.V.v.v.v.2.2.y.Q.Z.M.M.M.7.`.dX<.k.kX<Xo.l.PX9.P.'.dXoXgX7X3.m.Z.u.w.`.JXt 5 s u S y n y w y 7 s ; R % N N $ j N = . . . . .",
" . . . . X W z a z a E W 6 v < w 2 S s s L D D.o ; ; ` n n w y { 3 8 > < < v 1 4 u @ 9.@ / / /.9.9 A.@ z ^.e.~.wX+XO.|.(.(.H.IXh.!.p.V.V.w.f.~.-X,X<.4 C F ,XdXjXkXlXjXz 8 < 2 2 n ! TX<.f.r.[X*.}.H.~.).(X@X@.^.d.f.f.`.7.e.K.}X=.~._X9Xy.M.Q.v.L.v.S.SX4.G.F.KX.X X-.GXr.dX<X: l.`.dX,Xh.2.1.1.u.ZX8X3.T.N._.^.y.dX%XoX#X%.g.2.~.e.g.yX%.k.UX3Xe.6.-.B M j $ T u 1 V S n n w w 7 s V E C % N $ j N = . . . . .",
" . . . . X 6 B C C ( z B W 4 u K y y s s } U.+ K I ; s r y K w r q v < 4 v < , v v 4 4 9.0.@ Z /.@ Z.@ B C.4X2.h./X@.|.(.}.e.P.]XuX3.bX3.Q.2.i.l.P.z <XdXxXcXvXbXnXnXnXnXnXnXnXmXlXvXM 6.4.a.N.D./.FX*.^X+.|.(.^.wX+.eX%X%.7.H.F.~X%.V.V.n.m.M.1X4X1X;.t.K.^.^.(X@.(.(X+.^X5X<X<X$.x.xX%.f.y.yX>.W.nXqXwXeX..(X@.[.w.V.wX9.P.k.t.).F.h.2.2.3 f : : 1 u s w w y q K 7 u b n S n w L L I E C N % N * k 5 X . . . .",
" . . . . X W z C % & & & x ) ; s s w w s S s ` g g ; 1 K y y r K 4 v v 4 v < 4 v v v 4 W A.#.@ f / / / 5 E ^X9.w.p.a.wX-X-.JXe.<.6Xq.Z.QXh.LX;.j.l =XfXbXNXkXNXnXnXvXnXnXNXBXNXmXVXvXC w.z.p.U.].8X4.[.D.}X .^._.r.eX2X9.k.4X2.GX=.F.w.*.TXe.T.S.)X*.}.^.(.(.|X ./.(X../X+.{.tX&.RXoX%.IX9.y.'.d.i.TX8Xe.).(.(X.._.e.w.e._._._.K.}.~.L.v.i.=.  L s s u s u u 2 , u 1 4 s s w n y V F.o z & $ N N * k 5 X . . . .",
" . . . . . _ z C C C & & B W ) ; u 1 u 1 u S S u.+ L ` S y y y q 4 v v 4 4 4 4 4 1 v 4 ; B Z.@ Z Z.% / R RX#.x.7X-X*.).H.FX4.].n.].n.Z.p.j.j.f.8 @ hXbXNXcXZXAXAXlXSXnXnXnXnXSXmXVXDXF o dXeX7.Y.n.a.!.aX;.KX-.7X;.j.L.t.k.~.~.8.7.~.wX7.m.DX=.K.(.|.^X+X=.{.|X .^X=.}.}.^.{.[.V.V.I.w.j.[.K.K.{.{.N.3X0./X XO.}X=.HX*.e._.^X=.{X+.D.1.2.l F.X L } s u s 1 4 2 2 1 4 > q u 2 s i G.o z a % $ N N * k 5 X . . . .",
" . . . . . _ R C C C a & & B x G ; v 4 v 4 s y r L V s y y r ] 4 4 4 4 4 4 4 4 , 1 ) 4 ) ; ) #.@ / f.% % T.,.,.EX-X+.{X=._.aXuXpX3.b.Z.Q.y.5.x T hXdXkXkXSXDXVXVXSXvXnXnXSXmXmXmXmXZXF o }XwX8.].b.nX7.M.S.1X2.0.u.*._.j.2X<.k.l.c.{.K.UX2.F./X+XtX*.G.G.*X2.K._X=.e.)./.G.{.F.f.*.*X4.pX4.D.}.(.|.).)Xr.(.|.|.^././X+./.^.{./././X;.S.* R | { 7 S S S s ) v 1 V p v @ i u s u _ x R z a % % * * * k 5 X . . . .",
" . . . . . _ R J C a C z B & B B G _ - 6 : v , y.X u u y y S 1 4 4 4 4 W 4 4 4 4 _ 1 ) _ - F ) # Z.9 / C (.x.xX#.i.N.e.N.eXe.]Xq.m.]X4X1.5.- J TXGXbXNXkXlXFXHXAXvXHXSXSXSXSXmXmXVXVXlXJ e.-.Y.Y.C.nXq.U.bXp I -.$.-.8.kX<XgX9.t.J.~X=XrX=X-.(.(X+X2.U.p.a.u.j.t.I.w.KX=Xr.}.G.K.p.].p.WX4X*.}.|X X .|.}.(X@.|.}.(.}.).|X../.|.(.^.2.y.z Y { { r 2 w 2 u u Y V D 1 - v 1 ; Y G x z C C % % % * * * k 5 X . . . .",
" . . . . X _ R J ( z a a a & 5 5 B.o F 6 9 @ v u n S u r.. 1 1 4 4 4 4 4 4 4 4 4 4 ) 4 4 ) - - - Z /.% J J.cX%.k.7.F.G.F.N.*.U.n.Z.u.p.5 f ) <XfXsXKXkXcXDXFXlXVXvXHXHXnXnXVXmXmXVXVXFXFXz.&.8XyXu.!.Z.M.< I.X s S I C.=._.P.k.kXXX+./.}X=.}X+.(.J.8.]X7.n.D.e.8.V.`.eX-.HX-.H.~.a.TXq.m.aX*X+XOX .(.}.}XOX ./.^./.}.)X+./.(././._.u.l T..XM 3 r t r w u V V I I Y Y G G z z B z C % % % * % N N * k 5 X . . . .",
" . . . . X _ R ( ( a & a & & a a = B G ) : W ) ) u ! u n 2 p 1 U 4 4 ) ) 4 ) ) 4 1 4 W 4 ) _ _ 1 W f.% I.zX..cX-XXX .|.^X=.u.u.1.Q.!Xy 5 >XjXKXNXKXKXxXnXmXlXvXnXnXxXxXNXcXSXmXVXmXVXSXF   B.7X;.y.Q.Q.p P 2 > 7XMXM S z.7.j.h.t.{.).)./.F.^.^X0.,.=.U.mX7.p.jX%.d.`X%.cX0X0X-.7X2.6X6X8.M.D./.|.(.(.|.|.(.(X@.^X.././.^.)./.{.}.h.w T D n w r e 3 X b s -.o P z B x x x & C % C % * % * * % N N * k 5 X . . . .",
" . . . . X W R ( R z R ( a % a a x = B B 9 B.o x 6 - | | , p W 4 W W 4 W v 4 4 W v 4 4 _ ) ) _ 4 ; ; f z.=.}.G.F.GX*X+._.H.D.NX4X;.l C vXfXdXnXkXBXNXnXAXAXAXcXSXvXSXlXHXcXHXmXmXDXVXmXlXJ Y.4 Q.Q.y Q.- 4 8XzXCXjXC 3.X N.l.5.*.c.4X2Xe.J.e.J.7X1.]Xu.bXuXp.yX9X<.f.}.(X+.(.(X+.3.3.a.a.3Xe./X+.(.|.|.}.(XOX@.G.(.{.}.^.}.}.^.}.L.I ( n y e K e e X e s ) B & f # = 5 d 5 C H H M N k * % k N * * k 5 X . . . .",
" . . . . X _ R ( E R R z a a a z C R a = _ 4 - 4 ; ; V V V F. .  | V V u 2 | | | V s s s V V L ! | | F.X ZX X+.(.GX1.DX*.FX4X;.jX5 d 4XkXxXBXkXvXNXNXxXnXnXnXxXNXZXnXVXmXSXAXVXmXmXmXVXFXC S.8XLX%.I C 8XsXmXnXSXAXmXFXM :.<.]X=.}.GX;._.c.|X+X=.r.y.1.M.T.T.aX8.I.D.}.(X.X+.}.^X X+.Z.W.A.uX4Xr.}.|.}.}.|.|.|.}.GX=.^.^.|.|.(X..^.! D X + O + X O O e ! z a & 5 N $ % C % % N $ $ N % % % % * N * M 5 . . . . .",
" . . . . X W R ( R R R z z a a a C C % a G ; ; ) G _ ) 1 4 ; G B C d H H f f f H C ( C T T C C % N J T HX5.G.^.FX;.1.1.N.rX;.1.h N T uXAXxXBXNXxXnXnXnXnXHXHXnXnXZXnXSXVXHXnXSXmXmXmXmXmXj e.4.1.w N VXaXKXlXNXNXmXmXlXJ K /.iX9X@X+.HX:XtXtX-.{.j.I.2.WX8Xw.Y.U.j.K.)X@X@X..|.^XO.}.G.Q.A.Q.T.7X-.).}.}.|.}.|.}.G.^./.^.^.|.}X..{.u ; X .   e O . X e L a 5 $ f C N $ % N $ $ $ % % % N N N N N * N 5 . . . . .",
" . . . . X _ R ( z z z z R z z a C C % % B x - - 6 4 u < v ! L @.<.i.Q.Q.S.u.j.g.t.`.`.kX<.d.`.f.2.!.p.I.G._.w.,.j.1.L.S.V.1.j.8Xw B <XNXKXbXnXxXnXnXnXxXnXnXnXnXnXnXnXZXnXnXSXmXmXSXmXmXF o f.j., _XPXjXlXxXxXmXlXDXSXJ   F.,.].e.[.'.P.8.l.WX1.a.*.Q.W.6.8.<.5.=.=.5.7X*XeX9.jXe.5.Q.Z.W QXy.u./.}.|.}.(.|./.(.^X=.^.^.^._.^._.(.p V X O . O 3 . O b V a $ $ 5 N ^ ^ $ $ $ $ % $ $ $ $ N % k k * N 5 . . . . .",
" . . . . X _ R ( z z z R R R R z ( z C % & & z x ) ) 7 w 2 S S ! D.l.Q.Q.'.i.2X1.r.g.f.'.'.y.v.g.h.j.r.K.}.{.E j J.l.i.d M.k.8 % BXPXaXkXxXvXnXxXnXxXxXxXxXxXxXxXnXxXnXnXcXcXnXSXmXSXVXmXFXC V H W >XsXNXcXHXvXlXmXVXSXDXJ t P.z.yXh.W.h.y.p.ZX3X8.1.S.]Xw.< /.=.lXeX=.N.e.G.r.[.F.F.5.U.C.C.MX*X+X+X@X@.}./X@.(.}.^.{.^X=X=._.K.{.p - X O + e + O + r V B 5 $ % $ $ $ % $ ^ ^ 5 $ $ $ $ f $ $ $ * M 5 . . . . .",
" . . . . X _ R ( R R z R R ( ( R ( ( ( R C & & B ; ) ] 7 ] q u ! }.z.mXg.Z.u.aX4.r.t.2.2.v.2.1.g.[.t.F.H.^X-.,.,.9.5.i.tX%.i.B B hXxXbXkXxXxXNXvXnXxXxXxXxXnXnXnXxXxXxXnXnXxXnXHXmXmXVXVXFXC { - <XaXnXkXcXDXHXnXmXVXmXDXDXJ O K C.lX,.k.=.Y.MX7X7.a.L.iXw L D D I k.<Xg Q._._.tXO.G.Z.p.iX2X;.1.H./.}.}./.^.}.^.^.}.^.^.^._._.K.{.Q V . O + + r + 3 n V R % $ % % % % C % $ $ % & & % % % % % % * M 5 . . . . .",
" . . . . X _ R ( R R R R R R R R ( C R z C C & & = ) u s s 7 | V ].;X7.Z.Z.Q.SX1.F.D.N.D.r.h.h.j.t.[.~.~.H.7.i.i.e.u.A.1.2.2.B EXaXkXBXkXnXnXxXvXnXxXxXnXnXnXnXnXxXnXxXxXnXnXnXnXSXSXVXVXmXFXCXPXPXsXsXcXAXSXlXHXnXmXmXAXmXFXjXM 4.9X%.V.]X8.a.Z.M.u.h.e & n r.. - G.=.].VX4X4.[Xr.).}.}X4.uX=.}./.}.^.^.^.{.{.{.H.^.^.^.^.G.^.{.{.C.$ + K + O 3 + { S F R % $ $ % 5 5 5 & % % % $ $ $ $ $ $ $ $ * k = . . . . .",
" . . . . X W R ( R R R R z z R R E a z a a a a a C B x L s 1 - 4 <.$.m.p.Q.'.uX4.F.D.D.N.j.I.I.y.*X;.D.HX*.K.[.h.a.b.AXh.d.y.= T 8XkXBXkXHXSXHXNXxXxXxXxXxXnXxXxXxXnXxXxXnXnXxXnXnXnXAXVXSXmXDXxXKXKXBXlXSXSXmXvXVXmXDXmXDXSXvXF + -.BXyX8.YX3.A.a.S.2.K # q 8 8 < 2.;.4.i.t.F._X.X+.}.H.(.(X.._._._.~._Xr.eX2.w.^.}.^.^.|.}X.X-.I.QXw ] 7 3 e X + { | Y x R % % % % 5 5 % & % 5 & & & % d N $ $ * k = . . . . .",
" . . . . X W R ( R R R R z z z z R a x E a a a a & a B Y 4 _ Y 6 h D M.EX<X%.w.t.F.F.G.r.j.wXhX>.u.3.G.{X../.F.F.D.!.S.w.fX2.: P qXNXKXnXvXxXHXkXnXnXxXxXxXxXxXxXxXnXxXxXnXnXxXnXnXmXAXAXAXAXAXAXBXxXKXbXlXSXcXlXAXAXDXDXVXVXVXVXC + FXw.Y.6X8.Q.S.S.V.= B <Xf 8Xz 8 D.;.l.*.FX*.(XOX.X+.|.|X..|._.K.dX%.w.kX%.~.~.^.}.}.|.(.(.|.v.A.: U s t r O O 3 | Y E ( C C $ & a & C z C C & & & & & & C C M k = . . . . .",
" . . . . X _ R ( R R R R z R R E z R ( a R a C C B ) ` q q [ ) x.+ g &.<X<.y.tX1.1X4X;.[.2.2.j.!.j.FX../.N.G.N.DX4X1.vXhXh.y.= BXfXjXBXNXxXkXcXHXxXxXxXxXvXxXxXvXxXxXnXxXxXxXxXnXxXSXmXAXcXNXxXbXNXnXnXnXnXAXnXcXnXHXSXlXmXSXSXmXmXFXM gX6.!.h.f.T.z hXKXxXNXNXnXcXSXj s.z.u.1.1.}.|./.}.}.^.|.|./.}.).k.EX%X,X,.i.I.e.K.^.K.t.j.8.& I.$ U ' S n O y u V F Y - i ; V W ) u Y u ; Y Y 6 Y Y Y ; - F Y > . . . . .",
" . . . . X _ R ( z R R R z z R R ( ( R a R C C z @ u u > > K S V.$.:Xq.=.i.I.rX;X4X;.j.e.t.r.t.!.r.F.H.F.N.MX1X;.NX1.y.v.vXh.B TXaXbXkXBXHXmXnXlXxXxXxXxXHXxXxXxXxXxXnXxXxXxXxXnXvXvXnXnXNXnXvXvXvXvXvXxXxXxXxXxXNXnXHXlXmXlXSXlXmXDXFXM EXy.I.2.m.oXMXjXxXNXnXSXSXmXC 7 A.*.1.t.(.(.^./.GX..|.|./X..}.~.k.k.kX:.w.r.eX-.7.w.j.i.Y.m.& L 1 4 K y 8 2 S V F G ; 4 ; u W v W 4 ; 1 ; ; W W W ) u Y F Y < . . . . .",
" . . . . X _ R ( z z z R R z R R a R E R R a a R Y - 4 q 7 2 4 `.$.m.6X8.*X1.e.N.F.~X:X:.w.7.t.[.DX*.8.8.].!.p.uX1X;.t.2.v.I.8 zXaXsXsXBXBXHXnXNXnXxXxXxXnXxXxXxXxXxXnXxXxXxXxXnXvXvXnXnXnXnXnXnXxXxXxXxXxXvXvXvXxXnXnXnXSXSXSXmXDXmXmXFXM z.U.y.& ,XaXbXnXSXSXSXmXmXJ e ).4.j.[X..|.^.^.^.^.}.|.|.}.^X=X9.e.d.d.e.~.^X+X+Xr.D.r.6.].: I F S 7 t w w S - ) V } ; 1 1 1 @ v 4 s u 1 1 Y v v 4 s ; G ; , . . . . .",
" . . . . X _ R ( z z z R R R R R a C z a a B G Y 6 _ 1 s s s 4 1.=.p.i.Q.1.t.r.N.k.E.,.c.{.^._.G.GX*X2.6X7X3.u.yX;.t.[.[.L.L.~ f 8XfXsXBXBXNXSXnXHXxXxXxXxXxXxXxXxXxXxXxXxXxXxXnXnXvXHXvXnXnXNXNXZXnXxXnXHXvXvXxXnXnXxXxXnXHXSXmXDXVXVXmXM |Xw.m <XfXdXxXNXnXSXVXmXmXJ O.. z.].F./.}.^.^./.^.|.|././.(.H.~.7.J.kX2.3X-.7X0.]X7.].YX6.< z F Y r 8 w w y < 4 1 L ` @ v 1 @ 4 U u 4 6 v ` @ 4 1 s u _ ) 1 . . . . .",
" . . . . X _ R ( ( ( R R R R R R E R & = B G - _ # _ - x x D F PX,X>.d.'.g.h.[.`.E.,X:.cXtX-.~.7.eX2.m.UX3Xq.W.1.I.V.~.F._.j.N.8.: WXPXsXNXkXnXSXHXnXxXxXxXxXxXnXxXxXxXxXxXxXxXnXnXvXvXvXvXSXSXAXVXZXZXSXSXZXxXxXnXxXxXnXnXnXHXSXmXSXmXlXCXM 1 uXGXjXbXnXcXnXSXmXmXmXC + { F.8.F.(.}./.^.^./.|.|.}.|X+.{.~XtX2X5.J.H.H.)X*.3.N.3.T.M.*.< J F.X 7.. | w > i i u i U 1 ; : 4 1 u u ) 1 u 6 1 1 ; u x ) q . . . . .",
" . . . . X _ R ( E E R R z z R R a a a R ) V Y 4 1 - E.  ( ^.4X5X,Xo.'X>.g.[.t.x.l.E.4 ^.x.E.EX2.I.i.8.*.Z.b.n.].tXo.E.E.e.w.8.-.p.U WXaXkXNXNXBXHXZXxXxXxXxXxXZXxXxXnXxXxXxXxXnXnXnXZXSXSXmXlXvXSXAXAXSXAXcXcXAXHXxXnXZXxXxXZXHXDXmXDXFXjXjXfXaXdXbXNXcXnXSXmXSXVXDXJ . 3 V.5.N.(.|./X=X=./.|.|./.}X.X+.7X..H.H.{.).^X=.F.D.D.].MX4.a.w.5.z.z I.X F 1 @ q q p p - ; Y W F F G ; ; G ; W V ; G V F F u . . . . .",
" . . . . X _ R ( R R R R a a a a C C B x B _ 1 u q s E M.lX%.g.g.dX>X,.v.[.[.fX%.8X9.E.=X%.`.`._.I._.7.].pXu.M.M.fXo ^.E.7.3.iXy.!.! N 8XbXbXvXNXZXZXZXZXnXcXcXnXxXxXnXxXxXxXxXnXnXSXVXVXSXlXvXbXjXvXvXvXxXBXkXnXHXnXZXZXxXxXnXZXlXmXmXmXDXFXbXxXKXxXAXAXnXlXDXVXVXmXC . 3 s.l.p.(.(././.G.{.|.|./.|.(.|.H.(XOX..^.^X=.~.NX;.uX;.NX4X1.j.I.j.w.k.B J.  F u Y x Y G G G G F F I F F F F G D F G F I ; 1 . . . . .",
" . . . . X _ R ( R R R z a & & a C a a G 6 v 4 q < ;.%.J.f.d.'X,.k.d.`.2X1.e.7.~.K.K.~X:X#.l.V.k.v.y.5.l.mX8X6.n.[X<.,X.Xr.[X1._.f.!.V 6XMXdXKXHXnXZXHXSXZXcXcXxXxXxXnXxXxXxXxXnXSXVXVXVXAXvXvXjXdXKXdXbXKXBXBXvXnXxXHXVXZXxXxXxXHXVXVXVXVXVXAXkXnXcXcXcXZXDXFXmXVXmXC . 3 u.=.Z.H./.^X=.^.^.(.|./.}.|.}.(.(.|.(.^.{.{.N.jX4X;X;.K.r.2X;.2.2.g.f.j.8 Q.& & z & C a & & z a & a z & & a a z & & B = 6 v . . . . .",
" . . . . X _ R ( R R & 5 C C & z @ ) ; ; @ 1 4 ).o.=.y.2.!.I.wX,.'Xh.j.hX4X4.N.D.N.[.~.gX&.RXoX%.I.t.e.i.U.6.6.n.uX1.aX4X*X=.K.2.u.u.t.k ( vXPXxXBXvXvXcXAXvXvXvXcXxXxXvXvXHXNXZXlXDXDXDXSXnXG `.$.; s qXPXsXNXkXNXkXnXHXvXvXxXNXnXZXnXnXAXSXVXAXSXSXSXnXHXmXSXmXVXFXJ   r ] `.+Xe.).G.FXrX=X*.GX=.|X X ./X=.}.(X..^.KX1.jX4.[.F.N.D.r.2.h.r.~.F.D.~., C $ = /.: N * N l N * * k * ^ N ^ * M l N l M 5 . . . .  ",
" . . . . X W R ( R R R R & C z & v 1 - W : _ _ 1 I.4.y.v.1X4.e.f.g.g.t.r.rX4X4.N.N.D.rX<.dX,X<X,.I.t._X;.i.6.].a.uX;.p.D.HX-._.LX1.1.1Xh.5.o <XGXsXBXNXSXSXcXNXjXZXnXxXvXvXlXnXVXVXDXDXSXbXM [ ] 8 ] ` g ` 4 <XfXPXBXxXxXZXHXnXxXnXxXHXnXZXVXVXmXmXSXSXnXSXHXNXlXVXDXC o O [ ; &.a.a.M.M.G.3.HX+.^.|X .|.^X=.}.(.^._.[.2.2.t.r.r.N.r.h.2.h.r.{.^._XrX5 ^ /XIXI.R.,X#X#.z.zX#X# ^ ^.z ^.,.z.z., ^X# ^ f X . . . .",
" . . . . X v z J C ( z z B 5 & E Y V ; W _ - 1 u. .k.dXh.L.D.~.~.~.~.t.r.r.r.rX;.G.e.r.`.`.d.dXh.'.I.rX4.j.p.aX1.[X;.VX2.7.7.~.j.e.L.A.b.6.:.;.+XPXdXvXSXAXAXcXvXAXZXnXnXHXlXVXmXmXVXDXM q q ].$ s V.;.o.;.;.+ gXaXbXNXkXZXHXxXxXnXxXSXHXZXmXHXmXSXZXnXNXSXSXNXmXVXDXFXC 3 u.:Xe.1.S.b.M.a.i.D.{.G.^.|./X*.G.}./.[.r.2.2.1.h.r.FX;.r.h.2.2.r.{.^.).(X:.=XI.q.q.q.,.,.,X#X#.,., ^X#.,X#.,X#X#., ^X#X# Z X . . . .",
" . . . . X _ R ( % E a 5 B B F.X ) ; V ; 1 ) u L TX<.d.w.K.)X*X*.KX*.F.N.r.r.r.h.N._.r.tX%X&.BXLX&.'.2.h.LX4X;X4.rX2.p.5.,X5.x.`.H.e.aX3.Y.z.:.; , |XjXAXAXVXlXAXVXSXSXSXVXmXVXmXlXj 8 s.o.;.; s I.o.;.$.$ ` s 8 ]XGXBXkXHXHXxXkXxXxXvXHXlXlXSXlXSXnXSXnXSXmXmXDXVXlXFXCXC 3 D.mX<Xg.WX3Xq.b.1.1XrX=.^.^.FX*.}X.X1.j.S.2.1.h.r.[.hX4.1.2.g.~.{X.X+.(.4.:.R.q.q.q ^X#X#X# ^X$X# ^X#X#X#X# ^ ^X#X#X$X# Z . . . . o",
" . . . . X _ R ( C R z a = 1 n s 1 1 ; ;.o.o.o =.8.'.y.y.~.).).G.G.{X*.F.r.r.r.h.[.[.t.k.B MXLXiXU.W.v.h.g.i.r.[.~X4.Z.U.<.lX5.J.jX2.*.T.Y.n.< I I LXzXlXVXmXSXVXmXVXVXmXmXVXmXVXAXd g.;.+.$.+ ; v s V ).+ g ; L.+ 8XdXKXvXSXZXkXxXxXBXvXlXSXmXlXSXNXSXcXnXSXVXmXmXDXFXFXjXM }.;X5.E.6XuX3.b.v.1.KX=._.^.{.{.}.).2.1.h.h.1X4.h.r.r.2.2.2.g.~.{.^.|.(X% /X$.q.q.qX#X#.,.lX#X#X#X#X#X#X#X#X# ^X#X#X#.l / X . . . .",
" . . . . . _ R ( C % & x u.. n K s 1 ) I.+.$.;.<.].'X>.fX../.HX*.N.N.N.N.r.r.r.r.g.2.w.E MX&XLXUXUXU.'.Q.2.d.`.e.i.*.ZXyX6.<.l.l.WX1.].TXuXuX6 HXw ; 8XzXjXDXAXHXmXmXmXmXmXSXmXmXVXFXM.+.; q q.; V ! s g g.o.;.; [.$ L 8XsXNXSXvXvXHXNXnXnXcXVXAXSXBXcXcXnXNXnXSXAXVXmXmXlXjXM s z I.8.p.Z.Q.y.P.E._._.G.^.}.}.F.2.h.r.h.t.t.h.h.D.t.g.g.g.h._X=.^.(X5 =.:.R.RX&.,X# ^ ^X#X#X#., ^ l ^.z.,.,., ^X$X# Z X . . . .",
" . . . . X v z C ( C z - ! y 2 3 S S V.+.&.&.m.Y.MXh.v.w.{./.).GX1X1X1.e.N.r.N.e.2Xh.y.d T.BXpXiXUXU.C.W.h.w.k.4XqX8.b.b.T.U.U.U.UX;.M.Z.A.b.b.b.Y.& v 4XfXFXnXxXvXxXnXSXSXnXDXlXSXJ O 8 , ) L S D & P V L V.$.$ `.+.+ ) >XsXbXvXxXSXnXnXcXNXnXnXVXBXZXnXSXnXAXVXSXVXVXVXAXlXCXM O } CX#XoX&.i.l.lX;.[.[.^.}.}.~.t.t.r.t.t.h.h.h.F.t.j.v.g.2.r.[X*.~.< B l $ & d $ $ % k N $ $ $ N k * * l $ $ k j Q f X . . .  ",
" . . . . X 6 a C C % E = @ q 2 8 y S ).&.#.].6.m.Q.A.v.f.{X..).N.S.j.jX1.r.D.DX-.!Xh.yXo l TXpXiXUXUXUXL.V.x.4.,X3X3X3X3.ZX6Xy.Z /.<.W.ZXLX3.b.b.&XqXw - |XGXsXkXBXBXNXnXnXxXlXl O + 3 L.$ 4 q 2 1 4 v : v 1 u ; W < q D.; gXsXkXBXcXSXAXcXcXcXZXSXNXSXNXZXcXnXnXSXmXVXVXVXmXFXCXJ o -X:X>Xh.2._.e.r.j.D.^X..}.H.[.F.F.r.r.h.h.h.K.F.g.v.v.!.y.w.3.k k ~ 5 > = < ( & C ( C % C C C ( C z C C C C ~.- & . . . .  ",
" . . . . X B ( R R a a _ ) u s 2 w y s.o.-.6.TX7.V.f.j.F.)X.X*.[.j.I.j.j.2.t.N.D.tX1.3.].BXg.-.lXLXUXUX&.BX:.l.l.ZX8.YX8X8X8.n.].=.U.Z.ZX7X7.p.pXu.n.*.5 T Y @XdXNXnXNXSXAXlXCXM [ . 3 S L 1 2 q @ : A.# 9 : 6 9 Z Z D ! F V hXaXGXaXfXMXGXGXGXMXGXMXGXfXfXGXGXMXGXzXMXzXMXMXMXMXM { u ) B.9.c.f.1.1.2.rX*.}.^.}.KX=.F.G.r.t.r.r.H.1.2.w.g.`.x j / x V v S 1 x G V - V - V ; - ; ; - V Y Y Y G V u 1 q . . . . .",
" . . . . X B z C C a a B ) Y u 1 4 1 L I.;.&.:.zX9.j.f.NX*./.{.[.t.w.y.I.yX1X;.DX4.r.r.*.l.B.-.BXL.C.WX7.8X:.8.lX&.]X8.M.M.T.].n.].6.W.Q.b.M.!X7X8.W.]X&.E % v hXfXfXfXzXCXf [.+.; 7 | U 6 ; y v # 9 6 _ _ Y V.X Y B B $ / z # c c 0 0 c c 0 0 c 0 0 0 0 0 c c c 0 0 c c 0 0 0 c 0 0 A Z /.,.k.v.1.h.h.r.r._.^./.^._X=._.G._.N.r.H.2.2.y.k.l E.  D L V > ] 1 - F ; ) 4 : 1 Y ) 1 1 1 - 6 1 Y - Y - 1 q . . . . .",
" . . . . X B z C & & & & B ) G 4 : B V G P L.$ P.<.w.gX4.D.).{.~.j.y.y.y.!.2X;.NX;X4.t.~.7X2Xy.=XU.P.PX&X&.l.EX%.l.p.u.U.YX6X6XgXyXy.Q.S.S.V.V.l.W.i.'.B.yX< T & p v S K K.$.o.;Xw ; 2 @ 6 s 1 6.9.% ! N N % T k ^ C.E.w.e.8XtXtX0XtXtX0XtXtXt.JXtXtXtXtX0X0XtX0XtXt.JXtXtXtXt.JXtXtXtX0.JX5.'Xh.t.tX1.2.2.D.G.^.^X*.}.G._X=X*.K.{.1.j.x k T.. } Y 1 , : q q u Y 4 ) 1 @ 4 Y u u _ 1 Y 6 - Y 1 u ) 1 q . . . . .",
" . . . . X W ( R C C C & = B x x _ - V ; 4 1 u u I.8.j.S.NX*X*.~.I.y.y.y.v.2.t.r.rX4X4.r.N.D.3.I.Q.P.,.l.E.P.wXX.w.`.e.a.]Xy.W.n.V.QX;.L.2.P.8.~.[.kX%X=Xo.5.lX9 ! a.#.: =.+.&.-Xq.$ K : 6 n W ).7.J kX0.7.7X5.~XX.8Xh.!.I.4XtXtXX.JXtXX.JX5Xt.JXXXtXt.J.JXtXtXX.J.JXXX0XtX:X5XX.cXt.JX0XtX:.dXh.F.t.j.2.1.r.G.}.^.^.}.^X=.}.}X=X X;.i 5 ! S t t 7 7 7 < < 1 u 4 v v 1 v @ 4 u ; @ v 1 6 6 4 ; ; = W 4 . . . . .",
" . . . . . W E R ( z z z & & z E i 1 p v _ _ v u D.8.t.jX4X*X*.H.e.I.w.y.y.j.t.rX4.r.r.r.t.r.r.[.L.wX5.,.k.I.P.EX%.f.F._.pX7.Z.Q.p.!.1.v.j.kX2.K.NX2X9X2.B Q k.8 T.PX4.].Y.-.=.6.Y.; 7 v : L V B.0.@ V 6 x B x 9 *.l.Q.v.j /X5XtXt.J.JX0XtX5X5XeX0Xt.JX0XtX5XtXXXt.J.JX0Xt.sXtX0XtX0X0.J.s.0.c.w.eX1.2.1.1X4._.^.{.^.^.^.^X..^.|.|.u.= - S 3 8 2 8 2 7 1 4 u s u u 4 ) v W ; s u ; ) - W 4 ; V u G Y 1 . . . . .",
" . . . . . W E R ( C a z C & & a _ _ _ 6 @ ) - 1 P.4.t.j.N.).).)X*X-.t.f.y.f.r.r.rX4.t.r.rX;X4.t.t.r.l.8.i.r.e.cX9.t.N.u.].W.Q.W.'.!.L.j.I.j.F.K.N.D.* H ^ N.,.4.f.[.L.S.W HX6.U.& b 2 ; 6 ) n ) 6 9 6 : V 4 S L 6 $.l.k.8 P 9 0 P 9 f = : f 9 : : : A 9 6 : 9 : : 9 v : 9 @ 9 : # 9 : : #.@.c.~.jX4X;.h.2X4X=.^.}X=.^.^.^.^./.(.(.u T.. r +XM 3 ] ] s V ; ; 4 4 Y ; x B ; F ; Y F F G _ F F ; G F F 4 . O . . .",
" . . . . X W ( R R a & a a & % 5 B x Y ; W 1 1 4 _ %X%.eX*.).).)./.HX*.F.j.t.D.F.r.rX4.rX4.tX4X;.r.j.j.I.t.e.t.I.jX1.DX1.i.].V.'.!.S.L.r.u.N.D.r.DX;.u.*Xe.E.4.7.I.j.2.DX-.7.5X7.; X w S V ; s u P f A.# = Z.& = c # E C P sXfXGXGXGXMXGXGXMXGXGXGXGXGXCXMXdXGXGXCXjXCXjXMXCXMXCXjXMXC 3 w _.=.l.1X;X;X;X4.NX=.G._._.e.{.G./.).^.|.a I e r + 3 n t w s F F F _ ) x G x x F F E G E I I E F E E E T F _ . . . . .",
" . . . . X B z C R R R a % % a a P & z x 6 _ 4 p 6. .E.~.{.).).)./.).G.H.F.D.F.F.r.rX;.L.hX1.2X4.`.u.2.2.[.~.j.hX1X1X1.1.u.I.y.f.2.u.I.D.D.rX1.t.K.t.1.Z.wX<.d.P.i.1.u.3X*X*.[.l s + 3 S V n | s V V _ B _ Y V Y & # ;.o gXfXjXkXBXkXAXcXcXkXkXAXkXkXkXkXkXcXAXkXAXVXAXAXAXVXVXVXmXFXC   ..o.lX7.v.A.!X4.D.~.^.G.7.F.8.KXr.}X+.}.}.*.; w 8 r X n t K u x z R f 9 5 & = 5 & B z a % % C % 5 % C 5 $ a @ . . . . .",
" . . . . X B E ( ( R z C & & a a C a x 6 v 4 4 x > I.4.t.[X*.GX*.).H.).).)X*.D.G.7.E.8.nX3.b.uXh.fXo.y.2.j.f.I.~.3.N.3.NX4.6.3.a.c.dX9.[.g.`.cX..p.I.7.E., Q.l.WX2.V.'X>.g.f.t.' z f d.mX7X7.= J.B M T T ; y w K ! ) V sXfXKXNXSXxXnXnXnXnXnXnXnXxXvXHXvXnXSXVXSXHXHXlXlXxXNXAXSXDXDXJ O e ,Xe.S.YX8.!.i.~X X+.(.cX%X%.~X-.~.H.~Xh.l.; L 7 b e n.. S s u u ` ) U 1 u u - 6 B & C z % * * ~ m 5 $ k k 5 X . . . .",
" . . . . X W ( R R R z C a & & a & a F ; 1 6 : @ >. .x.f.r.D.D.N.F.H.).).HX*.D.r.<.-.-X7XpXp.Q.PX: j.w.[Xh.I.h.I.aX6.a.N.].8.E.=.'.y.U.EX<Xo.k.Q.Q.M.3.8.=XgXy.Z.S.].5.E.'.WXoX#.WX6.a.nX3.b.*.-.kX1.i.5 I ; L K I ;.$ sXfXbXNXBXHXxXxXnXnXnXxXxXxXlXlXHXSXSXSXVXZXnXnXHXnXvXSXmXmXDXJ . e u.<X3X8X6.u.p.8X-.|Xt.wX2X9X-.e.~.~X0.IXy.:.; [ 7 r r 2 S S 1 ) V ` ) u u 1 V Y x E E & % % k k * $ $ * k 5 X . . . .",
" . . . . . W ( C z z z z C a & & a & G 1 1 v 6 - U D.E.g.1.j.jX1.N.D./X..).{.GX1 HXgXp.Y.n.C.CX7 ~.,.4.E.p.!.V.WX8Xq.]X6.BX#.x.9.%.%.<.E.l.x N 5.C.mX3X8.Y.n.!.n.V.*.yX7.l.4.4.kXp.p.8.:.-X2.k._X3.CX3.U.- u ; 1.& 6 <XfXGXvXNXxXHXxXxXxXvXvXnXvXxXlXlXlXmXmXSXmXAXcXcXnXVXmXmXmXVXDXJ + e !X6.QX8X3.u.yX%.c.cX%.eX2.k.~.^X+X+X+X=.u.a.: ; q t ] 7 S K u 1 Y V L u i 4 | | Y F x x C % % M * % % * k 5 X . . . .",
" . . . . . W ( C z z z z C a a a & 5 x _ 1 1 ) - : IX<.v.g.j.2.2X1.NX*X..)X*.FX9 zX7XiXp.nXiXiXg T.-.E.w.u.u.!.ZX8.Y.mXq H.l.,X#X9.UX6.8X7.=Xy.8.C.mX3.TXp.nX8Xq Q.V.p.l / ^.z.8X&.kX6.8X6.Z.Q.W.6X6X7Xe.; P ; P <XPXPXaXjXSXNXHXnXxXxXxXHXlXSXlXlXlXHXnXlXlXvXxXnXZXnXAXVXmXmXmXVXDXCXM r IX6.WXqXq.Q.y.kX%.k.dX2.~.~.F.~.{.H.7.8.p.AXq.+ , t n K s 7 ] 4 6 p V 4 4 < w y y y u G B 5 N N N H k * k 5 X . . . .",
" . . . . . W E R R R R z C C C C z a G ) Y 1 4 ) , DXo.'Xh.y.v.g.j.j.NX*.{.).F.V zXpXiXp.nX3X3.6.lX&.V.I.N.NX4.].m.:.<.8.l.5X2.3.VX6.YX6.l H QXq & = z A.$ W P BXg.- T G 6 G.  EX5 P.&.;.m.: J.=.&.&.:Xw.;.+ g.+XsXbXlXbXbXnXcXvXxXnXHXxXSXDXHXnXDXlXnXxXvXHXvXxXKXvXHXAXAXAXAXVXDXFXC 3 s.<.M.C.Z.Z.S.*.8X%.k.VX-.~X-.~.~X0Xt.c.4.UX3Xq.- 1 s S u s S V 4 - Y V u 1 1 w { 3 y w u x = d % k N N N H 5 X . . . .",
" . . . . X W E ( R R R z C a C z C & G ) 4 v _ Y ] !Xo.'X,.'.'.d.2.jX1.NX*.K.{X: CX7XUXiXpX3XpXpX&.QX;.r.3.wX2.l C J.<.5X2.5X6.MXe.<.Y.m Q 5 1 h F F V ; ; ) ) ; D ; ' <XfXG 8 ; ! S qXGXjXjXz S K.+.+ ` 2XfXGXaXsXkXAXnXnXnXxXHXnXnXnXxXlXDXNXBXHXnXnXvXvXvXxXBXKXHXlXVXAXAXVXmXFXCXM 8 P.<.p.u.p.u.p.iX-.~X%.d.J.H.}.(.(X+X+.(X+.i.Z.Z.] z ; ; ; V ! V ; ; 1 4 s u ] y r + 3 X K u _ a k k % N * H 5 X . . . .",
" . . . . X W ( R R R R z a a a a z z Y 4 6 9 9 : : F.xX,X,.d.d.'.g.j.SX1.t.F.{.x NXLXiXUXpX7.WXp.WXh.g.h.[.I.i.i.E.=.8.F.~X;.*.*.bXu.Y.z B W v > ;.$.+.$ g.o 6.+XPXf 8XGXNXNXj ].+ ]XGXlXnXbXG 1 , q 8XfXPXBXkXkXxXkXkXZXHXHXZXHXnXxXxXxXSXlXBXxXBXBXBXBXxXvXvXvXHXlXmXVXVXmXFXFXM 3 e K.;Xg.n.N.3.D.N.^X+.(.~.*X..H.).|X X X XO.{.w.Q.'.i.B d G E G F V D s ` U V L 7 e . . O . + w - B % N N N * k 5 X . . . .",
" . . . . X B ( R R R z z a & & a a a G v v v 6 6 <.XX$X,X,.d.d.d.w.I.S.SX1.F.^.x.-XLXUXUXi.=X3Xp.'Xh.!.j.h.y.i.v.8.3.8X%._.rX4.2.aX6.Y B 1XfXaXdXKXKXjXKXbXsXbXbXdXdXKXVXkXBXjXMXxXKXbXvXcXNXbXFXsXsXdXdXKXsXBXvXvXZXAXHXvXHXHXBXxXNXxXxXnXvXxXDXlXHXBXBXBXxXxXvXmXVXVXVXSXFXJXC + 1 I V.:X6.mX6.7Xr.}.(X.X X=.N.|.(X+XOX XOXOX X=.~.yX&.WX7.E.0 % a z B ; s U , : ; ` + . . O O O 3 | G C % $ $ * k 5 X . . . .",
" . . . . X 6 R ( R R R E a a a z C C a B W ) ; u.+ s s _ a.9X%.dX>.v.gX1X-.).D.p jX&X&XL.P.k.k.5.y.y.*X1.3.p.i.L.AX5.`.k.Q.WX<.2Xh.l vXdXBXnXkXNXxXxXxXnXnXxXnXnXnXnXZXnXnXxXnXZXZXZXZXZXnXnXnXnXnXHXnXnXnXBXBXxXcXHXHXHXSXnXnXvXvXKXKXHXHXvXxXmXvXlXSXnXNXKXvXjXDXDXVXVXAXlXC q [ :.*.T.C.b.A.!X.X@.(.}.^./._._.}./.|X X .(XOX.X+.J.x.xXoX<.i.w.`.f.f.t.*.=Xw.<.Q.=.+ K 3 O . O O r S V G C * l j N 5 X . . . .",
" . . . . X 6 R ( R z z E a a a z C C a B G V u 4 ) V V V !.  ~.xXh.v.2X4.HX../.F.tX9X&X&Xo.k.V.j.h.h.2X;.3X1X1.P.Z ^.x.E.'XhX$.VX& C <XdXKXnXxXKXnXnXnXnXvXnXnXHXHXSXSXSXZXZXSXSXSXSXSXHXZXZXZXnXHXSXnXHXSXnXNXnXHXHXHXHXVXVXVXSXcXcXHXZXBXxXHXDXHXlXVXZXnXxXvXvXVXmXVXmXlXC 7.+.$XqX8.Q.A.S.uX1XO.(.|X@.|.}X=.G.^.}.(.(.|.|.}.}.(X0X:X<X<X,.k.i.y.'Xh.'.VXyX7.n.M.6.& ] 3 3 + K + r y V G R ~ % M k = . . . . .",
" . . . . X 6 R ( R R R E z a a & % a a & P G - ) @ _ W ) V !.X C.k.j.u.e.{X.X..).r.w.k.E.8.9.IX;.t.[.t.eX4X1.u.y.= $ M.RX,.y T.k f -XPXKXKXxXvXbXnXnXnXnXvXnXnXHXHXHXHXnXnXnXHXHXHXHXZXZXZXZXZXZXnXHXnXnXSXHXxXnXxXHXvXVXVXVXmXHXDXnXnXcXBXBXxXlXlXlXSXHXHXSXSXSXVXVXFXJXC w.&X7.m.mX3.Q.2.1X4.K.(X X .|.|.}.}.^.}.|.^.|.|.}.}./.}.^X%X:X,.d.~.K.~.f.~.t.I.w.].V.WXg.+ s . O t e 3 r y V G ( C * * N 5 . . . . .",
" . . . . . _ R J z C z ( R R R C C a a & = = W ; 6 x x W W ) s V.<X1.2.2.G.G.)X*.GX-X2.9X5X-.NX4.r.w.j.2X1.u.u.u / ( j.dX,.` ^.# @XfXsXbXNXBXxXxXxXxXxXxXnXnXnXnXnXxXxXxXxXnXnXxXnXnXnXnXnXnXnXnXnXSXSXnXnXxXxXnXvXlXmXVXVXmXFXjXMXGXbXmXcXkXBXsXNXxXnXnXSXVXmXVXVXFXjXC 3 fXe.*.T.T.u.I.j.t.F.^.|.|.(.(.|.|.|./X@.).{.^.{X=./.).^.G.w.k.E.kX2.H.|.(.|.(._.F.r.d.C.W.; s r + e e 3 3 S V G E C $ j N # X . . . .",
" . . . . . _ R J E R ( R z z R a ( C a z z B B x x G G W : v , w TX2.1.v.2.t.rX4.~.H.4.E.7.F.FX2.dX9.r.LX4X4.*X6.<.U.EX,X,X$.  hXPXbXxXnXcXkXBXNXxXxXxXxXxXxXxXxXnXxXxXxXxXnXxXxXxXxXxXxXxXxXnXnXnXlXlXHXHXHXHXHXlXDXmXmXmXFXCXC L 7XGXjXSXSXnXNXBXBXnXHXSXVXVXVXVXlXC X xXe.y.vX0.F.G.~.~.H.K.{.(.|.|.|X@X@X@X.X@.|.^.^.{X=./.}.|.^.J.~.J.4.cX-XX.G.H.K.[.r.r.y.p.].& u w { + y + 3 y ! F E C % M k = . . . . .",
" . . . . X 6 R J R z R z R R E R R R z a a B a & z x ) : : < < u !.9.I.v.v.g.2.u.w.E.8.w._.rX2.x.l.w.g.w.j.]X8.Z.:X8.i.k j F ,XGXBXNXkXkXAXAXNXxXxXnXnXxXxXnXnXxXnXxXxXxXxXnXxXxXxXxXnXnXnXnXnXnXnXHXSXSXSXlXSXnXlXmXlXmXDXFXC 2.$.$ 8XdXvXcXnXSXNXnXSXSXSXVXmXmXVXDXC V.4.t.!.1.|X XOX .(.(.}X=._.G.^.}.^./.|X.X..^X*.K.^.H.4.%.% f d.z f & & / 5 5 f d f.= k k.= H I s + + y r 3 3 y S F E C m * k = . . . . .",
" . . . . X 6 R ( R R R a z z R a z R R C % % & a C z ) 4 v 1 W W i z.PXhXh.yX%.lX7Xy.5.F.kX<X%.E.lX%.w.y.iX&.n.].mXp.5 / Y hXPXnXnXNXNXcXnXvXxXvXxXnXnXxXxXnXnXxXxXxXxXxXxXxXxXxXxXxXxXxXxXxXxXxXxXnXnXHXHXHXnXxXVXmXmXmXmXFXCXG ] 8XdXFXVXNXNXlXlXmXmXVXVXmXDXFXFXJ w.4.E.5.2.v.(.|X .|.(.{.F.r.N.F.GX=.^.^.}.|./.^._X=.{Xt E b s 1 ! D D L D ! u s 2 S s V.. - T z F y t y y w t 3 y ! Y x a % l N 5 . . . . .",
" . . . . X 6 R ( z a R a z z E z R R R ( R % % C & B _ , v - F I #. .B.d.dX%X$ TXU.WX&.,X:.`.w.V.kX2.K.y.k.U.Z.]X8.n.: V {XaXGXkXKXxXHXlXvXbXvXjXxXnXnXxXxXxXxXxXxXxXxXxXxXxXxXxXxXxXxXxXxXxXxXxXnXnXnXnXxXNXxXnXAXSXmXVXSXDXFXjXCXGXKXVXkXkXAXlXlXmXmXVXmXDXFXF O WXw.p.P Q.~X.._.^.(.|.(X*.NX4X;.t.N.K.GX=.}././.{.^.{X5.% x |.. 4 < 4 ) W _ v ) g g ' ' ` 4 9 C z _ w { 3 y b 3 + r | F G C $ * k & . . . . .",
" . . . . X 6 R ( E R R E R z R E z z z & z % a C W 6 - - 4 ) U U v I.B.dX,.d.B T.WX& MX$.EX2X2.w.i.J.4X&.W.Z.Z.b.]Xw uXfXfXjXSXbXvXnXZXHXjXSXAXSXVXnXvXHXKXdXHXcXxXxXxXnXxXxXxXvXxXxXxXxXxXxXvXvXxXxXxXxXxXxXnXnXnXZXSXmXmXmXmXVXlXHXHXZXnXnXZXSXFXlXmXVXVXDXC.$ NX9.u.!._X1.N.F.{X+X@X.X .}.)X*.).HX*.GX X..}.G.G.}XX.dX:.9 Y 2 3 w , < < 4 1 4 ) v v < 1 ` 6 0 a E.o L K + 3 3 r X e w Y x C ~ l Q d X o o . .",
" . . . . X 6 R ( R R R R R z R R & C z a z & & a B - Y v @ 6 W ; ; %.x.d.'.d.l kX7.B J ^.E.7.r._.D.)X..].Z.UXqXu.#.& ,XaXdXbXNXxXlXnXcXHXlXAXAXSXZXHXHXVXcXcXNXAXxXxXxXnXnXxXxXxXxXxXxXxXxXxXxXxXxXxXxXxXxXxXnXnXnXnXSXVXmXmXVXSXSXHXZXSXVXlXlXmXDXlXmXVXF O rXM.=.8X1Xh.1.h.G.K./.(.(X+X X@.(.(./.)X+.^.|XO.^.GX=.7X:.k.d.4 V { { r t q , 4 1 4 ` ; 4 1 u v A.@ z E g ` [ e 3 3 3 O . + | Y ( ~ m H & X . . . .",
" . . . . . _ R ( z R R R R R R R C z z & a & = &.o G - _ v 6 6 Y F.,X:X,X,.d.d.c.F.c.,.,X#.V.w.t.DX..}.*XyXy.:.< B.;XfXbXxXxXkXkXvXnXkXVXVXVXDXFXSXSXcXAXAXxXbXbXnXxXxXnXnXxXxXxXxXxXxXxXxXxXxXxXxXxXxXxXxXxXnXnXnXnXnXZXSXSXSXSXcXcXcXZXSXlXmXmXmXVXVXF O X LX5 ^.B.r.S.Q.U.5._.|X..|.(.(.(X@.(./.}X=X.X .|.|X=.w.8X:X%X%., V w w y y y ] < v ' 4 4 v , v A.@.@ B I L.$ [ K t t t + . . 3 s Y z a k & X . . . .",
" . . . . . _ R J z R R z z R R z C C & = B G G ; D ; ; u V V Y D (.xX<.PX,.'.g.D.GX-.7.~.J.w.7.e.D.F.FX1.U.p.3.z ).&XPXkXBXBXZXkXbXSXAXVXVXmXJXz 3XMXdXcXAXcXnXnXnXnXxXnXnXnXnXnXnXxXxXxXxXnXnXnXxXxXxXxXxXxXxXxXxXxXnXnXZXHXAXSXcXcXNXNXnXSXSXVXVXVXmXFXM xX7Xy.J.e.i.y.jX&.=.FX..(.}.F.7._XrX-./.}.|.|X..|.|X2.5X:X%X%.k.9 V w y w w y K q < > 4 > 4 ) 9.0 c.0 I D.+ D L } K r 3 + O . O y V ) B C & X . . . .",
" . . . . . _ R J ( ( R z z R R z C a = = x L L S W _ U ' ' V I &.,X:X<X,.'Xh.h.N.D.3.j.F.t.~.H.).h.y.I.y.'.y.l.  WXwXPXkXBXxXmXAXvXmXmXmXmXFXC q J.& 8XlXAXZXxXcXnXnXnXZXSXSXnXnXnXnXnXxXxXxXnXvXxXxXxXxXxXxXxXxXxXxXxXnXnXZXZXHXHXHXnXxXSXSXVXVXDXVXVXl w.=.i.z.l.`X9.j.[.e.G.}X+.}.KX;.V.QX;.TX*.{.|.}.(.{.c.4.k.kX:X:X%.9 D t t 3 y w K 3 2 , < > 1 6 c c.@.@ ; I E.o.o I L n 3 + O . . + w u - E B X . . . .",
" . . . . . _ R ( E E R z a z z z C C a & ; n S S ; ) U ;.; I J.zXoXoXo.P.'.f.G.DX*X4.S.S.j.HX..).r.I.v.w.y.v.l ( P.;XfXnXnXHXlXlXSXmXmXDXDXFXC q.  ; 8XjXvXHXjXHXNXnXSXmXmXSXnXNXZXZXnXnXxXxXxXxXxXxXxXxXxXxXnXnXxXxXnXnXnXnXnXZXvXlXvXnXVXmXmXmXlXmXF i.-.l.%.9.k.k.w.d.5X2.~.7X0.i.iXh.Q.Q.C.b.N./X..^.~X%.EX%.kX%X%X,X%.9 D w S y r S w y y w < < v Z.#.@.% / 6 B & z C a z F y e X . . O y K u D.o . . . . .",
" . . . . X 6 R ( R R R R a a a z & a B B 1 n y y.. s U.+.$.-.<.PXo.PX,.'.d.t.K.).).N.S.v.S.N.F.D.KX4.j.j.j.I.< B B.oXaXbXbXxXkXxXnXSXmXlXmXmXFXz 8 qXGXvXAXZXcXkXnXSXmXmXmXSXnXNXcXnXZXnXnXxXxXxXxXxXxXxXxXxXnXnXxXxXxXxXnXnXnXZXvXlXSXAXmXDXFXFXDXC.$ N.c.r.5.9.`.`.kX%.K.^X+.).3.*.!.V.Z.A.m.nX4X=.}.^X%.P.dX<X<X:X%X,X%.4 V K y w y y t w w y t q : c.@ /.%.% B 5 ^ * % C a ( u n e X . X e r |.$ I . . . . .",
" . . . . X 6 R ( R z R R z & & a C R x B 4 S 7 w ! n U g.+.=.p.W.P.P.'.y.w.~.H./.H.N.S.S.S.uX1.[X..D.j.~._X4.l @ B vXPXbXbXcXAXvXNXAXDXDXVXAXSXFXlXvXvXZXAXxXbXAXnXSXVXSXSXSXnXNXBXNXnXZXnXxXxXnXxXxXxXxXxXxXnXnXxXxXxXxXxXxXnXHXlXmXVXAXmXFXCXC + < ZX2.V.V.k.EX:X,.d.l.EX2.H.HX8.].M.t.*.*.].T.S.G.G.}.[.y.P.dX%X:X%.dX%., D t n K y w t 3 { w + q 0 c / / ^.% x R % * * M % C _ u r X . . X r | }.+ . . . . .",
" . . . . X _ R ( R R R R R a C R z % z x G 4 u S w y U U.$.:.8.:.VX<X,.f.y.S.NX0.N.~.3.1.1.SX*X..D.GX4.!X1.3.% G x.o hXKXnXvXHXkXNXxXZXlXmXmXmXVXAXcXZXHXHXxXxXZXDXmXDXlXlXDXbXdXBXvXHXZXZXvXxXnXvXvXvXvXvXvXvXxXvXbXvXvXvXxXlXDXmXDXVXmXSXJXM + DXe.*.!.u.I.7.E.4X2.~X-X0X.XXX0.T.mXp.M.p.Q.S.L.K._.{.G.^.{.7.EX%.kX:X%X%.% Y w K 3 3 K K K K K q < , 0.#.# ^.% x R C % % N $ R - s e . O X . rXM S ` . . . . .",
" . . . . X W R ( R R R R C a a a C & a B ; Y 1 v u n S ` D.o.;.;.P.d.`X<.y.I.3X-.^.N.u.u.IX-X*.G.G.e.u.S.u.N.z ( P )XPXKXcXBXxXcXnXnXnXSXlXVXVXmXAXnXnXvXnXnXZXVXlXDXVXmXlXf 8 7XsXnXcXNXVXcXkXKXcXcXcXcXcXcXcXcXcXcXnXcXcXAXVXVXmXmXDXlXjXM 8 :.8.3X1.!.S.1.w.kX.X-X=X+X .(X+.e.a.n.T.uX1.e.j.r.KX=X=.^.}.}.G.e.EX%.d.dX%.9 V.. K K t K r y s , 4 < < v 0.@ /.9 I C & C C C z F S S 3 X X 3 r e | L ; . . . . .",
" . . . . X _ R ( R R R R R R R C & C C = x - ) @ 9 4 u 1 ).+.$.+.<.d.'X&.lX2X2X2.{.eX1.t.HX..)X*.{X*.t.j.2.jX2.- = :XfXxXBXZXHXcXxXxXZXVXmXVXSXSXSXHXnXxXxXnXVXmXVXVXFXC + n.o.;XzXjXvXHXSXkXZXvXxXxXxXxXnXxXnXnXxXxXnXNXHXSXmXVXVXmXFXj O S.&X2.3.a.u.A.S.1.I.jX+X..G.{X+.|X=.j.a.pX1X*._.GX=.{.GX=.^.{.{.G._.K.fX:.xX%.k.9 - y K 3 3 y w q < @ ) v , 4 @.@.%.9 z.&.& z P I ! s y e + + O + 3 r u D.o . . . . .",
" . . . . X _ R ( C R R C R ( R C C C C = B 6 W W = W 1 ; 1 1 V L z.E.'XoXg.%.4.iX1X*.}.{.D.G.)X.XX.7.F.g.j.j.t.8 E WXfXbXBXBXZXZXHXHXnXnXZXSXVXmXSXvXnXxXxXnXSXmXAXDXC . }.z.<.< U 2XGXvXcXnXHXvXZXZXZXZXVXZXZXZXZXZXZXcXVXVXmXVXVXVXF   L.=.]X1.F.NX1.u.SX1X4._X.X+X-X2.{.^._.[.t.*._X=.^.).}./X=.}.^.^.^.^X=._X=X-X:X<X9.4 D y t 3 3 w 1 < v < ) W 4 4 1 9 Z / & z P.o ; u y w t O O 3 + r K s i I g . . . . .",
" . . . . X _ R ( C R R R R ( ( C ( C z a R & B B ) x W 6 @ @ v s !.B.'Xo M l.8.*X4.N.F.G.G.F.)XO.|.l.E.P.f.'._.[Xe xXfXGXvXxXAXcXxXSXVXSXSXVXSXnXSXSXSXSXSXSXSXmXmXDXjXC 9.~.!.C.<.; qXKXNXmXnXcXVXHXSXHXlXHXHXHXlXSXSXSXVXSXmXmXVXmXC X E.*.[.2.H.).F.F.~X-.{.|X X.X5.8X:.J.f.y.V.B.KX=./.(.|XO.G.^X..|.|.^.^.{X*X+.KX%X:.9 F w r y 2 1 < v < 4 ) ; v u 1.o f / I. .+.$.$ ] { + { 3 + + t s u Y x E z X   . . .",
" . . . . X _ R ( R R R R R ( ( R ( ( E z R a a & B G ) @ : 6 v V u (XoX<X#.9.l.m.mX6X8.uX*./.HX-Xt., j.l.l.5.kX7X;.4 - qXaXvXZXxXSXlXVXHXZXSXSXZXSXSXmXmXmXmXlXDXVXSXC b Q.Q.bXu.Q.z <XaXsXNXAXSXAXnXSXAXSXcXAXSXSXSXVXSXSXAXAXVXVXFXM B.,.t.r.[X .|.(.|.|.(.(XOXOX0.4.J.cXX.~.w.8.=.~.|./.(.|.|.^X=.|.}.|./.^.G.{.{.}.{.c., G n S u 4 v v W _ W 6 _ W.o.o ; B Z E I.; s [ 7 y X + 3 r r 7 u G G a C B X   . . .",
" . . . . X W R ( R C C C C a C R ( ( E C C % C C &.o ; _ @ _ W ) q D T.x k.z HXq.-.n.Z.n.]X*.G.7Xt.,.x.B.k.FX2.-.v.r.z I 8XjXBXlXnXHXVXmXmXSXZXnXnXAXSXSXSXlXlXFXDXC q.mX3.CX7.:.A.i C VXMXdXbXKXNXNXSXnXnXBXNXSXnXnXSXSXmXSXmXmXCXC...9.`.k.5.N.(.|.(.|.|X+X X .(.H.7.|X X+.(X=.}.H.{.}X..{.^X..{.^.^.|.|.^.|.^./X..^X+._.4 !.. u ` ; ; ; Y V D i Y D I.;.o L x x G ; ` [ e O X X r n w u G E ( m k & X   . . .",
" . . . . X W R ( R R C R C a C R z C C C R % a C B = B _ : W ).o : Y ( *.=.:.-X7Xp.YX3X3.b.LX*X.X+X-X..H.|X*.GX-.A.v.7.z `XdXxXxXnXxXZXmXmXAXZXVXVXVXVXVXmXlXFXF + ,.&.6.ZXy.<.:.v.1.ZXe L UXfXa q 8 t 8 8 < q 2 q 8 t t + + O + O 2 &.E.f jX7.G.|.^.|.}.|.(XO.(.|X+.}.(X X X@X+X@X@./X..^.}.{.^.{.^X.X..|.|.|.G.G./.|.^.e.4 B @ W 4 ) ) W 6 B B p Y.o.;.: B L.... Y V [ + O O r X y w u - x % k * N d X   . . .",
" . . . . X _ R ( R R E R z z z R E R R R C a a % & & x - 6 @ 4 W _ D T H.l TX&XpXi.6.nXyX0X..GX..SX*.G.3.G.)X=X;.gX%.kX2.& sXaXvXNXxXSXmXDXjXvXAXDXmXVXVXAXlXM 3.;.].Y.m.T.n.Z.Z.i.P.i.F.- I 4 < q q 7 s s ' U U 7 ] 7 [ 7 7 ] e T.4.V.p.LX;.j.NX..}.}./.|.}.}.}X@X@.}.}.|.(.(.|.(.|.|.{.^._._X=._._._._._._.^._._X=X=.^X2.4.4.9X:.`.J.k.EX:X:.k.5X6X6.<.:.;.+ ) q 7 K K + . X 3 e n V G x R m $ j M = . . . . .",
" . . . . X W R ( R R E R R R R R E z C C & & a & B G Y @ 9 @ W ; ) 6 PXwXy.W.W.WXU.CX3X3.=Xe.[X-.3.H.~.8.J.7.7.i.jX%.l.PX6.z <XaXKXxXkXcXnXAXZXHXlXVXDXVXbXC q fX6.].TXy.]X6.5.IX4X7.V.[X9.z & ` s S ; [ s s u , s s s s s } 4 @.5.i.w.w.p.u._._.|.(.(.^.^.^.^./.|.|.}.}.|.|.}.(X..(.}.{.{X5.=.z.,.,.,.,.,.,.,., / / / / & E R E $ /.% / ^ ^ ^ ^ f z.;.-.;.+ ; V w K r r y e . r S V G x R C % $ * M 5 . . . . .",
" . . . . X _ R ( R R R R R R R R C z z z & a a a ) - _ 6 @ @ W ; i :.&Xq.mXpXUXUXi.W.a.D.7.=.V.`.w.w.eX5.4X#X<.e.' TX9._.1.p.& L 8XjXNXNXBXcXxXjXVXFXDXF 3 u.@.u.1.S.eX2.H.HXX.{._.j.L.[.[.e.< z E 5 & & 5 I z z ~ J C & z T ^X5.y.jX1.e.3.~.}.}.|.}.}.^.^.^.^././.|.|.|.|.|.|.}.}.{.^X+X- z ! I D D D D D D D D D D D F V Y i i s L s L S L S S ! D D ) ) 4 u e K 7 y K ] K e y Y G x z z C % * M M # X . . . .",
" . . . . X _ R ( R z z z R R R R a C z B 5 B x x 4 ; - Y W B D I H I =.:.mXi.C.CXp.uX*.{X X0.=.l.B.P.VX5X:.E.t.K.u.U.I.S.2.S.=.l U ]XfXbXNXvXbXlXmXmXl . |.#.A.t.t.r.FX-.}X+X+.{.i.t.[.j.V.dX%.~.k.k.w.wXyX2.p.WXh.I.*.p.'.i.d.d.A.2.N.GX+.|X..|././.^.^.^.^.^X=X..^./X..|.}.|./.).^.^.~X5 G V y _ _ 4 4 _ v v _ 4 ) 1 4 4 4 < 4 < U 1 q q , , U p @ i 2 2 7 w y r w y y u s S Y x z & & % % N N * N 5 X . . . .",
" . . . . X _ R ( R R z R R ( R R C a 5 = = x ) - : W 4 W =. . .,.% TX6.nX7XpXi.bX1X;.F.H.^.3.BX&XUXU.A.D.{.NX4X-.[._.K.~.t.hX1.w &.+ qXdXKXvXNXAXlXAXM n B.i.h.2.~.^.}.}X+X..}.}Xt.4X:X:.lX<X<X:X<.l.l.j.'.W.Q.A.Q.Z.Z.M.M.u.S.2.v.2.KX+.(X..|.|.|.^.^.^.^.^.^.^.}.}.|././.^./././Xr.eX:.4 R u + s q 4 ) U 4 4 ) ' 4 4 4 4 4 1 1 ) 1 ) ) 4 W ) ) 6 9 1 7 K r r r y t n n L V ; x z C & k % N N M j N = . . . . .",
" . . . . X _ R ( R R R R R R R R R a 5 B x Y 1 4 1 ) ; G T k.E.w.P.l Q.5XyXpXp.I.H.HX@X..GX2.,.lXiXU.A.3.{X=.FX-.e.D.^.^X=.N.u.3.8 B u qXsXNXAXAXxXMXM 6.P.vXXX;.|.|.(X@X+X@X@X+XX.4.4X#Xo.l.k.E.B.cX-.E.3X;.!.Z.Z.Z.nX8.Y.]X4.D.N.D.^.(.|.|X .|.|.^.^.^.^.^.^.^.}.^.^.}.^X..^.}X=.7X:X:X: G 7 t r s , 4 ) U ) ) ; ; ) ; ) ) ) ) G ) x ) ) ) ; x 9 A s K r e r e 2 w K S L G P a C k k k k k k k j N = . . . . .",
" . . . . X W R ( R R R R R R R z z C a G ) u 1 4 Y F G F N.c.f.wX:.dX&.VX<.P.V.!X ./X.X@X4.7.9.lXU.WXyX2.eX5.7.IX*X*.|.H.H.7.a.M.S.8 & ;XfXbXbXjXM w xXo.y.~.jX-.(.(X+X..(.(.}.}.{.cX:.EX:X#.k.5X<.8.8.=.8Xy.Z.WX7.M.T.YXq.]X*.e.H./.|.|.(.(.^./.^./.^.^./.^X=.^.^.).{.^.^.}.}.{X2.5X<X%X: I 2 + 3 { 2 , 4 4 U 4 W 4 v ) ) 4 W W W _ ) 1 - ; - :.@.@ S r + O + X 3 3 y S V E C 5 N * * N N * N $ j N 5 . . . . .",
" . . . . X W R ( z z z z a a a a C C a x 6 v < 1 6 Y.%.9.4.J.P.PX#.RXoXo.d.v.g.jXXX1.GX2.Q.1.*.Z.W.P.cX%X:.4.kXhXt.}.HX.X0.=.b.C.Q.Q.W 5 h < < q K 6.5.g.f.2.K.)X..|.|X XOX X X..KX2.k.cX%X9X2.-Xh.pX1X2.*.]X8.Z.W.M.TXe.Y.].G._XOX.X .(.|.|X=.^.}.^.^.^.G.^X=.G.}.^.|.^.{.}.{X2X:.kX,X<X: E 7 + w 3 3 q < < , , v p v p 4 4 4 - v 4 1 1 4 1 ' 0 f c n X O   . X O 3 w V Y E z N $ * * * * * $ l * N 5 . . . . o",
" . . . . X 6 z ( R R ( ( C & C C % R x ; 4 W ; W ;.,.y.A.AX>X&.- * j.=X<.`.yXo.E.U.W.Z.Z.Q.p.D.3.7.8X%X%Xo.kX9.iX:X:X9.8.].Q.CXgXu.T.a.<.  ; : < TX%.t.L.!X;X1.N.{X XOX@.NX4X;X4.K.c.JX X..HX9._.d.`X%.`.V.U.M.Z.!.S.*.uX-X=X..(.|.}.}.}.}.^.^.}./X.X..{./.}.}.{.)Xr.^.{.}.[X%X<.k.k.V.k.4 I } K y y y y w , < < W 4 W W 1 1 p ,.o ; 1 v - -.@ Z f Z n O + O O + o + w V I E ( $ l % * * * * N $ * k 5 X . . . .",
" . . . . X _ R ( R a a C C z z C R B D W : W x F 1.9.d.2XhX>X:.< ( /.=.<.w.t.j.j.U.U.UX3Xp.T.DX*.G.K.FXo.f.`X%X9X% j.k.8.U.].ZXp.M.Z.p.< & x L ;.4.w.W.I.2X4X;.N.}.(XOX..FX4X;.D.F.J.)X+X .~X9.2.l.E.~.~ TX7.[.ZX4X4X1.D.GX+./.|.}.|.|.}.}.}.^X..^._X=XrX=.G.^X=X+.).^X+X-.kX<.k.k.k.k.kX: E K 3 S y y n y 2 , > g ) 4 < < 4 1 U W ; 4 - 4 :.@.@ Z.@ n X O . . . O 3 w L I ( J * * % * * % * * * N k # X . . . .",
" . . . . X _ R ( R R R E z a a & - - 4 v v W ) G K (X$.lX&X#X<.l.:.< &.8.8.P.iX4.j.*X3X6.m.]X4X;.H.K.r.5.I.r.I.e.`.k.EX9.KX2.*.pX3X3.Y.m.8.< H.4.wX2 Q.i.L.j.NX*X=.|.(.(./X*X*.H.KX=.(.(.(X0.~.IX5.H.^.K.7.*.F._.F.F.K.}.^.}X@.(.(.|.}.}.^.|.}./.}.^.G.{.{X=.}././.(.|.7.k.8.k.kX:X:X:X:.s x w 3 w y K y r y 2 < > v ) ) W W 4 < W 4 4 - : 0.@.@ /.@ n X O . . O o 3 s V G z C % * * * * * * * * N H # X . . . .",
" . . . . . _ R ( a C ( R a = x - _ Y v u s 4.o.o 6.z.xX#X,X,.'XoX6.6.;.8.8.l.2.u.f.2.u.MX8.].I.t.H.F.r.j.Q.[.r.F.[.E.7X2X=X=X2.F.1.M.nX6.].*X;.r.~X=.r.g.j.e.~X*Xr.|.|X+.(X@././.}.}X+X.XOX+X+.}X@X@././X=.}.}X@.}.)./.}.|.}.|.}./.|.}.|././././X@.|.|X@X@.(.|.H.}.^.`.5X:.kX:X:X,X,X,X:.4 G w 3 K r K t K y K 2 ) W > < > < 4 P 1 v 1 v c.@.@ Z /.@ n . . . . . . r s ; x C C % * * N * * N N * * N 5 X . . . .",
" . . . . . _ R ( R C a a = 4 V s v v , 7 [ V I.&.:.YXyXoXo.d.dXh.MX6.<.=.l.d.'.'.'.VXy.Y.YX8.a.S.H.F.r.v.2.2.N.N.KX2.H.H././X@./X-X*.*.*.NX*.K.~X*.F.G.K.F.K.H.^./.H.HX@XOXO.(.(.|.(X.XOXOX.XO.|X+X@.}.}.^.}X X X+.|.(.|.|././.{X..|.|.^.}.|./.{.^.^.}.|.{.{.^.}.{.dX<X,.dX,X:X<X<X<X,X%.4 I K 3 K r K t w t y w 8 , v ' ; ) < < < , 1 9.#.@.0 Z / Z b . . . . . . O y ; z C C * k * * * * N * * * H 5 X . . . .",
" . . . . X _ R ( T ( a B - S y 2 S s s S ;.; I.#.Y.Y.6X,X,.'XhXh.V.W.6.lXoX,.dXh.'.]X8X8Xq.n.M.u.)X=.G.j.[.2.r.D.F.G.(./XOX X+.(X+X .(X@X@X+.(X .)X*X=.^.}.}.{.~./.H.FX.X X X .|.}.(X+X+X XOX.XO.|.H./.}.|X@X X .(.|X+.}.}.{.{.^.}.|X.X..|.}.^./._.G.G.G._X=X=.KX%X<X:.kX:.kX%.E.5X<.kX%.8 T } r K y S y y y y w n s <XP h < v.o > q : c.0.@.0 Z Z Z b X O O O O . . e L z C k * k * * % * * * * k N = X X . . .",
" . . . . X _ R ( C C a B u r r 2 u K [ [ ; I.$.z.uX8.V.'X>.i.*.d.A.!.uX9X%.`.`X9.d.'.U.]XpX8.!.A.F.G.K.F.t.N.F.[.).|.(.(X X .(X.X X .(X..(.(X.XO.}.}X+X+.^.cX2.FX+X=./.|X X .|./.3._X*./X@.}.(X-.~.~X-X0.|X+.(.(.}.G.{X*Xr._.KX=.}.|.|./.H.~.H.H.H.H.H.H.).)Xt.,.9.%.9.9.9.9.9.% /.,.9.9.9 G 7 r K y S y y y y sXM t 2 1 ' v > < > v 0.#.#.@.@.@ Z Z b X . . . . o X X } z % N N * * * % * * * N * N = X o . . .",
" . . . . X 6 z ( k R R = v 2 w q S K [ ' ;.$Xw.<.'.Q.VX>X>.3.N.K.1.uX;X4.f.f.f.iX,X,.'.'.].Q.v.v.F.GX=.^.K.K.N.NX@X+.(XOX XOXO.(.|.(.}X=X=X=Xr./X+.)XtX5X-X2X2.~XXX*X=X+X+XO.}.G.].I.3.NXrX=.K.8.f.k.c.H.|.H./X+.G.FX-.7X*.3.e._.|./.}XX.9 k k J 5 5 5 5 a a E.  F D D F ; ; V V Y F. .  E ! | 3 y r y w w y y w w { 3 2 < < 4 v h 0 0.@.# A.@.@ Z Z n X . . O O X O e L z 5 $ N l $ * * $ * * l * N 5 X o . . .",
" . . . . X 6 z T a C x B @ 1 n r K y 7 u V }.m.].].Y.Z.Q.y.I.h.1.r.r.N.t.*.I.[.N.*.w.y.d.'X>.2.u.)X..|.}.{._.r.hX..|.(.|.|.}.|.(.(.}.(.|.|X X .(.^.}._.cX<X%.kX<.'.w.7X-.).e.W.'.b.T.QX;.N.(.(.7.'.kX%X2Xt.7.I.*.fX<X7.6.M.ZXu.S.HXr.}.c D y u ! s u u s s V ` V u 1 1 V V u u V 1 i V G ! u K y w y y y y y w K K K t K w < < q 6.0.@.@.0 Z Z.0 / / n X o O + O . O + w x k * $ N k k * % % N N l N 5 . . . . .",
" . . . . X 6 R ( C & B x - L S ] n n y s U D.:.].Y.m.b.AX>.t.[.2.2.h.1.2.!.I.h.1.1.S.j.y.'.y.h.LX+././XrX=.KX4.L.|.(.(.|.|.|.|.|.}.|.}.|.|.}.|.|./.^.^.~.8.k.d.y.w.jX-.H.F.3.*.w.TX7Xy.MX4X@X+.3X:X5XtX+.(X..|Xt.f.t.*.].6X6.!.!XeX*.7., G y y v U 4 4 v W U ) 4 4 4 4 ) ) 4 ) ) p Y _ #.X s w y K y y y y y w K r K t r 3 2 , > A.#.@.@.0.@.%.@ / / n X . . . . . X X S z d N $ $ * * N % % * % * k = . . . . .",
" . . . . X _ R ( R a = a x Y Y v 4 4 2 u v.+ P.&.<X6.QXh.w.d.`.f.w.j.j.j.I.I.t.t.3.a.I.w.'.k.w.3.H.HX-X*.H.NX4.h.|.(.}.|.|.|.|.|.|./.^.^.|.}././.}.^.^.{X2.f.[.f.w.{.^X+.}.}Xr.3.MX3X3.M.N./.(.8.'.VXo.~.^.HX-X2X<.d.IX&.UXq.Q.!.Y.6.<.z ; r y 1 4 , 1 4 ' U U U W 4 ) 4 4 ) ) ) 1 4 9 0 } ! s 3 y y K K y y S S t 3 t 7 t r 2 9 c.# 0.@.@ Z / /.z Z n O X O O O . X X | B N N $ % % * * * N $ N M k 5 . . . . .",
" . . . X X _ R J ( z a & = x G - W v u 2 4 u ; }.=.n.WXh.` ~ T ( I z z z z ( z z B P z C ( E z B E C z C k.4.F.F.|.|.|.|.|.|.|.|X=.^.^././.^.^.|X@.|.}.^.`.~.~.`.`.K.K.{.|X=.3.8.n.M.a.L.N./X+X4.L.v.U.j.GXr.KX2.w.'.'.].p.p.Q.'.Y.mX6.<.+ + t r , < 4 4 4 ' v 4 4 4 4 4 ) 1 1 ) ; #.@ 9 } s w 3 y K K K y y K t K t t y y 7 q > 0.# c 0.0 Z Z.# / /.X O . X . X . X o s B k k * * N N * % N N % * k 5 . . . . .",
" . . . X X _ R J a C z a 5 = B B G W ) v @ v @ 1.U.p.Q.i.,.X.. u 2 q u q q q u 2 q u u i Y Y i i V Y V V D /.(.(.(.|.|.|.^.^.^./.^.^X=.^./.^.^.}.|X..|.}.~.F.`.kX9X9.k.8.i.iXy.VX6.6.*._X=.(.)X;.r.G.8.NX+X.XXXX.K.K._._.eX4.'.5.YX6Xy.< ) 3 { r n q < < , 1 4 1 4 4 4 4 ) 1 1 1 6 0.@ # ! u w 3 y K K K y y K t t 3 3 K ] < < , v c c 0.@.@ /.%.z Z n X . . . . . X + | z k k * % N N % % N * % * k 5 . . . . .",
" . . . . X _ R ( ( ( ( R z B a a x G ; @ : v 1 u jX2.*.5 f L y < , , , , ' < < , 4 4 v 4 4 p p - 4 1 4 # _ ZXO.(.}.|./.^.^.^.^.^././.}.|.|.|.|.}X+X@./.}.}Xr.w.kX9.I._.~.kXy Q.V.mXqXe.3X-X0Xe.'.i.Z.UX1X4.*.F.^X X .(X..|XtX5.x.Y.6.l.z ) 3 3 y r s , v v 4 4 4 4 4 1 1 ) ) 1 ) 0.@.@ 9 ! V w 3 y K y y y y y w t r 2 < > v < v 1 @ A c c Z Z /.z Z n X . O . O . X X w z d N * k % % % * N N N M k 5 . . . . .",
" . . . . . _ R ( R a & a C C a a 6 x F ) @ 4 u 1 x ^.l.=.: ) r 7 ' 4 4 ) U U ) U ; ) ) ) ) ) ) ) ) W : c = ZX+.}.|./.^.|.^.^.}X=.^./.|.|.|.(.|X X .(.(./.}._.f.w.H.~.K.t.dX9.5X6.].6.7.3X.XO.|.2.C.Z.ZXp.Q.S.1.[X X@.|.(.JX:.cX5.,.lX#., ; r w y w y y q < < < 4 4 < 4 4 W 4 v 9 c.@.@ Z ! s w 3 y K y y y y y S 3 8 < < 4 v 4 4 < 4 v 0.0.@ Z / / / S O X O . X . + + w z d N $ N N * % N % % N * k = . . . . .",
" . . . . . _ z ( R z a a a % % C B @ x I ) V n 1 @ V z.< &.$ [ e - - _ v _ _ _ _ W ) ) ) ) ) - ).+ : Z.@ z.:X+./.(.|.|.}.^.^.^.^.|././X..|.(X .(X.X X.X..^X-.~X=.|.^.^.K.c.kXe.8Xe./.HX+.|X .(X4X;.u.WX7.Q.S.2X4.F.G._X9.k.k.d.VX5.xX#.% x 3 2 y w y r 2 4 < < 4 , v v v v ) @.0 Z.@.@ 9 ! u w 3 y K y r y y y S < > > < < W ) 4 4 < 1 4 Z.# Z.:.z Z n X X O . . O 3 3 | x k N l N N % * N * * l l N 5 . . . . .",
"   . . . X 6 z R R x x G B B 6 B v @ 1 L ; s n ` w.$.:.Y.; [ 2 3 K , > 4 4 v 4 4 4 ) 4 1 1 U u 1 9.0 A.@ 6 ZX+././.}.^./.^.^.|X+.|.G.}.^.^.(XOXOXO.(.^.rX;.1X;.LX=._.^.^.H.7X4.j.y.w.|X+X+.}.^.eX3.b.A.A.A.1X4.t.[.t.E.E.cX%X%.k.kX<X<.x G 3 { y S K n n 7 < @ 4 4 , < < 1 _.0.@.@.@.@ A } s S n y t t y y S u < v < < < < < < < v 4 ) G B Z Z Z.z / D y + + O . X . r u x C M j M N N % ~ * N N l M & . . . . .",
" . . . . . B B C _ - F - G _ Y V @ i n q 4 2 2 8.o.-.Y.Y.;.+ K r y 2 < < 4 4 4 4 U 4 ) 4 v 1 1 9 0.@ Z.@ @.0.(X*.|././.|.|.|X@.|.}./X=.^./.|.|X .(.|.KX4.h.1.1.1._._.^.^.}._.G.*.V.k.HX..HX-.w.P.n.U.!.S.A.S.DX*.w.l.x.k.kX9.kX%.k.kX,.4 x y { y S S y y S 2 , > 4 4 , < p 0.0.#.@.%.@ 9 } s w y t w 3 r w , < 4 4 4 4 4 4 ) 1 1 1 ) 4 ) ) 6 A.@ / ^ F 1 w 3 r O + X X r ! E % j M * * * * % * * * N 5 . . . . .",
" . . . . X 6 a C W W 6 4 u u u 1 4 u n u q q q {.=.].nX3.Y.; K K K K , > < < 4 4 4 1 4 v 4 4 9 c.@.@ /.0 =.@X+X=.}./.|.(.(X X X .}.{.G.^.^.}X .(.|./.K.N.h.1.h.h.K._.^.{.}X*.~.]X%.w.~X2X2.i.i.'X6.Y.M.1.j.r.K.w.l.E.E.l.4.c.kX%X%X%X%.4 G 3 y w t t y w w w q @ v 4 > p 9 c.#.@.9.%.@ 9.X 2 w 3 y y t 2 q < < 4 ) ) g g g ) ) ) 4 4 4 ) ; ) 6 A / $ D - u y K K 3 O . O r V R m % * * N N * * * * N # X . . . o",
" . . . . X @ B F v 4 9 U < u , 1 S n y S u s r n.m.T.nX8Xe ) + w K y ] < v v 4 < 4 ' 4 4 ) :.# c 0 /.@.0 B f.(X=.G.{.^.}.^.|.(.(.|.H.~X*.^.}.}.(.|.^.{.~.t.j.h.hX-X*.^.^.^.~.F.~.~.e.{.K.t.h.h.QX8X6.MX1X;.[.t.l.l.,.x.4.x.x.k.kX:X:X:.% - y 3 y t y 3 t w 3 y 2 < > 1 : 0 c c Z /.9.@ 9 ! u w { y S u < < , , 4 ) ) ) ) 4 4 W W v 4 4 4 ) ) - W / Z G x _ s n [ t + O O O b V B a % $ N N N N * * N # X . . . o",
" . . . . . 4 - ! 1 1 9 ) 4 s s r n S s s V n.$ /.6XqX3.U d D w 3 y 3 K 2 < > 4 4 , > 1 1 # c.0.@ c.@ Z.0 a 5./.N.r.r.D.D.F.{.}.}.}.{.H.GX=.^.|.|.(.|.|.K.F.t.h.h.H.^.}.}.}.).^X+.(.~.K.r.j.S.2.A.a.T.!.u.2.h.L.j.x.l.x.x.x.E.x.x.xXo.x., ; t K y w y y { { { y 3 q 4 ' 0.0 c c Z /.9.% Z ! | y r V 1 4 4 4 _ W 4 v _ _ 4 4 - 4 4 ) 4 W _ 4 _ - - E 5 ( a 5 x L K + O O O . . r s B 5 $ N k N N % * M 5 . . . . .",
" . . . . . 4 _ G V ; @ W u u S n S 1 s S.X }XwX6X6X6.Z.W.< F b w y y y K q < < < 4 , 1 @ c.#.@ /.0.% Z.% a C.).eX4.N.N.N.F.G.}.^.(.}.^.}.}././.}.(.|.(.|.^.{.K.r.|.}.^.GX=.}.}.(.}X=.K.2.2.v.uX;.u.SX;.1.2.2.2.1.f.EX#.E.xX#.x.l.xXo.x ^ V K K S w y y t y w 2 w y u 0.#.# 0.@.@ /.%.@ Z D F ! ! F I F D F F Y - Y Y Y Y Y Y Y Y D.  F D.  F.  D D G ( % $ % W L X + O O O O O e Y = $ H k M * m j M = . . . . .",
" . . . . . < v W F V - _ ; W u u 7 ] y y V 5 /.-.z.]X&.l / F.. 7 t t t K 2 , < < < , : c c.0.% Z c.% / / z C.KX;.FX*X*.{./.}.(X .|.|.{.^X=.{./.|X@X.X X X ./.^.K.(.}.^.{.^.(X X..(.H.~.2.v.2.r.~.h.2.g.g.g.h.t.1.g.rX<X&.x.x.x.x.x.,.x / V K r n S y y K y y K S w , 9.#.@.@ A c Z.@ / A I 5 5 $ % C T T z E E a & a z z a z R E z ( ( T ( C ( E P R ( * * % 5.o r 3 + . O O O O.X E % d k M * * j N = . . . . .",
" . . . . . , 4 1 I D = W - V V ; u n w | | Y G.  ; z ! T F Y.. 3 K 3 t y K q < < , : c c.@.0.% / c.@ / / & $X*X;.H.G.|.(XOX X XOX+.|.H.H._./.^.|.(X XOXOX X.X=.GX../.^.^.^.|XOXO.(X*.~.j.v.2.r.~.wXoX#X%.`.t.t.t.2.g.g.E.B.x.x.x.9.,.x ^ L 3 3 S K y n S 7 y n s > 4 ; :.# Z.0 c A.@ Z 5 I ^., /.z.z J T % 5 a % N H k k N ^ ^ N H d N N N ^ $ ^ = = R M j % & P.. y + O O O . O X D C N H M N l * N 5 . . . . o",
" . . . . . 4 ' P 6 1 s s 1 u 1 1 ` U U 1 1 u u - ; } ; G n s w 3 t 3 { t y w q , 6 c.@ 0 c.@.0 Z /.9.:.# # 5X*.h.H.(X=X@X+X..(.}._X-.K.FX-.^.}./X..|.|.}.}./.|.^.(.^.^.|.^./.}X@X=X1.vX>.d.`.4.z 0 Y V v zXe.K.~.t.h.SX1.nX7X#.%X&Xo.l.z ` e t K y S w y r n u < < < 4 1 v 0.0.@ A /.# f !.o g ; u V I.o P.; G x G G B x R 5 % $ & a C C k ~ l % R m % k d d B B 2 3 r O X O O O O r x % M M N $ j k & . . . . .",
" . . o . . : 6 B v s [ s 4 4 4 W ' ) 4 W 4 v v 4 ) W A = L s K t { t y t 7 3 2 : 0 c c c.0.0.@.@ Z.% /.# a d.K.hX+.{X*X*.}X+./.D.N.K.t.t.D.GX=.)X@.|.|.(.(.|.|X..}././.|.|.|.}.}._.h.v.dX<X$ I D ! 4 _ u n (.=.4X2.k.V.ZX8.p.lXIX#XoX# / ; e S r w y r y u < v v < < < 4 ) W 9.# Z Z / # ! L L [ Y ;.+ I P.o D ! ! F x x F F ( C % a C C % C % C m % % k d B G V s y 3 + + + e e O y B $ M M % d j N # X . . . .",
" . . . . . : : W 1 n S S u 4 1 4 W U 1 ) ) 4 4 u ) 9.0 = L S r t w y y t r r ] > 0 0.# 0 Z.# / Z.@.% Z.@ R f.K.2.^.cX2X0X@.(.).e.[.t.[.[.jX1.D._.}.}./.|.}.}.|./X=.^.|.|.(.^.{X*.~.g.y.d l Y.X s V p 4 , S n.X z.5.7.VX6.m.6.p.lX$.x.x Z Y n.. n y y t 8 < > < , < , 1 4 ) ; 6 Z ^.9.% 5.$.o.+ K.o I.$.$ ; s n | n s u ) G I x G % % % m $ m * m % % & C z G L S K r y 3 + X O + e n x $ * M N $ ~ k 5 . . . . .",
" . . . X . < @ ; s y 2 n S 4 < , 4 ' ) 1 4 1 ; ) 9.@.0 = ! s n y K y K y r ] < < > 9.# c Z.# / Z.0.0 Z.@ &.9.K.v.c.cXX.(XOX X+._.r.j.L.1.u.u.aX4.|.^././.^.|.|./._.^.|X .(./.F.t.2.v.d.k E n y 8 u u 1 , w q ] n f.{.i.UX3X8.u.I.x.=.4 / ! y y y 3 7 q < < , , , v 4 1 ) ) - ; ; 9 /.% $. .o.o ; P E.+.+ U s r y K ] u 1 _ _ - D 5 $ * C * m m ~ C a a z I L S s K n y { + o 3 w ! V z $ N * % % * N # . . . . .",
" . . . X . , v s y w ] r n q > < 4 v ' 4 4 ) v 9.@ Z.@ = ! u w t r w y n u < 4 4 < 4 @ 9.@.#.% Z ^.@.@.@ z ^.7.'.cX%.w.e.~.HX*.p.i.u.UXy.Q.u.S.1X*.GX=.|.|.|.|./.^.}.(X@.}.K.t.g.vXh.'., F n y K u i v , K , h 3 F N.5.WX6.T.M.p.].=X6.8.+ + 3 3 q , < < 4 1 ) 4 - _ _ - - ) ) ;.+ 9.# 5.  5 $ a I P ) s 7 w y + { q 4 4 6 @ ) 1 E R a ( m % m C C C a x V n S 2 [ n 3 { r X r y G E C $ N * * % l N = . . . . .",
" . . . . . @ 4 s y K 2 y n 7 < > < 4 4 4 1 W 9 c / /.% # ! S y 3 y y S u 4 , 1 4 < , u 4 = Z.# / 9 Z / Z R %X5.5.EX&.'.d.iX2.]X3.6.<.U.WX6.Z.1X;.F.{X=.^./.|./.|.(.(.(X@.}.F.2.vX>Xh.E (.X y w [ u 1 v _ u 7 t 8.X 5 N.6.nXp.Q.V.Z.ZX7.Y g + 2 , 4 _ W W W _ W W ) _ B _ _ W W W g ) = 5 a m ~ m B.o s r X O O . + 8 v W = 9 6 6 E z 5 C % % m ( C z x - | y y K u w y w w.. ! ! z C C % N * l * * k & . . . . o",
" . . X . . @ 1 s w y ] t K w 8 > < < < 4 W 9 c 0 / /.# # ! |.. { y n q v < 4 v v 1 v v ) ; _ A c / Z.z / 5 $X:.E.E.l.k.t._.D.*X8.&.+.6.6XqX&.y.1.F.{X=./.{.|.|.|X .|.(./.G.N.2X>.`X:.z.X X o y K K u - Y V V w w 1 F.,X2.UXp.V.i.Z.MXp.m.+ n ! G F Y G G F F F F G Y F F Y V s s ; V G F E $ * m x ! n 3 O . X O + w ) W B B _ _ x x 5 % 5 5 % % z E G u.. y 3 r 7 y r y.. ! - z J % % % % % N * l N 5 X . . . .",
" . . . . X h u s y e 2 3 y t t < < > < ) 9.#.# 0.% /.% & ! s w { b u 4 4 W ' 4 ) U 1 U ' W ) _ 6.% /.z / & R $ ( ^ ^ ~ l.%.9.<Xw.$.&.:.6.p.].Q.2.F.KX=.^.^.}.|.|XOX .(X*.D.j.fXhX: ~ E X o   3 b 7 u 6 z D Y 1 S w D C.=X6X7.V.w.!.Q.!.a.= f $ ( R R R R z a & & x x G Y ; 1 1 1 G G B R R a C C ! n r + X . O X e.. 1 = P G B _ z G B B z z z & E G Y | y 3 y 3 3 K w 2 ! !.o z T k % % % % l l ~ N # . . . . .",
" . . . . . y S n | S S n K n t 8 < 4 v 0.0.@.% Z.@.%.# & ! V y y ` U 1 ) ) ) x.o ' U _ _ _ _ u ` Y #.@.% z D F x 1 1 ; V s s V u ] ' L 5.=X9.t.f.I.HXOX X X@X+X.X+X..|.K.2.IX9 ^ ' ] 3 + O + e w ! _ 5 & E B _ 1 b 7 ] u V I $.,.n.T.M.S.vX>.c f I z z & z N $ $ % d C & f d k j a a % d k & a x u b X O . + O X e ! B $ % x _ : B G G ; ; ; V 4.X s s r 3 y S n r w u u Y E R $ $ % * N % k * N l k & X o . . .",
" . . . . . ] 2 S n n s S n y w { p > #.0.0 /.0.@.% /.@ = } S y q ; ) ) ) 4 4 ) G ; ) ) - - - ) ; ).o.o A 5.$ V Y ! V ; u u u 1 u s @ W x I C C ^.u.[X+.}Xr.G.G.H.GX=._.e.`., R F r r r y 3 y r w Y x 5 5 d & 6 v S K u u u G ( /.=X8Xp.WXh.k $ F L - 6 x E E = $ * % & & d % k M % % % k C R G F b e O . . O O y b V a $ % & 6 : 6 G - 1 1 ` ] U s u 2 3 t w w y w s Y ; G E R $ % k % * k % N N N k 5 X X . . .",
" . . . . . q ] b y r w y K w t 3 w :.0.0 0.@.# 9.@ Z / = D F ! u.  F Y u u i u u V G F Y F V ; s I I.$.o I b n y S u u u 1 1 u 1 u : 4 u s | n i.V.j.F.F.[X;X;.[.i.p.p.V ^ Y.. } n y 3 y r y.. u x z & $ $ & B W s n ] q 1 G D E.z.m.m.p.i.B.X n w q i v Y _ - 6 $ $ $ d % N N M N N % C B ; S S X + O . O + O K Y x & N N $ &.o 6 - 4 4 1 , q q u 1 q t t t w S V V G x R C C N % k * * k * N * * k # X . . . .",
" . . . . . 4 u n | y y r w y r { 1 : 0 c c.0.# Z.@.%.# & F = x - E E x | S S y S ! !.X D D L ; V.+.o.+.$ b . + 3 w u w s v 1 s < ) 9 _ v @ , { 3.BX%.J.e.r.t.y.*.U Q.m N D n K K r y r n n ! V ; E C k k d d & x Y s s , 4 W x.  & H.6.a.: D r 3 2 2 , 4 @ _ - Y % $ $ N k N N m l N % B ; K e + . O . . O y K s P z k N N ^ 5 E ) 1 W 4 , < , 2 u , , 2 3 y S s I F x & & % k M * N N N % N N % * H # X . . . .",
" . . . . . < ` n r y 2 y y y K , < 4 ) 6 9 0.0.@ Z /.0 B.  # & a % a B F ! s s s R x z P.o P W ).$.+ ; s r X X { | u u u 4 u s 4 6 9 _ 4 @ U K b. .EX2X9.'.'.V.i.ZXg I.o V K r t 3 y r S ! F - x ( k N k N f 5 & G - Y 1 v @ B F FXw.= H b O O t K s u @ W @ V G R % % k M N * % ~ J C x S e + + O O O O . n - B ( z d N N N N d _ ) W W ) 4 1 s s , , 8 w S V - E E C C k N N k * N N N * N N % * k 5 X . . . .",
" . . . . . @ v V n r q { r w 1 v ' W 4 ) _ : 0.0 Z f.@ & F 5 C k % C E F ! V Y V.  F P G D ; g.o.+.+ , 7 + . . 3 s 1 4 - s u 1 1 x # : B A : L.+ !.,.h.L.h.r.h.1.b.= I ` ` K 3XM 2 w S L D E a a C k * N N N d 5 a 5 # v : 9 - B v G T D O .   t [ s ' W f = B B x & d k N N % 5 % z B 1 r . O O + . O y e ! a % C % N N % k % $ # B B B ) u u u V 1 ` u V ; G z C C % C ~ N N M % k % * % N N % N k = X . . . .",
" . . . X X 9 9 6 Y n 2 y y u ' U 4 U ) W ) Y x 9 / Z.% a F $ k N ( E E F ! F C E C 5 & P D.$.o I ; ` q K X . X + L ; W 1 s 1 6 W x B B G 6 6 ; 4 Y C.i.2.t.F.e.8.T.6.o ` 2 { { y { t S G.; z C C N k * * * m % 5 % 5 = ) v @ ) : v x 5 V .   O n n [ V 4 ) = G B ) B d N N N 5 =.&.o 1 s + X O O + O O s V E % M % * % % $ * M j f 5 & B.o F Y - Y ; V Y G z R C % % N % k * * N * k % N * N N * N k = X . . . .",
" . . . . . : : W 1 r S S q ' ).o ' 4 ) 1 ) _ ) ; z f.# a.  $ k M & = # 5 F T $ k $ % E P.+.$ B = ; K e e X . X O.$ ; ) ) ) W W W z B B B _ i v , > F.zXo.l.,.9 E &.:.$ e 3 { n.X { w s P z C % C N * * * * * $ $ $ $ B x ) W 6 ) p x = y O   . b r w 1 1 p _ - 6 1.o & N k C & P.o V S r + O X . 3 r r u x C ~ j ~ $ $ % $ % k j % $ 5 z E G x x x x F.o R & ~ M C % $ * $ N * l $ % * $ N * N * * k 5 X X . . .",
" . . . X . 4 4 ; 4 V ! D F ; ; ; Y Y - - ; ; - Y F D B E.  % C $ C ~ C C % C % % B 5 ~ J J z P ; w + O . . . y r.  C C a % $ ^ $ l $ $ C z B ) 6 G G Y ; 1 u s u n s e e + K n.. n V G R ~ * $ N * N N % % N $ N ^ $ $ $ x x _ 6 z D V s + X X y.. u x R z x _ @ ) G ; ; 1 u s 4 S u y . + O e X e S G E E C * N N N * % % % * N N N * * * N N N N % N k C C N N N * $ * % N % $ * * * * ~ k * * * N = X . . . .",
" . . . . X : # W 4 ; G x E I.o I G G E x G G G G.o F I T E $ % ~ % * % C % C % ~ a % ~ ~ C E V K + O . . O O S s.  C & C % % $ % * % $ % & B 6 9 6 ; _ 6 ) 1 , 1 s i y 3 y w n | D ) R C m % * M C k k k % N N N J % % $ & B B # = Y 1 ] y 3 r S s Y z z & = 6 : : ; - v v 4 1 1 u 1 2 . O O + y n V x z z k * * % % % % % % * N % % k k % % % % % k N k k k N N % k * % % * % N N * * * ~ k N $ k k & X . . . .",
" . . . . X : @ ; ; F B $ % % $ 5 5 5 5 % 5 % % % 5 $ $ $ C % $ * % % k C % C % ~ % % C C E F s n X O . . O e S Y ( % % % % % % % N * $ f 5 B x B W 1 - _ 4 i 1 1 s q y 3 y w S Y I B a m * * * * N N N * * * * % k N % 5 $ 5 B B _ Y q ] K w S s Y G z & $ 5 B B @ - - _ 4 4 1 u q , q + . O X K V G B & % % * * % % % % % % * N * * N N * * N N k k N N % % N N % k * % % * % N * * * * k * $ l k k = X . . . .",
" . . . X . v W - ; I z % ~ * * R % N k k % % k % % N % % ~ ~ * ( $ $ % % $ C % m N % & x ! n.. w e X X X r n V x C % % % $ * * N N * $ f f 5 z E ) 6 4 4 : v 2 4 u , 7 r r w ! ;.o B a % $ $ $ N N N N N $ $ N N N $ N $ f $ & z 4 < < q K [ s ; G E z % $ d z P ) W 6 6 : : p 2 u , < 2 + K r u G x & d d N * * * N N N * * * * % % * * % % % * % % N N % % N % * N N N * * * N * * N $ * * N * * N 5 X . . .  ",
" . . . X . p 4 G ; G z % k * ~ R k k ~ C k k k k % J J C % $ * C C C m m % % $ % J E P ; b e y w r O X O y V x B % % % * $ * * $ N N N $ $ f 5 C V 6 W ) @ 4 S 2 q 4 ] y y u ; x z % % * $ * * % * * % * * * % k % % $ $ % % 5 5 i p < u S L I E E C C k N N d 5 Y ) 6 v @ @ 1 s u , q ] y s s G R a % d N N N * * N N N N * * * N N $ $ N N $ $ * % N N % * * % * N N N N * * * * * N $ * * * % * N 5 X . . .  ",
" . . . . . @ 6 ; D F z C % * C % k k k C k % k % k C % C C % C % % % % & % C % C C E ) s e X + { w r + r s x a C % % % % N * k * k N N N % $ $ % P = : 6 ; 1 1 s 1 ) 1 7 s x R C C % % * N * % % % k k % * * % % * % $ N % % $ $ = = 6 4 ; G z C z % % % N % N f B B # : ) - ) 1 1 1 1 1 u ; E R R m % k k N N * k % * * * * * N k % % % % % % % * % % N % N N N k % % * * % N N N * * * % * * * k k = X . . . .",
" . . . . X 9 0 6 _ G = 5 % & z & % & % % & % % % % C % C 5 5 = = % C a & % a 5 C C G Y K O O 3 t w S w S ; B C ( * % * * * N ~ * J k % N % % l N 5 = = P V ; W ; V V ; Y G a m k C % ~ * l * N d l N * * N * % % N k % % N % $ $ 5 & B z R z C ~ C % % $ $ % % d 5 & f f.o I G - F D F ; - x C ( R % N k k N N % % % * * * * N N N * * % * * N N * * % N k N N N % * k % % % N N N * * * * * N * k k & X . . . .",
" . . . . X 9 9 6 6 F R a E z P P R R z z R R z R z ( ( E z x B x ( E ( ( z ( C E E Y u y O O e 3 n 7 u s _ a C ~ * % * * $ l M N $ N % * k k l N & 5 z.o ) x ) ) G F x B a % ~ ~ k N k * l N N d N % k * N N N N * * N % N ~ k N $ d C a a C ~ ~ & $ % $ $ % N $ f & B P x P x ) x F x G B m * M R * j M k N N % N N N N * * N N N * % % * N N N N * * N k * * * N $ * N * % N N * * * N * N $ * * N = X . . . .",
" . . . . X v v 1 V Y G Y V V G x ! - V u u u Y ; S ) V u V S 1 V ! 1 V V V s u V w 7 y y e X r r ! F E E C $ l * j * * * j j j * * * j * * l l j * * * N N $ l l N * * k k * * $ * * * * * * l l * * * * * N N N * * * * * j j l * * * * * * * * j * * * * * j l $ $ $ $ l l ^ ^ * * k ~ ~ k * * * * * * * * l l j * * * * * j l l j * j l l j * j j * * j l j * * * * j j * * * k * N N * * * * j j 5 X . . . .",
" . . . . . 1 4 4 - 1 1 4 4 1 Y Y 1 @ 4 4 1 1 1 1 u @ 1 1 1 u 4 1 u 4 i u u s u u 2 , w y y b r w D I E z C d H k M k k k M N M k k k k k k M N k k k k k k k k k J J J C k k N N k k k k k H N N k k k k k H N N J k k k H N N N k k k k k k k k k k k k k k N N C C k k H H H d H k k C C k k H k k k k k k H N k k k k k k k N k k k k k k k k M k k k k M k k k k k N N k k k k k N N k k k k ~ * = X . . . .",
" . . . . . 2 , @ : v , 4 4 q q , q < , , q q q q q > q q , 2 q q 8 , q ] q 2 ] 2 ] < 2 y 2 y t 8 ) W 6 6 = = & a 5 5 = 5 5 5 5 5 = 5 5 = 5 5 5 5 5 5 5 5 5 5 5 5 5 5 5 5 = = = = 5 5 5 5 5 5 5 5 5 5 5 5 5 5 5 5 = = = 5 5 5 5 5 5 5 5 5 5 5 5 5 5 5 5 5 5 5 5 5 & & d d d 5 5 5 5 5 5 = = 5 5 5 5 5 5 = 5 5 5 5 = = = = = 5 5 5 = = = = = = = = 5 5 = = 5 5 5 = 5 5 5 5 5 5 5 5 = 5 5 5 5 5 5 5 5 # @ O . . X .",
" . . . . . . . O O . . . . . . . . O . . . . . . . + . . . . . . . O . . . . . . . X . . . . . . . . X X X X X X X . . . X X X . X X X X X X X X X X X X X X X X X X X X X X X X X X X X X X X X X X X X X X X X X X X X . . . . . . . X X . . . X X X X X . . . . . X X X X X X X X X X X X X X X X X X X X X X . . . X X X X X . X X X . . X X X X . X X X X X . . X X X X . . X X X X X X X X X X O . . . . X",
" . . . O X O . X . . . O X . . . . . . . . . . . . . . . . . X . . . . . . . . . . . . X . . O . . . . . . . . . . . . . . . . . . . . . . . . . . . . . . . . . . . . . . . X X . . . . . . . . . . . . . . . . . . . . . . . . . . . . . . . . . . . . . . . . . . . . . . . . . . . . . . . . . . . . . . . . . . . . . . . . . . . . . . . . . . . . . . . . . . . . . . . . . . . . . . . . . . O . O . . .",
" . . . . . . . . . . . . . . . . . . . . . . . . . . . . . . . . . . . . . . . . . . . . . . . . . . . . . . . . . . . . . . . . . . . . . . . . . . . . . . . . . . . . . . . . . . . . . . . . . . . . . . . . . . . . . . . . . . . . . . . . . . . . . . . . . . . . . . . . . . . . . . . . . . . . . . . . . . . . . . . . . . . . . . . . . . . . . . . . . . . . . . . . . . . . . . . . . . . . . . . .",
" . . . . . . . . . . . . . X . . . . . . . . . . . . . . . . . . . . . . . . . . . X . . . . . . . . . . . . . . X X X . . . . . . . . . . . . . . . . . . . . . . . . . . . . . . . . . . . . . . . . . . . . . . . . . . . . . . . . . . . . . . . . . . . . . . . . . . . . . . . . . . . . . . . . . . . . . . . . . . . . . . . . . . . . . . . . . . . . . . X X . . X X . . . . . . . . . . . . . . X . .",
" . . . . . . . . . . . . . . . . . . X . . . . . . . . . . . . . . . . . . . . . . . . . . . . . . X . . . . . . . . . . . . . . . . . . . . . o . . . . . . . . . . . . . . . . . . . . . . . . . . . . . . . . . . . . . . . . . . . . . . . . . . . . . . . . . . . . . . . . . . . . . . . . . . . . . . . . . . . . . . . . . . . . . . . . . . . . . . . . . . . . . . . . . . . . . . . . X . . X . . .  "
};
