/* XPM */
static char *freeimage[] = {
/* width height num_colors chars_per_pixel */
"80 80 162 2",
/* colors */
"   c #a3a3a3",
" . c #adadad",
" X c #9c9c9c",
" o c #7d7d7d",
" O c #4a4a4a",
" + c #424242",
" @ c #545454",
" # c #b1b1b1",
" $ c #353535",
" % c #3c3c3c",
" & c #bababa",
" * c #828282",
" = c #5c5c5c",
" - c #949494",
" ; c #8c8c8c",
" : c #6b6b6b",
" > c #646464",
" , c #2e2e2e",
" < c #35353c",
" 1 c #494e53",
" 2 c #858b8a",
" 3 c #898788",
" 4 c #8c8386",
" 5 c #4c4347",
" 6 c #434a49",
" 7 c #737373",
" 8 c #3a3435",
" 9 c #5d5456",
" 0 c #b3adaf",
" q c #acb4b4",
" w c #90a39f",
" e c #384d48",
" r c #4c5c5a",
" t c #3b3827",
" y c #565447",
" u c #aaaaa4",
" i c #b4aeb2",
" p c #a49ba4",
" a c #42363c",
" s c #b20d25",
" d c #974048",
" f c #a5a59d",
" g c #8cada6",
" h c #94a4a5",
" j c #4b3c49",
" k c #9ba099",
" l c #b8162e",
" z c #a64d56",
" x c #94b5ae",
" c c #4b3d43",
" v c #959d94",
" b c #a29f8e",
" n c #9d9a8f",
" m c #b8b2b6",
" M c #453c42",
" N c #5b5759",
" B c #55494a",
" V c #334c46",
" C c #515d5b",
" Z c #3a3c41",
" A c #a09798",
" S c #3e3538",
" D c #9ea3a6",
" F c #423e4c",
" G c #948d87",
" H c #746c69",
" J c #353c3c",
" K c #2f3f3f",
" L c #7b817d",
" P c #8b8177",
" I c #36403f",
" U c #3c423c",
" Y c #323c35",
" T c #786d71",
" R c #44434a",
" E c #8a857f",
" W c #666863",
" Q c #3e3641",
" ! c #887f84",
" ~ c #86847e",
" ^ c #a6aba7",
" / c #453d3e",
" ( c #3e4343",
" ) c #666c69",
" _ c #7f717e",
" ` c #6a7372",
" ' c #50434c",
" ] c #3c2f38",
" [ c #8d8a85",
" { c #3e474a",
" } c #515a57",
" | c #8e999b",
".  c #8c9493",
".. c #8c8b90",
".X c #87908d",
".o c #44403f",
".O c #72656c",
".+ c #294642",
".@ c #343c43",
".# c #4e5454",
".$ c #415f57",
".% c #4b6961",
".& c #a09c9d",
".* c #aca0a4",
".= c #9f9593",
".- c #9ea095",
".; c #8d928b",
".: c #554545",
".> c #858f86",
"., c #c2b2b5",
".< c #767f7c",
".1 c #55545a",
".2 c #6e4c4a",
".3 c #9f4850",
".4 c #ab6d70",
".5 c #604d4f",
".6 c #a2ab9a",
".7 c #9f444d",
".8 c #4f5847",
".9 c #675456",
".0 c #533d49",
".q c #274337",
".w c #602a28",
".e c #c64959",
".r c #89957f",
".t c #9ba38c",
".y c #b61028",
".u c #2f3720",
".i c #372929",
".p c #95938b",
".a c #757f81",
".s c #454955",
".d c #abb5ac",
".f c #a75957",
".g c #9c756e",
".h c #354643",
".j c #6a756d",
".k c #d1001f",
".l c #b93644",
".z c #b5948d",
".x c #37493d",
".c c #4d4248",
".v c #6b2b29",
".b c #67493f",
".n c #9d9f92",
".m c #3e4840",
".M c #2b3431",
".N c #28433c",
".B c #7f8085",
".V c #85868b",
".C c #4f314b",
".Z c #674963",
".A c #9e899c",
".S c #6c6c76",
".D c #607473",
".F c #596d6b",
".G c #745d65",
".H c #4e3d36",
".J c #423b31",
".K c #3e4033",
".L c #4a463d",
".P c #4f3b3d",
/* pixels */
"   .   X   X   X                                 X X X X X X X X                                                 X X X X X X X X                 X           X .",
"   . o O O + + + + + + + + + + + O O O O O O O O + + + + + + + + O O O O O O O O + + + + + + + + + + + + + + + + + + + + + + + + + + + + + + + + O + + + + + @ X",
"   # o $ % % % + + + + + + + + + % % % % % % % % + + + + + + + + % % % % % % % % + + + + + + + + + + + + + + + + + + + + + + + + + + + + + + + + + % % + % $ + X",
" X # o % + + % + + + + + + + + + + + + + + + + + + + + + + + + + + + + + + + + + + + + + + + + + + + + + + + + + + + + + + + + + + + + + + + + + + + % + + + O X",
"   # o % + + + + + + + + + + + + + + + + + + + + % % % % % % % % + + + + + + + + + + + + + + + + + + + + + + + + % % % % % % % % + + + + + + + + % + + % % % + X",
"   # o % % % % % + + + + + + + + + + + + + + + + + + + + + + + + + + + + + + + + + + + + + + + + + + + + + + + + + + + + + + + + + + + + + + + + + + + + + % + X",
"   # o % + + + + % % % % % % % % + + + + + + + + % % % % % % % % + + + + + + + + % % % % % % % % % % % % % % % % % % % % % % % % % % % % % % % % + % % % + + O  ",
"   & o $ % + % % + + + + + + + + + + + + + + + + + + + + + + + + + + + + + + + + + + + + + + + + + + + + + + + + + + + + + + + + + + + + + + + + % % + + % % + X",
"   . * % + + + + + % % + + + + % + + + + + + + + % + + % + % + + + + + + + + + + % % % % % % % % % + % + + % + + % % % + % + % % % + % + + % + % + + % + + % O X",
"   . * % + + + + + + + + % % % % + + + + + + + + % % + + % % + % % % % % % % % % + + + + + + + + + + % % % % + % + + % + % + + % + + + % + + + + + + % + + % O X",
"   . * % + + + + + % + % % O % + % % % % % % % % % + + % + + % % + + + + + + + + + + % % % % + + % % % + % + + % % + % + % % + + % $ + % + % % + + + + + + % O X",
"   . * % + + + + + % + + = X - X X X X X X X X X X X X X X X X   X X X X X X X X X X X X X X X X X X X X X - X X - X -     X X X   X X - ; O % % + % + % + + + X",
"   . * % + + + + + % % $ = X : = = = = = = = = = = @   # : @ > = = = = = = = = = = = = = = = = = = = = = = @ = o & - = = = = = = = = = o - % + % + % + % + + +  ",
"   . * % + + + + % % + % =   O $ % % % % % % % % $ % ; X @ $ % $ % % % % % % % % % % % % % % % % % % % % + % % = . o + % $ % % + % % , > X % + % + % + % + + +  ",
"   . * % + + + + + % + $ = . O % + + + + + + + + O % + + + + + + + + + + + + + + + + + + + + + + + + + + + + % O + + % O + + + + + + $ = X % + % + % + % + + +  ",
"   . * % + + + + + % O % =   + + + + % % % % % % % $ + % $ + % + + + + + + + + + % % % % % % % % % % % % % + % % $ % % % $ % % % + + + = X % + + + % + % + + +  ",
"   # * % + % + + + + + % =   + % % O o - * * ; ; * ; ; ; > + + % O + + + + % @ o < 1 2 3 4 5 % 6 + + + + + + % > ; * ; * ; ; ; 7 % + % = X % + % + % + % + % O X",
"   # o % + % + + % + + % =   + % % O X # . # . . # . . #   -     -   X - X     X 8 9 0 q w e r X X   X X X X X . # # . . . . # - % + % = X % + % + % + % + % O X",
"   # o % + % + + % + + % =   + % + +   . X .   .     . . * @ @ @ = @ = = = @ : - t y u i p a @   @ @ @ = @ :             . . . * % + % = X % + % + % + % + % + X",
"   # o % + % + + % + + % =   + % % O   # . . . . . . # . 7 % $ $ $ , % % % $ @ ; s d f g h j 9 k + % % + $ O . . # . # . . # . ; % + % = X % + % + % + % + + + X",
"   # o % + % + + % + + % =   + % % + : * ; o X X * ; - X 7 % + @ @ = @ % % $ @ X l z u x h c 9 v + + + O % @ . ; * * ; * * o   * % + % = X % + % + % + + + + +  ",
"   # o % + % + + % + + % =   + % + $ % $ % $ 7 ; $ % % + % % 7 # . # ; O + % @   b n   m p M N X + + % + % @ - + % % $ $ % $ ; > % + % = X % + + + + + + + + +  ",
"   # o % + % + + % + + % =   + % + + : O + % : - + + $ % + % : . X X * + % + + O @ B N   h V C X + + + % + = - $ + + = + + $ X : $ + % = X % + + + + % + % + +  ",
"   # o % + % + + % + + % =   + % + + X = % % > - , O + + + % : & o % + % % % + % < Z O . A S N D + + + % % @ - + % + X @ + % ; 7 $ + % = X % + + + + % + % + +  ",
"   # * % + % + % + % % % = . O % + +   @ % % : - % % > - $ + >   7 % % O + @ + @ O % =   X % @ X + % + + % @ - + % + X = % % * 7 $ + % = X % + % + % + % + + +  ",
"   # * % + % + % % + % $ =   + $ % +   @ % % 7 - % % > - % % % + + % % $ @   # . X + % : - $ =   % % + % $ @ - % % + X @ % % * 7 $ + % = X % + % + % + % + + +  ",
"   # * % + % + % % + + % >   : = % + X @ % % 7 ; % % > - % + % % % + + % = X X X ; O % > - + = X + + + + % = - % % + X @ % % o 7 $ + % = X % + % + % + % + + +  ",
"   # * % + % + % + % + % = # . X % + X @ % % 7 ; $ % : - $ + + + + % % % + O + + + % % @ @ % % = + % + + % @ - + + + X @ % % o 7 $ + % = X % + % + % + % + + +  ",
"   # * % + % + % + % + % @   ; : % % - = % % o * % % > - % + + % + % + + % % + % % + % + % + + % + + O + $ @ - % + + - O % % o o $ + % = X % + % + % + % + + +  ",
"   # * % + % + % % % + $ = X O , % % - = % % o * % % > - % + + + % % + % % + O % + % + % + % + % + % % % % = - % + + - O % % o ; $ + % = X % + % + % + % + + +  ",
"   # * % + % + % + % + $ = . O + + % ; = % $ * * $ % : - % % % % + + % + + % + % + + O + + $ + + % O O % % = - + + + - O % % o ; $ + % = X % + % + % + % + + +  ",
"   # * % + % + % + % O % @ . + + + % ; = % $ * * $ + : ; % + % + % + + % + $ + + % O % + $ O % % O X X @ $ = - % + + X O + % 7 ; $ + % = X % + % + % + % + + +  ",
"   . * % + + + + + + + % =   + % F 8 G H J K L P $ % > - % + % + $ + + % % + O % % + + + % + % % O     @ $ @ - % I 9 v + U Y T 2 % + % = X % + % + % + % + % + X",
"   . * % + + + + % + + % =   + % R a E W < Q ! ~ $ % : - % + + + O % % O + % + + + + % % + + + % +     O % = * + % O ^ B / U ( O % + % = X % + % + % + % + % + X",
"   . * % + + + + % + + % =   + % Z 8 ~ ) Z j _ ` % $ > - % % + % % + + % % O + + + + + O O $ + % + .   O + O @ + / 6 X ' ] R ( % % + % = X % + % + % + % + % + X",
"   . * % + + + + % + + % =   + % + % [ : Z Z 1 { + $ : - % % + $ > X o % @   X   X X X X - O % % +   . O % % % O 8 } p |. ...X.o % + % = X % + % + % + % + % + X",
"   . * % + + + + % + + % =   + % + Y *.O + V.+.@ % $ : ; % % O % : # - % = X @ @ @ @ @ : X O % + O X X O % O % + U M.#.$.% ).& O % + % = X % + % + % + % + % + X",
"   . * % + + + + % + + % =   + % U 6 X.*.=.-.; - - -   X O % % % + > @ $ = ; % % % % $ @ X + % + % @ @ % % + % + J.:.> [ n v.,.< % + % = X % + % + % + % + % + X",
"   . * % + + + + % + + % =   + % U +.1 }.2.3.4 v > : : = $ % % + + % % % = - % + + + % @ X + + + + % $ + + + % + {.5.6 z.7.8.9.# % + % = X % + % + % + % + % + X",
"   . * % + + + + % + + % =   + % U.0 <.q.w s.e.r , % % $ % O % % % + + % @ - % + % + % @ X + + % % + % + % % + % J B.t s.y.u.i Z % + % = X % + % + % + % + % + X",
"   # * % + % + % + % + % =   + % % + o * * - - ; % + + + O % % + + % % + = ; % O + % + @   + % + % + + + % O - - - - X - ; * ; 7 % + % = X % + % + % + % + + +  ",
"   # * % + % + % + % + % =   + % % % o - : = = + % + % % + % : . : % O % @ ; $ % % $ % @ X % O   * O % + + @ X @ @ = @ = > = X o % + % = X % + % + % + % + + +  ",
"   # * % + % + % + % + % =   + % + $ > X ; * - o % + + + + % : & o $ + % =   o * * ; * ;   + @ . - + $ + % @ - $ $ % % $ % $ - : % + % = X % + % + % + % + + +  ",
"   # * % + % + % + % + % =   + % + % + = = = o - % % % O % % > # * % + % + > 7 : > : : : > % % = = % % + % @ ; + + + o @ + % - 7 % + % = X % + % + % + % + + +  ",
"   # * % + % + % + % + % =   + % + + + % $ $ > - + + = 7 + + 7 # o $ + + % $ % $ % $ $ % % + + % % + + + + @ ; + + +   = % % ; : % + % = X % + % + % + % + + +  ",
"   # * % + % + % + % + % =   + % + + 7 @ % % 7 - $ % : X % $ > # * , + + + + + + O + % + + + % % % + + % % = - % % + X @ % % - 7 % + % = X % + % + % + % + + +  ",
"   # * % + % + % + % + % =   + % % +   > % $ : ; % % : - $ % 7 & * + + % % + % + + % % + + % % + % + % + % @ - % + O X @ % $ ; : % + % = X % + % + % + % + + +  ",
"   # * % + % + % + % + % =   + % + +   @ % % : - % % > - % + O : @ % % + + % + % + + + % % + + % + + + + % @ - % + + X @ % % * 7 % + % = X % + % + % + % + + +  ",
"   # * % + % + + + + + % =   + % % + X = % % o * % % : - % + % % % % + % % + % % + + + % + + % + % $ + + % = - + + + - O + % * : $ + $ = X % + % + % + + + + +  ",
"   # o % + % + + % + + % =   + % + + - = % % o * $ % > - % + + + + + % + + % + + % % + + % + + % O + + + % = ; % + + - O % % * o % % O 7 - + + % + % + + + + +  ",
"   # o % + % + + % + + % =   + % + % ; @ % % o * $ % > - % + + + % + + $ + % % + % + % $ % % % % $ + % % % @ - % % + - + % $ * o $ O - # X % + + + % + + + + +  ",
"   # o % + % + + % + + % =   + % + % ; = % % o * % % : - % + + + % = o $ = 7 % + + o 7 o o O % O + + % + + @ - % % + X O + $ o * % + o X X % + + + % + + + + +  ",
"   # o % + % + + % + + % =   + % + % ; > % $ o * % % : - % + + + $ > X $ = ; % % = # # &   O % + % % $ % % O - + % O   O + % o * % % % > - + + % + % + + + + +  ",
"   # o % + % + + % + + % =   + % + $ * > % % * * $ % > - % + + + $ > X $ =   ; 7 + 7 : 7 : + + % + 7 o O % = ; + % O   + + % o ; % O $ > X % + % + % + + + + +  ",
"   # o % + % + + % + + % =   + % + $ * : % % * o % % > - % + + + % > - $ @ . # - % + $ $ % % + % O   . @ % O > % % @   + + $ 7 ; % O $ = X + + + + % + + + + +  ",
"   # o % + % + + % + + % =   + % + $ * : % $ : = % % : - % + + + % > X % = . . ; $ % + % + % + : : .   O + % % + % @   + + $ : * % + % > - % % % + % + + + + +  ",
"   # * % + % + + + + + % =   + % + % * : % % % $ % $ : - % + % + % > X $ @   .  .p ;.a.@.s Z O.d # #   @ $ % $ % $ O X O $ + $ + % + $ = X % + % + % + + + + + X",
"   # o % + % + + % + + % =   + % + % ; 7 O @ > > > : ; - + + % + % > - $ = . . X.f.g.p.h R M +.j o o 7 + + : : : > : X > O @ @ O % + % = X % + % + % + + + + + X",
"   # o % + % + + % + + % =   + % % % X #   . . . . . . ; $ % + O % > X % @     -.k.l.z.x J.c c c $ % % % @   # . # . #   . . # ; % + % = X % + % + % + + + + + X",
"   # o % + % + + % + + % =   + % % + - .   . .     . . - % % % $ $ > - $ @ . # -.v.b.n.m 8 a $.M % % % % % - . . .   . . .   # ; % + % = X % + + + % + % + + + X",
"   # o % + % + + % + + % =   + % % O X # .   . . . # .   * ; * ; * - - + @ . . ;.N r q.B.V ; 2.  * * ; ; o . # . . . . # .   . ; % + % = X % + + + % + % + + + X",
"   # o % + % + + % + + % =   + % % O ; X X X X X X X 7 = > : = 7 : > = % = - X ;.C.Z.A.S.D.F >.G > > : : > ; - X X X - X X   X * % + % = X % + % + + + % + + +  ",
"   # o % + % + + % + + % =   + % + % + + + + + + + O % $ + % $ % $ % % % + O O %.+.h O $ $ $ < % % % % $ % + + O + O + O + + + + % + % = X % + % + + + % + + +  ",
"   # o % + % + + % + + % =   + % + % + % + + + % $ % + + % + O + + + % + + % + +.H.J.K.L.:.P 5 ( + + + % + % $ % % + $ + + + + + % + $ = X % + % + + + % + + +  ",
"   . o % + % + % + % + % >   + % + + + + + + + + 7 * O % % + % + + + + + + + + + + + + + + + + + + + % + % = ; = % % % + + + + + % % % =   % O % + % + % + + +  ",
"   # * % + % + + + % + % = X O % + + + + + + + +     > + % % $ + + + + + + + + + + + + + + + + + % + % % % 7 . * % % % % % % % % % % % > X % + % + % + % + + +  ",
"   # * % + + + + + + + % > # X X X X X X X X X X . # X X X   X   X X X X X X X X X X X X X X X X X X X X -   &   X X X X X X X X X   X X X + + + + % + % + + +  ",
"   # * % + % + + % + + % + > = = = = = = = = = = @ = @ > > > = = = = = = = = = = = = = = = = = = = = = > = = = = = = = = > > = = = > = = = % + % + % + % + + +  ",
"   . o % + % + % + + + + $ % % % % % % % % % % % + + $ % $ % % % % % % % % % % % % % % % % % % % % % % $ $ % % % $ % % % % % % % % % % % % + + % + % + % + + +  ",
"   . o % + % + % + + + O + % + + + + + + + + + + % + % + + + + + + + + + + + + + + + + + + + + + + + + + + + % + + + + + + + + + + + + + + % % + + % + % + + +  ",
"   # o % + % + % + % % % % % + % % % % % % % % % % % % % % % % % % % % % % % % % % % % % % % % % + % % % + % % + % % % % % % % % + % % + + + % % + % + % + + +  ",
"   # * % + + + + + + + + + % + + + + + + + + + + + + + % + + + + + + + + + + + + + + + + + + + + + + + + + O + % + + + + + + + + % + + % + % + + + % + % + + +  ",
"   . o % + % % % % % % % % % % % % % % % % % % % % % % % % % % % % % % % % % % % % % % % % % % % % % % % % % % % % % % % % % % % % % % % % % % % % % + + + % O X",
"   . * % + + + + + + + + + + + + + + + + + + + + + + + + + + + + + + + + + + + + + + + + + + + + + + + + + + + + + + + + + + + + + + + + + + + + + % % % + % O X",
"   # * % + + % % % % % % % % % % % % % % % % % % % % % % % % % % % % % % % % % % % % % % % % % % % % % % % % % % % % % % % % % % % % % % % % % % + + + + + % + X",
" . # * % % + + + + + + + + + + + + + + + + + + + + + + + + + + + + + + + + + + + + + + + + + + + + + + + + + + + + + + + + + + + + + + + + + + + % % % + + $ +  ",
" . . o % % % % % % % % % % % % % % % % % % % % % % % % % % % % % % % % % % % % % % % % % % % % % % % % % % % % % % % % % % % % % % % % % % % % % % % % % % $ O -",
"   . - o o * o o o o o o o o o o o o o o o o o o o o o o o o o o o o o o o o o o o o o o o o o o o o o o o o o o o o o o o o o o o o o o o o o o * * o * * o o .",
" . . . # # # # . . . . . . . . . . . . . . . . . . . . . . . . . . . . . . . . . . . . . . . . . . . . . . . . . . . . . . . . . # # # # # # # # . . . # # #   #",
" .     .       .                                                                                                                                           .   ."
};
