/* XPM */
static char *freeimage[] = {
/* width height num_colors chars_per_pixel */
"300 300 88 1",
/* colors */
"  c #949a9c",
". c #9c9a9c",
"X c #9c9694",
"o c #949694",
"O c #9c9e9c",
"+ c #949e9c",
"@ c #a4a2a4",
"# c #646264",
"$ c #2c2e2c",
"% c #3c3a3c",
"& c #646664",
"* c #a49a9c",
"= c #4c4e4c",
"- c #040604",
"; c #1c1614",
": c #a4a6a4",
"> c #545254",
", c #0c0e0c",
"< c #1c1e1c",
"1 c #949294",
"2 c #141214",
"3 c #1c1a1c",
"4 c #544e4c",
"5 c #b4b2b4",
"6 c #545654",
"7 c #5c5e5c",
"8 c #343634",
"9 c #141614",
"0 c #141a1c",
"q c #2c2a2c",
"w c #8c8e8c",
"e c #8c8684",
"r c #848a8c",
"t c #8c8a8c",
"y c #848684",
"u c #242624",
"i c #747674",
"p c #242224",
"a c #444644",
"s c #5c5a5c",
"d c #4c4a4c",
"f c #747274",
"g c #848284",
"h c #141e1c",
"j c #0c0a0c",
"k c #040204",
"l c #7c7a7c",
"z c #acaaac",
"x c #3c3e3c",
"c c #444244",
"v c #6c6e6c",
"b c #bcbabc",
"n c #acaeac",
"m c #6c6a6c",
"M c #7c7e7c",
"N c #343234",
"B c #b4b6b4",
"V c #a4aaac",
"C c #847e7c",
"Z c #aca6a4",
"A c #c4c2c4",
"S c #bcbebc",
"D c #94a6a4",
"F c #c4c6c4",
"G c #040e0c",
"H c #445654",
"J c #2c0a0c",
"K c #441a1c",
"L c #445254",
"P c #bc2224",
"I c #fc0204",
"U c #c40204",
"Y c #944e4c",
"T c #9caaac",
"R c #c45e5c",
"E c #ec2624",
"W c #8ca2a4",
"Q c #ec2224",
"! c #ac7e7c",
"~ c #94a2a4",
"^ c #dc3234",
"/ c #fc0604",
"( c #a48684",
") c #d44244",
"_ c #a48284",
"` c #dc3634",
"' c #e42e2c",
"] c #bc6664",
/* pixels */
" . X. X.o.o.X X .X X. X. XOo..o. X.o. X.o.+X. X. X X.Oo..+X X.o. X.o.X . X .o.+X .X+X. X+X. X OX .o. X.oOo. X . X .X+X+X.o. X. X+X.o. X.o. X. X . X..o.o.X OX X .X Oo..o.+X X.+X.o..o..oOo. XOo. XOo..o..o.o.X .o.X .X Oo. X.+X. X. XOo.X ..oOX .oOo.X .oOX .X OoOX X .o.X .X .o.X .X .X+X. X OX .X+X. X .o.",
". X. X+..oO.o..oO XOo. X. X.oO.oO X. X+.X+X XO X+.X+.o.oOX .X .X+. X+.X+X..oOX .X .X .o..oOX .oOX+.XO .X .XO XOoOX .X .o..o. X. X X+.XO XOoOo..oOX .o.. X X X. X .X X+X. X. X X.oOo..oO.oOoO.o.X .o.o..o..oO .oO.o.o. X.o.X+.o.o. XO .X .X+X X .XO X. X. X X.o.X .o..o..oOX .X .oOX .X+.o.o.X.o. X+.X XOo.. ",
".o.+X XOo..o.+X.o.X .oOX+X ..oOo.X .X+X. X.. XOo.X .o.o.X Oo. X XOo..o.X Oo.X .X Oo..oOX .o..o.X .o.o.o..o.o..o.X Oo. X.+X.oOX+X. .X+X X .X .X X.+X .X X. X. .X+X.o..X .X+X .X . X. X+X X..o.o.+X. X. X+X .X X.X OX OX. X. X.o.Oo..oOo.+X X. OX X X. X+X.+X. Oo..o..oOX .o. X+X..o. X X. X. Oo..o.X X .o..o.",
"...o.. X.oOX X .X .o.. X. X+X. X. X+.X X. X+X .X .X .XO .X XOoO. X.X+X ..o. X+X .oOo..o.X .oOo. X..oO X XO X+X . X.oOX X .o..o. XOo..o. X .X+. X X.o. . ...oOo..oO.oO X+.X XO XOo. X. X. X .X .X XO X..o.X .X+.o.o..o.oO.oO .X X.o..o.X X. XOo..o. X. X X. XOo.oO.oO.o.X+.X .X X+.X .X+XO X.o. XO X..oO.oO. ",
" .oOX+X .X .o..o..oOX+X .X X. X. X+X. X OX X .X .X+X .o.X .X .X X .o. X.oOX .X .X.o.X+X OX .X .X+X .XOo..o.X .X+X. X. X. X.+X .X X .o..X+X. X.o..o . X Xo.o.o..o. XOo. X.o..o.o..oOX+X. X+X. XOo. X. X X.+X .X X.OoOo.Oo. X.o..o. Oo..o.. X X.+X .X+X. X. X X. .X X X . X. XOo.+X. XOo. X.o.+XOo.X .oOX .X .",
". .o.X X+.X .X+.oO.o.X .oO.oOX+XO X.o..o.o..X+.o. X.X+.oOo. XO XOX .X+.o.o.X+.X .oO. X. X+X .X .X X .o..oO .X+.X X .o. XO X.X+X .X XOo. X.oO XOo..X.O@O@O . .X+.X .o.X. X .oO.oOo..o. XO X.o. .X+X+XO X .X X+.X .o..o.o.X .oOoO.oOX X .oOX .o.X+XO X XO XOo. XOo..o..oOX+X .o..o.o. X. X+.X X. X .X+.o.o. X ",
"X.o..+X. X+X. X+X.o. .oOX X .o..o.X Oo.+X. X X. XOo. X. X. X.o.o. X.o.X .Oo. X X .X+X .o.X .X+X+X. OX. X X.oOo.o.Oo.OoOX X .o..+X OX . X. .o.X .o. O#$%$&*o.X X .oOX Oo..+X.o. X.+X .X X.o. XOo..o..o..X+X .X .oOX+X. X. XOo..X X. X.+X.o.Oo..o. X X. X .o..X X Oo..o.X X. X..oOX OX. XOo. X. X .X+X. X. X..",
". .o.X .X+.X+X. X .X X. X. X..o. X .X X. XO X XO X. X+X. XO .X .oO. X .X X..oO.oOX .X XO XOo..o. XOo. XO .o..o..o.X X. X. X .o.X X. X.oOo.X+. X. Xo@=-;-=:o. XOo..o..oOoOX XOo..o.X+X .o..X+.o.o..o.X X .oOX+X. .o. XO XO X. X+.X+X .X .oOo.oO.o..oO XOo..oO X. XOo. X+. XOoOo. X.oOo. X.oOX+X. X+.o.X .X+.o",
". XOo. X X.o. .X .X+X.+X .X+X .X+XOX+X. X X.+X. X+XOo.Oo. X+X .X.oOo.OoOX .o.X+X .oOo.Oo. X.+X .X X .X XOo..o.Oo. OX .o.+X.X+X.+X. X X.o.. XOX .X.o:>,<,>@oo..o..o. X X.o. .o. X .o..+X.+X X. X.+X .+X OX. X .o.X .X XOo.o. X+X. X .X+X. X. .X .X+X.o.o..o.o..o.X .X .X+X. X ..X .o..o.Oo..o. .X+X.X .+X X .",
". .o..oO.o..o.oOX .X .X X .X X+.X .o. XO X+X. X. X .X XOo..o.X+.o..o.o. XOo. X. X. X. X.o. X.oOX ..oO X .oOo..o.X X+.X+X. X .X X .X . . X X .o.o. 1*=23,4O1. X X .X .X ..o.X. XOo..o.X .X+.o.X .X+X.o..oOo..oO.oOX .o. X. X. X.o..o. X X. XOoOo. X .X .X+.X X+..oOoOX .X X .X+X X. X+XOo.o..oOoO.o. XOo..o..",
"X.oOX+X.o. X.o.X Oo..oOo..o. X.o. X. X.o..X .o.+X..o. X .X+X.+X .X+X.+X..o.Oo. X. X. X+X.+X. X. X XOo..oOX .X X Oo..X X. X OX .o.X X.o.X X.X X .o.O56,<,65OX X. X.o.X X X.o.+X.o..oOo..o.o.X Oo.o.Oo..o.o..oOX X . X.+X. XOo. X .oOX OX Oo.o.X OX OX OX X OX XOo. X. X+X OX.o.+X.+X. X .o.Oo.X .o.+X.o.Oo. .",
". .o..oO.oO XO .X X X .X XOo.. X.oOo..oOo. XO X.oOoOX .X .o. X.o. X .X+X .o.X+XOo.o.X .o.oOo..oO.o.o.o..o..oO.X+X. X+.X+X. X X .. . .. .. . X..o..77823287#.o. X .. .. . X..o. .o..o. XO X. .X .X X .oO.X+X .o..oOX .X X. X.oO.o..o.X XOX X. .X X.o..oO.o.o. .o.o..o..o..o. X.o. X+X..oO.o.X .X. X.o..o.X+X ",
". X.+X .o.X .o.X .X .OX OX .X+X OX .X+X .oOX X. X .X .X OX .X X.+X..o.o..o.Oo..o. OX OX .X .X X X ..o..o. XOo. X. X+X. X .X+X.OX XoX X X X X X Xo.<-93039-<.oX ..o.o.o.o.o o.X X.+X. XOo. X+X+X.+X. XOo. X.+X..oOX .oOX .o. X.o.Oo. X. X .OoOo..o. .o.X X. XOo..X+X Oo..oOo..o..o.X .o.X .o..oOo.X .+X .o...",
". X X.o..oOX .X+X .X+X X. X+.X X .oO X .XO X .oO.o. XO X X.oO .o.oOo.. X+.X .oO.o.X .oOX .X+..X .X+X. XOo. X.o. X. X.oO.o. X .o.. ....O.O.O.. .o.oq93939<9q .o.o..O.O.O....X .X+.o.o. X.X .X X.o. XO X.o. X.oOo. X.o. XOoOX . X X.oO X. X X.o.o..oOX .o. XO X.o. X. X.oO.o.X+.oOX .X+.o.X+.o.. X+.X+X.o..o. ",
".X OX OX .X XOo. XOo. X. X X. X. X.o.OX X X. X.o..o.X+X .X .X+X. X..oOX X. X X X+X .o.X Oo.X+X OX X OX+X OX .X+X.+X. X X .X .X.o XooowertytyoX X Xq9393;32u.X X otytrettooo .o.X X.+X. X .X .+X .X X .o.OX .o..o..o.Oo. X. XOo..o..oOoOoOX .Oo..o.X OX .X X .o.+X. XOo.oOX Oo..o. X X.Oo. X.oOX. X X. .X+X .",
". X .o.oOX . X. X. X.o. XO X X .X+.X X .o. XO X X+. X. XO X .X X. X+.o.X+X. .X. X. XO X.o. .X .oO.o.o..o.X+X ..o.oOo..o..oOX .o.@i9p<as6sss>t. X .u2330;09q X XOe6ss6s6d3p;iO X .o.X XO X .X+X. X+.X+X. X X. X+XOoO X.o..o. X.oO X+.X. X. X+X. X+.o.o..oO.oOX .X+X .o.. X .X X .X+.X+X X XO .o.oOX .o.o..o..",
" X. X. X. X+X. XOo.+X.+X.o.X .Oo.o.o. OX.+X.o..o.X+X. X.oOo.X .+X.o.o.. X XOo. XOoOX X . XOo. X.o..o..o..o. XOo..o...o..o.o. X.oOf,;,yogyyyyo.o.X q9;h;032u.o.o.oyyyygoy,0jf@o.Oo..o. X+X.X X. X.o.o.. X+X.+X. X .o.X OX .oOX .X X.o. X. X X. X.o.Oo.OoOX X. X.o.Oo..oOo..oOX OX X. X .X. X X. X. .X+X.Oo. .",
". .X+X. X+.X X .o.X X+X. X .X+X. X. X.o. XO X+X. .X XO X. XO X.o. X..o.X+. X.oO X .o..o.X+.X XO X X. X+X .XO X.o..o.oOX .X .X+.o@f,<2ydk2,2-i@ooo.u903;0;9qX Xo@i-2,2-dy232fO. X.oO.X .X+.o..oO .X+.X+X.o. X X..o.. XOo.X .X .oO.o..oOoOX ..oO X.o.X X. X .oO. X X.oO.o.X .o..o..oOo.X+.oO.oOo..oOo..oOo.X .",
"o.X X .X X. X.+X. X .X Oo.OoOo.+X. XOo. X.o.o..oOo. X X.+X. X X OX .oOo.X+X. X.o..o..oOX X.o..o.o..+X.o..oOo.o.Oo.+X.o.+X OX X .Oi,3,y4,<9<2lOoo.Ou9;39339uOoooOi2<3<,=e,<,iOXo. .oOoOX .o.Oo.oOX .X X ..oOX.+X .X+X .X .+X+X+X.o.+X. X. XOo.o..o. .X .o..oOX X .X OX .X .o..oOoOo..X .oOX .X .o.o..o. X .o.",
". .X .oO.o.X .X+X. XO X.o.o..o.X+X .o..oO X..oO.oOX ..oOo.o..oO.o.X+.X . X.oO .X XOo. X ..o. XO .X+X .X XO X. X X.o. .X XOo.. Xo@f,<2y4,333,gzOz4<<39339<9<p>zOzg,3;<j=r23,i@o.oOX. X .o.X+X. .X X+X. X X. X X X+.X X .X X. X. XO X X. XO X XOo..oOo.o..oO.o.oOX .o.o.oOX X.o..o..oO X. X X .XOo..oO.o..X+..",
"..o.Oo.X X OX X OoOo.o. X. .o..o..+XOoOX X .o.X X. XOo..X OX .X X OX .oOX. .oOX Oo. X.+X.o.+X.oOX+X OX .o.X Oo..o..oOX .X .X+X.o@f23,r>,<0;08xxcp2h;0393;03,ucxx89303,>e,<,f@ X.o. X. X.Oo..oOX .o.. XOo.+X .X.+X. X. X+X. X. X XOo.OoOo.o...o.Oo.X .OX X X ..X OX .X .X .+X Oo..oOo..oOX OX .o..o.o..oOo.o.",
". X+X. .X .o..o.X. X. XO X.oOX .o.X .o. XO.oO X .o..o.o. X.oOo..o.o.o..o.oOX X X. X.oOX .oOX ..o. X.oOX+. X.oOX+.oO.o.X .o. X.o @f,<2e=,3;0;2,2,0393;h;039339,2,9;0;<,=r23,iO.o..oOoOX+X .o. X XO X+X .XOo.X+.o.X X+X. X. X+X. X .X X..o..oOo..o. .X+X .X .X+X .o.X+.X .XOo..o.X .X X .o..oOX .oO.oOo.. X. .",
" .X. XOo. XOo.Oo. X.+X.o..oOX .oOX .X .X X+X.o..oOX Oo.+X. X .Oo.Oo.OX Oo.X .Oo. X.+X .oOX. X+X .X. X .o.X. X. X X.o. OoOX+X. .XOi,3,y>,<30;h33<;0;30;30;<9393<;<0;03,>e,<,f@o.+X .X .X .o.OX .X X.o..o. X.+X .X .o..+X. X X Oo..o..oOo..o.o..oOoOX X .X OX X .o.X X+XOo.o..oOo.+X .X+X. X X OX.o.o..o.X .o.",
". .o. X.oO.o.o.X+X .o. XOo. .X .X .oOX .X .o..oO.o.X X.X X. X.o.o..o.o.X . X X..oOo..o..o. X. XOoOo..o..oOo..o.. X .X X. X. XOo @f,<2e=,39<0;39<0;<930;30;30;303;03;<j=r232f@o.o.X .o. XOX X+X. .o..o..o. X.o.X+X. X+X .X+.X.o..oOo..o. X+..X .X.o...oOoOo.. XO.oO. X .X .o..o..oOX .X .XO X.o. X .X+.oOX ..",
". XOoOX OX .o..o.. XOoOX .o.X .o.+X.o.OX .X.+X.o..o.. .o.Oo.X Oo..o. X.+X.oOX .o.X .o.Oo. XOo.X .o..oOX .o..oOo.X OX+X. X .o.o.o@f23,y>,33;3;0;0;3930;<9339339393393<,>e,3,iOX .X .X+X. X .o..oOo.Oo.oOoOX .X .o. X.o..o.X .o.Oo.o.Oo..o.X+X .o. .oOo..o..oOX X .o.X .X OX. X..o.X .o..oOo..o.+X.Oo.o..o..o.",
".o. X. X X.oOX .oOX .X .oO.oOX X.oO X X X X X X.o .oX.oO X .o.X. XOo.. X ..o..oO .X .X X.X .oO X. X .X X..oO.o.oO.o. X+XOo..o..o@f,<2y=,30;03033;03;30;0;h39330;0;30;,=y23,f@ X. .oO.oOX+X .X+.X X .X .X .oO XO X. X..oO XOo. XO X.o.oO.o..o.o.oX..o.o..o .o.X X .o.X X.o. X+X .oO.oOo..o.oOo.X .o..oOo.o.. ",
".. X. X .X .X Oo.X .o..oOX .o..Oo..o..o... X.. ..X.. ..o..X.. X X.o.X+X XOo. X.o.X+X.o. X OX .X XOoOX .+X X X. .X XOo..X .X Oo.oOi,3,w>,<;0393;20;93h;303;03;29393h;<j61,32iOX X+XOo.o. X..o.o. X. X OX .X+X..o.X+X Oo.o.X .X X X. X OX .X X.... .o...o...X.. ..X.. .. .o.o.o.oOX X.o..o..o..X .oOX+X. X..o.",
". X .oOX .X+.o.X .X+.o..o.X .o.o.o..o..ooo.ooo.oo.oo.oo.oo oo.o .o.. X.. .X X+..o..oO.oO X .X .o. X .X+X .X .oOX .o..oO X+X.o..o@vj39xq2303;<9<u3030;h;39339<up330;309qx9<jv@o..o. X. X. X+.X+XOoOX .X X .X X .X .X.o..o. X+..X .o.. X X. .o.ooo.o.ooo.ooo.oo.oo.ooXoo.. ..X...X . XO XOo..oO X. .o. XO X+..",
" X.+X.X OoOX X. Oo.X .X+X.+X.o..o.oo.ooO@@O@O@OO@OO@OO@O@@O@@O@.oX oX ooX o. X.o.+X .o.X.+X.o.X OX .X X.Oo.+X.o.+X. X X.o..o..oo.tu9329<93;03,=bc,<;0;30<93,ano<9;03;09,39ue.o X. X. XOoOo.X .X .o.OX X OX .oOX Oo. XOo.Oo.X+X .X X X X o.o.oO@@O@OO@@O@O@OO@OO@OO@O@OooX X o X X+X. X X .o.o..oOX .X X .X .",
". .X .o.o. X. XOo.oOo. X. X .XoO@O@@O@:ymvffffffffffffffvffvifvt:@O@O@@@.X..X+.X+X.o..o.o..oO .X XOo.. X X X. .X X+X. X .X+.oO..o:x2;h39;03;<,%M823;30;39<328lm<939<933;02x:o.X+.X+X .o..o. X .X .o. X+.X X. X .X.o..o. XO .X .oO. X.O@O@O@O:tmfvffffvffffffffffffffmy@@O@O@@OO .X XOo..o..oOX .o.X+.XOo. X ",
" .X+X .X. X.+X X. .X OX. X+X. O>8%%8x8xpj2,,,,,,,,,,,,,,,,,,,,jux8%%x8%NMO X X.o..o..o. OX .oOX .o.+X+X .X. X+X .X. OX .X+X .o.ooO%993;03<93939,9<930;h;33939,,393393393<,%@o X X X.Oo..o.Oo.X+XOo.+X..oOo. X..o.o.Oo. X.o.o. XOo.oOMN%x8%%8xuj,2,,,,,,,,,,,,,,,,,,,jpc8x8%%8=* X .X ..oOX X .oOX .X .o..o..",
".o.o.X .oO.o.X .oOo..o.o..oOoo@8-22,2,29<<3<3<<3<33<<3<<3<33;<<92,,2,29-i@o. X .X+.oO.oOX X. X XO.o..o.X .oO.o.X .o.o.X .X X..o.o@%,303;h;03;0;<0;0;30;039<93<3939339<9399%@oX. X. X XOo.o..o. X .X.o.o..oOX+X+.X+.o.X+.oO.oOX ..oX@ij2,2,92,9<<3<3<3<<<3<333<3<3<3<<9,2,9,2-8Oo.X+.oOo. XO X. X .oOX .o..o.",
". ..X .oOX X .+X.o..oOo.Oo..o.O%203330<;0930;393;0<9339;393303;03333<932iOoOX .X+X .X X. X OX .o.o..o..oOoOX X.+X .o..+X. X .o..o@%2<393;03;h;03;h;0<93393;0393<9<9393333,x@o. X.+X .X .o..o.Oo..o. X .Oo..o. X .o.X OX .X X. X.o. Oi,33<;0;33939<;03;0;03;0<93;h;039303;33<2x* X .X X. X. X. X.+X.o.+X. X .",
".X X+X+..o..oOX X. X. X.o.o..o@89339;330;3;h3930;393;0303393;h;0;033933,fOo.oOX .X X+.X+X. X XO. X+X+X . X. X+.X XO.oOo.oO.X+X X @x,39<03;h3;h;033;0;<9339<;h;0;339<393932xO .o. XOX .X+.X+X XO XOo. XOo.o..oOXOoO.o.o.X+X .oO.oOXo@f,3;933393;0393393393;03;303;0;0;33<0;03,x@o.X+X. XO X+X+X .X .X+X. XO.o",
". .o..X+X .o.X .+XOoOo. X OX .O%,<9302,9;00;30;303;030;3930;0;03;2,;032$1.X X. X+X.+X. X .o.X X+X. X. XOX .o.X+X. X .X ..o. X. .oOx23393;h;0;03;h;03;03h;30;03;0<9339393<,%@oX .X X .o.X X .X .o.o..X X X.+X. X .X .o..o.. XOX X .o.1$2030,20;0<;0;03;03;03930;930;309,,339<28@o X. .oOo.X .X .X+X. X. X X .",
".o..o. X.oOX .X X .X .X+.X X XO%23;h;asN2;;0;392930;39309;3033;h2a>3;3,c:o.. X. X .o.o..oO.oO. X X. X. X+X. X .oOX+X .X+XOo. X..o@%,<30;03;03;03;0;03;h;0;03;h3;0;0;<03;02x@o.X. XO X+.o..oO XOo..oO X. .o. XO X+XOoOX .o.X .o..o..o:c,3;3>a23393;0;90;0;<939230;30;9Nsd933998@o. X.X .X .X .X .o.oO X. .o..",
" .Oo. X. X. OoOX .X .X X. X .o@%,30;91bs,<03303%p930;30;q<939393,yz<9<,x@oo X. X. X.o..oOX .o.o.. X+X+X .X+X.+X. X. X. X X. X.oooOx29<;0<;03;h;03;0<;0;303;<93933933939332%Oo.o X XOX X. XOo.X ..o.o.Oo.X+X.X X. X .X .oOX Oo..oOX oO%2<9<zy,<93303<q;033939p%930;0<,sB199332%@o.X+X OX .oOo. XOo..o..oOX. .",
". X..oOo. X.o. X+X+X. X+X. XOo@893309i1d,3;0;99.x,<39<3,7$23;0;02my<03,c@oX.o.X .X+..oO X X. XOoOX .X. X. X .X X .oOX+X. .o. ...o@%,30;393;03;0;h3;0;30;3930;039<39<39<9<,x@o...o.o. XO X+.X .o.oO.X X. .X .o. X. X. X. X .X X .o.X @a,39<yv2939392$7,3;033,x.9;0;3;,=1i939<,%OX ..o.o.X .X XO X. XOo..o.o.o",
".X Oo.X .X+X.+X. X..o. X.+X.o.O%,;0;399039330391x,;0393,s$93033;3999392x@o. Oo.Oo.oOoOX X.Oo..o.o.Oo. X. X .X+X.+X..o. X+X. X.oo1O%2h;30;03;h;03;03;039<93h;339<;0393;0392%O1ooo. . X.oOo.X .X+X.oOo. XOo. X.+XOo.X+X .X OX X.+X.. XOt;03;90;393339qs,330;02%19033039399<;0;28@ X+X OX.+X.+X. X+XOo.+X .o...",
". X .oO.o. X X X. X+XOo. X .o.O%230393;0;0229291%239333,s$,2920393393<,x@oX.o. X.. X. X. X X+X. .o.X+X .X+X. X .X+X .X+.X X.oO%<uu33;0;<0;03;03;h;03;03;03;0;h3;0;<930;<39<upu3mOX.. X. X. X .X ..o..o. X.oO X. X+.X .oOX .X+.X X X Oe93930;039292,$s,<0;33,x19222930;30;03<,x@o.o.X .o.X+X X. X .X XOoO.o. ",
" X..o.X+XOo..o.Oo.o..o..oOX .o@x,<;0;0<939q8$N<wx,33;0<,s<pN$N<;039<9;2c@o X .X X+X. X .X .X. XOo..o..+X X.+X .X X .X+X.o. .oO$,;993h;03;0<;03;0;0<;0<;03;h;03;039303;h;0;09;9j#@oo.o.+X. X+X. X+X. X XOo..X X+X .X+XOX OX .o.o.+X.XOy939<;039pN$Npp7,3393<,%w<8$Nu;939<9<9328@o..X .o..o. X.+X. X .X .X X .",
". X .X .o..oO.o.X+.X .o..o.X.o@82;h3;0;33,m:.@Mox,39<3;,7fw@.Vc,330;30,x@o..X+.X+.o.X+.oOX .oO.o.o..o.X .X+X. X+.X X .o..oOX ON20393939<9<;039<393;039<930;30;h;30;<9<39393;03,&@o..X X. X. X+X+.o.X+..o. X+.X .X .X .o.o.X ..o.X . Ot930;0;3,cVO@wfs,3;30;,xog@.Vmj333;0;33,xOX X+.oOX .X+.o.oOXOo. X .X+..",
". XOo.+X. X X OX .X X+XOo. .o.O%20;30;303,&@1oO@N,<393<j#nXo1Oc,;0;30;2x@o X+X .X X .o.X .oOX X ..oOo.+X. X .X+X. X.+X. X.o. *$2<;3933933930;393339<93;30;30;3;03;3930;30;03932&@oo. X. X+X.o..X X. X.oOoOo.X .X Oo..o. X. XOo..o. XOt;0;03392x*1 on#,30<9328O.X1Om,3h;03;0<,%@o. X.X .oOo.X OX .o..oOXOo.o.",
". . X.oOo..oOX .o. X. X .XOo.o@%,<39393;<,mOo.o*=2;03;09u1 .o@x2333933,c@o..o.oOo...oO.o.X .o..o.o..o.X XO X .X XOoOX .oO X.oON2039<933;03;h3939<933;039<03;030;0;03;039<3933<,&@o.o. XO .o..o. XO X+..o..X .o.o.X .oOX. X+.o.o..oOoOt93393032x@oX.wu933933,=*o o@&,3;3930;<28@o.X+.o.X .X .X .X+.o..o. X.. ",
".X X. X.+X .X .X OX OX .o.o.Oo:8239393399j&@o.oOy20;0;0;0w.Xo@x,99930;2x@o X..o..o.oOo. X OX. X.o.Oo..o. X.oOX .o. X .XOo.. .O$93;0;30;h;h;39333930;0<93;390;0;0;039<93393;0;3,&@oX OX X+X. X OX .o.X X. X OX .Oo. XOo. X.oOX OX .X Or;0;0;99,x@oo.w39393932yOo.o@&j0093;h;3,%@ X+X .X OX .oOX X X. X .X .o.",
". XOo. X.oOX+X X.o. X+X..o. Xo@8939<39<pp9mOoXoOg293930;<wOoo*a3pp<93h,c@oX+X .X+.X. X.oO.o.oO XO X.oO.oO .X .X+.X .X+.o.X XoON,<033933;0;039399;0;03;30393393930;<393;039<303,&@o..o..o.X XO X X. X+.o.X .oOX X .X .X X+..o..oOo.o.Ot9393<pp3aOoXOw<9393399gOoXoOm;pp<93;0<28@o.X XOoOo.X .o..o..oOX+X X ..",
" ..o. X. X. X .Oo..o.X Oo.Oo. @%,<3;09d&#7y:OOO.owtttttttXoOO@i7#&89;32x@X X .X X Oo.X .X+X Oo..o.o.+X .X.o. X+X. XOo.o.. X .ON233;930;033h;3,a@c,339<9<933,cOe<393930<9339<93,#@o.oOX .Oo. X.o.Oo..oOX Oo.X .X .X+X .X X.o. X X. .XOe0;328&#7i@OOoXtttttttto.OOO:y77&d23h;3,%@o.+X .o..o..o.Oo.Oo. X. X..o.",
".o.X+XOo. X. X.o. XO X.o. XOoXO%2930;3922,q%Nvyo..OOOOOO. .tga<,929;03,x@o..X .X+X .X+.o..o.X.o.. X.o.X .oOX .X X . X. X+X..oO$930330;0;93;03,a.%,<9393939<,x1M<939393;0;03;0;9v@o .X X+X. X+.X X.o..o..o..oOo..oO.oOoO .oOX+X. XOo .t9393929,3ayt. OOOOOO.O.otmNxq,92930;3h28@o.X X. X+.oOX X. XOo. XO X+. ",
" . X X .oOX+XOo. XOo. X. X.o. :823h;39303399,29tO X Xo.o.o:aj993<930;02x@o X+X. X..o.oOX+X. X .X+X. X.+X+X. X.o.Oo.X .X X . XON,<;0;;33330<;03;90;333333333939933333<;0330;032NOo..o.+X. XOo.X .o. Oo..oOX .o..oOX X. XOo..o.. X X..Ot930;<93<92ja:ooX X X o.t9,2,9<;3<9;03;2%:o.+X. XOo.X .o. X.o..o.o. X..",
".X. ..o..o..o. XO X.oOoOX ..oXO%,339<39<393;30;w.X X. X.oo@a23;033;h3;,c@o. X.oO X .X .o. XO X+.o.o..o.X .oO.o. X. X+X+..X .oON2393092,2,2,22,2,22,2,,2,,2,22,2,2,,2,22,;30;02NOo.o.X X+X .X .X .X+X.o. X XO.o. .o. X. X.o..o.X+.o.oOt939<93393<,d@o. .X+X.oOt0;<339039<0;h3,%Oo.o. X+.X .X+.X+X .oO.X+X. X ",
" .+X.o.Oo. X .X.o.+X .X .oOo. @%2h;30;0;h;303;0t. X.+X ..o@d,<0;h;0;302x@o.X . X.oOX OX .X.o..o.X OX .o..o..o. XOo.X .X X X. *$9330;ux8%%%%%8%%%%8%%%%%%%%%%8%%%%%%%%%8%u9;339$OX .X ..o..o. X+X. X. .X OX .o.X+X. X. X ..oOo. X..o.Ot9339339<9<,d@oo.X X .XOt;39393<;30;39398@o. XOo.X .X+X. X. XOo. X. X .",
".X .oOX XOo..oO XOo.X .X+.X.oXOx,3393393939330;wOo. X.oOoX:a2393;0;0;<,x:o. XOo. .X .oOX .oOo..oO.o.X+.oO.oOX+X. X+.X .X . .oON20;3,aO1ooooooooooooooooooooooooooooooo1Oa,30;9$* .X Xo..o..X+.X X .oOoO.o.X .oO.o.X+.X+X X..oOX+X .oOt9393933933,d@o.. X. X Ot0;30;093930;<3,%@o.X .X .o. X.o. X. X.o. X. X.",
" Oo..o. X ..oOo.X .X .oOX X . @82<9339333339393t. X.o. X.o@d,333033;032x@oo.X OX X .o.X X+X .X+X XOo. XOo.o. X. X .X+X .o.X XO$230<930<9393<;0<93<93393<;0<;3h;0<93h;3h;30;302NOo. . ..oOo. XOo.Oo.X .X X OX .X X .X X .X Oo..o. .X.Ot9339339333,d:oo.o. X.o.t3039333339339328@.o.+X .XOo..o. XOo. X .X+X. .",
". X.oOX .X+XO X. X+.X . X. X XOx2930;099229<303tOX .o.X. o@a2<929203;3,c@o..o.o.X.o..oO. X..oO.o. X. XO X. X. XO X. X.o.. ..oON2339393939390;0;0;0;0;0;093939393939393939;0;39$OX X X.o.X.o..o. X. X.oO.oOo.X .X+.oO.oOX .X X .XOo.oOt939392229<2a@o..X.o. .Ot393<92929393399%Oo..oOX+.o.X+.X+.o.XO XO X X. ",
"..o. X .X X .X .o.X OX X. XOX :8233;0;u$q$3j299tOo... .o.o@d-jp$q$<903,x@oX Oo. Oo.OoOo.X+X X X. XOo.o.o. XOo.o.X X .o.. . .XO$230;0;0;03933;0;30;39339<;0;0;93933939393003032NOo.... . .o.Oo. XOo. OX X .X .Oo. X.o..X .oOo.Oo.o. .Oy3939p$q$p,-d@o.o. ...o.t992j3$q$u93<9328@oOo.X .o..o.o.X+X .o.X X .X .",
". .X+.X+X. X .XO X X .X+X. X XO%,<9<3,i*oOf7=;<w.ooXo.o. o@aN#gO1@=,<3,c@o.X .XOo. X. X .X .o. X. X. X. X. X. X X.o.X. X.oXooON2393033333<93933930;03930;303333393333333333932$Oo o.oX X.o.o.X. X.o.o.. X. X X.o..o.o. X. X. X. X.oXOt933,=@1Og#Na:1o. X oXoOt<;=sfOo*i,3933,x@o.X .X .X+..oO X..oO X+.X+.X ",
" .X+X. X .oOX .oOX OX .X .o..o@%,33;03<pu9fn.wwo.O@O@O@O*. 1ond3pu<;932x@oo..o.o..X X. .X .X. X. X. X. X. X .X .. X . .o..OOO:$2039222,9,2293<333330;<9339333333<9,22,9,9,9302N:O*O. .. . .X .o. X. .X X.o. X. .X . X.X .X. X+X. X .Or;039<up3dnow. @O*OO@OO.oww.nf9upp93<9398@o. .X+X. X+X .X X+X.o..X X. .",
".o.o.o..o..o.X .o..oOo. X. X+XOx2;0393990j#O1O..1MMMMMMMMo..oOx,99;303,x@o.oOX .o .o.o.X X X X X X X X X X X X X ...o.o. X%xgM$239qNNN8NNNNuj,,,,,;30;39339,,,,,ju8NNNNNNN$932qgMxxX. X X. .X X X X X .o.o.o.o.o.o.X .o.o.o..o.oO.o.Oe9393999,x* ..oMMMgMMCMo.O.oO#j993939<3,%O.oOo.o.o..o.X .X .o..o. XOo..",
" ..+X..oOX X .Oo..o.X .X+X.o.o@82h393;0;32&@o.o*r,2992223w.oo@c,3309;32x@o..o.Oo.Xo.X X X. X X X X X oX o.o.o.o.o.o X Xo.op,22;3<,l:OO*OOO@w#m&&m&p9393309p&m&m&&t@OOO*OOZi233022,<.ooX X X .o.o.o.o.oo.o.o.o X X X .o.o.o.o.o..o..o.r93393<92x@oo.w329,292,r*ooo@m,339393932%@o.o...o.Oo..oOo.Oo..oOo..o. .",
".o.X X ..oO.oOo..oO XOo. X+.X @%,3;<0;303,&OoooO#939<3<,7*oo1Ox,3;<30;,c@oX .o.X .O.O... o.O.O.O.O.O.O.O.O.O.O.OX....O.O.ou29929;jfOoooX ..O@@:@:zu90393;9un::@@@O...o ooOfj999;92poOO.O. .X .O.O.O.O.O.O.OO.O.O.O.o. .O.O..o.X .o.XOt9;0;0;32x@1o1@s,<33399#Ooo1O&,30;03;0<,8@o..oOoO X.o..o. X.oO.o.X .X. ",
" ..o.+XOo. X X..oOo..o..o..o.o@82<0;030;3,vn*@@ON,33393,7nO@@zc230;0;02x@o .o..oOfp$$piO1@sp$q$q$q$q$q$q$q$q$q$qtOoOauqxw.yygeygyy1.o. .%q$ul:m37lu9;33939pl79m:lu$qx.X.o.1yeygyyyy.1%qua*o.rq$q$q$q$qq$q$qqq$q$$p7@o*ip$$piOo. X.oo@a2033;03,czO@On7,3393<,NO@@@zm,3;33;03;2%@oOo.o..X X Oo..X+X X X.+X .o.",
".o..o..o.X+X. X+.X X .o..o..o.O%,3;h;33309$axxxX%,;h;33,7>%xxau90330;3,c:oX..o.o@mj99-m@1:=j9299992992929929292,yOo*$,9jv@.OOOOOO*+..oXOu,9jiz#-2,339<9<393,2j#zij9,uOoo. .OOOOOO*OOvj9,NOoOe22992992999999999299-=@1Ovj99jm@o.X ..o:c,393<339uacxx4s,339392xoxxxaN930330;03,xO. X..o. X. X.oO X. .X .X XO .",
" ..o. X .o.. X+X.o..oOX X+X .o@%230;02,2332,2,,1%239303,spj2,,9;32,;039ut.o o.o1@v,<32vO1O>,<30;33h;3<33<9<3033;y.o.82<,fO1XoooXooXo.oo.q9<2iz#,<39393393933<,&zi239q.oX X.ooXo.oo1@v2398Oo.y9<93<93<33<93<;33<032=@1*v,3<,m@1o .oo.tu9393,,;09,,,jus2<93392%1,,2,9032,,330328@oX .oOo..oOX .o..oOX .oOX X .",
". X. XOo..o.X .X .oO.o...o.X+XO%,<393%a$903<30; x,3;3;<,7$933<;09%c3939,iZOO..OOOO823,f:.Z6,39<30;30;0;h;339<;09t@.:82<,f:OOOOOO.:d2>:.@q939pup933393930;<0;h;<up039q@.:>9a:.OOOOOO:f,<,8:.@t9;339<3930;30;h393;<,>z :f,328OOOOX.OO:ij<933c%9333339$7,339<3,x.33;<0;9$d%93;<,x@o.X+.X X . XOoOX .o.X+.o.. X.",
".o.+X.o.Oo.o.Oo. XOo..oOo.. X @8293321B6j<;0;39M8230;0<,=q2<93032g:<;032&yggw.yggeN2<,7tMta,33;0;3h;30;3h;03;039fyMt$9327tMgggggMt8-xtMyq99399939<9339<;393393929392qyMtx-8tMggMggCr#,<2NyCyi9039<;0;h;30;393;033,atMt7,<2Ntggy.1Mge&9;39<@y,<9<939u>,<93;028M990333jsBw93h;28@ X X.o..oOX .o. X+X.+X. X+X .",
"...o. X+X.oO X.X .o.o..o.o.X XO%2<399MO4,<330;<9939<3393930;3;0;,i1<9393999j&@u,929393999993930;30;h;<0;3939<;039992939<99999999999<9999933;<<303939<30;039339<<<933999993;999299299939399929339<0;30;30;h3;03;h9399999393999,u@&j929;039<1f2;30;039;0;<30;39933;0;<,=OC93;028@o. X .oO.o.X .X .X .X X..o..o",
" .oOX .X ..oOo.+X. X. X .Oo.Oo@x,;039p<<;0;0;0;0;0;0;0;393;0;0;39<<30;39333,mzq90<39<93<933939<;h;0;30;03933;0<9<93393939339339393393<93393,iz&,<;30;h;03;<93,#zi2393<93390<;03;030;3939<;03h;933930;<9<93;03;h;30;30;30;0<;39qzv,<030;0;0p<0;0;3393939393939393930;03p<93032%@X+X. X.o. X .X+X.+X X.+X .X .",
". .o.X+.oOo..X X XO X. X.o. Xo@82393399;0;0;0;0;0;0;0;0;390;030339;930;0;h39uN<93;03930;<0;h33;03;039339<3930;39339<393;h39<9<;030;<93;0;302#t=,<0;<393;0393<,>t#,3h;039<3;039<0;<;03;039<;0;039339339339<0;<0;0;30;<39<;0;039<Nu0;<;03;h;9930393939393939393939393939993393,%O X .X+.X+X. X .o.X .oOX X+X. ",
"X.o..o.X X. X .X .o.X+XOo. X. O%9333930333333333333333303333339330339<933;0;99;0;03;03;0393;0;039339<;03;0;h;<93393930<93;30;30;<930;30;0<939,933;0;0;303933939,9<9;30;3930;<93;0;0<;0393;0;30;<;h;<93h;30;393h;30;h;0;30;03;0929;0;0<933933339333333333333333333333333393<39%O.o.X+X.o.. XOoOX Oo..o..o.. .",
". .X+. X. XO X+.X. X .o..oO.oo@N-2,93;99999999999999999;999990;9,;0933;0;h;030;30;h;<930;<03;03;h;03939<0;339339<39<;0;3039339<0;39339<393;033;h;03;039<;30;393<;930;30;<9303;03;039<;03;030;30;039339393;h3;0;30;<39339<39<0;330;0;<93939<9,93999999999999999999999999939,2-N@o. . X .X+X .X .X XOoOo..o.X ",
" .X X+X.+X+X .X X+X.+X. X X .XO6%c%vwytttttttttttttttttrtttttew#x3230;0<93393;0<9339330;39<93<93933933;0;0<930;3;03;03<939<;h;0;30<;039<;039<9393393h;3930;h;30;030;<9<930;<930;h;393h;30;h;3h;03933933;03939339<939339393393;03933933933923x&wytttttttttttttttttttttttewf8c%6OoOo.X .X X OX .o..o. X. X+X .",
". .X X.o..o.X .X .o.X+X..oOX .o@:@@OOOOOOOOOOOOOOOOOOOOOOOOOOOOO:yx2;0;30;h39<393;039<;03393939339<39<03;39<930;0;30;39330;03;03939<;039339<3;039<0;39339<393933;h;30;30;30;3;03;03;0;39<3939393;30;<930;30;<0;<0;30;h3;0;03;h3;h;039<3932%y@*OOOOOOOOOOOOOOOOOOOOOOOOOOOO@@:@o.X. XOo.. X.o.X+X .X .o..o.. ",
"o.X . X .o..oOo.Oo..o. X .X .o.oooo X X X o.oOoX X Xo.o.oX X X X1:>,<930;3933;0;3h;0;3h;3933933<939393;930;33;033093;0<93;03;03;h;3930;<9<;0;03;0;3<930;<930;3h;0;03930;3h;039<;0<;03;0<933933393h;0;03339339393;0393;0<93<930;0;30;39393,>zo oX X o.o.o X X X o.o.o.o.o Xoooo.oOoOo..o.o. X .o..oOX .X X.o.",
". .X+X.o..oO.o. X+X .XOoOo.oO.X .X+.X .X+X.o.o..oOo..oOX .o.X+X o@aj339<0;<9303;0;30;0;39<9339<933932203930;03229330;3939339<;03;033933930;30;h3;0;039<0;39<;h;330;39<;03;0;30;03;h;03;h;0;392930;30;392930;30;039<39<;0;<93;03;h3;h39333-dOoX. X+.X .o.X+.X+X..o..o.X+X. XOo.X .X .oO.o.X+.X+.X .o.X .X+.. ",
" .X X. OX X X. X.o.Oo. X. X. X+X. X X+X X. Oo. X X.+XOo.+X.+X. Xo@s$<93;0;039<;03h;30;30393393930;39q8<;0;30;9q8<;93h;30<;h;0<930;<933930;3h;3930;03;393<933930;h;3h;3039<;0<9339393<9339339<8q9;03;09<8u9;3h;30;3;03;03;03933;0;h;39339<qs@o .X X. X+X. X.o. X+XOo. .X Oo. X. Oo..o.X OX .X+X .o.X .OoOo.o.",
". X .oOX .X .oO X. X.o. XO X. X XO X. X. X.o..X+.X X .X XOo. X. .o.@N,<9339<39<;h;0;<0;0;<0;<0;<;h3,mzq,<393<,vzu930;0;393393;h;30;0;h;<;03;03;<9339<0;<93933930;3930;<930;393;h3;0393933939uzv,3393<2qnmj<0;03;h39<;0;h3;h39<03;039<0;9$:.o.o. XOo..oO XO X.X .X .X+X .X X. X.o. X+.oOX X .X XOo. X X..o.. ",
".o.Oo.X Oo. X.o.X+X+X. XOo. XOo.Oo.. X. X+X.+X X. X .X .X .o.X X.o.O$23339<;0;039330;<9339<;0;03933,&:q939<93,m@u9;0;3h;0393393<93<93393039<;h;0339<93;039339<;30;03;0;30;30;03939<;h;30;392q@m,<93392q:&,3;03;0;0;30;03;0;30;3930;<9332$O.o..o..o. X. XOo. X OX .o.o..X+X. X+X. XOo.X. X .X .X .OoOX .o..o.",
".. X. .X.oOX+..o..o. XO X.o. X. X.o.oOo..o. XO X XO X+X. XO X ..oO6p<0;h;h3933;03;h;03;h;03933;039<,&:$233933,m:q203;0;<0;<930;0;h;39339<;039339<933;03;03;h3939<39<930;<0;<0;30;30;30;h39<9u@m,<;0;<2q:&,33;h339339<3930;h;30;h;30;3939<p6@o..o..oO X. X.oOo.X .X+.X+X .X X. X+X .X .oO.oO X. X X. XOoOo.. ",
". X+XOo. X. X X Oo..X X X OX.+X X .X X. X .X X+X. X.o..oOo.X .oo1@d-<;0;30;30;h;<930;30;30;30;h;393j#:q2<9333,m:u9;0<930;393393393393h;3930;30;0;30;039<;0393;03;03;03;0;0393;h;3h;0393933;2q:m,303;02q:#,<90;<930;0;03;h;30;03;30;039333ja@1oo.X X.X Oo. X..o. X+X. X .X .+X .X .X .oOX .X X+X+X. X .X .X .",
".. X X.oO X. XOo.X+X .X .X X X. XOoO. X+XOo.. X. X+.X+X. X X XO@On4,3930;30;30;03;0;<930;<0;30;03;0<gO$23;0;<,m:u9339<;03930;<9339<393930;30;<9339<3930;0;30;03;h;03;h3;h;33930;0;<;03;<9309u:m,<;0332$@M<9330;<9339<;03;039<;039<39<399<,>zO@O .. .o.X+X. X+.X .X X. X. X.o.X .X .XO X X .X. X. XO X .X+.X ",
"o.o..+X. XOo..o..o. OX OX Oo.Oo..o.oOX .X .X X.+X X. X .X . *f=fmf%2<393;0;0<93393h;039<;0;3h;339<,N@.$939303,m@q9;0;30;30<;0;039<;0;30<;<93;0339393<;0;30<;3h;0;0<;0;03;0393<933930;30930;2q@v,30;039$.@N230;033;0<;0393393;0393;0;39333,%imi4iOoOo..o..o.o.X+X. X .X+X .o.. X .X+X X. XOo.+X. X+X. XOo.o..",
". .X X .X+.X+X+X .X+X .o.X .X X+X. .o.X .oO X X. XOo..oO X.o@ij,,,93930;h3393;0;<93393393393;039332$..$2933;<,m:u930;0;h;39339<;03930;3930;<0;0;<0;0;03393930;30;393;h;03;h30;<9<39<9<;3;039u:m,333;02$OO$23;0;0;h;03;h;h;<03;30;03;039<939,,,-i* X+X+.X+.X . X.oO.o. X.oO.oOX+.oO.o. X. X. X X. X X. X. X .",
"..oOo..o.o.o..X .X X. XOo..o. X. X.o..oOX+X.o.Oo..o. X XOo.oOi233<0;0;30;<93393393393<9339390;93;02NOON23h;03,v@q2393;0;30<;0<;03;03;h;0<;039<;0;<933;h;h;30;<93<9303;03;0;3;0;30;03;0390;02q@m,0<9039$*ON20393;0;339339339393h;3<930;3930;33<2i@o.X .X X .X+X. .oOoOX. .X+X .o.X X.+X. X .oOX Oo..oOo.+X. .",
". .X .oO.o..o. XOo. X. X .oOX .oO XOo.. X. XO X X .X+..o..o.Ol,303;h;h;30;39<0;h3;03939393333330332$@g<03;0;<j&:u9330330;39393939<;30;30;0;30;030;30;03;039<3939339<9<39<39<930;30;30;333339u:mj3;3;39<yO$23330330;03930;03;3939<9339<0;<93033,lOo. X+.X+X .o.oOX .X .oOX .X XO X .o.X+XOo..o..o.X .X .X+X. ",
"o.X+XOo.o..oOo..o.+X. X.+X.X .X+X.o. X X .o.oOX.+X. X.o. X.o@i,93;03;30;h;0<;03;0393333333333333339$z7j3933939i@q9333333333333333930;h;393<9339<;0<93<933933930;h;0;30;393393333333333333339qOi390<90<jsZN9<333333<3333333930;30;30;<933930;0;ji@o.X X.o..o.Oo.X .X .o.X .o..X X.+X. X .o.Oo. XOo.+X .X X.o.",
". .X .X .X+.X X .X X X+X. X+.o..o..oO.X+X. X. X XOo. XOo. X Ol<p93;039<393393;30;339,,,,,,,,,,,,,2kuZ7,33933,%@X<-,,,,,,j,j,j,j,239<3930;<939<3939;0;939339339333933930;<9032,,j,j,j,j,,,,j-pX@82;03;3,#:p-,j,,,,,jj,j,j,;3930;039<0;39339339p<lOo. .X .oOX+X. .X+.oOX .X+.o. .o.X XO.o..o.X+X .X X.X .o. ..",
". X .X .X+X .X OX .X .X .X X+XOo..oOo. X.+X.+X .X Oo.Oo..oOX.o@6,30;h;393<93930;0993s7#7#7777777777&@#,<93<928O &777777777#7##7#89;0;0<;0393<9393333303<933393939339<93393;2%77#7#77#7777777&oO8203;03,#:&77#777777#77##6<039333;0;393h;0393,6@o..o.X Oo..o. XOo.o..X .o.o..oOX. X. X XOo. .X .X .o. OX+X.o.",
"..o.X .oO.o.oO.o.X+.X+.o. X..o. X+.X.oOo.o. X+X. X.o.o.o..o.oo@6,3;33930;0;0392;332<wlffMlMlMlMlMllMnm,3393928:OCMlMlMlMlMMlfif@&j3;03;0;30;0;032,299;0;09,2239393933;h;303,#@fiflMlMlMlMlMlgO:82;<0;<,&nCiMMlMlMllMMlfiw3,30929330;30;3933<,6@oo..o. X.o..o. X X.o. XO X.oO.o.oO XO .o..oOo. X+X..o.o..o.. ",
". .o.+X.o.X .X X Oo. X.o.X Oo..o.X Oo..o.. X.X Oo. X. X. X .Xo@s,30393<933;39pN<99px>9f&9jj,j,j,j,j9x$90;0333<x%2j,j,j,j,,-<mv,m&j0339<93h;30;3,sMlN230;2NlMs,3393<93930<93j&v,vm<-,j,j,j,j,,x%p930;039$x9j,j,j,j,,,k%i96e72;p$p90;30;393<93,6@o.o. XOX OX+XOo..Oo.+X.o..o.o.X .X. X X. X.o.Oo.X OoOX .o..o.",
".X XOo. .oO.oO.o.X X. XO .X X XO XOo.o..oOX .o.X+X. XO XO.o. oO6,<3930;39<03,=nx22lnsNBzq9<<3<<3<<<;,9393;09392,3<<33<3<3<2NnBuf&,3933933;0;303,v@:x23;02x:@v,<333933393;03j&fu5nN2<3<3<3<3<;,993933;0;9,<3<<3<3<33<,#ANs5M2,xn4,30;039<3933,6@o.o.X .o.X .o..oOo..o. X+XO .o..oOo..X+X+X . XO X.o. XOX+X+. ",
". .X .X+X. X X ..o.Oo. XOo. X. X.o. X. X X Oo..o..o. XOo.o.XOl3<;0;339<930;3,>Bx22ln7pv&p93;03;03;903;0;30;3933<9393<933939um&3f&j33<9339<93h;33<9dc,033,cd9p939<9<939<;03<j&f3mmu9<;030;30;0;3393930;3h;39393;h;0332xi<7nl22x5>,<;30;<9393<,szX .X Oo..oOo..o.o..oOX+X. X X. X X.+X .X .X X.o. X.+X .o..o..",
".o. X .X X. XOoOo. XOo. X.oO.oOo..oO.o.. X.o.X+.oOX+X .X .o @i,30;h;03;03;h39u8<09qc7,,,9303;039303;0;0;0;03;0;03393939<3939,2ji#j30930930;3;0939jaa,393,ca-9393939393;0;03j&ij,,9393;39393;030;0;39;0;303;0393;39<939,j7cu99p8u0;h3;h3;03;09u$MOX .X X .o..oO.o.o. X. XO XOoO.o. X+X .X+.X. XOo. X.X .o..o.",
" .OoOX+X Oo..o.X .X X.oOX Oo. X. X.o. X+X. X Oo.X .X .X OX XOi,3;0;03;03;h;0;92933,ps2<3<93;0;30;3;03303303;030;3933930;03933<,i&,<333;3<;330333<3=a,3332a=;p03333<3<3h333<j&ij<<30;0393303033933030330;3;03;30<933939<27p,330,9;0;<939339<939ji@o.oOX OX. X+X .X OX .o.o..o.o.X+X.X .X X .oOo. X.o.+XOX+X .",
". X. X. X.oOo. .X .oO .o..o.X .o. XOX+.X XO X.o. X .X .X .X @i23933;h3;03;0;0339399q7,3;0;0;30;30;0;0;30;303393393933;393;h39<ji#k22,2,2,2,,2,2-mO.%,<93,x.Om-2,2,,2,,2,2,9k#ij30;0;3930;3;30;30;3933930;03939393939<33,7q9;93<;0;03;039339393,iO. .o..oOo..o.X+X.o..X+.X XO .o..o. XO XOX .X .X+.X X .o..o.",
" X. X. X. X. X.oOX .X X..oOX .X+X.o. X.o..o..o..oOX .oOo.o.o@i,330;0;0<;0;03;h;30;2q7,<30;303999999999999992999299299993;03;03,ff$x8%%%%%%%%%%%NiOOx,333,xOOiN%%%%%%%%%%%%%$ii,339303939999999999999999299999299393<;03,7q20<;0393393h;3h;03;32i@o.o..o.o..o..o. X. X XOo. X.o.Oo. XOo.o. OX .X X .X .o..o..",
". X+X+XOo. XO X .oOoO.o.o..oOo..oO.o. X+.oOX .oO.o.X ..oO.X Ol23933;h;0;03;h3;h;039u7239<3939uququqqu$uu$uu$uqu$quqquq030;03;<,mzzznnnnnnnnnnnnn:*O%2;0;9%O@:nnznznznznznznz:&-303;<933uqu$uuquuqu$uu$uqququqqqp93930;<27q2393;039<393;0;393032i* XOo..o..oOo..oO XO .o..oO XOo.o.X .X .X X+.X+.X+X .XOo. X ",
" X. X..o. X.o.Oo.X .X X OX .o..o..oOX+X.o.X Oo.X X .XOo..o.o*f-930;03;03<;h;0;03392q7,339393,m@o.. .OX.OX.OX.OX ..Oo.1<9;03;03jiyd6>>>>>>>>>>>>>6>@c,h33,x@>6>>>>>>>>>>>>6=s.yd9;0;039<w.OX..O.O.OX....+X...Oo@m,3<93;3,7q993039<;0;0393033939-i@o X .o.Oo.o. X X. X.o..o.X. X. .X Oo..oOo..X+X X .Oo.o..X .",
". X. X .X+.o.o.X .X .X .X X. X .X .o..o..o. XO X. X+.o.o..o Ogc$930;03;0;03;03;0;<9q72339333,m@oX X X .o. X .X .X X .1<93;03;<,sak,,,,,,,,,,,,,,,j&N23;h2N&,,,,,,,,,,,,,,,-pOzw2339393<1.o X X X X X X X .o.oo@m,339303,7q93;h;30;30;339<9339$cMOo..oO.o.X .XO XOo. XOo..oOo. XOo..o.o. X. X+.X .X XO .o. X.",
" X. X+X.o.X .X . X+X.+XOo. XOoOX Oo..o. X+X.X X .oOX .X.+X.X Xnsj<;30;h;0<;03;0;0;2q7,39339<,&@o X X Xo.oX+Xo Xo X X.w393h;039<,9<<<3<3h3<3<3<3<3<,9390;39,333<3<3<3<3<3<33uMym9;0330;<w.o.o.o.oX X X X Xo.o.oOm,<93<9327u9;0;3h;03;h;h;3<93,sn.o..o.X+X .Oo.o.X .o..o.oOX .oOX .X+X.+X..o.o.X .X+X X.o..X .",
". X. X. X .X+.X+X. X X .X+X .o. X.oOoOX .X .o..o..o.X .o. X .oO6,30;33933939<0;<309u72339<33,m@o..o.o. X. X .X .X XoO1<;3;0;3933393;<0;33;03;03;0;<0;3390;<39339339<;030;30;229;0;h;39<1OX X. X .o..o.o. .X Xo:m,3;0;33,7q20393;h;03;03939<3,6Oo.o.. X. X+X. X .X+XOo.. X .X. X X .o.X X+..o. X .X . XOoOo..",
" X Oo.+X OX X .X.oOX OX. X.+X. X. X. X .X Oo.Oo.Oo. .X+X X. Xozs,<;039<;0;3h;30;0;2q7,<93;03,m:oX X ..X .X .X .X .. .1<0;03;03393<930;3h;039<39<;0<;0393;0<93<9<;0;30;<;0393<330;0;30;<w. X. X. X..o...X.o. . Om,303;0327q93;30;033933933;03,sz.o.oOX .o.X OX OX .X .o.o..oOo..o.Oo..o. XOo..oOX .oOX .o.. .",
"..X X.o..oO.oOo. .o..oOo. X.oOXOo. X. X. X.o.o..o.X X .XO X OwMd,33;03;039<;0;30;h9q723;03;<,mOo...oX o.o.o.o.o.oXoX w393930;h;0;0;0;093939399<90;0;3930;39390;09309309<930;,,23030;39<1.o.oX X X o.ooX o.X.oX@m,<930;<,7q29<930;3930;<930;<,dMw. . X.oO.o.o..oOo. XO XOo..oOoOX X.oO.o..o.o..o.X+.X X. X X ",
" X .X ..o.o.o..o.X. X X. X. X .o. XOoOX+X .X .X+X Oo.Oo. X.o*i-0;0;0<;0<93393<93392q7,<03933,m:Xo.o. ..X .X X .X .. .1<0;0393;393333<3<3<3<333333333303;0333<3333<;3<;33339uvf7993;03;<w. X . X. .X .. ..o.o.oOm,3<;0;327u9393<;0;0<;0;3h;3939-i@oX.o.+X . XOo.X .X.o..o. X .X .o. .X+XOo. OX X .X .o.+X.o..",
"..o. XOo..oO.oO.oOo..o. XOo..X .X .o. X. X+.o. .X X. X.o. X Ol2;0393;03;h;03;0;h;32q7239<39<,mOo.. .X X .o..o.X X Xo.1<93;<393032,2,2,2,2,2,2,2,2,2,939392,2,2,2,2,2,2,2,2jp:5w239<;09<1.o.X X.o.o.X X.o..o..o@m,30;30<,7q233930;<0;0393;03;032iO..o..o.X X. X .X+.oOX .X+.X .X+.X+X .o..oOX XO X+X. X. XO .",
" X OX X Oo..oOo. X. X.+X.o.+X+X.oOX .X. X.o..oOX .X+X+X. X.o@i2h;h;30393;03;0393309q7,33;0;3,m@X XOxpuququququququququ;0;0;h;0;9qaxcxcxcxcxccxccxccaq239qaxxccxccxccxccxccx=gv7930;030;uquuququququququq<cOo.o@m,<;3h;327q9;0;0;30;<933930;h;32i*o OX X.+X Oo..oOo..o. X+X. X+X.X X. X..o.X . X X..o..o.o.o.",
". .X+.X X.o..o.X+X X .X .X X .X+.o..oOo. XOo..o.X ..o. XO X *i,3;30;<930;<9<93393;9u#,30;30<,m@oXo@N,999999999999999993;033933<,snO@@@@@@@@O:@@@@@On6,pj6n@@@O:@@@@@@@@@@@On=k23;03;h;399999999999999999,N@o.o:m,3;0;03,7q20;<03930;39<3933;03,i@o.o..o.X .X+X+.X X+.X .X X. X .o. XO X+X. XOo..o.oOoO. X. .",
".X X X .X ..o..o..o..oOo. X..o. XOoOX .X. X. X .+X X .X+X .o@i2300;0;0<;03;03;0;032q7,<;3h;3,m@o .O823h;;h;393h;03;03930;<93393,>@1oXooooooXoooooooO>,3,>O1ooXooooooooooooo*62<90;393903;0<;03;03;30;h;328Oo.oOm,303;0327q933939<9330;0;3h;03;2i@o.Oo. X .X X..o..o.X OX .oOo.Oo.OX X .X .o.o.Oo.+X .X X. X.",
". .X .X+.o.oOX .oO.oO.X XO X+.X .o. X.oOo. XO XOo.X+X. X.oOoOl,3;33;h3;0;03;03339;9q#,303;h3,v@o.o*8933030;03;0;<9339<;0393;033,6@o. X+.oO.oO X. Xo@>,<,>@o..oO XO XO X+.oo@6,33303;03;h3939<;h;039330;h28@o.o@m,<;03;<,7q999333;39<;0393;0;032iOX X.oO.oOo. X .o.. X X+X. .X XOo. XOo. X. XO X.o..X+.oOo. .",
". X OX X.+X.o. X.oOX X ..o.o.X OX .X OX .oOX X.o.. X .o. X.o@ij039393;h;0<;0;9,930j<7,33;0;3,&@o.o@8,393;933093393h;393h;303333,6@o.o..oOX .o.X+X.o:=23,>:o.o.oOX X .o.X .X@6,3330;03;0;3h;33930;339393328@o.o@m,30<;03,s<j339j909393h;30;3039,i@o.X .X .X .X+X..oOo..o..oOX .o.+X. X. XOoOX X+X. X X.o..o..",
".X .X .oOX ..X .o. X. X+X. X. X XOo.o. X..oO X .oOX .X+X. X Ol<<;30393393;032%iN296l7,30;30<,m@o.o@82339032,;30;30;03;393939,,3,6@o..o..o.X. X .X o@>,<2=@o..o..o..o..oOX o@6,3,,;30;h39<;0;03;03,20;39<28O. o@m,3393;<,#l>99Ni%23;03;h;03939p3lOo. .X+X .X+.X X .X.oO.o..o.X .X X X+X. X. X. X .X+.o..oO.o.",
". .oOoOX .X+X .X OX .o.X Oo. X .X .X .X Oo..o..o.X OX X.+X.o.o*6,0393<93393<,>bx22C5#,<;3h;3,m@oo.O82<9339c630;039<;0393399p>6uj>@oOo. X. X+X.+X .o@>,<,>:o.o. X .oOX .o..o:6ju66u99<;0;30;03;0;36c9393028*o.o@m,<93303,#BM22xb6,303;0;30;33,>Oo. XOo.o..oOX X OX Oo. X+X OX OX .X .X Oo. X .oOX+X.o..o.o. .",
"..o..o. X .X X+X.o. XO XOo..oOX .X+.X .X X XOo..o. X+.X X+.o.o@6,33;h;0;h3;09<q<;0<%7,303;h3,m@o.o@82039<,yz<9393393;h39<32$nz8-s@o.X+X+X. X .X.oOo@>,3,>@o.X+X. XO XOoOo.o@6-8zz$230;30;<03;h39<zy,03;<28@o.o@&,3393;<,7%<39<q<;h;30;03;h33,s@oX. X.X+.o. X..o.oOX.o..o.X X+X X+.X .X XOoOX .X .oO.oO.X X.o",
".o.Oo..o.Oo. X. X. XOo..o..oOX .o.X+X+X .X. X .oOX.o.X .o.X. o@s,<;03;0<;03939290;2us,33;0;3,m@o XO89;3;3,me<930;0393393;09qeyN-6@o X .X .o..oOo..o@>,<,>@o.o.. XOo.o..o..o@>j$tyq90;3h;<93;0;30<ym9;30;28Oo.o@m,<;0<9327u,339293930;0<;0;0<,6:o  X . XOoOX Oo..X .o..o..o..o.. XOoOX .X .X .o.+X. X.o.+X. .",
". X X+X. XOo..oO XO X.o. X+X .X .o..X .X+.o..o..o. X. X. .o Xo@6,30;03;0;3933333;09q7230;30<,m@oX @82039039939333<03930;03;h;0326@o..X .X+.X .X .oo:>,<,>@o. X+X. X. X .X+o@6,<93330;0;0;0;h3399;90;0;3028@o.o@m,<93;33,7q9393339339<39330;3,6*o...Xo. X. X.oOo. XO X+.X+.o..oOX .o. XO X .X .X X X+.X X X. ",
" .X .X Oo.o.OoOo..o.o.Oo..o..o. X.+X .X X OX+XOo.+X.+X XOo..Ol3<93;03;039339392903,p7,<;03;3,m@o .O82<93<;03939,2,2222222222229-=:o X+X. X.oOo. X.o@>23,>@o.o.X. X .oOX X.o@>-222,22222222222,93393;0<9328@o.o@v,339303,7p,93929399339<;0;30;<<lOo . OX .o. X..oOo.oOX .o.X+X X .X. X.o. XOo.X .X .X X. X. .",
". .X+.X X..o..o.X+.X .oOo..oO.oOX X. X+.X.o..o. X.o.X . X.oo@i,0393393;h3933,aw822#w#,3039<3,m@o.o*8233939<;<,sglMMlMMMMMlMlMlMlt.X. X X .o..o.X .o@>,<2>:o..o. XOo..oO.o.oOtlMMMMMMMlMlMlMMlgs,30393;0328O. o@&,3339<3,#w#928wa23393393930;03ji@o.o.X .X+X. X .X. .X X. X .X .X+.oO.oOX . XO X+.X+X .oO X. ",
" .X+X.o. .o..o..o.o. X.o..oOX X. X .o.X+X . X .X. X .oOX .X *i23330;0;0;<;0<,=zx29iZ#,<;3;03,m@o.o@8993h;3933,vzO*OO@OO@OO@OO@O@Oo. X. OX .Oo..o.Xo@>,<,=@o.o.+X.o..o..o. .oO@OO*@O*O@O@O@OO.zv,3<;0393398*o.o@m,3<93;3,#zi22xn=,39<93033;03339i*o..o. X X. X+X .oOX .oOX OX OX+X .X X .X+X. X X. X. X.o..o.",
".o. X .XOo. X+X .X+.X+.X+X. X .oO.oO. X. XOo..oOo..oO.o.X .o@ij2,2930330;03;0;<3939$7,3930;<,v@o.oO82339<0;03,mOoo.o XooX oXoooX X X X.o.X X.o. . o@>,324:o.X X. .X .X .X X.ooXoooo.oo oX o.oOm,393;039<,8@o.o@&2339<03,7q9093<39<3;0;390392,2-i@o.o..oO. XO X.X+.o.X .o..o.X .X XOo..oO X.o..oOo. XO XOo.. ",
" .Oo..o.o.Oo.X OX .X X .o. X. XOX .X X .X X Oo.o.Oo.X X. X oOMN8%xu93;0;0;<933903;2u7,<30;3<,&@o.o@82<93;03;3,v@X X+X X. X .o.X X.o.X X.o.X X.o.X.o:=2<,>@ X .X XX XX XX X. .. . ..o. X. XOoo@m,<393<93328@o.o@m,<9339327u9;3;90;0;03;0339u%%%NMOo...o.X X .X . X..o..o..oOo. X .X . X+X.o.+X .X OX X. X .o.",
". X. XO X X. XOo.X .X+X. X. XO X X .X+X .o..X. X.o..o. X ..X .@@On=,3033930;0;<9;02q723;h39<,m@o.o@82939<;03<,mO .. X. X. X. . .  .  .  .  .  .  .o@>,<,>@o.X  .  .  .  . o.o.o.X X.o..o. X.o@m,3;03939<28OX X:m,3;0;<3,7q20;h3;0;h;30;03,=zO@@.ooo.o.o.X X .X+X X . X+X .X .X+X. XOo..o..X XOo..o. X+X.o.. ",
" X. X X. X.+X .X Oo. X. XOoOo.o..oOX X. X.o.o X o.oo. X.X.o X. oo*=,3;h;3h;39393309q7,30;393,m@oo.O89303;0393,m@oX+X. X+X.. ......................o@>,<,>@o .................... .. XOo. X .o@v,303;h;3928@o.oOm,303;03,7q9;0;393393h;03;2d@oooO@@.o. . . .Xo.o. .o.o.X OX .X+X .o.o..o.+X .X . X+XOo..o..o.",
". .X+.oOX .X X .X XOX+X .o. XO X .X+. X. ............X .oOgp<a* X@=,330;0;30;30;h;9u7233933<,m@o.o@82;<93;03<,v@o.X+X. X X XoooooooooooooooooooooooO>,3,>O1ooooooooooooooooooooXo.o. X. XOX o@m,<;03;03328@o.o@m,<;03;<,#u230;039<;39339<,=@o..ivv1.X..X X. ..X.X...X .X.o.o..o.X+.X+X. X+X. X.o..o..oO.oO. ",
" .X X.o. .X+X.+X .o. X.+X..X .X .X .oX.o.ooooooooooooooo1Ol,,8@oo@=j<;0;30<93h;3932q7,<93h;3,m@o .O8203930<;3,m@o X .o..o...O@@:@:@:@@@@@@@@@@@@@:*n6,<,6n@@@@@@@@@@@@@@@@:@:@@:O. .X OX X .o@m,30<;039398Oo.o@m,3h;303,7q90;3h;30;0<;033,=@oo@Nj-lO1oooooo ooo  ooo .o. X .Oo..+X. X. X.X .oOo.Oo. X.o. X .",
".o..o..oOX .o.X+X..o. X. X+.X .X+.X. . ..@O@@@@@@@@@@@@@@:t32%O.o@=2393393;03;03;09q72393;03,m@oXo@82;30;<93<,m@o..oOX+X. oOvd4==4==4==4==4==4==4==>N239N>==4==4==4==4==4=4===>av* . X .X+.oX@v,339<39<3,8@o.o@m,3;0;<3,#u9;03;0;30;0;<93,d:oXOx2<tV@@@@@@@*@@@*O@@@. .o..X X.o.X X. X. X .X .X XOo. XOo..o.",
"..+X .o.X .o..o..o X X. X Xo Xo Xo. X.o.y#m&m&&&&&m&&&m&&#m8,xOXo@=,<30;h;03;h;03;9q7,3<;03<,m@o. *82<0;<9303,m:o.o..o. X.o@a-,jj,,,,,,,,,,,,,,,,,,,9<932,,,,,,,,,,,,,,,,,,,jj,-a:o.o..oOo..o@m,<93393;028@o. Om,<03;03,7q203;h;0<;03;0332=@oXO%,Nm#&&&&m&&m&&m&m&&#yOX .o X o.o X o.o X X.o.X .o.+X..o..o..",
". X.oOX .X+.X .o.....o.o.......... X .o@&k,,,,,,,,,,,,,,,,,9,%O.o@=,39339339<39<9<9u72393;h3,m@o.o@820;h3;0;<,mOo. X .X . X@>-No>2<3<3<3<<<3<<<3<3<33939<3<3<3<<<3<3<3<3<332>oNj=@o..o..o.X+o:m,30;0393398O..o@m,3;03;<,#u93933939<930;h3,=@o @%,0,,,,,,,,,,,,,,,,2k&@o.................. ... XO X.oOoOX .o.",
" X.+X. .o.X+X X .ooooo.o.oooooooooo.o.oOv,<<333<3<<3<3<<3<332%@oo:d,33393<9<;0;30;2q7,330393,&@1ooON9;03;03;3,m@o.oOX Oo..o@=jN:6,393930;0;0;0;0;0;0;0;0;0;0;0;0;0;0;0;0;0<,6:N-4:o.o.Oo..o.oOm,<;3h;3<928*oooOm,3h;303,7q993<93393393;3<,=:oXO%2333<3<<3<<3<3<3<3<,v*ooooooooooooooooooo.ooo.X X. X .X .o..",
". X .oOX . X. X.O@@@@@O@O@@@@@@@@@@O@OOzv,<;h33930;303;0;032-%Oo.O=,393;0;03930;302q723;h;3<,vnO@O:%,3;03;h3<,m@o..o.X X.oo@=,30333<3333333333333333333333333333333333333<;03;<,=@o.X X+X ..o@v,30;3939328:O@OZv,3;0;33,7q2939<9339<30;03,=*oo@8-23;0;393939339393<,f:O@@@@@@@@@@@@@@@@@@O@@O. X XO X. XO X ",
" X. X.o.oOX .o.oiffifiiffifififififififl4230;3933;0;0;0;399NxMO1yn>,<30<;03;03;<939q7,30;30;2=lfffl$930;h;0;3,v@o.o..o. ..o@=,3;992,2,2,2,22,22,22,22,22,22,22,22,22,22,2,20;03,=@o. .X .X Xo@m,<;03;0339$lfffl>203h;0327q93393<933939333,4nOoO>%N90339339339<93<932=lfifififfififififiififfio.o..o..oOo.X .",
". XO X. .X X.o.19,,,,,,,2,,,,,,,,,,,,,,,23930;<930;0;0;033,vz..oqxu93;0;039<;039399u#,330;<032,,,,,939<30;303,m@oX+X .X X+X@=,3332siifiiiiiiiiiiiiiiiiiiiiiiiiiiiiiiiiiifls23;<,=@o.X .X+.o.o@m,30;0393939,,,,,9;3;30;<,7q9933939<9<393939uxc.XOnv,33939339333939<939,,,,,,,,,,,,,,,,,,,,,,,91.oOoOX ..o. X.",
"o..o..oOo. X X op0333333333<33<3<<3<3<<3<9<;30;039303330;3jmO1oopj939<93<93;0393332q7,<h;39393<333<3;0;h;30;<,m@o.o..oOo..o@4,30<,lzO@@O@O@O@O@O@O@O@O@@O@O@O@O@O@O@O@O@OVl,303,4@o. X X X..o@m,<;30;<930;<33<330930;0327u233933933;0;3<939j<oo1O&,<939339<93933933933<3<<33<<<3<3<3333<3333po X X. X+X OX .",
". X+X .X.oO. X.1p2930;0;093;0;30;30;39339<939339<3;,v7,303,&@N<p3<930;30;30;0;39399q7,3;0;<0;39<03;03;0393;03,v@o..oO.o..oo:=,333,iOooo.o X XooX Xo Xoooo.o.ooXo Xo.oo.oo*i,333,=@o... X. X+o@m,30;<0;39<0;h3;h3;<930;<,7q9093933930;h393930<p<N@m,33<j7f,939<9339<39<9339<0;0;39393939;9392<o.o..o..o.X .X ",
" .X .X Oo.X+X .o<&f7&#&#&&#&703930;<93<930393<93;03jl&j<;32&:u293;03;039<9339393032q7230339<93393;h;0<;0;3033,m@o.o.X+X X.o@=,<932i*o..o.X+X X. X OX+X ..oOo.X .X .o..o. Oi,33<,=@o X X.+X Xo@m,<;393933933;0;393933;0327u2;3933930;<;0;<933;92q:&,<93j&ij<339339<933933933933937&#&&#&&&#vm3o.X X+X .X .X .",
". .X+XOo. .X X.o;w4,33033;30;h;3933930;393;<0;030;<,i#j;0<,m:N23093;h;30;3933330;92q7,33933930;<03;0;0;30;<9<,m@o. X .X+.o.@=2333,i@ X .X .X .oO X X. XOo..o. XO .X+X .Xo@i2303,4:o.. X+X. .o@v,3033930;<930;03;0393933,7N303;0393;h3933930;h39$:mj333,#ij3;03;h3;0;03;h393;0;03;30;h3;03,4w9o. ..o.X+.o. X.",
"o.X .o..oOX .o.o0e=,3939;09393;0<93h;393<930;39<;03ji&j<33,&Vf,<3;03930;3039399;302u7,9233933;0;h;03;30<93933,m@o.o.Oo. X.o@=,<932iOX OX .o.Oo.XOo.. X.o. X.+X.o.o.o..o..Oi,<33,=@o X.o..oOXo@m,<;<933;0;0<;0<93h;39399,#:i,309;03939339<9<93<,fz&,<93j#l,<0;<939303;<93933h;30;093939393,=y3o.o.o.. XOo.X .",
". .X .o..o.X X.o3y=,<3930;<0;h3;0;3930;h;30;h3393;<,i&j393,#zi,39<;30;30;<9<,a1829&1sq1yu939393393;h393;03;03,v@o.X+X.o..o @=,333,i@o.oOX+X XO X .X+X .X+X+X .oO.o..oO.o *i239<,4@o.o. X .X o@m,303;h;h33939<;393;03,>Ouszi2281a,3933933933;0;,iz&,33<j&ij3930;30;3930;30;0;03;h3;h;30;33,=e3o..oOX+X .X+.X ",
" .X+XOoOo..o. .o<y4,<393;393;0;03;0<;03;039<;0;30;3jl&j3332&zi,33930;<933933j6Sc,2gb7uXwu20;30;0;30;0;3h;30;<,m@o.o..o. X.o@4,3032i* X. X. X. X .X X OX .X .X .Xo.Oo.o..o@i,333,=@o. .X OX .o@m,<;0;03;0;30;30930;03,>@usBM22cS6,33<930;30;0332fz#,393j&i,33h;30;<93h;30;<933;0;39339303<2=y3o X X X .X .X .",
".. X .X .X+.Xo.o,ydk22303930;3393039<;03;03;0;h;39<ji&j<9<,&zi20339<0;0;03939N#$93am7,3930;0933303;h3;0;h;303,m@o. X+.X+.o.@=,33<,iO .o. XO X. XO X..o.X .X+.X. . XO X X *i2303,4@o.X XOo.o.o@m,<;339<0;h;30;3339393;0;,#ma39q#N2393;0;03;h;0;,iz&233<j&lj30;3930;30;<930;<0;h3;039<393,2-dg2o.o.. .X .o. X.",
". X .X .X X .o.ocw&%ax93933;0393;0;393<93h;030;3033ji&j333j&zi,;393;0;3h;33932-,,2-,wwtwtwt1fj,9;0;0;03933933,m@o.o.X .o..o@4,<932i@oX .X X.o.o.o.o o.o. X Xo.o.oX.o.X .o@i,333,=:o ..o. X..o@v,30393;0;30;039,jf1twwwttw,-,2,-93930;03<93;0332iz&,<93j&i,3;30393;h;3930;30;0;30393;03;xa%&wcoOo.o.X XOo.X .",
".X .X+X .X+X+.o.@.O@:193;h;039303;039393393;h;39393,l#,39<,mZi230;03;h3;0;0399fMllMM.OOOOOOOolg7239339<39<;h3,v@o..o.X .X o@=,333,iO...o. X .o..o..... .. .. .X .. X .X XOi239<,4@o.o. XO X o@m,33930;30;<0;,#gioOOOOOOO.MMllMv;03;h3;h;039<;0,iz&,33<j&ij<0;933933930;<0;h;30;93;03;091:@O.:.o.X+. X .X+.X ",
" . X X OX .X.o..o.oo.y93930;3<<39h;3<9339<;0;03<<<3ji&j<33,&zi,3933939<93h;339r*o..X11111111oo@i,<339<;0;03;3,m@oX OX Oo..o@=,3032i@o.o..o..o.o11o1111111111111 X X .X . @i,333,=@o. .XOo.o.o@m,<;0<;039<9332i@oo11111111...XOe90;0;39339339332iZm,<93j#l,;3<<393h;03;<9393393<<303933;y.oo.oo. .o.X OX .X .",
". X..o.X X . X o.o XOy933939uwX82;0;039<39330;0COd,,i#j39<,m:i23393393393;0;h;<<<<<<p<<p<<p<p<<<3;0;039339303,m@o. X X. X X:=23;<,iO. . ..o.o@&9p<<p<<p<<p<p<9m@oX.o.o.oXOi2303,4@o..o. X. X @m,303;0;30;39<9<<<p<<p<p<p<<<<<<<;30;30;h;<930;h,iz&,33<j&i,2dOg93;0;<930;30;028Xwu930;h9y..o.o.X XO XOo.o. X.",
".X Oo..o. X X.X..X.o@19393<9u@n%2h;03;3930;h;0;15>2,l&j<33,&zi,<93<933933930;390;93990939;990;9930;3h;30;0;03,m@o.o.X .o..o@=,3032i*o.o.X ..o@#j3;999;99;9993j&@o. .. .. *i,<33,=:oX Oo.. X.o@m,339393h;30;03;990;9;9909;9;09393h;3h;03;03;h;32iZ&,<93j&i,265o39033930;30;<92%n@u9;39391:o.o.o.o.o.o. X. X .",
". .o.oO.o..oo ooo o.s%03;0;9<cau933;h39<;03;0;hxdq9,i&j393,&zf23;h;039<;03;h393;h393393930;<930;0;03;h;30;333,mDX.. .X .X o@=,333,i@o.. ..o.o@&,3033303303333,#@o.. .. .o@i239<,4@o..X X X .o@v,33393<;0;30;9303;03933930;h;<9<939<93;03;03;03,iz&,333j&lj9qax;3;h;39339<0;39uac<9303;9%6.o.oo.o.oX.o..oO.X ",
" .XOo.Xo.oo.......X@v-<930;392,9;0;h;03;03;03932,93ji&j<33,&zi,0393393;0<93;h;30;03;h;3h;339339<;03;0;0393993,m*o o.X OX .o@4,<932fOooXoXo.oo@&,<3;99;99;9933,&:oo XoXoXoOi,333,=@oo. X. .X.oOm,39939;0;0<93h;<93393<93<933933933933;0393h;0392iz&,<9<j&ij39,20;0;303;h;0;3039,2939<;03jv@o....o.. o.o X X .",
".o. X .O.:g<ququququu3;h;30;0<33930;0;30;h3;h;0;<30,i&j39<9pqu93;30;<0;<9303;039<;03;03;h;03933930;h3;39<,f1<jf:oX..o.o..oo:=,33<,l:.OOOOO.:c<p93,xoerttyXx,<9p<c@.OOOOO.:i239<,4@o.o. XOo. oZvj<1f203;h3;0;30;0;h;3930;<930;039339<0;<9<;0;339uqp0;<3j&i,30<33930;h;03;039393<393393;<0uquququqq<g@.O.o. X ",
" ..X X1ygwm,99999999930;30;03;h;<93;30;h;39339330;3jl&j<393999393h;0;30;0;<93<93;03933939339<;03;h;393h;32vw<,7w1.o Oo..o.X@=,3;02&wgeyyeygt&7a202%w1OOO1w%,32c#&eyeyyeygtm,333,=@o.Oo.X .o.1w7,pwv,3;03;h;30;30;3393h;39339<;03;h;0;30;30;0<93999;09<j&ij<;0<930;3;0<;03;h;30;03<930;0;999299999,mwgy1..o..",
". X o@mj099330;30;3039393;h;3039339<0;<0;0393393;h3,i&j3;0;0;h;h3;039<;0339393;03;h39<;30;03;0;h33933930;0993392yOX.X .oO o@=230;399999999993p3;3;0j7@1O7j33;0<<<99999999993;03,=@o.o..o.X Oy293999393930;30;h;30;h3;0;039<39<;033933930;<0;3939<;0;33j&lj393;h;30;03;h;03;0;30;<93;<0;030;39;039399;jv@o. .",
".o..o@v,<33;0;30;<939<93<9339<933939<;0;3h;39<930;3ji&jh3<9333939<9<;30;393h;30<9393;030;<93930;3930;<93;0;33939e. . X.o..o@=,<3;0;3333333339393003,7@o@7,<903;39333333333390;32=@o..o. . XOe9393339339<;30;0;3h;0;39330;393930;<9339<9<;0;3h;03;0393<j&i,<33933h;03;0;03;03<933930<933;0;30330;3933<,vOoX .",
". X o@vj99939<93393;0;3933930;39<3933930;30;30;3;h3,l#j3;939;03;03;039<393;039<;03;03;h;03;<0;<0;<930;0393099392yOX X+..o.o:4,3;0;099999999999;0;33,7@1@7j33;099999999999933;03,=@o.o.X+X.oOy23399;3933930;<0;0;30;039<;03;03;0393933933930;30;<0;<39<j&ij3;03;0;30;h3;h;h;3939339393930;39393;033990jv@o.X ",
"X.+X.Of9ppp93;03933033930;0<;30;0;3393h;30;0<;0<933ji&j<030303;0<;0393;0<93393;03;0<;0;33930;<93393393<93;<p3;<prOo. XOo..o@=,0303<ppppppppppp<30;<9#@o@#9<90;<ppppppppppp<9h;32=@o..+X..o.Ot<<93p<0;h;03;0;3h;3h;3h;393h;03;h;3h;3h;30;03;h;3;0;0;033j&i,3h;h;0<9<;3933933930<;0;3<930;3030330393<pp3v@o. .",
". X o.oooOi2<3;<3<3330;39339<930;039<;39<;0393;039<,i&j3;h;3<393;03;h39<930;<0;0;03;030;h3;0393;039<;0;302io<,&Oo..o..o.o.o@=23;3,fO1oooooo1o:&,<2%.1ooo1O%23,&:oooooooo1.f2;03,=@o.o. X+X XoOmj<of20;3930;h;393;03;h3;0;39<0;0;39<930;<930;039333939<j&lj393393;30;039339<393;0393933;03333<333<2iO1oo.oOX ",
" .X..o.Oo@ij,2,2,,,,,390<;0;03;330;39303;03;0;03;03jl&j<0;02,20;039<;0;339<;0;30;39393;h;039<;0<933933h;3,C:pjm:Xoo..o. X.o@=,30<,i@o...O. @x<<;3,cnO@@:*nc,33<3x@o..... @i,3032=:o.+X.o..X o@vjp:g,<;0<;03;0393h;0;3933;03;03;030;30;3933933932,23933j&i,333930;h;039<;03;0;03930;30;03,2,,,,2,,ji@o..X X .",
". .o.o.oX.wvfvffffvl72339339390939<0393;h39<39<9393ji&j3932=Ms2039<0;30;03;030;303330;0;3;03;03;h;039<;0398x<,mOo..oO.o.. o@=2333,iO X o.oXOifd,39ucxxxxxcu932dffOo.o X XOi23;<,=@o..o..o. Xo@&,<x899339<;03;033;h39039<0;0;393;0;30;<039339<92sM=239<j&ij39;0;30;h;339<930;39;0;30;303,#iffffvifvw.o.o.o.. ",
" .XOoOX . .@@@@D*@O:623930;0;3;39393;<930;<93393333,i&j<33,v5l,<;30;30;h;30;0;0339393330;03930;0;30;<;0393,23,v@o.o.X+X X.o:=,3932i*.o.X . X.zm,<39222222293<,mnOo. XOo. Oi,303,=@o.o. XOo..o@m,3,2330;0;0<9<;0;0;333;3939330330;30;3939<;h;33,M5m,<93j&i,3303<93;30;0;30;30;0333930;3326:O@O@@O@@OX OoOX.o.",
".o. X .XoOoo.ooX oXotM930;39pr18233939339<0;093loa2jl#j39<,#Zi,<0;039<3;0;<0;3929<3333333333333393;0393;h;3h3,m@o. X .X . X@=,<33,iO X .X X o@#j2229229292229-#@o X. X.o.*i2333,4@o..oO X.oOo@v,33<93;h3;393933333333333333<;29930;h33933930;0,fZ#,33<j&lj2a.l9;039<0;h3;h;0281yu939309MtoooXoo.oo X X. X . ",
". .X .X .X .o.. X .o@t93;039u@5x,3930<;0;3933;0oB>2,i&j<33,&zi,;339<;0;0339339q8<j2,,,,j2,j2,,,20;0<9339303;3,m@o.o.Oo. X.o@4,3032i@o..oOo..o@vuN$N$N$N$N$N$NqvOoOX X. X Oi,303,=:o.o..X Oo. Om,<;0;03;0393392,,,,,,,j2j2,,j<Nq3930;393<930;332iz&,393j&i2,>Bo30;h;3;03;0;032xn:u933939t@o.. . .oOX+X. X .X.",
". X .X+X .X+.o.X . oOy;03;<9<d=u9339<;039339393a>$9,i&j393,&zi230;<0;30;0;h;09t:M7&&&&&&&&&&##&>2039<;03;h;0<,m@o.X+X. XO o@=,333,iO.X .X+X+.oOOOOOOOOOOOOOOOOO.X X .o..o@i23;3,=@o.. X+X. Xo:m,333939<;039<2=m##&&&&&&&&#&7M:t933;h39<9339<9<,iz&2333,#i,9$>a39<3930;30;<0;9u4d<9<9339e.o.o.o.X. X. X+.X . ",
".X OX X .X XOX .O.O*@w9<93930,,9;0;0;039339<933,,93jl&j3332&zi,93;0;03;0;39339tO*z:Z@@O@O@O@@:5M,<;393h;0;303,v@o X .oOX .o@4,<932i@o+X.o..X X X oXo X Xo Xo Xo.o..+XOo.XOi,<032=@oX X X. X.o@m,3h;0<;03;0;32M5:@@@O@O@O@Zz:@Ot90;0;393393;0;3,iz&,<93j&i,39,,;0393h;39<93;0;0,,;0;3039w:OO.O.o. X .o.X. X .",
". X X+..oO.o.o.ol1yiMv0;30;0;<339<9339<393393933<;<ji&j39<,&zi2339339<0;h33939q$$$u$o@@:@OO:yu$q9339<393393;<,m@oO.o..o..oo:=,333,i* .o..o.o..o.o.o.o X X X X X .oOX .X o@i23;<,=@o..o..oO Xo@m,<93;039<0;<09u$uy:O@O@@:o$uq$$u;303933930393302iz&,33<j&lj3;<30;30;30;30;03;0;<<930;3;9vMieoi..o..oO.oOoO.o.",
" .X .X.o.o. .o.o2yd-22;039<;3h;0393393;03h;30;h;393,i&j<33,#zi,<930;h;30;3939<p9,23$v%%8ccca%,29;09339<;0<933,m@oX XOo. X.o@4,<032i@oX. X .Oo.X X .oOX.+X X. X .o.X .X . @i,303,=:o.o..oOo. o@v,33;03;h;30;0;99,%accax8%v$3229p<939339<;0;3h;32iz&,<93j&ij<0393;h;30;0<9339<;03;03;0;0322-ay2o.o.o.X X .X ..",
". .X+.oO.o.X X o3y=2<30;33930;<9339<39<;0;h;<30;03<ji&j39<,mzi203;03;0;30;<3,=zx29izs2==9,2,23<0;33930;h;3;03,v@o. .o..oO X@=,3;<,iO. XO.oOo. X..o..o.o.X .o..oOX .o. XOo*i23;<,4@o..oO.o.X.o@m,330;03;0;30;03332,,2j$62sVi92xz=,30;h393;h3;03,iz&233<j&i,39<3930;0;30;<930;0;03;h3;03933,4e3o. X. X. XOo.o.",
" .X+X .X X.+X .o3e=,30;03930;393<9393;039330;0;30;3jl&j333,&:i,;3h;393h;30;3,>bx22M5sNbz$9<3<93;h;h;3933930;<,m@oX X. X X.o@=,3032i@o.o.o.X OX .o.Oo. X. OX+X X. .X+X.o.o@i,<03,=@o.oOo..o. o@v,3h;3<930;h;3h;393<3<,#FNs5M22cB>,<;039330;h;0<,fz&,<93j#i,33;0<;0;3<93;0<;03;03;0;0330333,=y3oOo.+X.+X. X ..",
".o.X X. X+.X+X.o0y4,<333333330;0;30;039<393;h393;0<,i&j39<,mzl,30;303;0;0;309uxp39$d79%8<93;h;03;039<39339<03,m@o.X+X. X. o@=23;3,i* X. X .X XOo. X.o..o.o..oO.o.o..oO.o.Oi23;3,=@o..o.o..o.o@m,339393;03393;0;03;039qx97d$99pxq933;03;h;3933;,Mz#,33<j&lj<;0;03;h3933939<;03;033333333<<2=y3o.o.o. X.o..o. ",
" .. X. X+X.o.o.o3yak2j2,j2,,,33930;30;<;0393;h;3h;3ji&j<33,&:d23;39<930;30<9392993,p7,220;30;3393<9339<93h;33,v@o.o..o. X.o:=,3032i@o .X OX . X.+X.o.OoOo.Oo..o.o.Oo. X XOi,3032=@o X. .X+X.o@m,<93h;3h;<930;30<;03;092j7p,339,93939<;h;0333932d@m,<93j&ij30;03;039<;030;30;0<93,,,,,,,,,kdy9o.o..oOX Oo..o.",
".o.oOo...o..o..o3yid=======>a;0<3;h3;h3939<03;03;03,i#j39<,m@u93393;0;<0;39393<9399q7,<3;0;30;h;0;0;03;0;30;<,mO . X XOoO X@=,33<,iO..o..o.X X .X+.X X .X X.o..oO.o.X .X @i23;<,=@o..oOo..o.o@v,33;03930;3930;<930;h;3<,7q9;0;<39<930;30;0;9339u:&,333j&i,303;h3;03;0;<930;<3933a>=4=4==4aiy3o.o.o..o.X+X+..",
" ..o..oOo. XOo.o<q8xxxxxxx%x%h9;9h;9h;0;3393;0;h;3<jMv-<33,&:pj,033933930;03;h;30;2q7,330;0;39393;3h;30;30;03,v@o.o.Oo. X.o@4,<93,i@oo.o.o.o..X X X .o.X .o. X X X X X.o *i,303,=:X X X.+X .o@m,<;03;03;0393;0;03;0;<9327u9393393;0<;03;0;030,jp:m,<3<-mM-<;<939<;03939339<99399%xxxxxxxxx%q<oO.o.Oo. X .X .",
".o..o..o.X .o.Xop222929292929333333333;h39303;039399xN239<,&@v&m<930;h;<93393393;09q7239<30;0333033939<0;30;<,m@oXOo..o..o @=,3332fOX X X X oo X X Xo.o oX XoX X X X oo.oOi2<33,4@o.X .o.X Xo@m,<0;h;<93933303339333933,7q29<0;h393;h;03;039pm&v@&,39328%9393;0393933339<33333339222,92292,9p1oo..oOX .X .X ",
" .OoOo.X .+X.o.o9,9,2,2,2,2,2,2,2,2,2,2223;0;0<;303929<933jvz@@@p293;0;0339<9<;0302q7,33939332,22,29393;0<;03,m@o.o..o. X.o@4,30<,i@ X OX .O..OX OX O.OX..OO .OoOX O.O.Oo@i,;03,=@ o.Oo..o..o@v,<;03;039392,22,2393930327q93;0;39339303;03;,p@O@zv,33;h22h;0303;30;39,22,2,2,2,2,9,22,22,22,3o..o.o. XOoOX .",
". X. X+.o.X .o.oc%%%x%x%x%x%x%x%x%x%x%%x$93;339393;033939<2>il oy1c,303;h;30;039<;9q7,330;399Nx%xxxp9339393;<,m@o. X+XOoO o@=,3339uqqqqqqqquqqqqqqqqqu$qqquqqqqqqqqquqqqqqu033<,=@o..o.oO.o.o:m,33;039<;0pxxx%c$939393<,7q9933933930;3;h3,a1yo.li6,<30;<3939<;h39<02$xx%x%x%x%x%x%x%x%x%x%x%xo.oO.oOX .o. X.",
" X.+X. X.X Oo.oOO@@@@@@@@@@@@@@@@@@@@@OVf,30;h;0<;0;0;393;02-8@o.:=,33;0;3h;30;3;09q723h;30<,vzO@*z82h;0<;033,m@oOo..o. X.o@=,3,2<92999999999999292929222929299992999999999;2,;,=@X X+X.oOo.oOm,<930;<9328z*@Ozv,<3;393,#u23<930;h;3h;0;3,4V.o@N-23993939393;0;93;3,fzO@@@@@@@@@@@@@@@@@@@@@@.o.X .X .X .X .",
". X.o.X+. X.o..o.oooooooooooooooooooooo@m,<33393;033303303339%O.o@d23;033939<;03939u7,3;39<;,mOoooO82;3930;h3,v@oX.o. X. Xo:=ju#%2;h;03;0;0;39393393933039393;039<393;0;0;h2%#qj=:o..o. .X+.o@m,39<;03;028OoooOm,39<03<,7q9393393393;0303,=*o.Ox2<33<3333<33033303<,mOoooooooooooooooooooooo X X X. X+.X .X ",
" X .o. X+X. XOo.o..+X. X+X .X .X .X.o.oOm-92,222222,22,22229,%@oX@=,3h;3930;3h;0<;2qs2<039332&@o.o@82<93393;3,m@o X. XOo..o@4-%S&j333;03;033933393333039333330;3393;0303333j&S%-=@oo..o.X X.o@m,<3;0<93328Oo.o@v,339<;3,7q99339<;0;30;<;3,=:ooO8j9,2,2,2,2,22222229j&@oX .X OX X .X+X X. .oOX X. Oo. XOoOo..",
"..X .X+.X+XO .o..o.X .X .X+X+X .X .o..o*iu8NNNN$xMMMlMlMMiyaj%O o@=,3;0;393393;0;09q7,39339<,m@oXo@82039<393<,m@o. X. X X o@=j<8p9399939393939993999;0;39993939993939;999932uN<j=@o.oO X .o.o@m,330;393998@o.o@&,333933,7q2;h;039<39<0;03,d@o..giMlllMlMMllMx$N$N$Nuf@o.XOo.o.. XO X. .o.X. X+.oOX X. X. X .",
" X .X+X.o. X X..oOo. X+XOo..o..o.+X.+X. OO*OOOOO@O@OO@OOO@oq,8@Xo@4,<03<93<930;30;9q7,33<933,m@o .O82<93;0393,v@o+X.+X. X.o@>9p9<<<<p<<<<<<<<<p<<<<p33;03p<<<<<p<<<<<<<p<p<p<0<9>@o .X .X+X.o@v,3h;0393328@oXo@m,<0;03327q20;339339<933932=:oo.O@O@O@OO@OO@OOOO@O@OO. Oo. X OX+X.o. XOoOo.+X. X.X X. X .X ..",
". X+. X .X .X+X .X .X .X .oO.oOX.o. X X.oo Xo.o oooXo Xoo*M29%O o@=,3;3930;<930;h32u7239339<,m@o.o@82;39<;03<,m@oX. X X. X .ooooo1o1o11o1o1o11o11o1O=,<,4O111111111o1111wo1wooo1o.o.oOX .X .o@m,<;39339<28O. o@m,30;39<,7q930;h3;03;0;033,=@X.o.o.ooo.ooXoo.o.oooooX Xo.X .X .X.oOX .o.X. X X. X+. XOoOoOo.o",
".. X.X .X+X. X .X+X.oOo. X.o.X .o..oOX+X .X .oOX .X .X .oOMj-N@oo@d,0<930;393393;02q7,3<9393,v@oX *82030;03;3,m@o .oOX OX+X X ..... ..OX....O .O..o@>,3,>:o... O.O..O.O.O.O......oOo.X Oo. Xo@m,3393<93028* Xo@m,<;3h;3,7q99<93;h;03;03;3,d@o X Oo..+X .o..oOo..o..+X.+X OX .o. .o. X. .oOX Oo. XOX .X .X. .",
".o. X+X. X+XOoOX .oO.o..oO X .X+.o.. X .X+.X+.o.X .o. X.oOwvvl Xo@=,3;30;<0;0;<03;9q72339333,mO .o@893;h3;h33,v@oX. X .o..o.o.o.o.o.o.o X oX X Xo o@>,<,>Oo.X X X o.oo.o.oX X X X X. ..X+X. X@v,30393;0;98@o.o@m,39<;0327q293;03;0;h3;03<,=@o. Xo.oOX.o..oO.o.o..o.o.o..o.oOXOo.X+.X+X.o. X.X+X. X X .X .o..",
".+X. X. X .X .X .o..oOX+X.o..o.o..oOX .X X+X.o.. XOoOX OX .@O@O.o@=,330;3930;393939q7,<9339<,m@o.o@8,30;30;03,m@o. X.+X. X .o.X X. X.+X.+X..oOX ..o@>,3,>:oo.+X.o..o..o.o. .o. X .X X X X.o. Om,3<93393328Oo.o@m,<3;033,7q23303930;393h;3,=@ooO..o.o. .X+X X. .X+X.+X. X .X .o.. X.o. X.+X .o.Oo. X .X+X X .",
". X XOo..o. X. XO X .X .oO.oO.oOX .o.X+.X .o. X X .X .X o.Xo.18puq<039<0;0;<0333399q723939<3,mOX.o@823;h;30;<,m@oo.o.X XX.o.. .o.o.X X .X+X .o.X+Xo@>,<2>@o.o.X .o..oOX .X.o.X X.o.X X X ..oX@v,3;39<0;h28@o.o@&,303;03,7q9;93339303;0;309<qup%1 X..oOo..o. XOo..o.X+.X+X. X. X XO XOo. XOX .o.X+XO.o..oO.X ",
".X OX .o.X XOo.+X.oOX Oo..o.X .X .o..o.X OX .X+X.Oo. X OX .oOfj9999393;0<;39;2,993j<7,33<933,m@o XO8230;0<;03,m@o... X. . .. .. ... X .X X .o..o..o@>,<,=@o.o. OoOX+X ..o.o.. .. .. ... ..o.o@m,<303;03;28@o.o@m,<3;0;327<j032,239<;03;0;39999jf@o.o.X.+X .X+X.+X .o.X X.+X X+X.Oo. X .X X .X. X. X X X. X .",
". X. XO X+. X.o. X. X X.o..oOo. XO X+..o.oOX .X .oOX X.o..o.Ol,333;h;h;3930328vq99dv#,39339<,m@o.o@89330;03;<,m@1o.o. o.X XoXoXX X XOX .X .XOo. X o:>,<2>:o..X X. X. X+X. X X Xo.X Xo.oX X. oOm,39<9<;0<28OX o@m,30;30<,7fd99$v823;0;h39<930;<,lO .X .o.oOX .o.X X.. X .o..o..o.o.X .X+.X+.oOo. X. XO .o..X ",
" X. X X .X X. XOX OX .X Oo. X. XOo..X X .X .o.oOo.X ..o. X.oOi2<9393933930;<j6Sc22gb#,<339332&@o.o@8,;0;30;03,v:OOOOO*OOOOOOOOOOO . X Oo.Oo.o.Oo..o@>,3,=@X X+X. X .o.X OX .OOOOOOOOOO@OOOOO.zv,3393;03928@o.o@m,<;0<;3j#by22cS6,<93h;33930;332i* X Oo..X . X. X. X+X.+X..o.Oo. X. XOo.o. X.o..X+X. X+X. X .",
". XO.oOX .X X. .o.oOX .X.o.X+X. X.o. XOo. X. X. X. X+X. X+.o@ik930;039339<393pN<39ucs,39339<,m@o.o@823393;3339qNN$N$N$N$N$NNN8Nu#OX. X X+X. X XO Xo:>,<2>@o..oO XOX .X+.o.o@7qNNNN$8N$$8$N$$N8u033303;h328@ Xo:m,3;h;03,7cp;9<Np;303;0;03;h;09kiOX .XOoO X.oOo. X. X X.oOo..o.X. X+.o.. X. X. X+.oOX .X+X. .",
"X. X .X .o..+X X. X.+X Oo.Oo. X.o.+X.+X. X.+X.+X .o.X OX X.o.tvc,3339<;039<9392993,p7,33;h;3,m@o XO82<93092,939,929922992992j-2j>@o X..o..o.Oo. X.o@>,<,>@o X X.o. X. X X.o@4j2-j29,922229229,9;3,,3;0;328Oo. Om,<0;30327p,30;29093;h;0<;0392cvt.oOo.o. X.o.X OX.+X. X .o..oOo. XOo..X+X. X .X+X X. XOo. X .",
". XOo. XO X+X.oOo..o.X.o.X .X+.o..oOo. XO X.oOX .X+.oOo.. X.o.ns,39<0;h;30;393<3399$#j<03;03,m@o.o@89339<9a6390<330;<0;<0;9u66qj6@o. X+.X+X+X.oOX o:>,3,>@o..X .X+X+X. X. o@6,q66p93;<330;<33<;036c90;h328* Xo@m,330;3<,7$90;0<33;30;30;0;33,sn.o..X .o..oO .X X+X X..oO.o..o. X+.X X .X XO X+.X. X .o..X+.X",
" .o. XOo.o.X ..o.Oo. X .X .o.o.Oo.X .X.o.o. .X .X X. X.oOo. .1O>,3<;39330;3039,993j<7,3<;03<,m@oX @8,3933,yZp93;0;30;30;302$znN-6:XoOo.X .o..o.. .o@42<,>:oo. Oo..o.. XOo.o@6-8zn$2303h;30;h;039<zy,;0;398@o.o@m,<0;393,7<j339,993939<;h;303,>O1. X .XOo. X.o..o..X .oOX XOo..X+X.o. XOo. X+X.o.+X. X. X X .",
".. X. X. X. X+X. X.o..oO .XO X.o. XOo. X. XOo. X+.oOX ..o.X.o.n7,30;03;0;h;3,xyN927y#,393;03,v@o.o*8233932mr<930;h;<0;30;<2$yt$j>@o..X .o..X+.o.X o:>,<,>@o.XOo.o..oOo. X.o@6j$ty$23;h;0;<0;3399<tm23303,8@o.o@m,3;h333,#ys92Ngx203930;039<3,7nX.. X .o.X+.oOo..o. XO .o..o. X+.X .X+.o..o..o..o.oOX .X+.X .",
". X. X Oo.+X X. X+X.+X XOoOo.X Oo..o.+X. X.o.Oo.X X. X.o. .oOy>823;03;h;0;3<,45c,2Cn#j<3;0;<,&@o.o@82<9<93999<;h;30;0;h;3939993,6@o X .XOoOo.oOX .o@>,3,>@o .o.X .o.X OX .o@6,39993939330;<93933999399<;28@o.oOm,30;<93,#nl9,x5>,<;3h;30;<93286yOoX .o.. X. X. XOo. X X. X+XOo.X .oOX .X+XOo.+X. X. X+X.o. .",
".o.oOX.o..o.. X. X .oO. X. X .X XOo..oOo..o. XO X. X+.oOX X Oi-90;0;<0;303939<p3930$#,39<303,m@o.oO823393933;0;30;30;30;039333<,6@o.oOo. X.X .X .Xo@>,<2>@o.o. . XO .X. X.o@6,393;0;03;h;03;h3933393339328Oo.o@m,303933,sN39;<p<9330;h;30;3939kiO .XO.oOX X. X+.o.XO XOo..o. X. XO X X. X .X X+X. XO .o..o.X",
". .X .o..oOX X. X. X.X X .o.OX .X .o.X OX .o.X X Oo.X .X ..XOl,33933930;<9330;903;2u7,33;h;3,m@o.o@8239339<93930;3h;3h;30;39393j6@o..o..X . .X X. o@>,<,=:o.. X.X.o.o. X .o@>,333h;03;0;03;03;39<939<93028@o.o@v,<;393327u20399;h;0;0;30;30;032i*o.o.o.o. Oo..oOX .o..o. X. X. X+X X.. X .X .X Oo..o.X .o. .",
".X .X+.o. X XO X+X. X+.X X. X+X. XO .o.oOX ..o..o..oOX X X+o@i2<0;h;<930;39<9393909q7,303;0<,m@o.o@8230;0;0;0;0;0;0;0;03;h3393<26@oo.o.o Xo.o X .Xo@=23,>*oooX o.o.o.oX Xoo@623;0;30;03;0;0;03939393939328@o.o@&,<9339<,7q9;03393933;039<9<39<,lOX ..X .X+X.o..oO.oOo..o. X+X+X. X. X+X. X+X .X.o.oO XOX X. ",
". .X XOo.X ..o.o..o. XOo.Oo.o.Oo. X+X. X. X+X .oOX .o. OX .o@i,;3933933930;393<9332u#,<3;033,m@o XO82<<3<3<33<3<3<3<33393939339-=zOO@OOO@O@O@O@OOOOz6,<,6nO@O@O@O@O@O@O@O@O:>-90;0393;0<3<333<3<3<3<33<39%Oo.o:m,33<93327u90;0;h;30;0<;0;393932i@ X+X .X X.o.+X. X X. XOoOX. X. X.+X X.+X.o.Oo. X.+X.o. X. .",
".o. X .X+.X+X. XOoOX .o..o..o.o.X .X X. XO.o.X .X X. XOo..oX@i2303933933;h393393939q7,30;39<,v@o.o@$-2,,2,2,2,2,,2,,2,9330;399N$&gfilllllilililllliga,<2cMililililililililig#$8930;<03;,2,,2,,,2,2,2,2,2-$* .o@&233939<,7q2;<03;0;<9393;033933,lO .X X. X ..o.o.X+.X+X .X .oO.oOo.X+.X X .X X.o. X.o..oO X. ",
" ..o.Oo..o.o.+X. X .X X.oOo.Oo..+X.o.+X. X X.+X .+X+X.o. X. Oi2393;0;<9393;039<93;9u#,33;033,&@o.oOlvfvfvfvfvfvfvvfvfm<;0;303215:p,2,,,,,,2,,2,,,,,,93939,,2,2,,2,2,,2,2,,,pz5w2<;39393&fvfvfvfvfvfvfvfvvlOo.o@m,<9339327q2393;03933933h;<93032iOX X Oo. XOo..o.+X. X .X .o.X X .X .X .+X. .o.Oo.Oo. X.o..o.",
". X. X+X .X .X+X. X+.X+..o.o..oOX XO X X. X .X X.o..o..o. Xo@ik93;030;30;03;<0;3039q7,<0339<,m@o. XO@@O@O@O@O@O@@@@O@ 3930;<99d6sp933333;3033333;<3393393333033<9<33;<03339p6sd939<393<.@O@@O@@O@O@O@O@@@O..oo@m,339333,7q9039<;039<393;0;0;39-f* X .X.oO.o.o.. X.o..X+XOo..o..oO X .oOX XOo. X.o..oO X X . ",
" X.+X.X .X OX X .X X. X X. XOo.o.. X+X.+X. XOo.Oo..o..oOX .XOMc$90;h;3h;3<9<9339<92u#,3;<933,m@o X .oo.o.o.o.o.o.ooo.1<93;0;032,,;03;h;03h;39<930;h;30;0;0<9<;0;33930;393930,,,3933939<w.oo X o.o.o.o.o.ooOo.o@m,<93<9<,#u9;0;30;<;0;0;033932$xgOo..oOo.X+X OX XOo.+X .X ..o.+X.o..oOX. X X .X+X .o.X OX .X.",
". X.o. X+.X X. X+.X+X. X+X. .X .oOX .X X X. .X X+.oOX .o.X+.o.ns,33;0;3939393933939q7,<0;39<,mOX..o.o.o.o.o.o.o.o..oOw<;0330;9<<<3930;39<;03<93;h3;0;<0;<0;30;<0;03;h39<30;3<<<30;03;0<1.o.X X.o.o.o.o.o.o.o.o@m,3;0;33,7q2;30;30;h3;03;h;33,snX .oO.o. .X .X . X. XOo. XOo..oO X+X. X XO .X .X .XO XOo.X . ",
". X . X.X+X . XOX X .o..X X+X .X X .X .o..oOo. X.o.X .o.Oo.o.oO6,3930;03933<9339339u#,33;03<,m@o o.o.o.o.o.o.o.o.o.o.1<93;h;032,,0;0;30;39<;93;0;393393393;h;0393;0;393;0;39,,,3;03;0;<w..o.o.o.o.o.o.o.o.o..o@m,30;033,7q90<930;03;0<;0;033,6Oo.o.o. XOo..o.oOX .X X .XOo. X XOo..o. X.oOX Oo..oOo.o. X .o.",
"...oOX .o..oOX .o..oOX+X ..o.X+.X .X+X. X+.X X. .X .X .X .X .ozs,339<39<3939339<932q7,303;03,m@o...................o.1<930;399c=dp33<333333333<3<3<3333333333;<3<3<33333339pd=x9039339<1. ..................oo:m,<33;h3,7q239<;h;39339339<9<,szo..X+X. X X+.X+.o.oO XOo. X.oO.o..oOoOX . X X.oOo..X .X .X+..",
" .o.X Oo..o.X .o.Oo..o. X.o.Oo.X OX X .X X.o..oOo.+X XOo.o. *Mqu9393;h;39<933939339u#,<;393<,mOoXooooooooooooooooooo.w3;0;3h;2wz@<j,,,,,,,,,,,,,,,,,,,,,,,,,,2,,,,,,,,,,,,jp@n1239<930<wXoooooooooooooooooooo1O&,3h;0;327q9933933930;<930;339uqMO o..oOX .X .X X. X..o. X. X.o.+X. X. XOo..o. X. X .X+X. X .",
".X .oOX .oO.oOX. X+X .XO X+X .X .o..oOo..oO.oO.o.X .X .X+.X Oij9303;039339339<39399q7,303;0;,vnO:@@@@@@@@@@@@@@@@@@@:.<9339309foof&m&vmmmmmmmmvmmmmmvmmmv&vmm&vmmmmmmmvmvm&v.l8933;39;<.:@@@@@@@@@@@@@@@@@@@@@nf,;39303,7q93;039339<0;0;<0;0;3-i*o.o..oO.oOo. X .X+X .X+.o. .X X X. XO X.oO.oO.oOX+X .oOX .o",
" Oo..o..oOX .o. X.o..oOo..o..X .oOX .X.+X. X X .X .X Oo..o.o*i,<;0;0393<939<9393392q7,3<93032c#ss7s7s7s7s7s7s7s7s7s7ss<93933;3,m::zzzVZVzVzVzVZVz:n:z:n:zzzVzzVZVn:znVZVZVz::m-<3930393s77s7s7s7s7s7s7s7s7s7s77c203h;33,#u9;039<;h;3933393939h2lO X.+X .o.X OX .X X .X X. XOo..o..oOo.o. .X+X.o. X .X+X. X..",
". X.oOo..o.X .oOo..o..o.o..o. XO X X .o. XO XOX+X+X .X X .X @i239<;h;39339339339<39q723;0;39<2,,,,,,,,,,,,,,,,,,,,,,,,930;0;03,fwmvffffffffffffffffffffffvffffffffffvffffffmwv,393;<939,,,,,,,,,,,,,,,,,,,,,,,,20;3;0;<,7q239339339339<933933;,i@o.o.X XO .X XOoO. XO X+XO X X+.oO. X. XOo. X .X .X .X .X . ",
".X Oo..o.o.+X..o..oOo..o..oOo..o.X OX OX.o.X .o..o..oOo.Oo.oOl,h;3933930;3<93393932q7,30;3h;0;3<333h33<33<3<<3<33<33<339393393,i#k2,,,,,,,,,,,,,,,,,,,,,,2,,,,,,,,,,,2,,,,,k#ij33939339<33<33<3<33<<3<3<3<3<3<3<;h;030327q9933930;039393<933932lO.o..o..o.o..o. X X.o. X.o.X .X .X X. X.o..o.OX XOoOo..oOo..",
". X. X+.X .X+X .X .X X+.X+.X X X .X X.o. X .X+.o..o..o..o..o@i233039<39<0;0;39<3399q72330;30;h3;<03;<3933933939<39339<39<3933<ji&,<333<3<3<<3<<3<3<333<39<<<3<3<3<333333<3<,&lj333039339<0;<0;h;03;h;0;30;<0;<933;03933,7q930;<93;0;<0;<930;<0,i@o.oO.oO.oOo..X .X+.X+X. .oO.oOX .oOoO.o. XOo. X. X. X+.X .o",
" X. X.o. .X X .X Oo. .X X X .X .Oo..o. OX OX X..oOoOo..oOo. Oi239393;0;39339392993,p7,92;03933939<;0;033930;303;03<93;0;393922ji&j339322;0;933933;039929393;0;<933;39293933j#ij92939<;039<;0;393<93;0330;0;30;30;03;392,7p,9;929393<930;03;0;32lO X. XOo. X. X+X.+X X .oOo..o.o.+X. X.o.+X.o. X.+X .o.X .X .",
". XO XOo.X+.X X .X XOo..X .X+.X+X X .X X .X+.o.o..o..oO.o.Xo@fk9393;039339<3,ctN227w798N<393;039390;0;9330;h;393;90;0339393<N8,i#j<3<,6yu930;03930;<2%w%2;30;03;0;h9uy6,39<j&i28N<;0;0;30;0393393930;0;30;09309393939u%27w#22Ntc,30;3933930;09ki*o.o. X XO X. X X.o..oO.o.X .X .X X. X .X .X+X. XOo..oOoOo..",
"X. X .o.. X .X .X+X.o.+X OX X .o.X .X+X..o.oOX .Oo..o.o.Oo. .tvx2330<9339393,6Sc22ybs$zOu9330;33333333039<;3933033333<93339$@:uf&,;0;,fB$239<;03;<93,=Sd,<0;03;03932$bvj<33j&fu:@$93330;333933939339<;0303333;33333<,sBqsby22cS6,<;<93<93<932xmrO.o.Oo..X X .o..X ..o.X X .oOo.X+X OX .X+X .X .o.o.Oo..o.. .",
". XOo..oOX+X .X+.X ..o.X X .X+X. .X+.X .oO.o. XOo. XO X X X.o.ns,3;h;39339<328m$99df6pOwpj2,22,2,2,2993930;039992,2,2,22,2juo 3mmj0332a&p93393;h39332$mN20;<39<;0339p&a239<j&v3oopj2,222,2,2299399<3939;99,2,22,22,2->:p6fa09$m82330;3930;33,sn.Xo. XOo. XO XOo. XOo. X. XO X. .X .oOX+.X X+.X .X .oOo..o.o.",
". X .X .o.o..oOo. X+X. X OX.o..o.oOX .oOX X. X.o. XOo.X .X. .1O>,30;30<9<;0;02,993,<vx>>xxxxxxxxxxxdw6,<;30;2$tya%xxxxxxxxxc>>%y&j<;0;2,9<;0;03;033939,93;0;0;30;3939j23933j&y8>>cxxxxxxxxx%ayt$2<;0;026wa%cxxxxxxxxxa6xv<,;09j9390;30;h;393,>O1 . X.o.+X. X.o.+X.o.+X. X.o..oOo..o.X X.o..o. XOoOX X. XOo..",
".. XOoOX ..o..o.X. X X+.X X+.X+.X .o.X .o. X+.o..o. X .X+.o.o.n7,330;3930;30;<<9393<t1ww11111111111wz&j30;3028@Oo1111111o1o1wwwo6,330;h30;0;<0;h;39<933930;30;0;<0;0;<3939<,>o1ww11o111111111O@8239333,&Z11wo111o11111w1t<393;<39<;h;303;03<,75o.o. XO X.o. X. XO X.o.oO.oOo..oOo. X+..oO XOo..o. X. X .o. .",
"X X .o. X.oOo.Oo. X. .X. X .X+X .o.X .Oo..oOX .X+XOo..o.X .oOy68939;h;03;3h;03933939399399;9990990,q:#,<;3h;28@Xu299;09999999;93939<;03;<930;0;30;0;03<;h;0<933;0;h;03<9339<9399399990999992uo@8,3<;03,#:q,3990999;099;9933930<933930;<930;0286yO.o..o.X Oo..o.X X .X .X X .X X. X. XOo. X.o..o. X. XOoOX X.",
".. X. XO X.o.o..oO X.oOo..o. X.oOX .o.o. XO X.o..o..oO X+X.o@ik9;0330;<930;39339339390;0;093939;0;9$Z7,30;039uw.q2939;0;0;0;093939<93;039339<393;<03;0;03;h;39<03;03;h;0;03;0;0;93939;0;9399q.wq20;0;<j7V$2;0;93939;0;093933;h;39339<0;39<39<9kfOX .oO.o.X X+..o..oO XOo..oO X .X+X. X.oOX .o..oOX+X .X X. .",
". XOoOX X .+X. X X.+X X.+X. X. X. OX+X. XOo.o..+X .o.X .X. .Oi230;39;30;h;<9339<93;0<;0;03;3h;30332$:m2393393j&:u2393h;30;393<930;0;30393393;039393;h;0<;03;0393;03;0;33h;393h;03;0;30;03h;2q:&j<933932mZ$2<930;3930;h;30;0;0;3039<93;033;0;;02lO X+X.o. X. XOo.+X X. X .o..o..o.o. X. X. .oOX X. X .X . .o.",
". .o..o..o.X .X+.X+X. .o.oOoOo..oOo.X .X .X .o.X. XO XOo.o.o*i9<30;039330;039<3930;<930;<9<0;0;39<2NOO$2393;3,v@q903;39<930393;h;3039<9339<0;<9<30;0;30;0;30;30;h;<930;0;03;0;<9<0;0;339<;02u@m,3339<2$OO$2339<39<;0339<;h;30393;30;30;0;030332i@o..o..oO X .oOX .X+X. X.. XOo..X .X+X .o.X .oO.o..oO X.oO. ",
". X. X OoOX .X+X.o. XOo.Oo..o..o.o.. X+XOo. XOo. XOo.o..o..o@i-,22939<;0;30;<93h;39339<;039393<9399$O.$20;30<,m@u93930;30;3933930;<93;30;0;393393933h;393<930<;03;030;h;3<930;03;0<;039<;039q:m,3;0;02$..N90;<93930;<930;30;h;<93h;30;0;039222-iOo.o..oOX OX X.+X. X .X+X X X.+X .X X. XOo.Oo..o.oOX XOo..o.",
".X XOo.X. X+X .X .X .o.o..oO.oOo..o.X .o. XO X. X+.X .oO.oOoOMNN=1c,3;0;0;30;393;039339339<3;0;3032$*O$230;<3,m:q2;<930;<0;<933930;39<0;<0;039339<;0;03;h;39<93;03;0;33939<;03;h;39<;030;399u:m,<0;<39$.O$2303;30;30;3930;h3;0;30;0;<0;<3,c1=NNMOX. X+.o.X X. X X XOo. X.o. .o.X+X+. X. X .oOX .X .o..o. XO ",
". .o.X Oo..o..X .oOo.Oo..o.o.o...oOX OX .X.o. X+X.o. XOo..o.o.@OOz=,303h;3h;30;30<9339339<930;30;32qoO$9<;0;3,m:u90;03;h;0;03;h;<93039<;0;30;<930;03h;30;03393;039<;0<930;3h;30;03;0393;0392q:m,3<9392$OX$29<930;3h;303;h;3;030;h;3h;30;3,4:OO@. .oOX X. X .+X. X. X OX ..X+X. X .X X.+X..o.X .o.+X..oOo.X .",
".X . .X X+X. X+X. X.o.X+X..o..o.o..o.o.X+.oOX ..o..o..o.o..o.o.ooO=2393;03;0;039<;30;h;03;39<0;h39<,#Z$293;03,v@q99339<39339303933;h;30;30;<0;39339<;0;30;0;h30;30;03;39339393;h;039<39<;039u:m,3;3032q:&,333;0;h39393933930;393393939303,=@oo X.oO X. X..oOX XO XO X. X+X X.oO.X .X+X.oOo..o.X+.X X .X .o. ",
" .+X.o..o..+X+X.+X. X .X Oo..oOo.Oo. X. X X. XOo. XOX .o..oOoOo.o@a-33930;h;3h;3930;<93<930;39<;0;3,&Vu23303<,m:u93;0;393393;h;30;0;30;0<;0;0;0<;03;0;03;h;39<;0<9339<93<930;30;30;<;03;03;2q@v,339<;9q:&,<9393393;0<;3h;03;h;3<933933;;0-a:oXOoOo.X .X+X .X . X .o.X+X X .Oo. X+X .X .o.Oo.+X .X X .X OX ..",
".o..oOo..o.X. X X+X. X+.X X+X. X.o.X+.oOX .oO X.o. X XO X ..o..o..yiu93933;03;h3;h;03;0;39303;03;h3,#@q939<;h,mOq9930;03;h39<393;h39<;039<3933;0;h;0339<0;03393;0;<93;0393;<0;30;<0;0;30;039u@&,303932q:#,339<0;<0;3930;<930;03939339<02qlgX .o..o. X .X X .X+X.oO.o..o..X+X. X+.X+X+X. X XOo..oO.oOX .oOX .",
".Oo. X. XOo. X. X. XOo.o. .X .o. X .X X. .X X.o..oOX.+X. XOo..o..o.@N,33h;0393;03933933930;<9339393,m5$,3393;jfnu23<;0<;h;03;0;0<;03;03;3933h;03;03;0;h;30;<93393393039<;03930;3939330;h;<92qnf,3<9332$nm,<933;h;03930;393<93;h;3<930;<2$O. .X. X.+X..o..+X.o.Oo..o. X.+X X. X.X X .X OX ..o..o.o..o. X.o.o.",
". X.oOo. X. X+X. X . X..oOX X. X. X X .o.o..o. X+.o. X X .o.o.o.o@=9<3;0;339<0;39<39<9339<3939<39<32afu9393039=fp90;0;30;39<0;0393;03;039<93;h;03;h393;0;30;39<0;h3;0;30;39<;h30;30;0;30;039pv=239<;09pfd,<3930;39<39<;03933933939<;0393<9>Oo.o.o.X .oOo.X .o.o. XOo.o.X X o.o X. X. X .X+X .oO.oOo.X+.oO. .",
" .X OX .X+XOo.Oo..oOX .o.X . X.. .....X X. X .X X.X X X.o.o.... o@dj3;0;0<93;h;03;0;03;h;39303;0;3939,9393;h;02,9;30;30;03;0;339<;039<;h;03;033;0;3933h;039303;0;3;h;3h;0<;0393;0<;0;3h;30;39,2<93930;0,,3;0393;0<;0393h;30;3h;03;03;0;03jd@o.. .X .o.o..+X.+X. X.o...X ........ XOoOoOX X. XOo.o..o..o.X X.",
".. X .X .o. X.oOo..o.X+X .X+X XoXooo oo..o...o.. . ... ....o.ooXo@=,30;039303;h3;h3;h;03;03;<930;h;0;<0;303;0;<039<;03;h;03;039339<;03933;h3;0;h39339<;0;<0;39<3930;03;0;03;h3;h;03;h3;0;30;0<;0;30;30;<393;h3;0393;03;0;h;03;<930;h3;0;<,=@1oo.X .X...o.X X.o.X ..o.o X oo oo.o..o..o. X+.X .X .X+.o.. X. .",
".o.o.X OX .X. X .Oo. X .OX X. .O@O@@*@@.oooooooooooXooooooooo.@OO:=,<;03;<93;03;0;03;03;039393<9339339339<933933;0;0<;0;3h;039<;03930;30;0;0;3h;03<93;0339<;039330;339<;03;0;3930;3939<;039<;03930;<9<93<930;<939<;0<;0339339393<93;0<933,=ZOO@.oooooooooooooooooooooO@O*@@*@O.X+X .o..o.X+X+X .X X .X+X .o.",
"..oO. X XOoOo..oOo.X .X X .X+XOMiiiiiifw:@@@@@@@@@@O:@@@@@:@:ofilx3933;0393;0;03;h;03;03;h3930;<9339339<3939<3930;30;h393;<9<393;30;<0;<0;30;0;3;h;030;<930;39393;0;039<39<0;03;<0;3039339330;<39<393;0393;039333930;0;h;3933930;30;<93393<xliio@@@@@:@@@@@@@@@@@@@@:tfiiiiiiM. .X+X.o..o..X .X+.X XO X.o.. ",
". .X X .X .o..o.X . XOo.+X. X ONj,2,2,jqcxcxxcxcxcxcxxccxcxxxN,2,2039;0<933030;30;339<930;<;h;3930;<9<939330;0393<93;0;30;03;0;0<9339393;0393330933;0;3930;30;330303393;0;39339393h;39339<;0;0;0;393039<;0<;039<9339<;0;03939339<93;039<9392,,j8cxxcxxxcxxcxcxcxxcxxcq,,2,2,-8@oX .X .+X. X .X X .X .o. OX .",
".o. XOX .X .X+X .X X. X.oOo..o@893303339,2,2,2,,,,2,2,,,,,2,2233<39;030;393;330;30;03;0;30;03;03;039339339<;39339;30;30;<0;03;h39<933930;3932,23;0;h339339<930222;9393;0393393393930;<933;0;3;03;03;0;30;0;0;<3939339333;03339333930;30;3933<3<2,2,,2,2,2,,2,,2,2,,2,9330<3<2%O. X .X+X .X+X .X+X+.X .X.o.X ",
".+X. X .X+X. X .X+X.+X .X .X+XO%293;0<3<<;0<;033<;30<333<;33<<93933393;393099,39393393330;03;0<930;3393<939303;030393h;h;30;<93;393393393039%aN9930;<93h;3;039$a89033030;3h;0<933<933930;030303930;h;3h;30;30;03;30;0;0;0303939,230;30;30;3393;0<<33<;30<333333393<33<3<;0;02%OX .X+X .X+X. X.o..X XOoOo.. .",
"..o.X+X .o.oO.o. X .X+X .oO X @89303;,,2903;03;0;30;3903930;0;<93,,3039033<26gu333393933<3393;393;039<;0;<39<933<3393;0;0;339<0;03;03933333,yAv,33;03;h;03933,fAy2333339393;h;3939<;03;30;3<33303;03;0;0;<0;30;039333<300;3330qg62<30;0;30,,3;03;0;0;393;h930;03339399j,393328:o.o..o.X .o.X+..o. X .X .oOo.",
".o.Oo..o.Oo..o..o..o.X OX .X XO%,<;036v%23;0;30<30;<93;3<3;039302>#3;9332,2kmnp-2,93932,,,230;03;0<93;039393;02,,,93930<;03930;03;h;032,2,29x>Nj0;0;0;30;03;9j$=x92,,,230;30;30<93;039<9302,,,2;39<;03933939<9<;9322,,23;39,2-pnmk2,23939<&>903;0393<03;0;393<3939392xvs933<,%OX OX .o.+X. .X X .X .X .X X..",
". X .oOX+X.o.X X. X+.oOo.X+X.o@8930;9wbs,33939;w%,39303,6$2;339<,eV<9399x4=aMO6d==u932x>d>N230;h30;303;0303939%4d>N2393;0;<;0;<;30;399%==>N92ju6q203930;<;09q6a229N>d>%230;30;39330;3393;9N>d>8903939<3;03;03;0309$>d>x239u4=d6Ola=4x9339<:y,39<;39q6,30393,%w930;33j6bw9393,%@ X X.oO.o.o.oO.X X+.X+X .X+. ",
" X. X. X .o. Oo.+X.o..o..o. . @%,<;0;q$p9933039ox,3339<,s$90393;0u$3393,lz@:OX@@@n%23,izOn6,<;393;<9<;0<;<933jfnOns,3393393933930;033,fnOns,9-dba,<;0<;0;03,dn.92,7nOnv,330;393;0;;0<9303,snOnf,3;03;0;0<;0<;03;3jsnOzi,<,xnO:@oO:@zl,<90;qq9339392$7,3<9332x13933039p$q;03<2xOX .X .X X. X.oOo..o.o. XOo.o.",
". XO X. XO.o.X .X+.X XOo..oOoXO%239<09293;0;0;91%,39333,s$,39393;9293;02lO1oX ooOl303,vO1O=,3033939390;90;0;h,mO1O>,30390303903930;03,&O1O6jsvl@c,3339339<3,cO1is-6@w@&,30300300300393933,>O1Om,33;h3;0;093939303,=O1Om,<;3l.ooX o1Ol293;099;0;3932qs,3;0;h,%199393939290;h;,%O.oO .X+.oOX+..o. XO.oOX .X ..",
"o..o. XOo.oOX .X X+X .o..o.X .Ox,3393933930;0;91%293393,sq23939390<;032x@o X ..oOm,<32vOo@>,<3<930333333333332m@o@6,<33333333333333332&@1@s-yn @a,<39<933932c@1zg-s@oOm,<333333333333333<,6@oOm2<30;303333333393<,>@1@v,3<,m@o. X. o@x20;03;03930;2$s,3h;392x19930;30<93;03398@o.o.X X .X X X .X+X .X .o..o.",
". XOo. .X .o. X+.X .X+.X+X .Xo@82933;h;03,71ytrO820;033,#oyty1%23;039<,cOo. X Xo@m-22-m@1@=k2,2222,2,2,2,2,22-&@1@=-2,2,2,2,2,2,2,2,2-#Oo@6ki*o@c,303;h;033,a@oOik>@o@&k9,2,2,2,2,2,2,222-4@o@&-2,22,2,2,2,2,2222-d@o@m-22-m@o.X X.o@%2;0;h392%wrtyo#j3;033,NOety17,3;30;39<,x@oO.oO.oOX ..o.X .X X .X .o.. ",
" .o. XOo..oOXOo.X .X X .o..o. @%23h;0;333,m: .O*v93<33<26@...:c,;0393<,x@oX OX ..wiiifwOXOyiliiiiiiliiliiliiifwOoOyiliiliiliiliiliiliiw...rfw.o@a,<;0;0<;03,a@o.1fr.o.wiiliiliiliiliiliiiiy.oOwiiliililiiliiliiiiiyOo.wiiifwOoX . .oOf9033933,c:.O @62<33332fO...:m,3039<93;28@oX .o.X .oOo..+X .o..oOX .X .",
"...oO.o.o..o. X. X+.X+X. X+.oXOx,33930;03,&:oXoOyj2,,2,,,w. o@x,30;<0;,c@o..o.X X+@@O@Oo.oO@O@@@*O@O@O@O@O@@O@.oOoO@O@O@O@O*O@O@O*O@O*OXoo.@.oo@c23;03;03;<,c@oX.OOX X.O*OO*O@O*O@O@OO@@O@O.X X:O@O@O@O@O@O@O@@@O@OX.o.@O@@Oo..oOX XOw9393393,x@1X.t,2,,,,,jyOXoo@&,30;0;30328@o.X+X .X+.X+X+X.oO.oO X X+.X ",
" .o.X X ..o. X. X+X. X. XOo..o@82<93393332&*ooo.taaddadad1.o1@c23<;0;32x@oX+X Oo..oo.oX+X X Xooo oX X oX X ooX+X X.ooXo XoOOOOOOOOOOOOOOO@O.O.o@a,30<;03;032a@oOO.OOOOOOOOOOOOOOO.oXo.oo.oo+X .ooX Xo XooX oX ooo.o.o. oXo X .o.X .oOe903;0332c@oo.1=adddddat.oooOm,<33339<92%@o.o.. X+X.o..o. .X .X X. X. .",
".X .o..oOo. XOo..o.o..oO X.oOo@%,3393<,,,k7:.:@ .:@:@:@:@.XOO:8k,j2393,x@o..X+X.oO.o.o..o. X+.X.oO X XO X X. .o.X+X. .o. X%$NNN$N$8$8$8$8$N8qvO@a,33939<9<3,aOOvq8NNNN8$N8NNNN$8$=Oo.X .o..X X .oOo. X+.X+X. X. X.o. XO.o. XOo. X.o.Ot93939j,k8ZOOo.@:@:@:@:.o::.:7k,j,39333,%O. .o.X .X .o..o.X+X .X .X+X .",
" . X.+X.o.OX X X+X. X+X X. X.o@82<933,slifw lcdw.ooooooXooO#7 lffMx,<32x@o X .X Oo.X .Oo..o.X Oo.X X. X X.+X X. X .o.X.o.op,9,22222222222229-#@Oc2<93393393,a@O#-29,9,229,9,9,99-N@o. X..oOo.Oo..o..X X. X. X .X+X OX X OX X Oo.Oo. Oe0;<,xMffl 7#@ooooooooo.1aclXwfils,<99<,%@o.o.X OX .oOX .X X OX .o.o...",
". X. X .X+X XO .X .XO X. X. X @%,339<2=v&m7<;,,tOo..oO.o.o:c,3=v&v%2;h,c@o. X .X X .X X. XO XOo. .X+.X+.X+X.o.o..oO.o. X .u93330<30;<0<;h33<,&*Oa,339339333,c@O&2333<3;h333;<3;<2%OX X+X .o. XOo..oO XOo. XO X .o..oO.o.o..X XOo.X XOt9332%v&v=3jx:o.X X .ooOt,,0<7m&v>2333328: XO.o.o..oO.oOoO. X.oOX+..o.o",
".o. X+X. X ..o.X+X+X X.+X Oo.o@82h;<93,j,j,39<3tOo.oOo.o.o@d,3,j,j230;2x@oX OX X ..oOX Oo.o.X .X+X .X X. X .Oo.Oo.X .o.o.Xu9;03;0;3h;3933933,&O@c,<93<930;32aO*&,330;03;h;30;03;28O X X OX. X X .oOo.X .o.X+X.+X..o.o.o.Oo.+X. X . XOt90;09-j,,3,d@o .X OX ..w<;39,j,j,<9<93,xOX X Oo..o.o.o..o.X .o. X.o. .",
"...oO.oOX+X.oO .X .o..o.X X.o.O%2;03933<3<39393w.X . X.o.o@a,<3<3<30;02x@o.X X. XOo. X.o..o. X .X.o. X+X. X X..oO XOoO.o. u93930;0;39339<39<,#@Oa23;0;30;h3,a@O&,30;<930;3933930,%zo..X.o. XO.o.X .X .X+..o. X.oOo..o..o.X+X X. XOo.Or;30;<3<33<,d:o.X+X X.oOt9339<333<9393328@o.X X. XO X. X .oOX .X. XOo..",
" .oOX X. X. .o.X .X.+X .o.. .o@%,3h;3933930;0;0t. X.X. ..o:d,3393939332x@o.o..+XOo.+X. XOo.OoOX+X OX .X .oOX .o.oOX .o.X Xu23339330;30;0;0;32&O@a,303;h;3932aO@#,<;0;30;30<939339u7o.o.o. X+X .X OX .X X.o. X. X ..o.Oo. X. X. X.o. Ot993393;3932a@o.o. X. X.w30;03;0<;03;0<,%@o.o..oOX X. XOo..o..oOo..o. .",
".X .o..o. X.oO.o.o. XOo..o.X+o@893;039393933393tO. X X.o.o@a2333;0;39<,x@o..o.o. X.X+X . X X. X. X XOoOX .X .X+.X .X .o..oq20293;0;03;<0;<03,&*Oa230;03933<,a*O&23303930;3939399323 X ..o..X X+X+X .X+. X. XOo..oOo..oOX .oO.oO .X XOt930;303033,d@o..o.. X Ot9;0;303;0;03;<,%O. .oO .o..o. X.oO X .X X+.X. ",
" .+X. X+X. X.oOo.Oo.X OX+X .X.Ox,30;3;03330;033w.o. X o. o@d,<9303393;2x@o.oOX .X .o..oOX .X+X .X OX .o..oOoOo.X .o. X.o. u9;N<093339<93393<,#@Oa,3;0<;30;3,aO@#,<93;h;3<93333<$39qo.o+X.+X .X .X .X X+X.+X.o.+X.o..o.o. X.X .o.X OX.t93;0;3939<,d@o X.o.o.o.t33939390;03;03,%@oOo.X.o..o.+X. X.o..o. X.o.o.",
". X. XO X+X+..X .o..o.o..o.oOo@%2;<0;03933303,,tOo.......o@ck333330303,c@o .o..oOX .oO.oOX ..o.oOX .X+.o..o..o. XOoOX+.o.Xu2<ON23,9939393393,#O@c,<3393930<,c@O&,3393393939,3,8.<2uX X.o.X+X .X .X .o..o.o. X.oO .X .X .X+.oOXO X.o Ot930;033333kc@o.. ....oOt,20333333930;<28:o..oO X.oO.o.oO .X+XOoO. X.. ",
".X .o.o.X .X X .X+X .o..o.OX .O%,30;0322,,292%>w.ooooooooXOmd<,,,,93932x@o.o..oOo..oOX X .oOo.Oo. X.o.X Oo..o.Oo. X. X.o. u23o$20dq9330;h;0<,&:Oa,339<933;32aO@&,303;0;039ud02NX32u ..o. X. XOo.oOX OX X.+X.+X X.o. X OX+X X .o.X .XOt93939,,2,<dmOooooooooo.1=%292,2,23933928@oX .o.X .oOX .XOo. X .X X .o.",
". .X+.X .X .X+X .X.oO.o..o. Xo@82<;0;98acxmeM.:..@@@@@@:OOoO:t6xcaq293,x@o.. X. X X. X. X. X.o..X+.o. .X.oOo. X.X .o. X. Xu9<XN29.a2;0;3393;2=t@c,<;03;h;03,c@.>,339330;3,c.92$ <2uX.oOX .oO X. .o.X.o. X.o.X ..oOX+X.o..o..X .o. X Ot9339qacx6t@@o.@@@@@O:@. Z.Mt&xca8939<328@o.o..o..o. XOo.o.X .X .X+X. .",
" XOo.X .oOX .o..o. .X .o.X+X.o@x,30339x==cM:O 1Otxcaaaxcc1.oo@&cd=$9332c@oX X+X OX Oo. XOo..o. X X.+X.o. X. .X+X OX OX.o..u2< $29wx,0;3093393jcnc,30;30;0302a@w3990339;302x192NX<2u X X .X X. X+X. X .+X.+X .X+X .o..o. X.+X OX OX XOt9<92$=dc&:oo.1acaxcccxtOooO@Mad=x93393,%@.o..o. XOo..o. OX .X+X .X .o.",
". .X .X+.o.o..oO.oOoOX .o..o.o@823;h93,,,k#OoXoOyj,,,,2,2w.oo@%-,,239<,x@o...o.X XOo.XO X X+.XO X X. XOo. XOo..o.o..oO o.ou2<XN291c,329;39330,>Ba23;h;30;33,an.<;33930923,cw92No<2u. X X+.X+X. X.oO.X+X.o..oO X.o..oO.oOo.X .oOX .X Oe0;339,,-8Ooo.w2,,2,2,jy* Xo@#k,,,393;328:o.oO.oO X X .X+X X+.X X .X+..",
". X .X+X. X.Oo.o..o.X OX. X .o@x,30;393<<2&@o.oOm93<;<330w..o@x2<<39392x@ooOo..o. X. Oo.X .X .o.X Oo..o..o.o.Oo..oOo.o.X Xu23 N291x20%q90393<,%M8,30;30;03<,8lv3993032qx92x19,No<2uX.o. X. X. X. .o.o..o. X X..o.Oo.o.X .o.+X.o..o.XOt9390;3<2c@o..w033<3<<9mOo. Om,<<3;030<,%O.o.X X.o..oOX X. .X+X OX .X .",
".X. X+.o.X .o..oOo.. X X+XOo.o@89;<0;<393,&*ooo@$2<9333,=*oo1Oc,3;3033,c@o.o.oO.o. X.o.oO.oOX .oO.X X .oO..o.oOo...o..o.. q2<X$991x2,16j3;03932k23930;<939;32k-0330;3,61,2x192N 32u .o.X+X .oO X.oO XOo..oO.oOo..oO.o. X..o.X .o..o .t933;h392x*ooo*=,39339,8@oo1*&,3;03;h;328@o.. .o..oO. X. XOo.X .X X .X ",
" . XOo.X .OoOoOo..o.o.Oo..o..o@82<939393<,mnO:XO%293393,#OO@Onc,30;h;3,x@o.o..oOoOX+X. .X X .o..oOo.Oo..oOo..o..oOo..o.o.ou2<oN29wc,2y=,3039328vN230;3933339$m7339333,=y22x192$1<2uX. X X. X.oOX .X. X .oOX X .X X X .X+X OX .o.Oo..Or;930;33,cnO@OO#,3339328.o@Onv,30<;0;3<,%@oOo.o.Oo.oOX Oo.o.. XOo.+X. .",
". X .X .o.o..X .X+.X+X .X+.oOo@%,3933<9399av#mcwx,39333,7$>m#v$2;30;302x@o..o..o..o. XOo..X+XOo.. X XOo..o.oO.o..o.oO.o. Xu2<oN291x22y>,32933,>Sa,<39<39<9<,dB*<93993,=e,2x1932#u2po.o.. X. X. XOoOo..o.. X. XO .X .X+.X X .X+.X X XOt93;039<2$v#m6<<9339<93<3cv#ma23;0;039328: X .X+X. .o.X X. X X .X X.o..",
".X OX .X+X. X .X+X .X .X X X.o@82<039933392,,,,1%,3393<,sqj,,,930<33932x@o.o.Oo. X .X X.+X .X .o.X .X .oOX OX .oOo.Oo. X .u2<o8291x2,t=,3$q93,xw%,33939393<,%yi390u$9,>r29x193,7q,q X X+X .X Oo. X .X .X+X .X X+X .X+X .o..o.X+X ..oOt930;33939,,,,393393939392,,,9;0333393<,%OX XOo. XOo..o..+X.o.OX .X .o.",
". X.o.o..oOX+X .X X .X . X. X @%,3;332,9933<3301%2;0393,s$933<;0;,,0;0,c@o .o.X+XOo. X .X X .X+.oOX .X .o. X X. X. X.o.o.wu2<X$291x22y4,2M#,332k2390330;03932--33j#g,2=t,2x19327u2u1.o.X X+XOo.X .X+XOoO.o.oO. X. X+.X XO X+.o..oOo..w;0;0,2;0;<3<39<933933939<3<39399,,33;02%@o.o..o. X X .X+X XO X X. XO. ",
" X.+X .Oo. X. X+X OX .X+X. X.o@823h;0asN23930;9Xx,0<;3<,7$23<;032a>3332x@oX OX .X .X+XOoOX OX+X. X OX .X .X+X.+X. XOo..o@s,;<oN291c,2r>,,l7j39$#q933;h;33;02$s>33j7l,,>y22x193,7q9,6@o OX .X .X OX .o. X X. X X. XOo.o..oOX X. X.o.oO&9933>a90;0393393<93<93393<933028sd90;<,xOX ..o.Oo..oOX X ..oOo.Oo. X .",
". X. XOo.X .o..X .X X+.X X .o.O%20;391Bs,33;<90u<33930;9p3;h;0;<,yz<93,x@o..o.o. X .X .o. X. X XOo.X+.oOX .X .oOo..o. Xo@6,3<oN291x22y>,2l7,<j=Sa,39339<9<3,dBO<9,7l,2=t,2x19327q9,s@o.o.o. X. X .X+.X .X .X+.X X ..oO.o. X. X+.o..o@%,39<zy,339339<93933939<393;0;<jsB1930328@ XOo. XOo.. XO XOo..o.oOo..o.",
".o. X.o. .oOX+X .X X XOo.Oo..o:82;039i1d,<939339939<9393903933932my3932x@o.oOX OX .X .X .X. X .X .X .o.X .o. X.o..oOo..o@s,;<o8291x2,t=2,l7,<,c.x,33h;03;032xwC<3j#l2,4r22x19<,#u;,6@ X X. XOo. X.o.X OX OX XOo.+X.o.X+X+X. XOo..o.o@x239<ym9;0<;0;30;30;0;393;0<93<,d1i;9392xOX X .X X.oOo. X.o. X. X.Oo. .",
"..oOX .X+X. X. X+.X+..o. XOo.o@8903;0;9339330;9<393933;0;h;39<3939930;,x@o . X.oO.oOX XOo. X+X. X+.X+X. X. XOo..oO.oOX o:6,3<oN,01x22y>,2l#j339j93;0;<930;0;9,,9<j7M,2=t,2x193,7q9,s@o.. X. X XO X. .o.oOX . X. X. .o..o..oO X.o. Xo@x,33990;03;030;<0;<39<039339339399;033328:o..o. X+..X XOo.. X+X. X X X.",
". X . X+X.+X .X+X. X.o. X.o.Oo@823;03930;0;h;03939339<930;3930;0;0;39332lOX X. X X.o. .o.+X.X .oOX X. .oOo.X . XOo.o. .o@s,3<oN291x2,t=2,M7,39udu90;39339332qac33j7M2,4r22x19327q926@ooOX X+X..o.+X X. X. X+X. XOo.o.Oo..o.o..o..o.Ol20393;393;h;0;<93h;03;0;3h;039<9330;0;098@o.oOX .X X .X .oOX.o. X .X. .",
".. XOo..o.X+X .X X .oOX. X .oo@%,3039393930;3;03939<39393933930;3030303,i* X+X. .o..oOX .X+.oOX .o. X.X .X+.X+X .X .X Xo:6,3<XN,31x22y>,2l7j<j>Fd,33039<39<,dS@<;,7l,2=t,2x193,7q9,s@o. X+.X .oOX .X+X. X .X X. X X. X.oO XOo..o..oOi,39390;0;0;0;3939;0;03;h9;h;30;90;3030328@o..o.X .X+X .X+.o.o..oOX .o. ",
"X X.o..o. X. XOo.Oo..o. X.+X.o@823;333333<;<3h;<33<9333<33<93<;030;3;33,lO.o..oOX Oo.X .X X .X .X .X+X OX .o.X .X .X+X.o@s,;< N291x2,t=2,l#,39q>u939393;0399q=a03,#l,2=t,2x1932#u;,6:o.o..X+X+X.+X. X .X+X. X .X ..oOo..o..o. XOo.XOi23333333033<3033333<;h;333339<333393;33,%@o X .+X+X .X+X.o. OX+X.+X .X.",
". .oO XOo. X..o. XOo..oOoOX .o@8,9992992,2,2,22,22,22,2,22,22,299999999jiOo.o..oOX.o. X .X+X. X+.X .X .oOX .o..oOo. X .o@6203o$29wx22y>,,M7j332-23;0;<0;39332--33j7M22=t2,cw93,7u;,s@o..o. X. X X X. X+.X X. X+.X+X. X+XOo..oO X.o @ij929292922,2,92,9,2,92,9,9,22,2,999999;j8@o..X X.o..oO X .X.o. X XOX+. ",
" .X X.o. X. X X+X.o.+X. X. XOo.tgygyyyt78%8%8%8x8%%8%8%x8%%%8%87tgyyyyyy1. X. X. X .OoOX+X .o.o.X Oo. X.o..o.Oo.X OX+X.o@s,;<.N291c2,t=22l7,39uxp90339393309p%%33,7l,,4r2,c19327q9,6@oX X+X. X. X. XOo.X .+XOo.X X OX .X .o.o.X. .o.1gyyyyygw78%8%8x8%8%8%8%%8%%8x8%8stgygygyy.X X X. OX X.o..o.o..o..o. X .",
". .X .X XOo.. X. XO X X. X. X XOOOOOOOO@O@@@@@@O@O:@@@@O:O@O@@O@O*OOOO*OOo..oO X. X X. X. XO X. .X.o.X+.o.o..o. X.o..o.o@6,3<e$99wx22r4,,l#j<j>Fa,30;<039<3,dbO<0j#M,2=t,2xw93,su3,s@o.. X. X+X. X . X .X X .X .X .o.o. XO .X+.oOX XOOOOOO@OO*O:@@@@O@@@@@@O@@O@@O@@O@O*OOOOOO. XO .o.X .o..oO.oO XOo..o. X.",
" .X Oo.Oo. X+X. X X+X.+XOoOo.. Xo X Xooo.o.o oo.oXo oooXo.oX oX o ooXo XoOo. X.oOX+X. X. X.o..oOo. X.+X. X. X+X. X. X .o@s,30;0;9.a,2y>,2M7,39$#$9;3h;393;39$7>33,7l2,>y22x.939393,6@ X XOoOo.Oo..oOX .X+X..o. X+XOo.Oo..oOX .o.X .o.oo XooX o Xoooo.o.oo o.oo.oo.oo.o oo Xo X X X+XOo.+X.+X X .X.o. X+XOX .",
".o..o.o..oO.o.o..o..o.o. X. X+X. X X .X.o.o.X .o. .X. X .oO X. X.o..oOX .o.X+.o. X. XO X+.oOoO.o.o.. X X. XO.o.oO X..o.o@6,<39039mN2,t=2,l#,332k2390;0;<0393,--33,7l,2=t,28m930;03,s@o. .o. X.oOo..o.X .X .oOX .X .X X.o. X XOX .X+.X .X .o.o.X ..o.o.o..o.o..oO.o..oOX .X+.X. X. X. X.o. XO X.oO XOo..o. X ",
" ..oOX .o.X+X. .o.Oo..oOX .X X.+X.o..o. X .X .X+X.o. X. X.o.Oo.X OX .X .o..o.X .X .oOo..o.X .X X..o.oOX OX X X. X.+X X.o:s,;0;<93,93,t=2,M6k;,xt82<;03393932%yf32ksl,2=t,39,0;0;33,6:oX.o..X .o..+X. X+X .oOX .X .o. X .Oo..o. .X+X.oOX .X .X. XOo..o..oOX OX .o.oOo.X .X+X .oOX+X.+X .X+X.oOX .o..o..o. X..",
".o..o..oO.o. XOo..o.o..oO X+.X X XO XOo. XO X+.X X. X+X. XOo. X+.X X .X .X+.oO.oOX. X.oOX .X .X+.oO. X .oO.oO .X+X. X+.o@6,330;39<;h,y4,2ig7N2=ba,33;393;03,d5op$7gi2,4y,3339<;0;<,s@o.o. X+X. X X X. X..o..o.o..oOX .X XOoO.oOo. X .X .oOX .oO.o.oO.o. .o.oOX .X .X+.oO X.X .o. X X X ..o. X .X+X .oO X. X ",
". .o.X+X.o. X.o.OoOo.Oo..o.X. X ..o.X .X. X+X.o. OoOX.+X .o..o.X+X OX .X X+X. X.o. X. X .Oo. X+X .X X. X.o..o.X X .o.X.o@s,<0;30;03;2w>,2vzzowo1$23939303332$wXwonzv2,>w,<93393033,6@o.+XOo..o.X OX .X .oOX .o.Oo.X .X+X X .o.X .X .X+X+X.+X .X X .X .X+X. X. .X OX .X X. X OX .X .X. XOo..oOX+X.+X. XOX+X .",
".X. X .o..oO.o. X. X.o.o..oOo..oOo..oOoOo.. X .X X. X XOo..oO.o..X X X+..X .o. X. X+X. X X. XO.o.X+.o.X+.o.oO. X. XO X o@s,3;h;03;03,vc2,i1f1 Ol23033;0;039<2lO.1v1i,2av29<;03;39<,s@o.o. X.oO X.o. X+XO X XO X XO X+.X ..o..o..oOX .X .X XOo. X+.X+X .X XO X+X .X X .X+XOo.o..oOX .oO.o.o..o. X X+X. .o..o.",
" . X.+X..o.X .oOX+X. X OX .o..o.X Oo. X..o.X .X+X. X .X .X X X.+X .X .X X .X .X Oo.X .oOX .X X X. X X. XOo..o.o.+X.oOo.o:6,30;3h;0393293ji6kMz:m-23930333932-vOVgk6i,<9,33;0<9393<,s:oX. X. .o.Oo..o.X X X. X.Oo. X X. XOo..o.+X.o. X .X .o..oOX.o.o..o. X X.X .X+X OX .o. X.+X X OoOX .o.Oo..o..o..o.o..o..",
".o.o.X .oO.oOX .o..oO.o.oOX+X+.o..X+X. X+.oOX .o. XOo. X+.X .o.X+X .X+.X+X+XOo. X. .X .X .oO.o. .X+..o. X. XO XOX ..o..o@62<30;3;39<9<393339=si&6x939303939xs7X7=9<393;<930;3;0339,6@o.o..oOX.o..oO.o.. X. X+X .X+.X+X .o.X+XOo. .X+XOoOX .o..o. .X+.oOX ..o. X. X. X X. XO X.o..o..o.X+X.o. XOo..oO XOo..o.",
".. OX .o.X+X ..o..o.o.Oo..o..o.X+X X. X+X .X .X OX.o..o.X .Oo. X .X+X.o. X. X. XOo.X OX .oOX .X+X XOo.+X. X+X.o. XOo..oo:6-32203903;0;0393932ka5:aj3393933jaz:o2,3393;039<;0393923j6@o OX X Oo. X X .X+X.+X X .X X.o..o.OX .o. XOX .X .o..oOX .oOX .X X XOo. X.+X .X+X. XOo.X .Oo..o. X..o. X.o. X+X..o. X .",
".o.o.oO. X. X X. XO X+X.o..o..o..o. X. X.X .X .X X .oO.oOo.o.X. X. .o..o..o. XO X X+.o.X .X X .X X. X.o. X+.o..o. X X .o@#;<$$<93;03;h;h;0;0<2awgu$p93393<qugrMp393930;<0;0;<0;p$33#@o.X .X.o..oO.oOX .o.X .X.oO X .oOX+X X. X. X X. X. X+.oOX+.X X .X+..o.X+X X .o..oOX .o. X.o. XOo. X+.X+X .X .X X .X+X. ",
" ..o..X+X .o.X OoOo.X. X. X Oo.+X .X+X. X OoOX X .OoOX X. X. Oo..oOo..oOX .o.X X. .X X.+X. X .X .Oo.o.Oo.X.o..oOX .X .X.o@vuO*$230<;03;03<93;0;jfnO$,393jNOnfj;0;h;30;h;0;30;3,&zum:oX.+X Oo..o.X X .o.X OX .+X.o.Oo..o. X. XOo. X. X+X OX X. X.o.+X. XOo.+X. X..oOX .o. X. XOo.+X.o..oOX X. OX XOo.+X. X. .",
".o..oO XOo..oO.o..X .oO XOo.X .X+X. X+XOo.X .oO.o.o..o. XO XOo.oO.o.X .o.X+..o. XOo..o.o.oO.o. X X.o. XO X .X .o.X+.X .o..o1oON230;0;03;0;<0;032=fldq939$dlf=9393930;<39339333,&@wo.o. X.X .X+. X. XO X .o.X X .X+X.o..oO.oO X.oO.oO.o.X X. X .o..oOo. X.o. XO X .X X. XO X. X..oO X X. X .o.X+. X. XOoO X.o",
" .OoOo.X ..oOo.X+X .oOo.X .X .X X .o..o..o.+X. XOo..o. XOo. X ..o.Oo. X. .oOo.+X.o.+X .X .X XOoOX .+X.o.o.Oo. X.+X.o.+X.o.o@mdp99;0;03;h;0393;0<,jy5s,<j65y,,;0;3h;39393<939902Nv@o.oOX+X .X X X.+X.o.Oo.X Oo.Oo. X OX .X X X. .o.o.o..o. .oOX OX X.+X. X .X X+XOo. Oo.X X OX .o.X OX Oo..oOX X X. X.o. X. .",
". X. X. X X. X .X .oO.X .oO X+X. XO X .oO.o.X X .X XOoO.o.X .X+X X .X+.oOX .X X. X.o.X .X+.X .X .X+X. X. X XOoOo. XO.o. X X oON9p<339<0;30;<0;3933y@=,<2=:y330;03;03;039393<p39mOo X .o..oO XO X+X. X+X. X.o..oOX .X X+X .X .oOX .X .X+.X+X. X.o..o.X X. XO X. X .X+X. X. X XOoO X.o. X.o..o. .X+XOo. X. X. ",
" X. X .oOX OX .X+XOX X .X+X. X. X.o..oOX X . X OX Oo..o.o.+X.o.Oo..o.X .X XOo.+X .o..+X+X.o.+X .X X.+X OX OX .X .X .oOX OX X Oi9Ov,;03;30;3930;339yV>,3,=Zy03;30;h;303;033,f.9iO.o.. X. X+X. X.X .oOo..o. .X+X X .X .X ..o.Oo.X OX .o.o. X.oOo.Oo. X .OoOX X OX .X X.+X Oo.Oo. X.o.OoOX Oo..oOX .o.. XOoOX .",
". .X+X. X .o.X .X .o. X .X X. X+.oOo.. X. X.oO.o.X .o..o..o. X X. X+.oOo.. X. X.oO.o.X .o..o.X X+.o.X .o.o. X+.X .X .o.X X. X.og:l,3;03930;<9<0;03yZ>,<24Vy;03933939<93;03,i:go.oOo.X+X. X.oOo. X. X. XOo.o..o..oO X .X+X .o. X.o..oO.oOX ..o. X.oO.o.o. X. X X X+.X X. X.o..oO.o. X. X.o.oO.o.X .o.X .X .o.",
" .X X.+X. XOo. X .o..X+X.+X .X+X.o..o.o. XOo..o.X .X Oo..oOX OX .X+X.o..o.o. XOo..o.X .X Oo..o.Oo..o..oOX .X X. X+XOo..o. .o..o@lN230;0<;h;03;0339eV=23,=zy9393<9330;0;0;32Nl:X X..o.o. X. X . X.+X. X.o.X Oo..o.X+XOoOX .X+X.+X .oOX X. X.o..oOo..o.X .X OX .X OX .o. XOo..o.X .oOX+X .X .X Oo..oOX Oo..o..",
". X .o.oOX .X+X. XOo. X.o.X+X .o..oO.oOX. X .oO.oOo..oOX .o.X X+X .o..oO.oOX. X .oO.oOo..oOX .o.X X+X .o..oO.oOX .o..oO.oOX+X X oyq93399;30;0;3939yZ>,32=Zy93393393;030309qyoX .o.oO. X. X. XOX .o.oO.o. .X X.oO .X .o. X .X X.oOX. X .oO.oOo..o..oO XOo. X+X .X X.oOX. X .oO XOo..o..oO XOo.X X .X .X+X .o.",
" X.+X. X.+X. X.+X.o.+X. X .o..o.Oo.o.X . X. X.X .o..o.X Oo..o..o..o.Oo.o.X . X. X.X .o..o.X Oo..o..o..o.Oo.o.X . X. X X .X X .o.o:8jMoc203933h;30;y:4Gh,>Zy393<93;033,cogj8Zo X X .X X.o.+X.o.+XOo..X .oOX .X .oOX .X .X OX .o..o. X.+X.X X ..o..o.o..o..o.X OX .o..o. X.+X.o.X ..o. X X..o. X .OX .o.o.Oo..",
". .X X. X.o.oOo. XO X.o..oO.oOX XO X+.X X .X+.oOX X+.oO.o.X .oO.oOX XO X+.X X .X+.oOX X+.oO.o.X .oO.oOX XO X+.X X. XO XOo.. X.o.o.gl.5=23339;390;0yzHJKjL:y9390;0933<,45.ig X X .X+.X+.X X .X X .X+X+XO X X .X+.X X+XOo..o.X .oO.oOo.X+.oO.o.o. XO XOo.oO.oO.o.X .oO.oOo.X+.X+.o.o..oO.oOo.X+.X X .X+.X X.o.",
" .X X Oo. X. X. X. X X OoOX X .X .o..o.X OX+X X. X. X. X X OoOX X .X .o..o.X OX+X X. X. X. X X OoOX X .X .o..o.X OoOo.X .X+X. Oo...:M=pj2,93033339r*PIIUYTe93333332,2jp=M:OX+X .X+X .X X OX .X .X .o..o.X OX+X X .o..o. X.o.+XOo.X .X .o..o.X OX+X X .o..o. X.o.+XOo.X .X .o. X.o.OoOX X .X .X+X .X+X. X . .",
". .X+.X XO XO X. X. XO X. X. X+.X .X .oO.o..X .oO X. X. XO X. X. X+.X .X .oO.o..X .oO X. X. XO X. X. X+.X .X .oO.o..X .oO X.oOX X+ooola=d>$,999922rRIIIIE.r292929,N===diX X.o.X+.X X .X+.X X+.X+.X. X .oO.o..o..oO.o..o. XO X. X .X+.X. X .oO.o..o..oO.o..o. XO X. X .X+.X. X. XO X. X. XO X .X .X+.o.X+X.o.",
".o.o.X+X. X+X.oOo. XOo.X+X .X+X.oOo. XOo.X+X .X+X.oOo. XOo.X+X .X+X.oOo. XOo.X+X .X+X.oOo. XOo.X+X .X+X.oOo. XOo.X+X .X+X.o.+X .o....O:@::1ggggggCWQIIIII! CggyggM1Z:@:OOo.+X. X+X. XOo.oOo..oOX X+X. XOo.oOo..oOX X+X. XOo.oOo..oOX X+X. XOo.oOo..oOX X+X. XOo.oOo..oOX X+X. X+X X+X. XOo.oOX .X+X X.+X. ..",
".. X. X .X+.o..o..oO X .X .oO.o..o..oO X .X .oO.o..o..oO X .X .oO.o..o..oO X .X .oO.o..o..oO X .X .oO.o..o..oO X .X .oO.o..o..oO.oX+o.oooo.OOOOOO*~^IIII/(+OOOOO@O.ooo X X X+X. X .X+.X .X .oO X. X .X+.X .X .oO X. X .X+.X .X .oO X. X .X+.X .X .oO X. X .X+.X .X .oO X. X .X+.X .X .oO X. X .X+.X .o..o.o.",
". X .oOX X.o..oOX X.o..oOX X.o..oOX X.o..oOX X.o..oOX X.o..oOX X.o..oOX X.o..oOX X.o..oOX X.o..oOX X.o..oOX X.o..oOX X.o..oOX X.o. XOo.X X Xo XoXo+!IIII)WXo XoXo o.o.X+X.o.X .X+X.o.X .X+X.o.X .X+X.o.X .X+X.o.X .X+X.o.X .X+X.o.X .X+X.o.X .X+X.o.X .X+X.o.X .X+X.o.X .X+X.o.X .X+X.o.X .X+X.o.o..oOX X ..",
".X X. X .o..o. X .o..o. X .o..o. X .o..o. X .o..o. X .o..o. X .o..o. X .o..o. X .o..o. X .o..o. X .o..o. X .o..o. X .o..o. X .o..o. X. X. X .X .o. X_`']X.o.X .o.X .o. X .X .o. X .X .o. X .X .o. X .X .o. X .X .o. X .X .o. X .X .o. X .X .o. X .X .o. X .X .o. X .X .o. X .X .o. X .X .o. X .X .o. X .X X ",
". .. X. X. X. X. X. X. X. X. X. X. X. X. X. X. X. X. X. X. X. X. X. X. X. X. X. X. X. X. X. X. X. X. X. X. X. X. X. X. X. X. X. X. X. X .X .X .o..o.+W~~  X .o..o..o..o..o..o..o..o..o..o..o..o..o..o..o..o..o..o..o..o..o..o..o..o..o..o..o..o..o..o..o..o..o..o..o..o..o..o..o..o..o..o..o..o..o..o..o.. .",
".o.o.o.X X X X X.o.o.o.o.X X X X X.o.o.o.o.X X X X X.o.o.o.o.X X X X X.o.o.o.o.X X X X X.o.o.o.o.X X X X X.o.o.o.o.X X X X X.o.o.o.o.X X X X X.o.o.oXXoXX X X.o.o.o.o.X X X X X.o.o.o.o.X X X X X.o.o.o.o.X X X X X.o.o.o.o.X X X X X.o.o.o.o.X X X X X.o.o.o.o.X X X X X.o.o.o.o.X X X X X.o.o.o.o.X X X X.",
". .. .. .. .. .. .. .. .. .. .. .. .. .. .. .. .. .. .. .. .. .. .. .. .. .. .. .. .. .. .. .. .. .. .. .. .. .. .. .. .. .. .. .. .. .. .. .. .. .. .. .. .. .. .. .. .. .. .. .. .. .. .. .. .. .. .. .. .. .. .. .. .. .. .. .. .. .. .. .. .. .. .. .. .. .. .. .. .. .. .. .. .. .. .. .. .. .. .. .. .",
".. .. .. .. .. .. .. .. .. .. .. .. .. .. .. .. .. .. .. .. .. .. .. .. .. .. .. .. .. .. .. .. .. .. .. .. .. .. .. .. .. .. .. .. .. .. .. .. .. .. .. .. .. .. .. .. .. .. .. .. .. .. .. .. .. .. .. .. .. .. .. .. .. .. .. .. .. .. .. .. .. .. .. .. .. .. .. .. .. .. .. .. .. .. .. .. .. .. .. .. "
};
